Activity ID,Activity Date,Activity Name,Activity Type,Activity Description,Elapsed Time,Distance,Max Heart Rate,Relative Effort,Commute,Activity Private Note,Activity Gear,Filename,Athlete Weight,Bike Weight,Elapsed Time,Moving Time,Distance,Max Speed,Average Speed,Elevation Gain,Elevation Loss,Elevation Low,Elevation High,Max Grade,Average Grade,Average Positive Grade,Average Negative Grade,Max Cadence,Average Cadence,Max Heart Rate,Average Heart Rate,Max Watts,Average Watts,Calories,Max Temperature,Average Temperature,Relative Effort,Total Work,Number of Runs,Uphill Time,Downhill Time,Other Time,Perceived Exertion,Type,Start Time,Weighted Average Power,Power Count,Prefer Perceived Exertion,Perceived Relative Effort,Commute,Total Weight Lifted,From Upload,Grade Adjusted Distance,Weather Observation Time,Weather Condition,Weather Temperature,Apparent Temperature,Dewpoint,Humidity,Weather Pressure,Wind Speed,Wind Gust,Wind Bearing,Precipitation Intensity,Sunrise Time,Sunset Time,Moon Phase,Bike,Gear,Precipitation Probability,Precipitation Type,Cloud Cover,Weather Visibility,UV Index,Weather Ozone,Jump Count,Total Grit,Average Flow,Flagged,Average Elapsed Speed,Dirt Distance,Newly Explored Distance,Newly Explored Dirt Distance,Activity Count,Total Steps,Media
8333806238,"Jan 3, 2023, 2:00:25 PM",Run Du Jour De 40 Minutes,Run,"",1115,3.02,,,false,,,activities/8936663188.tcx.gz,,,1115.0,1100.0,3020.60986328125,7.031457424163818,2.746009111404419,2.2666666507720947,4.766670227050781,171.3000030517578,174.10000610351562,1.1816829442977905,-0.08276473730802536,,,,,,,,,549.0,,,,,,,,,,,,,,,,0.0,,1.0,3018.60009765625,,,,,,,,,,,,,,,,,,,,,,,,,,0.0,2.7090673446655273,167.1999969482422,,,,,""
8340987802,"Jan 5, 2023, 9:33:23 AM",jeudi : run matinal ,Run,"",2897,8.04,,,false,,,activities/8944674547.tcx.gz,,,2897.0,2826.0,8044.3173828125,11.259376525878906,2.846538543701172,14.983333587646484,14.883299827575684,171.1999969482422,177.39999389648438,3.263598918914795,0.0012431135401129723,,,,,,,,,707.0,,,,,,,,,,,,,,,,0.0,,1.0,8059.2001953125,,,,,,,,,,,,,,,,,,,,,,,,,,0.0,2.7767751216888428,3065.300048828125,,,,,""
8378851798,"Jan 12, 2023, 8:39:34 AM",jeudi : run matinal ,Run,"",3116,8.87,,,false,,,activities/8986888609.tcx.gz,,,3116.0,3011.0,8872.2802734375,7.999522686004639,2.946622371673584,11.566666603088379,12.566699981689453,168.6999969482422,175.8000030517578,5.489274501800537,-0.011271059513092041,,,,,,,,,710.0,,,,,,,,,,,,,,,,0.0,,1.0,8888.400390625,,,,,,,,,,,,,,,,,,,,,,,,,,0.0,2.84732985496521,6652.7998046875,,,,,""
8378851995,"Jan 10, 2023, 2:54:51 PM",mardi : run de l'après-midi ,Run,"",3212,7.57,,,false,,,activities/8986888836.tcx.gz,,,3212.0,2828.0,7569.34423828125,7.145384788513184,2.6765713691711426,160.3800048828125,161.47999572753906,168.1999969482422,272.1000061035156,33.103240966796875,-0.014532302506268024,,,,,,,,,581.0,,,,,,,,,,,,,,,,0.0,,1.0,8215.900390625,,,,,,,,,,,,,,,,,,,,,,,,,,0.0,2.3565828800201416,2693.199951171875,,,,,""
8378852197,"Jan 8, 2023, 3:14:29 PM",dimanche : run de l'après-midi ,Run,"",5901,14.76,,,false,,,activities/8986889050.tcx.gz,,,5901.0,5652.0,14765.158203125,8.488645553588867,2.612377643585205,22.741905212402344,21.64189910888672,171.1999969482422,185.5,7.093423366546631,0.007449971046298742,,,,,,,,,1154.0,,,,,,,,,,,,,,,,0.0,,1.0,14801.0,,,,,,,,,,,,,,,,,,,,,,,,,,0.0,2.5021450519561768,13445.7998046875,,,,,""
8554790898,"Feb 13, 2023, 1:36:05 PM",lundi : run de l'après-midi ,Run,"",9183,19.84,,,false,,,activities/9183488969.tcx.gz,,,9183.0,8338.0,19840.099609375,6.489898681640625,2.3794796466827393,435.4100036621094,441.1099853515625,167.3000030517578,316.29998779296875,44.265323638916016,-0.028729693964123726,,,,,,,,,1349.0,,,,,,,,,,,,,,,,0.0,,1.0,21530.69921875,,,,,,,,,,,,,,,,,,,,,,,,,,0.0,2.160524845123291,2143.800048828125,,,,,""
8626682724,"Feb 26, 2023, 2:29:59 PM",Course à pied dans l'après-midi,Run,,5913,16.12,,,false,,,activities/8626682724.gpx,,,5913.0,5874.0,16120.8095703125,4.326001167297363,2.7444348335266113,10.796969413757324,11.096969604492188,168.6999969482422,176.3000030517578,25.630067825317383,-0.001860948745161295,,,,,,,,,,,,,,,,,,,,,,,,,0.0,,1.0,16157.2998046875,,,,,,,,,,,,,,,,,,,,,,,,,,0.0,2.7263333797454834,11551.2001953125,,,,,""
9794745493,"Sep 5, 2023, 6:24:06 AM",mardi : run matinal,Run,"",3406,10.00,,,false,,,activities/10500158439.tcx.gz,,,3406.0,3384.0,10008.2236328125,8.768067359924316,2.957512855529785,7.120833396911621,7.220829963684082,171.39999389648438,176.3000030517578,4.119202136993408,-0.000999178271740675,,,,,,,,,717.0,,,,,,,,,,,,,,,,0.0,,1.0,10019.900390625,,,,,,,,,,,,,,,,,,,,,,,,,,0.0,2.9384098052978516,9203.900390625,,,,,""
9794756163,"Sep 2, 2023, 7:33:38 AM",samedi : run matinal,Run,"",2405,7.10,,,false,,,activities/10500169597.tcx.gz,,,2405.0,2337.0,7102.57958984375,4.995100021362305,3.039186716079712,7.300000190734863,5.599999904632568,171.60000610351562,176.3000030517578,5.828192710876465,0.023934965953230858,,,,,,,,,504.0,,,,,,,,,,,,,,,,0.0,,1.0,7117.2001953125,,,,,,,,,,,,,,,,,,,,,,,,,,0.0,2.9532554149627686,6212.2998046875,,,,,""
9794756482,"Aug 15, 2023, 6:28:09 AM",mardi : run matinal,Run,"",3601,10.72,,,false,,,activities/10500169950.tcx.gz,,,3601.0,3594.0,10725.076171875,4.866779804229736,2.984161376953125,45.349998474121094,32.25,145.10000610351562,173.89999389648438,4.684780597686768,0.12214365601539612,,,,,,,,,773.0,,,,,,,,,,,,,,,,0.0,,1.0,10793.7998046875,,,,,,,,,,,,,,,,,,,,,,,,,,0.0,2.978360414505005,0.0,,,,,""
9794756810,"Aug 10, 2023, 4:36:30 PM",jeudi : run du soir,Run,"",2705,8.09,,,false,,,activities/10500170268.tcx.gz,,,2705.0,2670.0,8096.52978515625,4.739902019500732,3.0324082374572754,31.600000381469727,21.299999237060547,145.10000610351562,174.6999969482422,5.635101318359375,0.12721499800682068,,,,,,,,,581.0,,,,,,,,,,,,,,,,0.0,,1.0,8142.5,,,,,,,,,,,,,,,,,,,,,,,,,,0.0,2.9931716918945312,0.0,,,,,""
9794757168,"Aug 8, 2023, 7:27:40 AM",mardi : run matinal,Run,"",2052,6.16,,,false,,,activities/10500170659.tcx.gz,,,2052.0,1794.0,6168.5751953125,4.284943103790283,3.4384477138519287,31.06999969482422,11.569999694824219,145.10000610351562,174.3000030517578,5.281119346618652,0.31611838936805725,,,,,,,,,421.0,,,,,,,,,,,,,,,,0.0,,1.0,6221.39990234375,,,,,,,,,,,,,,,,,,,,,,,,,,0.0,3.0061283111572266,0.0,,,,,""
9794757420,"Aug 3, 2023, 4:37:00 AM",jeudi : run matinal,Run,"",2098,6.06,,,false,,,activities/10500170950.tcx.gz,,,2098.0,2010.0,6061.23291015625,4.3961052894592285,3.0155386924743652,28.206666946411133,27.906700134277344,146.39999389648438,163.39999389648438,5.334560394287109,0.004949488211423159,,,,,,,,,431.0,,,,,,,,,,,,,,,,0.0,,1.0,6085.2001953125,,,,,,,,,,,,,,,,,,,,,,,,,,0.0,2.8890528678894043,0.0,,,,,""
9794757700,"Aug 1, 2023, 4:27:34 AM",mardi : run matinal,Run,"",1257,3.41,,,false,,,activities/10500171256.tcx.gz,,,1257.0,1240.0,3413.025146484375,4.293004989624023,2.752439498901367,16.983333587646484,18.983299255371094,146.39999389648438,155.6999969482422,5.500973701477051,-0.058599043637514114,,,,,,,,,243.0,,,,,,,,,,,,,,,,0.0,,1.0,3429.800048828125,,,,,,,,,,,,,,,,,,,,,,,,,,0.0,2.715214967727661,0.0,,,,,""
9794758070,"Jul 30, 2023, 5:31:30 AM",dimanche : run matinal,Run,"",7140,21.15,,,false,,,activities/10500171563.tcx.gz,,,7140.0,7133.0,21158.576171875,4.558169364929199,2.966294050216675,72.36333465576172,73.86329650878906,146.39999389648438,175.39999389648438,5.459944725036621,-0.0070893242955207825,,,,,,,,,1525.0,,,,,,,,,,,,,,,,0.0,,1.0,21210.19921875,,,,,,,,,,,,,,,,,,,,,,,,,,0.0,2.963385820388794,0.0,,,,,""
9794758541,"Jul 27, 2023, 4:34:37 AM",jeudi : run matinal,Run,"",4263,12.99,,,false,,,activities/10500172068.tcx.gz,,,4263.0,4237.0,12997.8232421875,4.609768390655518,3.067694902420044,55.38999938964844,54.59000015258789,146.39999389648438,174.6999969482422,6.171666622161865,0.006154876668006182,,,,,,,,,940.0,,,,,,,,,,,,,,,,0.0,,1.0,13046.900390625,,,,,,,,,,,,,,,,,,,,,,,,,,0.0,3.048985004425049,0.0,,,,,""
9794758888,"Jul 25, 2023, 4:26:34 AM",mardi : run matinal,Run,"",4026,11.99,,,false,,,activities/10500172422.tcx.gz,,,4026.0,4006.0,11992.228515625,4.629189491271973,2.9935667514801025,61.983333587646484,63.08330154418945,145.89999389648438,163.39999389648438,8.259878158569336,-0.009172607213258743,,,,,,,,,864.0,,,,,,,,,,,,,,,,0.0,,1.0,12061.0,,,,,,,,,,,,,,,,,,,,,,,,,,0.0,2.9786956310272217,0.0,,,,,""
9794759245,"Jul 20, 2023, 4:58:14 AM",jeudi : run matinal,Run,"",3344,10.09,,,false,,,activities/10500172804.tcx.gz,,,3344.0,3329.0,10091.2431640625,4.63552188873291,3.03131365776062,36.079524993896484,39.179500579833984,146.60000610351562,163.39999389648438,4.120555877685547,-0.030719704926013947,,,,,,,,,728.0,,,,,,,,,,,,,,,,0.0,,1.0,10114.400390625,,,,,,,,,,,,,,,,,,,,,,,,,,0.0,3.0177161693573,0.0,,,,,""
9794759567,"Jul 14, 2023, 6:22:37 AM",vendredi : run matinal,Run,"",3699,11.05,,,false,,,activities/10500173160.tcx.gz,,,3699.0,3618.0,11050.390625,4.709375858306885,3.05428147315979,40.04666519165039,41.746700286865234,151.0,174.6999969482422,5.037820339202881,-0.015384071506559849,,,,,,,,,794.0,,,,,,,,,,,,,,,,0.0,,1.0,11078.099609375,,,,,,,,,,,,,,,,,,,,,,,,,,0.0,2.9873993396759033,0.0,,,,,""
9794759865,"Jul 11, 2023, 5:02:21 AM",mardi : run matinal,Run,"",3326,9.95,,,false,,,activities/10500173492.tcx.gz,,,3326.0,3301.0,9953.0712890625,5.574943542480469,3.0151684284210205,29.378570556640625,27.778600692749023,151.0,163.39999389648438,6.161966323852539,0.016075439751148224,,,,,,,,,720.0,,,,,,,,,,,,,,,,0.0,,1.0,9986.400390625,,,,,,,,,,,,,,,,,,,,,,,,,,0.0,2.992504835128784,0.0,,,,,""
9794760197,"Jul 7, 2023, 8:39:13 AM",vendredi : run matinal,Run,"",2562,7.66,,,false,,,activities/10500173892.tcx.gz,,,2562.0,2447.0,7668.30810546875,4.6940765380859375,3.133759021759033,22.116666793823242,20.91670036315918,153.1999969482422,175.39999389648438,4.032208442687988,0.015648823231458664,,,,,,,,,568.0,,,,,,,,,,,,,,,,0.0,,1.0,7685.5,,,,,,,,,,,,,,,,,,,,,,,,,,0.0,2.9930946826934814,0.0,,,,,""
9794760595,"Jun 25, 2023, 7:08:50 AM",dimanche : run matinal,Run,"",5097,14.25,,,false,,,activities/10500174281.tcx.gz,,,5097.0,4982.0,14257.19921875,4.545627593994141,2.8617422580718994,52.34000015258789,49.540000915527344,151.0,168.39999389648438,6.607617378234863,0.01963919959962368,,,,,,,,,1052.0,,,,,,,,,,,,,,,,0.0,,1.0,14311.400390625,,,,,,,,,,,,,,,,,,,,,,,,,,0.0,2.7971746921539307,0.0,,,,,""
9794760865,"Jun 22, 2023, 7:30:44 AM",jeudi : run matinal,Run,"",2024,6.14,,,false,,,activities/10500174603.tcx.gz,,,2024.0,1987.0,6145.35302734375,5.526569366455078,3.0927796363830566,14.850000381469727,19.049999237060547,151.0,171.1999969482422,2.60482120513916,-0.06834432482719421,,,,,,,,,528.0,,,,,,,,,,,,,,,,0.0,,1.0,6147.5,,,,,,,,,,,,,,,,,,,,,,,,,,0.0,3.0362415313720703,0.0,,,,,""
9794761153,"Jun 20, 2023, 8:43:52 AM",mardi : run matinal,Run,"",1591,4.30,,,false,,,activities/10500174959.tcx.gz,,,1591.0,1283.0,4302.08154296875,6.567343711853027,3.353142261505127,8.396666526794434,8.49666976928711,171.39999389648438,175.60000610351562,2.935389280319214,-0.0023244561161845922,,,,,,,,,393.0,,,,,,,,,,,,,,,,0.0,,1.0,4308.0,,,,,,,,,,,,,,,,,,,,,,,,,,0.0,2.7040109634399414,1664.0,,,,,""
9794761382,"Jun 11, 2023, 7:05:49 AM",dimanche : run matinal,Run,"",1377,4.24,,,false,,,activities/10500175172.tcx.gz,,,1377.0,1331.0,4239.47998046875,9.439908027648926,3.1851840019226074,7.619999885559082,7.21999979019165,172.0,176.0,2.2751736640930176,0.009435119107365608,,,,,,,,,303.0,,,,,,,,,,,,,,,,0.0,,1.0,4243.89990234375,,,,,,,,,,,,,,,,,,,,,,,,,,0.0,3.078779935836792,2295.10009765625,,,,,""
9794761574,"Jun 8, 2023, 6:18:52 AM",jeudi : run matinal,Run,"",1257,3.23,,,false,,,activities/10500175409.tcx.gz,,,1257.0,708.0,3229.801513671875,9.085902214050293,4.561866760253906,2.880000114440918,2.4800000190734863,172.0,175.89999389648438,3.108234167098999,0.012384661473333836,,,,,,,,,300.0,,,,,,,,,,,,,,,,0.0,,1.0,3234.0,,,,,,,,,,,,,,,,,,,,,,,,,,0.0,2.5694522857666016,2503.60009765625,,,,,""
9794761793,"Jun 3, 2023, 7:19:08 AM",samedi : run matinal,Run,"",462,1.29,,,false,,,activities/10500175615.tcx.gz,,,462.0,440.0,1297.0089111328125,5.6577982902526855,2.9477474689483643,2.9200000762939453,1.7200000286102295,172.0,176.0,4.105410575866699,0.0925205647945404,,,,,,,,,419.0,,,,,,,,,,,,,,,,0.0,,1.0,1302.9000244140625,,,,,,,,,,,,,,,,,,,,,,,,,,0.0,2.8073787689208984,736.2999877929688,,,,,""
9794761959,"May 31, 2023, 3:17:17 PM",mercredi : run du soir,Run,"",1687,2.28,,,false,,,activities/10500175790.tcx.gz,,,1687.0,576.0,2279.79443359375,8.444320678710938,3.9579765796661377,2.8399999141693115,3.8399999141693115,171.60000610351562,175.89999389648438,2.878253221511841,-0.043863601982593536,,,,,,,,,371.0,,,,,,,,,,,,,,,,0.0,,1.0,2281.39990234375,,,,,,,,,,,,,,,,,,,,,,,,,,0.0,1.351389765739441,439.1000061035156,,,,,""
9794762177,"May 27, 2023, 9:00:48 AM",samedi : run matinal,Run,"",1370,3.85,,,false,,,activities/10500176024.tcx.gz,,,1370.0,1313.0,3850.30419921875,5.468564510345459,2.932447910308838,21.933332443237305,18.433300018310547,150.3000030517578,165.10000610351562,6.905728816986084,0.09090191125869751,,,,,,,,,300.0,,,,,,,,,,,,,,,,0.0,,1.0,3887.800048828125,,,,,,,,,,,,,,,,,,,,,,,,,,0.0,2.810441017150879,0.0,,,,,""
9795973266,"Sep 6, 2023, 3:13:12 PM",mercredi : run du soir,Run,Courir sous 35 degrés  = ❌,2747,7.63,,,false,,,activities/10501455643.tcx.gz,,,2747.0,2598.0,7631.669921875,8.098160743713379,2.9375171661376953,9.899999618530273,9.399999618530273,171.10000610351562,176.3000030517578,4.135242938995361,0.006551646161824465,,,,,,,,,542.0,,,,,,,,,,,,,,0.0,,0.0,,1.0,7643.7998046875,,,,,,,,,,,,,,,,,,,,,,,,,,0.0,2.7781834602355957,6274.2998046875,,,,,""
9836889463,"Sep 12, 2023, 4:47:15 PM",mardi : run du soir,Run,"",2817,8.07,,,false,,,activities/10544550735.tcx.gz,,,2817.0,2796.0,8069.88818359375,4.900457382202148,2.886226177215576,14.550000190734863,14.350000381469727,168.10000610351562,176.3000030517578,5.0288567543029785,0.002478349022567272,,,,,,,,,575.0,,,,,,,,,,,,,,,,0.0,,1.0,8086.39990234375,,,,,,,,,,,,,,,,,,,,,,,,,,0.0,2.8647100925445557,5994.60009765625,,,,,""
9842485295,"Sep 13, 2023, 4:03:11 PM",mercredi : run du soir,Run,"",3637,10.66,,,false,,,activities/10550432542.tcx.gz,,,3637.0,3634.0,10659.962890625,6.8963446617126465,2.933396339416504,19.829999923706055,18.93000030517578,168.10000610351562,175.5,4.842620372772217,0.008442806079983711,,,,,,,,,764.0,,,,,,,,,,,,,,,,0.0,,1.0,10679.7998046875,,,,,,,,,,,,,,,,,,,,,,,,,,0.0,2.9309768676757812,7028.39990234375,,,,,""
9866376738,"Sep 17, 2023, 9:37:32 AM",dimanche : run matinal,Run,"",4928,12.85,,,false,,,activities/10575478084.tcx.gz,,,4928.0,4729.0,12851.7236328125,3.9401063919067383,2.7176408767700195,37.92618942260742,40.92620086669922,123.19999694824219,142.6999969482422,13.665369987487793,-0.023343173786997795,,,,,,,,,895.0,,,,,,,,,,,,,,,,0.0,,1.0,12913.7998046875,,,,,,,,,,,,,,,,,,,,,,,,,,0.0,2.607898473739624,1754.0,,,,,""
9880884002,"Sep 19, 2023, 3:59:54 PM",mardi : run du soir,Run,"",3222,9.99,,,false,,,activities/10590697939.tcx.gz,,,3222.0,3222.0,9990.6484375,8.41275691986084,3.100759983062744,16.046667098999023,15.046699523925781,168.60000610351562,176.3000030517578,6.0800089836120605,0.010009360499680042,,,,,,,,,721.0,,,,,,,,,,,,,,,,0.0,,1.0,10012.400390625,,,,,,,,,,,,,,,,,,,,,,,,,,0.0,3.100759983062744,5282.2998046875,,,,,""
9890898135,"Sep 21, 2023, 5:35:54 AM",Course à pied le matin,Run,,3686,10.75,,,false,,,activities/10601152337.gpx.gz,,,3686.0,3615.0,10753.1748046875,12.184407234191895,2.9745988845825195,14.747097969055176,14.64709758758545,171.5,176.0,5.989336013793945,0.0009299579542130232,,,,,,,,,,,,,,,,,,,,,,,,,0.0,,1.0,10771.599609375,1695272448.0,3.0,18.040000915527344,18.1299991607666,14.539999961853027,0.800000011920929,1005.1500244140625,4.820000171661377,9.6899995803833,176.0,0.0,1695273984.0,1695318016.0,0.125,,,0.8500000238418579,5.0,0.7599999904632568,23748.0,0.0,,,,,0.0,2.917301893234253,2383.0,,,,,""
9913735397,"Sep 24, 2023, 3:54:04 PM",Nike Run Club: dimanche : run du soir,Run,,9001,28.08,,,false,,,activities/10625116591.fit.gz,,,9001.0,8934.0,28083.75,6.915625095367432,3.1434688568115234,24.16921043395996,25.569210052490234,165.0,180.10000610351562,15.161237716674805,-0.004985089413821697,,,248.0,83.32386779785156,,,,,2023.0,,,,,,,,,,,,,,,,0.0,,1.0,28137.19921875,1695567616.0,1.0,21.1200008392334,20.559999465942383,10.649999618530273,0.5099999904632568,1021.7000122070312,1.6100000143051147,3.490000009536743,2.0,0.0,1695533440.0,1695576960.0,0.375,,,0.0,1.0,0.05000000074505806,32787.0,2.0,,,,,0.0,3.120069980621338,389.8999938964844,,,,24908.0,""
9924664781,"Sep 26, 2023, 3:14:21 PM",Nike Run Club: mardi : run du soir,Run,,2666,9.05,,,false,,,activities/10636640841.fit.gz,,,2666.0,2581.0,9049.41015625,6.475976467132568,3.506164312362671,11.321850776672363,10.5218505859375,168.89999389648438,175.6999969482422,10.645966529846191,0.008840355090796947,,,189.0,86.12239837646484,,,,,663.0,,,,,,,,,,,,,,,,0.0,,1.0,9070.0,1695740416.0,1.0,26.549999237060547,25.739999771118164,9.930000305175781,0.3499999940395355,1019.22998046875,1.0199999809265137,3.069999933242798,137.0,0.0,1695706368.0,1695749504.0,0.375,,,0.0,1.0,0.05999999865889549,35979.0,2.0,,,,,0.0,3.3943774700164795,621.0,,,,7430.0,""
9931526178,"Sep 27, 2023, 3:17:00 PM",Nike Run Club: mercredi : run du soir,Run,,3845,12.40,,,false,,,activities/10643826005.fit.gz,,,3845.0,3842.0,12408.2802734375,7.4541015625,3.2296409606933594,22.816152572631836,23.516151428222656,168.8000030517578,176.3000030517578,28.353567123413086,-0.005641394294798374,,,185.0,85.90332794189453,,,,,893.0,,,,,,,,,,,,,,,,0.0,,1.0,12457.900390625,1695826816.0,2.0,26.770000457763672,26.530000686645508,12.9399995803833,0.41999998688697815,1017.3200073242188,2.0999999046325684,4.059999942779541,140.0,0.0,1695792768.0,1695835776.0,0.375,,,0.0,1.0,0.5600000023841858,35134.0,1.0,,,,,0.0,3.227121114730835,6991.89990234375,,,,11038.0,""
9970881229,"Oct 3, 2023, 4:27:26 PM",Nike Run Club: mardi : run du soir,Run,Reconnaissance semi Marathon run in Lyon ,11091,22.00,,,false,,,activities/10685037312.fit.gz,,,11091.0,7520.0,22008.30078125,11.048047065734863,2.9266357421875,59.36871337890625,63.36869812011719,165.5,182.3000030517578,35.848175048828125,-0.01817496120929718,,,236.0,83.2432632446289,,,,,1575.0,,,,,,,,,,,,,,0.0,,0.0,,1.0,22218.0,1696348800.0,3.0,24.670000076293945,24.860000610351562,14.859999656677246,0.5400000214576721,1024.1099853515625,4.519999980926514,9.180000305175781,336.0,0.0,1696311680.0,1696353408.0,0.625,,,0.23000000417232513,5.0,0.7599999904632568,30160.0,0.0,,,,,0.0,1.9843387603759766,209.39999389648438,,,,20714.0,""
9981722271,"Oct 5, 2023, 1:10:04 PM",Nike Run Club: jeudi : run de l'après-midi,Run,Petit bug de localisation la je crois 😂,4822,17.01,,,false,,,activities/10696344442.fit.gz,,,4822.0,4815.0,17011.740234375,6.344140529632568,3.533071756362915,0.0,-2.0,166.89999389648438,169.0,3.2495040893554688,0.011756586842238903,,,175.0,85.52369689941406,,,,,1249.0,,,,,,,,,,,,,,0.0,,0.0,,1.0,17016.599609375,1696510848.0,1.0,20.950000762939453,20.440000534057617,10.949999809265137,0.5299999713897705,1025.72998046875,2.2899999618530273,3.8299999237060547,15.0,0.0,1696484608.0,1696526080.0,0.75,,,0.0,1.0,0.20999999344348907,32176.0,3.0,,,,,0.0,3.5279428958892822,15684.599609375,,,,13774.0,""
10002376710,"Oct 8, 2023, 3:12:55 PM",Nike Run Club: dimanche : run du soir,Run,,9883,25.03,,,false,,,activities/10717888754.fit.gz,,,9883.0,8434.0,25036.890625,8.08447265625,2.968566656112671,58.96821594238281,57.26821517944336,164.39999389648438,183.0,43.94622802734375,0.006789980456233025,,,242.0,84.0541763305664,,,,,1792.0,,,,,,,,,,,,,,,,0.0,,1.0,25155.900390625,1696777216.0,1.0,26.579999923706055,25.969999313354492,11.100000381469727,0.3799999952316284,1024.4599609375,1.2699999809265137,2.4600000381469727,39.0,0.0,1696744064.0,1696784896.0,0.875,,,0.0,1.0,0.0,35647.0,1.0,,,,,0.0,2.5333290100097656,333.79998779296875,,,,23802.0,""
10013873283,"Oct 10, 2023, 4:22:27 PM",Nike Run Club: mardi : run du soir,Run,,3586,11.72,,,false,,,activities/10729868384.fit.gz,,,3586.0,3577.0,11728.3701171875,7.483984470367432,3.2788286209106445,14.192619323730469,14.392619132995605,168.10000610351562,176.3000030517578,21.68661880493164,-0.0017052667681127787,,,248.0,84.68954467773438,,,,,848.0,,,,,,,,,,,,,,,,0.0,,1.0,11765.7001953125,1696953600.0,1.0,26.209999084472656,26.3799991607666,14.720000267028809,0.49000000953674316,1020.2100219726562,1.2100000381469727,1.7899999618530273,45.0,0.0,1696916992.0,1696957440.0,0.875,,,0.0,1.0,0.009999999776482582,33741.0,0.0,,,,,0.0,3.270599603652954,4067.800048828125,,,,10112.0,""
10019868782,"Oct 11, 2023, 3:26:14 PM",Nike Run Club: mercredi : run du soir,Run,,2838,9.02,,,false,,,activities/10736068948.fit.gz,,,2838.0,2816.0,9020.3203125,5.970971584320068,3.2032387256622314,12.640068054199219,13.440068244934082,170.89999389648438,176.1999969482422,31.171993255615234,-0.008868864737451077,,,223.0,84.50678253173828,,,,,651.0,,,,,,,,,,,,,,,,0.0,,1.0,9063.2998046875,1697036416.0,1.0,27.889999389648438,27.770000457763672,13.5,0.4099999964237213,1018.6599731445312,3.069999933242798,6.0,161.0,0.0,1697003520.0,1697043712.0,0.875,,,0.0,1.0,0.0,33501.0,1.0,,,,,0.0,3.1784074306488037,6272.7001953125,,,,7938.0,""
10044454197,"Oct 15, 2023, 3:28:53 PM",Nike Run Club: dimanche : run du soir,Run,Grosse douleur juste au dessus de la cheville flemme de continuer en ayant mal ,1206,3.52,,,false,,,activities/10761644061.fit.gz,,,1206.0,1199.0,3526.260009765625,5.141992092132568,2.9410009384155273,2.825000047683716,1.625,171.5,174.5,5.597009181976318,0.03403038904070854,,,221.0,84.71416473388672,,,,,252.0,,,,,,,,,,,,,,0.0,,0.0,,1.0,3531.5,1697382016.0,3.0,15.479999542236328,14.479999542236328,4.869999885559082,0.49000000953674316,1020.6199951171875,5.699999809265137,10.6899995803833,8.0,0.0,1697349376.0,1697388928.0,0.0,,,0.0,1.0,0.8600000143051147,30616.0,1.0,,,,,0.0,2.9239304065704346,7.699999809265137,,,,3390.0,""
10055954990,"Oct 17, 2023, 3:33:38 PM",Nike Run Club: mardi : run du soir,Run,Dimanche 42km en sub4 sinon grosse dinde j'annonce ,3460,10.78,,,false,,,activities/10773631220.fit.gz,,,3460.0,3432.0,10784.1201171875,7.506054878234863,3.142226219177246,24.85622215270996,24.05620002746582,169.0,176.1999969482422,27.60161018371582,0.007418314926326275,,,204.0,86.14107513427734,,,,,776.0,,,,,,,,,,,,,,0.0,,0.0,,1.0,10842.2998046875,1697554816.0,3.0,21.670000076293945,21.190000534057617,11.270000457763672,0.5199999809265137,1010.4199829101562,4.980000019073486,9.640000343322754,171.0,0.0,1697522304.0,1697561472.0,0.125,,,0.0,1.0,0.8799999952316284,34546.0,1.0,,,,,0.0,3.116797685623169,8424.7001953125,,,,9822.0,""
10062366691,"Oct 18, 2023, 4:02:01 PM",Nike Run Club: mercredi : run du soir,Run,Dernier entraînement avant le marathon ,3312,10.10,,,false,,,activities/10780280814.fit.gz,,,3312.0,3220.0,10103.16015625,7.519205570220947,3.137627363204956,29.988733291625977,30.18869972229004,169.0,176.1999969482422,23.716413497924805,-0.0019795787520706654,,,210.0,85.53892517089844,,,,,728.0,,,,,,,,,,,,,,0.0,,0.0,,1.0,10158.7998046875,1697644800.0,5.0,21.1200008392334,21.469999313354492,15.699999809265137,0.7099999785423279,1001.4199829101562,6.239999771118164,15.0,192.0,0.800000011920929,1697608832.0,1697647872.0,0.125,,,0.699999988079071,5.0,0.9900000095367432,7438.0,0.0,,,,,0.0,3.050471067428589,7329.7998046875,,,,9210.0,""
10076477937,"Oct 21, 2023, 9:08:25 AM",Nike Run Club: samedi : run matinal,Run,"J-1 : marathon, réveille musculaire avant le jour J ",1740,5.43,,,false,,,activities/10794951089.fit.gz,,,1740.0,1694.0,5430.22998046875,6.758008003234863,3.205566644668579,8.642928123474121,8.642930030822754,171.5,175.89999389648438,5.704962253570557,0.0,,,252.0,85.44026947021484,,,,,392.0,,,,,,,,,,,,,,0.0,,0.0,,1.0,5441.60009765625,,,,,,,,,,,,,,,,,,,,,,,,,,0.0,3.120821714401245,1449.9000244140625,,,,4814.0,""
10083409189,"Oct 22, 2023, 6:42:09 AM",Run in Lyon : Marathon,Run,"Petit bug de localisation qui arrête mon parcours a tête d'or, mais j'ai bien fini le parcours du marathon 😃

25 premiers kilomètres incroyable les sensations puis douleurs intense de partout en dessous du bassin sur la fin ",15945,45.42,,,false,,,activities/10802171419.fit.gz,,,15945.0,15872.0,45427.69921875,7.5360107421875,2.862128257751465,62.71018981933594,61.81019973754883,167.8000030517578,183.6999969482422,12.320032119750977,0.0019811701495200396,,,211.0,78.37147521972656,,,,,3158.0,,,,,,,,,,,,,,0.0,,0.0,,1.0,45517.6015625,,,,,,,,,,,,,,,,,,,,,,,,,,0.0,2.849024772644043,6889.7001953125,,,,41602.0,media/c49e924b-59a3-413a-af53-4f3733f3f456.jpg|media/24abdd73-fcfa-48f8-8bc7-d46939d3e147.jpg|media/c3bc6104-9c0d-4ee9-9379-f06c4908b225.jpg
10109356698,"Oct 26, 2023, 4:59:52 PM",Nike Run Club: jeudi : run du soir,Run,"",4707,12.22,,,false,,,activities/10829183530.fit.gz,,,4707.0,4273.0,12225.25,10.014664649963379,2.861046075820923,14.337987899780273,13.937999725341797,168.39999389648438,175.89999389648438,18.110992431640625,0.0032719166483730078,,,178.0,81.3306884765625,,,,,865.0,,,,,,,,,,,,,,0.0,,0.0,,1.0,12258.2001953125,,,,,,,,,,,,,,,,,,,,,,,,,,0.0,2.5972487926483154,882.7000122070312,,,,11600.0,media/f7bcab71-3504-4f47-bc6d-baf080dc8376.jpg
10123158497,"Oct 29, 2023, 8:18:49 AM",Nike Run Club: dimanche : run matinal,Run,"J'ai oublier mes écouteurs sur Lyon, 9km sans musique c'est long ",3053,9.08,,,false,,,activities/10843651983.fit.gz,,,3053.0,3000.0,9085.3203125,4.860009670257568,3.028439998626709,32.197715759277344,23.297700881958008,145.1999969482422,174.8000030517578,10.89917278289795,0.0979602262377739,,,228.0,83.61835479736328,,,,,655.0,,,,,,,,,,,,,,0.0,,0.0,,1.0,9132.900390625,,,,,,,,,,,,,,,,,,,,,,,,,,0.0,2.9758665561676025,0.0,,,,8356.0,media/52be93c6-1fbb-4db5-a455-19478512bf98.jpg
10134776235,"Oct 31, 2023, 8:33:46 AM",Nike Run Club: mardi : run matinal,Run,"Aucun plaisir sur cette course, je sais pas trop pourquoi mais impossible de ce mettre dans ma run ",1861,6.04,,,false,,,activities/10855837928.fit.gz,,,1861.0,1861.0,6042.7001953125,5.767992973327637,3.2470178604125977,31.846710205078125,28.446699142456055,142.89999389648438,168.5,11.5989990234375,0.056266237050294876,,,248.0,85.26619720458984,,,,,440.0,,,,,,,,,,,,,,0.0,,0.0,,1.0,6074.5,,,,,,,,,,,,,,,,,,,,,,,,,,0.0,3.2470178604125977,0.0,,,,5278.0,""
10141632521,"Nov 1, 2023, 10:34:13 AM",Nike Run Club: mercredi : run matinal,Run,"Retour des écouteurs, sah quelle plaisir 
",4779,12.37,,,false,,,activities/10863026017.fit.gz,,,4779.0,3978.0,12376.6201171875,8.241991996765137,3.11126708984375,21.866607666015625,18.566600799560547,167.89999389648438,177.6999969482422,23.58428192138672,0.026663176715373993,,,205.0,84.38871765136719,,,,,890.0,,,,,,,,,,,,,,0.0,,0.0,,1.0,12436.5,,,,,,,,,,,,,,,,,,,,,,,,,,0.0,2.5897929668426514,2535.199951171875,,,,11334.0,media/369baeb7-b4e2-469f-b685-de187ee67f06.jpg
10184748761,"Nov 8, 2023, 6:32:26 PM",Nike Run Club: mercredi : run du soir,Run,Même avec 130km de marche en 5 jour avant on s'entraîne 🤗,5733,16.03,,,false,,,activities/10908135955.fit.gz,,,5733.0,5214.0,16030.8203125,8.334009170532227,3.0745723247528076,20.588693618774414,20.68869972229004,167.8000030517578,180.8000030517578,42.0736083984375,-0.0006237984052859247,,,231.0,80.87355041503906,,,,,1148.0,,,,,,,,,,,,,,0.0,,0.0,,1.0,16110.099609375,,,,,,,,,,,,,,,,,,,,,,,,,,0.0,2.7962357997894287,2760.800048828125,,,,14186.0,media/acea3e2c-3669-4479-bc3a-197282606dd4.jpg
10204133474,"Nov 12, 2023, 9:39:53 AM",Nike Run Club: dimanche : run matinal,Run,"Tentative sub 4'30/km sur 5km 
Craquage de l'allure après le 2eme km
Mental arrive pas a rattraper la suite.

Début de l'Objectif semi villeurbanne en sub 1h30 pour mars",1466,5.08,,,false,,,activities/10928245772.fit.gz,,,1466.0,1466.0,5080.31005859375,4.762011528015137,3.4654228687286377,25.74037742614746,23.140399932861328,145.1999969482422,168.5,12.519562721252441,0.051177978515625,,,200.0,87.52394104003906,,,,,372.0,,,,,,,,,,,,,,0.0,,0.0,,1.0,5110.2998046875,,,,,,,,,,,,,,,,,,,,,,,,,,0.0,3.4654228687286377,0.0,,,,4292.0,""
10224631868,"Nov 15, 2023, 4:58:58 PM",Nike Run Club: mercredi : run du soir,Run,Non j'ai juré les escalier de croix rousse c'est trop comment vous faite pour faire des trail genre ? ,7243,18.51,,,false,,,activities/10949486132.fit.gz,,,7243.0,5980.0,18516.029296875,12.270116806030273,3.0963258743286133,127.50719451904297,46.00699996948242,166.89999389648438,255.10000610351562,45.0,0.4401591718196869,,,201.0,83.02709197998047,,,,,1320.0,,,,,,,,,,,,,,0.0,,0.0,,1.0,19067.599609375,,,,,,,,,,,,,,,,,,,,,,,,,,0.0,2.556403398513794,2790.89990234375,,,,16534.0,media/b34b3eb6-2542-4e0e-a376-216f82992e5f.jpg
10257485462,"Nov 21, 2023, 3:03:22 PM",Nike Run Club: mardi : run de l'après-midi,Run,"Test VMA
35' échauffement
6' a 100% -> VMA = 15.6km/h
30' récup 
( + 6' test VMA [mon ego voulait au moin 16km/h] -> 13.8 km/h 😶🤡

",4763,15.09,,,false,,,activities/10983720324.fit.gz,,,4763.0,4564.0,15092.58984375,11.495312690734863,3.306877613067627,33.324180603027344,28.524200439453125,165.8000030517578,177.39999389648438,28.91156005859375,0.031803686171770096,,,245.0,85.3224868774414,,,,,1096.0,,,,,,,,,,,,,,0.0,,0.0,,1.0,15203.7998046875,,,,,,,,,,,,,,,,,,,,,,,,,,0.0,3.168715000152588,2873.0,,,,13012.0,""
