Join Date,Name,Completed
"Jan 3, 2023, 4:24:45 PM",Le Major Challenge,false
"Feb 1, 2023, 6:12:38 AM",New Balance Runlock Challenge,false
"Sep 26, 2023, 9:33:59 PM",September 10K,true
"Sep 26, 2023, 9:34:59 PM",September Running Challenge,true
"Sep 26, 2023, 9:35:40 PM",SIDAS - Set your own race challenge,true
"Sep 26, 2023, 9:38:41 PM",October Running Challenge,true
"Sep 26, 2023, 9:39:05 PM",Challenge for a Better World with AireLibre,true
"Sep 26, 2023, 9:39:18 PM",October Workout Challenge,false
"Sep 26, 2023, 9:40:01 PM",September Half Marathon,true
"Sep 26, 2023, 9:40:19 PM",September 5K x Brooks,true
"Oct 8, 2023, 9:30:13 PM",October 5K x Brooks,true
"Oct 8, 2023, 9:30:27 PM",October Running Distance Challenge,false
"Oct 8, 2023, 9:30:36 PM",October 10K,true
"Oct 8, 2023, 9:30:39 PM",October Half Marathon,true
"Oct 8, 2023, 9:31:06 PM",The MAAP ALT:MODE Challenge,false
"Oct 17, 2023, 5:28:41 PM",Private Sport Shop | 240 Shaka-llenge,true
"Nov 1, 2023, 7:49:03 PM",November 10K,true
"Nov 1, 2023, 7:49:06 PM",November Running Challenge,false
"Nov 1, 2023, 7:49:09 PM",November Half Marathon,false
"Nov 1, 2023, 7:49:12 PM",November 5K x Brooks,true
