Time,LatitudeDegrees,LongitudeDegrees,Elevation,Speed,Distance
2023-06-22T07:30:44Z,45.29769507,4.83467692,157.0,3.3856269259942144,0
2023-06-22T07:30:48Z,45.29771115,4.83482853,157.0,3.384864160361083,12.025434214544173
2023-06-22T07:30:52Z,45.29774896,4.83496772,157.0,3.386782688488504,23.72389705412905
2023-06-22T07:30:56Z,45.29778422,4.8351094,157.0,3.3813919711711984,35.50758186122983
2023-06-22T07:31:00Z,45.2978107,4.83524862,157.0,3.3858539810444976,46.817232026544865
2023-06-22T07:31:04Z,45.29784296,4.83540157,157.0,3.4005395714541446,59.338493282115145
2023-06-22T07:31:08Z,45.29787518,4.83553848,154.0,3.4192737828177555,70.65861995851502
2023-06-22T07:31:12Z,45.29789991,4.83568147,154.0,3.11,82.20620072542245
2023-06-22T07:31:16Z,45.29788917,4.83583284,154.0,2.9600000000000004,94.13908669701311
2023-06-22T07:31:20Z,45.29789713,4.83597879,154.0,2.94,105.621126595908
2023-06-22T07:31:24Z,45.29790853,4.83613232,154.0,2.94,117.73005221106538
2023-06-22T07:31:28Z,45.29792829,4.83626943,155.0,2.9500000000000006,128.70650220775855
2023-06-22T07:31:32Z,45.29793662,4.83641232,155.0,2.93,139.95255561296338
2023-06-22T07:31:36Z,45.29795208,4.83657352,155.0,2.94,152.71282795561604
2023-06-22T07:31:40Z,45.29796172,4.83672818,155.0,2.94,164.89112898210476
2023-06-22T07:31:44Z,45.29796658,4.83687983,155.0,2.939422628805093,176.7983721765123
2023-06-22T07:31:48Z,45.2979749,4.83702443,155.0,2.93,188.17800525269166
2023-06-22T07:31:52Z,45.29798663,4.83717397,155.0,2.94,199.9797087350513
2023-06-22T07:31:56Z,45.29799612,4.83732124,155.0,2.93,211.5791843453751
2023-06-22T07:32:00Z,45.29799874,4.83746506,155.0,2.93,222.86375899386547
2023-06-22T07:32:04Z,45.29799943,4.83761332,154.0,2.93,234.49308931568618
2023-06-22T07:32:08Z,45.29800289,4.83776519,154.0,2.93,246.41152907229917
2023-06-22T07:32:12Z,45.29800713,4.83792067,154.0,2.9200000000000004,258.61602132575155
2023-06-22T07:32:16Z,45.29801175,4.83807199,154.0,2.9212584407751017,270.4962148621409
2023-06-22T07:32:20Z,45.29801902,4.83821595,154.0,2.94,281.81687953606433
2023-06-22T07:32:24Z,45.29802412,4.83836337,154.0,2.93,293.3939486751818
2023-06-22T07:32:28Z,45.29803237,4.83849992,154.0,2.9200000000000004,304.1436963992352
2023-06-22T07:32:32Z,45.29804096,4.83864248,154.0,2.9200000000000004,315.3663543129791
2023-06-22T07:32:36Z,45.29804507,4.83879657,154.0,2.9200000000000004,327.46133878624386
2023-06-22T07:32:40Z,45.29805461,4.83894565,154.0,2.93,339.202693001474
2023-06-22T07:32:44Z,45.29806296,4.83908751,154.0,2.9,350.3683922305243
2023-06-22T07:32:48Z,45.29807567,4.83923342,154.0,2.89,361.89997110348327
2023-06-22T07:32:52Z,45.29808342,4.83938266,154.0,2.89,373.63754518812823
2023-06-22T07:32:56Z,45.29809078,4.83953438,154.0,2.89,385.56607485657327
2023-06-22T07:33:00Z,45.29810172,4.83967744,159.0,2.8902183096553236,396.85293833823295
2023-06-22T07:33:04Z,45.29811504,4.83981825,159.0,2.89,407.9964049273992
2023-06-22T07:33:08Z,45.29812814,4.83995701,159.0,2.8800000000000003,418.97725080174854
2023-06-22T07:33:12Z,45.29813605,4.84009465,159.0,2.86,429.80903392737275
2023-06-22T07:33:16Z,45.29814351,4.84024094,159.0,2.86,441.3134756738307
2023-06-22T07:33:20Z,45.29815085,4.84038561,159.0,2.8400000000000003,452.6902182726605
2023-06-22T07:33:24Z,45.29815966,4.84053143,159.0,2.8400000000000003,464.1697103953851
2023-06-22T07:33:28Z,45.29817157,4.84067509,159.0,2.8400000000000003,475.51542082264194
2023-06-22T07:33:32Z,45.29818667,4.84082347,159.0,2.8400000000000003,487.2742418270072
2023-06-22T07:33:36Z,45.29819918,4.84097115,159.0,2.86,498.9409262452779
2023-06-22T07:33:40Z,45.29821297,4.84111509,159.0,2.85,510.33466037401854
2023-06-22T07:33:44Z,45.29822316,4.8412655,159.0,2.8513057409979283,522.1865630501799
2023-06-22T07:33:48Z,45.29823111,4.84141233,159.0,2.8700000000000006,533.7372712573209
2023-06-22T07:33:52Z,45.29824109,4.84154134,159.0,2.86,543.9169987710465
2023-06-22T07:33:56Z,45.29825044,4.84169079,160.0,2.8300000000000005,555.6853328559614
2023-06-22T07:34:00Z,45.29825758,4.84184727,160.0,2.8400000000000003,567.9847325275475
2023-06-22T07:34:04Z,45.2982619,4.84198908,160.0,2.8400000000000003,579.118196994931
2023-06-22T07:34:08Z,45.29826391,4.84212081,160.0,2.8400000000000003,589.4530765917299
2023-06-22T07:34:12Z,45.29817826,4.84220347,160.0,2.8300000000000005,600.9703232223778
2023-06-22T07:34:16Z,45.2980652,4.84222692,160.0,2.85,613.6694523042119
2023-06-22T07:34:20Z,45.29804031,4.84238024,160.0,2.8700000000000006,626.0094523786839
2023-06-22T07:34:24Z,45.29806073,4.84252472,160.0,2.8800000000000003,637.567028767189
2023-06-22T07:34:28Z,45.29807137,4.84266915,160.0,2.8800619329716843,648.9572277173619
2023-06-22T07:34:32Z,45.29808472,4.84281155,160.0,2.8800000000000003,660.224760245648
2023-06-22T07:34:36Z,45.29809432,4.84295643,160.0,2.8700000000000006,671.6386772902296
2023-06-22T07:34:40Z,45.29811223,4.84309547,160.0,2.8700000000000006,682.7247019569834
2023-06-22T07:34:44Z,45.29812074,4.84323482,160.0,2.86,693.6957253254147
2023-06-22T07:34:48Z,45.29812705,4.84337266,160.0,2.8400000000000003,704.5301845169004
2023-06-22T07:34:52Z,45.29813908,4.84351429,160.0,2.8300000000000005,715.7193629687952
2023-06-22T07:34:56Z,45.29815102,4.84365799,160.0,2.8400000000000003,727.068582848464
2023-06-22T07:35:00Z,45.29816081,4.84379914,163.0,2.86,738.1932772897834
2023-06-22T07:35:04Z,45.29817475,4.84394461,163.0,2.8300000000000005,749.7081790492226
2023-06-22T07:35:08Z,45.29822555,4.84408442,None,2.8400000000000003,762.0424196719779
2023-06-22T07:35:11Z,45.29822555,4.84408442,163.0,2.86,762.0424196719779
2023-06-22T07:35:12Z,45.29822544,4.84423,None,2.86,773.4612469558965
2023-06-22T07:35:16Z,45.29822545,4.84436878,163.0,2.86,784.3466979238636
2023-06-22T07:35:20Z,45.29822545,4.84436878,163.0,0.0,784.3466979238636
2023-06-22T07:35:25Z,45.29822545,4.84436878,163.0,0.2660366791187,784.3466979238636
2023-06-22T07:35:29Z,45.29823583,4.84465946,None,3.4400000000000004,807.1758535429187
2023-06-22T07:35:32Z,45.2982409,4.84480086,163.0,3.4169907294869426,818.2811102519532
2023-06-22T07:35:35Z,45.2982409,4.84480086,163.0,3.43,818.2811102519532
2023-06-22T07:35:38Z,45.29825869,4.84507781,None,3.4500000000000006,840.0939460862508
2023-06-22T07:35:41Z,45.29826318,4.84522313,163.0,3.4800000000000004,851.5032838980641
2023-06-22T07:35:44Z,45.29827115,4.84536941,163.0,3.5100000000000002,863.0111415909975
2023-06-22T07:35:47Z,45.29827987,4.84550912,163.0,3.5300000000000007,874.0122982879147
2023-06-22T07:35:50Z,45.29828863,4.84564429,163.0,3.5300000000000007,884.6591870914519
2023-06-22T07:35:53Z,45.29829442,4.84577832,163.0,3.5300000000000007,895.1917265987926
2023-06-22T07:35:56Z,45.29831036,4.84591016,162.0,3.5300000000000007,905.6834561634812
2023-06-22T07:35:59Z,45.29831747,4.84604191,162.0,3.5300000000000007,916.0476474551476
2023-06-22T07:36:02Z,45.29832264,4.84617898,162.0,3.5200000000000005,926.8142963733436
2023-06-22T07:36:05Z,45.29832705,4.8463199,162.0,3.5300000000000007,937.8784434659925
2023-06-22T07:36:08Z,45.29833602,4.84645668,162.0,3.54,948.6532178313391
2023-06-22T07:36:11Z,45.29834879,4.84659191,162.0,3.54,959.3547225193378
2023-06-22T07:36:14Z,45.29836339,4.84672256,162.0,3.54,969.7301245440209
2023-06-22T07:36:18Z,45.29836655,4.84689041,162.0,3.5300000000000007,982.900382496858
2023-06-22T07:36:21Z,45.29837592,4.84701987,162.0,3.5200000000000005,993.1080343473067
2023-06-22T07:36:25Z,45.29839046,4.84718431,162.0,3.5100000000000002,1006.1069688404251
2023-06-22T07:36:28Z,45.29835911,4.84732535,162.0,3.5300000000000007,1017.7053516934257
2023-06-22T07:36:31Z,45.29838748,4.84745161,162.0,3.5500000000000003,1028.0985475621635
2023-06-22T07:36:35Z,45.29840461,4.84760628,162.0,3.5200000000000005,1040.3787900119146
2023-06-22T07:36:39Z,45.298417,4.84774734,162.0,3.4800000000000004,1051.5283979516687
2023-06-22T07:36:43Z,45.29842911,4.84787886,162.0,3.4100000000000006,1061.9317869995725
2023-06-22T07:36:47Z,45.29843264,4.84801493,166.0,3.34,1072.6118437997834
2023-06-22T07:36:51Z,45.29844141,4.84814586,166.0,3.27,1082.9276768045036
2023-06-22T07:36:55Z,45.29844194,4.84829391,166.0,3.2100000000000004,1094.5403415556832
2023-06-22T07:36:59Z,45.29843401,4.84844263,None,3.208784917357112,1106.2386555859534
2023-06-22T07:37:03Z,45.29843228,4.84859063,None,3.14,1117.8488429844422
2023-06-22T07:37:07Z,45.29844858,4.84873485,166.0,3.1,1129.3050808434696
2023-06-22T07:37:11Z,45.29844831,4.84888302,166.0,3.0500000000000003,1140.9270459354536
2023-06-22T07:37:15Z,45.29846795,4.84903441,166.0,3.02,1153.0004824776595
2023-06-22T07:37:19Z,45.29847041,4.84917471,166.0,2.98,1164.008505715718
2023-06-22T07:37:23Z,45.29848099,4.84930592,166.0,2.94,1174.367097991186
2023-06-22T07:37:28Z,45.29848618,4.84946301,None,2.89,1186.7021631705206
2023-06-22T07:37:33Z,45.29850387,4.84961385,166.0,2.77,1198.6957407806476
2023-06-22T07:37:37Z,45.29850421,4.8497674,None,2.74,1210.7397026534493
2023-06-22T07:37:41Z,45.29850732,4.84992116,None,2.7600000000000007,1222.805028317721
2023-06-22T07:37:45Z,45.29851379,4.85008314,168.0,2.7900000000000005,1235.5304796883934
2023-06-22T07:37:49Z,45.29851228,4.85024735,168.0,2.82,1248.4116050402718
2023-06-22T07:37:52Z,45.29850814,4.85037574,168.0,2.8700000000000006,1258.492553330921
2023-06-22T07:37:55Z,45.29851804,4.85050921,None,2.9200000000000004,1269.0191112254613
2023-06-22T07:37:58Z,45.29847141,4.85062811,None,2.9600000000000004,1279.6883458614936
2023-06-22T07:38:01Z,45.29846729,4.85076854,None,2.9600000000000004,1290.7126832592592
2023-06-22T07:38:04Z,45.29846002,4.85090191,None,3.0000000000000004,1301.2049033937883
2023-06-22T07:38:07Z,45.29843228,4.85102776,168.0,3.0400000000000005,1311.5463597550606
2023-06-22T07:38:10Z,45.29840333,4.85115372,None,3.0700000000000007,1321.9369075692327
2023-06-22T07:38:14Z,45.29834216,4.85129865,168.0,3.1,1335.1824260160965
2023-06-22T07:38:17Z,45.29827565,4.85138781,168.0,3.1200000000000006,1345.358177907065
2023-06-22T07:38:20Z,45.29821764,4.85149095,None,3.1200000000000006,1355.7028622626353
2023-06-22T07:38:23Z,45.29816094,4.85159451,168.0,3.1600000000000006,1365.9834586788108
2023-06-22T07:38:26Z,45.29811004,4.85170531,168.0,3.2100000000000004,1376.3531572530524
2023-06-22T07:38:30Z,45.29804182,4.85184066,None,3.2600000000000002,1389.3989464690435
2023-06-22T07:38:34Z,45.2980007,4.85198696,168.0,3.3200000000000007,1401.7507902890536
2023-06-22T07:38:38Z,45.29795732,4.85212026,None,3.319675489456236,1413.2644502056503
2023-06-22T07:38:42Z,45.29790704,4.8522395,None,3.31,1424.1594692909034
2023-06-22T07:38:46Z,45.29786143,4.85236338,164.0,3.2900000000000005,1435.11897904763
2023-06-22T07:38:50Z,45.29780967,4.85248181,None,3.2600000000000002,1446.0452155500618
2023-06-22T07:38:54Z,45.29776412,4.85260863,164.0,3.23,1457.2066807989045
2023-06-22T07:38:58Z,45.29772492,4.85273617,None,3.18,1468.118053521651
2023-06-22T07:39:02Z,45.29767975,4.85285782,164.0,3.1300000000000003,1478.8999569010462
2023-06-22T07:39:06Z,45.29763935,4.85297663,164.0,3.0700000000000007,1489.244351928885
2023-06-22T07:39:10Z,45.29760154,4.85309494,None,3.0100000000000002,1499.431363837538
2023-06-22T07:39:14Z,45.2975574,4.85322145,164.0,2.9600000000000004,1510.5008644808354
2023-06-22T07:39:18Z,45.29750568,4.85334327,164.0,2.93,1521.6517973105967
2023-06-22T07:39:22Z,45.29745885,4.85345706,None,2.9274887796784355,1531.9838321802074
2023-06-22T07:39:26Z,45.29740763,4.85357457,164.0,2.8000000000000007,1542.8171838973667
2023-06-22T07:39:30Z,45.29734729,4.8536996,None,2.7600000000000007,1554.6978426484995
2023-06-22T07:39:34Z,45.29728039,4.85383254,None,2.77,1567.5046582579523
2023-06-22T07:39:37Z,45.29722748,4.85393713,164.0,2.7900000000000005,1577.5982591275667
2023-06-22T07:39:40Z,45.29717847,4.85404769,164.0,2.7900000000000005,1587.839055347058
2023-06-22T07:39:43Z,45.29713182,4.85416043,None,2.7920006354348548,1598.0899382492184
2023-06-22T07:39:46Z,45.29708653,4.85427529,None,2.8700000000000006,1608.4100638516968
2023-06-22T07:39:49Z,45.29700689,4.85436678,None,2.94,1619.8047909495324
2023-06-22T07:39:52Z,45.29696534,4.85448494,168.0,2.9900000000000007,1630.1597373629638
2023-06-22T07:39:55Z,45.29692384,4.85461116,None,2.9900000000000007,1641.0818499167578
2023-06-22T07:39:58Z,45.29688304,4.85473605,168.0,3.0300000000000007,1651.8765840657404
2023-06-22T07:40:01Z,45.29683427,4.85486272,168.0,3.0800000000000005,1663.1946616691584
2023-06-22T07:40:04Z,45.29678667,4.85498499,None,3.15,1674.1476145883325
2023-06-22T07:40:07Z,45.29673793,4.85510385,168.0,3.2000000000000006,1684.9302324396895
2023-06-22T07:40:10Z,45.29668874,4.8552254,168.0,3.27,1695.920603123237
2023-06-22T07:40:13Z,45.2966453,4.85534265,168.0,3.3200000000000007,1706.3077047121812
2023-06-22T07:40:16Z,45.29660561,4.85546623,None,3.319849256245718,1716.9576351065805
2023-06-22T07:40:19Z,45.2965692,4.85558783,168.0,3.3300000000000005,1727.3186793760508
2023-06-22T07:40:22Z,45.29653034,4.85570779,168.0,3.3700000000000006,1737.6720213699705
2023-06-22T07:40:25Z,45.29649523,4.85583527,None,3.42,1748.4058115971243
2023-06-22T07:40:28Z,45.29645702,4.85595845,168.0,3.47,1758.959966108317
2023-06-22T07:40:31Z,45.29638745,4.85605878,None,3.5100000000000002,1769.9924288450413
2023-06-22T07:40:35Z,45.29635085,4.85620114,None,3.5,1781.8768316357414
2023-06-22T07:40:39Z,45.2963067,4.85634018,170.0,3.4800000000000004,1793.8359833947413
2023-06-22T07:40:43Z,45.29624816,4.85646333,None,3.4500000000000006,1805.4824412672028
2023-06-22T07:40:47Z,45.29617623,4.85658097,None,3.43,1817.6912534489697
2023-06-22T07:40:51Z,45.29609706,4.8566828,170.0,3.39,1829.5747906548897
2023-06-22T07:40:55Z,45.29601338,4.8567768,None,3.3600000000000003,1841.4430637167598
2023-06-22T07:40:59Z,45.29592221,4.85685934,None,3.3200000000000007,1853.467370266812
2023-06-22T07:41:03Z,45.29582993,4.85692662,167.0,3.2800000000000007,1865.0013328526193
2023-06-22T07:41:09Z,45.29573922,4.85698375,167.0,3.14,1876.0337516628604
2023-06-22T07:41:13Z,45.2956332,4.85705711,None,3.1200000000000006,1889.1466196650108
2023-06-22T07:41:16Z,45.29553286,4.85699804,167.0,3.1200000000000006,1901.2224620385261
2023-06-22T07:41:19Z,45.29544067,4.85700345,167.0,3.1300000000000003,1911.4770174105695
2023-06-22T07:41:23Z,45.2953664,4.85710908,None,3.14,1923.1724926913967
2023-06-22T07:41:27Z,45.29529965,4.85722068,167.0,3.1,1934.6470464232407
2023-06-22T07:41:31Z,45.29521973,4.85733462,167.0,3.06,1947.2475104901523
2023-06-22T07:41:35Z,45.29513349,4.85745523,167.0,3.06,1960.714830231442
2023-06-22T07:41:38Z,45.29506482,4.85754767,None,3.0900000000000003,1971.2420767925864
2023-06-22T07:41:41Z,45.29499171,4.85764054,None,3.0900000000000003,1982.1548530021644
2023-06-22T07:41:44Z,45.29491911,4.85773192,167.0,3.0917374707670193,1992.947523772053
2023-06-22T07:41:47Z,45.29484627,4.8578207,None,3.1700000000000004,2003.626045464044
2023-06-22T07:41:50Z,45.29477274,4.85790784,167.0,3.2000000000000006,2014.2798328219194
2023-06-22T07:41:53Z,45.29470044,4.85799319,167.0,3.2400000000000007,2024.7387040733151
2023-06-22T07:41:56Z,45.29462077,4.85807782,None,3.2800000000000007,2035.805276596354
2023-06-22T07:41:59Z,45.29454181,4.85816026,167.0,3.2800000000000007,2046.7060428901016
2023-06-22T07:42:02Z,45.29445967,4.8582404,167.0,3.3200000000000007,2057.78997870874
2023-06-22T07:42:05Z,45.29438411,4.8583276,None,3.3202897510960794,2068.620786947998
2023-06-22T07:42:08Z,45.29430772,4.85840906,171.0,3.38,2079.2465745413815
2023-06-22T07:42:11Z,45.29423071,4.85849651,171.0,3.4900000000000007,2090.21506613086
2023-06-22T07:42:14Z,45.29415236,4.85857704,171.0,3.4900000000000007,2100.972700768074
2023-06-22T07:42:17Z,45.29407611,4.85866461,None,3.5,2111.8813493317934
2023-06-22T07:42:20Z,45.29399991,4.85875299,171.0,3.4900000000000007,2122.825824799389
2023-06-22T07:42:23Z,45.29392454,4.85883148,171.0,3.4800000000000004,2133.221633302439
2023-06-22T07:42:28Z,45.29383222,4.85886437,None,3.5100000000000002,2143.8012521516544
2023-06-22T07:42:32Z,45.29374564,4.85890801,None,3.4500000000000006,2154.0143325095514
2023-06-22T07:42:36Z,45.29363278,4.85895118,None,3.4500000000000006,2167.006405030503
2023-06-22T07:42:40Z,45.29352475,4.85898367,167.0,3.43,2179.2801146736574
2023-06-22T07:42:44Z,45.29342421,4.85901365,None,3.4100000000000006,2190.6986815447367
2023-06-22T07:42:48Z,45.2933302,4.85903842,None,3.3600000000000003,2201.325859151252
2023-06-22T07:42:52Z,45.2932304,4.85906308,None,3.31,2212.584805135403
2023-06-22T07:42:56Z,45.29313267,4.85908633,None,3.2500000000000004,2223.5983333458944
2023-06-22T07:43:00Z,45.29302577,4.85910731,167.0,3.249397735214491,2235.592379278533
2023-06-22T07:43:04Z,45.29291881,4.85912097,167.0,3.1600000000000006,2247.5278445950335
2023-06-22T07:43:08Z,45.29281115,4.8591225,167.0,3.11,2259.4935098634055
2023-06-22T07:43:12Z,45.29271466,4.85912532,None,3.06,2270.219448521789
2023-06-22T07:43:16Z,45.29261459,4.85910459,None,3.02,2281.459234391329
2023-06-22T07:43:18Z,45.29261459,4.85910459,167.0,3.02,2281.459234391329
2023-06-22T07:43:20Z,45.29252158,4.85907591,None,2.9600000000000004,2292.0381294730664
2023-06-22T07:43:24Z,45.29242951,4.85904266,167.0,2.85,2302.5977580138456
2023-06-22T07:43:28Z,45.29232935,4.85900774,167.0,2.8000000000000007,2314.0613834563023
2023-06-22T07:43:32Z,45.29221595,4.8589586,None,2.8010306987265685,2327.2407140316404
2023-06-22T07:43:35Z,45.29212674,4.85893015,None,2.9,2337.4033695418007
2023-06-22T07:43:38Z,45.29203662,4.85889321,167.0,2.93,2347.82985020324
2023-06-22T07:43:41Z,45.29194645,4.85886308,None,2.9500000000000006,2358.1260726459386
2023-06-22T07:43:44Z,45.2918547,4.8588355,None,2.9500000000000006,2368.5499336717066
2023-06-22T07:43:47Z,45.29176666,4.8588053,167.0,2.98,2378.6171937720537
2023-06-22T07:43:50Z,45.29167703,4.85877147,167.0,3.02,2388.9258938188377
2023-06-22T07:43:53Z,45.29158832,4.85874195,None,3.06,2399.0532110286986
2023-06-22T07:43:57Z,45.29147933,4.85870492,169.0,3.0800000000000005,2411.5095298630563
2023-06-22T07:44:00Z,45.29138111,4.85867412,169.0,3.1200000000000006,2422.6896505640857
2023-06-22T07:44:03Z,45.29128088,4.85864283,None,3.1700000000000004,2434.0961915021217
2023-06-22T07:44:06Z,45.29117816,4.85860215,169.0,3.23,2445.949871873834
2023-06-22T07:44:09Z,45.29107954,4.85855982,169.0,3.23,2457.402230703615
2023-06-22T07:44:12Z,45.29098359,4.85852719,None,3.2600000000000002,2468.3687867323724
2023-06-22T07:44:15Z,45.29089667,4.85846242,169.0,3.260482006115046,2479.2836143831773
2023-06-22T07:44:18Z,45.2908006,4.85844692,169.0,3.35,2490.0296040284456
2023-06-22T07:44:21Z,45.2907061,4.85841892,None,3.4100000000000006,2500.7593282715957
2023-06-22T07:44:24Z,45.29061549,4.8583801,169.0,3.46,2511.279888740191
2023-06-22T07:44:27Z,45.29052595,4.85833847,169.0,3.46,2521.753308752625
2023-06-22T07:44:31Z,45.29042213,4.85829532,None,3.5,2533.777884259385
2023-06-22T07:44:35Z,45.29032189,4.85825173,170.0,3.4900000000000007,2545.431300042719
2023-06-22T07:44:39Z,45.29023324,4.85819385,170.0,3.46,2556.2795774912342
2023-06-22T07:44:42Z,45.29023324,4.85819385,None,3.42,2556.2795774912342
2023-06-22T07:44:47Z,45.29031801,4.85824484,170.0,3.4193416574621556,2566.5147091103695
2023-06-22T07:44:51Z,45.29041982,4.85829533,170.0,3.3000000000000003,2578.50283368486
2023-06-22T07:44:55Z,45.29051121,4.85833798,None,3.2600000000000002,2589.196565793842
2023-06-22T07:44:59Z,45.29059745,4.85837905,169.0,3.19,2599.3080802908444
2023-06-22T07:45:03Z,45.29068926,4.85843422,169.0,3.1200000000000006,2610.39153716506
2023-06-22T07:45:07Z,45.2907845,4.8584552,None,3.0400000000000005,2621.103458790295
2023-06-22T07:45:11Z,45.29087974,4.85848249,169.0,2.97,2631.902516330699
2023-06-22T07:45:15Z,45.2909807,4.85851189,None,2.9200000000000004,2643.357533568571
2023-06-22T07:45:19Z,45.29107381,4.85854867,169.0,2.86,2654.1002553309595
2023-06-22T07:45:23Z,45.291164,4.85858187,169.0,2.7900000000000005,2664.4565743684957
2023-06-22T07:45:27Z,45.29125495,4.85861508,None,2.73,2674.8948598598167
2023-06-22T07:45:31Z,45.29137115,4.85860909,169.0,2.730006478305441,2687.8175798298385
2023-06-22T07:45:35Z,45.29147282,4.85866671,169.0,2.73,2699.987470161945
2023-06-22T07:45:39Z,45.29158679,4.8587122,None,2.7600000000000007,2713.146891202027
2023-06-22T07:45:42Z,45.29167795,4.85874231,None,2.7600000000000007,2723.5498786527132
2023-06-22T07:45:45Z,45.29176284,4.85878638,167.0,2.8000000000000007,2733.5977939933687
2023-06-22T07:45:49Z,45.29187506,4.85883767,167.0,2.8300000000000005,2746.702576793318
2023-06-22T07:45:52Z,45.29196406,4.85886801,None,2.9200000000000004,2756.876126432861
2023-06-22T07:45:55Z,45.29205931,4.85889293,None,2.9600000000000004,2767.6409575116754
2023-06-22T07:45:58Z,45.29215248,4.85893431,167.0,3.02,2778.492515180163
2023-06-22T07:46:01Z,45.29224723,4.85896411,167.0,3.0800000000000005,2789.2791457313842
2023-06-22T07:46:04Z,45.29234271,4.85898595,None,3.0800000000000005,2800.0279666133392
2023-06-22T07:46:07Z,45.29243648,4.8590092,None,3.14,2810.6077206272694
2023-06-22T07:46:10Z,45.29252963,4.85904262,None,3.19,2821.2869654586193
2023-06-22T07:46:13Z,45.29262535,4.8590745,167.0,3.2500000000000004,2832.215040610094
2023-06-22T07:46:16Z,45.29271858,4.8590903,None,3.2900000000000005,2842.650255774099
2023-06-22T07:46:19Z,45.29281744,4.85910253,None,3.2900000000000005,2853.6791149154938
2023-06-22T07:46:22Z,45.29291622,4.85909855,167.0,3.35,2864.661715780249
2023-06-22T07:46:25Z,45.29301117,4.8590998,None,3.4100000000000006,2875.214677222219
2023-06-22T07:46:28Z,45.29310194,4.85910175,167.0,3.4100000000000006,2885.30378816356
2023-06-22T07:46:32Z,45.29320331,4.85907462,None,3.4400000000000004,2896.769044514711
2023-06-22T07:46:37Z,45.29330594,4.8590404,None,3.4308588188353655,2908.4867015027958
2023-06-22T07:46:42Z,45.29340277,4.8590195,167.0,3.35,2919.372313904152
2023-06-22T07:46:47Z,45.29350256,4.85899164,None,3.27,2930.676001550653
2023-06-22T07:46:52Z,45.29360975,4.85896911,None,3.2100000000000004,2942.71921371697
2023-06-22T07:46:56Z,45.29369854,4.85894813,167.0,3.1300000000000003,2952.7234076123227
2023-06-22T07:47:01Z,45.29380369,4.85889874,171.0,3.06,2965.0350009980302
2023-06-22T07:47:05Z,45.29389229,4.85885929,None,2.9500000000000006,2975.356604970573
2023-06-22T07:47:09Z,45.29397556,4.8588006,171.0,2.9200000000000004,2985.692914102542
2023-06-22T07:47:13Z,45.29405091,4.8587114,171.0,2.82,2996.605590017536
2023-06-22T07:47:17Z,45.29410552,4.85858443,171.0,2.77,3008.268944003371
2023-06-22T07:47:21Z,45.29410552,4.85858443,None,2.7639098760126,3008.268944003371
2023-06-22T07:47:26Z,45.29427485,4.85843218,171.0,2.61,3030.5575756039284
2023-06-22T07:47:30Z,45.29435958,4.85834222,None,2.57,3042.324915173368
2023-06-22T07:47:34Z,45.29443576,4.85824669,None,2.5500000000000007,3053.631303942936
2023-06-22T07:47:38Z,45.29452385,4.85815581,None,2.6000000000000005,3065.741875949393
2023-06-22T07:47:42Z,45.29461986,4.85806089,167.0,2.6107673487374665,3078.7531774817426
2023-06-22T07:47:45Z,45.29469536,4.85798186,167.0,2.67,3089.185701834529
2023-06-22T07:47:48Z,45.29477517,4.85790104,167.0,2.73,3100.0882707029564
2023-06-22T07:47:51Z,45.29485059,4.8578175,167.0,2.82,3110.7278006473653
2023-06-22T07:47:54Z,45.2949293,4.85773657,167.0,2.9,3121.536200470836
2023-06-22T07:47:58Z,45.29502758,4.85763712,167.0,2.9600000000000004,3134.9585107692124
2023-06-22T07:48:01Z,45.29510189,4.85755342,167.0,2.9900000000000007,3145.5089153178124
2023-06-22T07:48:04Z,45.29517806,4.8574834,167.0,3.0046329069618505,3155.5999498040915
2023-06-22T07:48:07Z,45.295245,4.85739388,167.0,3.1,3165.8300894287245
2023-06-22T07:48:10Z,45.29531896,4.85730099,167.0,3.1700000000000004,3176.8144027139338
2023-06-22T07:48:13Z,45.29539826,4.85722329,167.0,3.1700000000000004,3187.5297994414855
2023-06-22T07:48:16Z,45.29547886,4.85716401,167.0,3.22,3197.6224827723263
2023-06-22T07:48:19Z,45.29557276,4.85712151,167.0,3.2600000000000002,3208.5778443243635
2023-06-22T07:48:22Z,45.2956578,4.85706271,167.0,3.3200000000000007,3219.0943665544123
2023-06-22T07:48:25Z,45.29573783,4.85700074,167.0,3.3200000000000007,3229.23034232502
2023-06-22T07:48:28Z,45.29582544,4.85694366,None,3.3200000000000007,3239.947211700396
2023-06-22T07:48:32Z,45.29592614,4.85687875,170.0,3.38,3252.242520257939
2023-06-22T07:48:36Z,45.29592614,4.85687875,170.0,3.39,3252.242520257939
2023-06-22T07:48:40Z,45.2960937,4.85673808,170.0,3.38,3273.888273649734
2023-06-22T07:48:44Z,45.29617045,4.85665337,170.0,3.3600000000000003,3284.7007022240086
2023-06-22T07:48:48Z,45.29624664,4.856561,170.0,3.347573234668669,3295.8450475127534
2023-06-22T07:48:52Z,45.29631951,4.85646946,170.0,3.2800000000000007,3306.6683824630277
2023-06-22T07:48:56Z,45.29637933,4.8563724,170.0,3.23,3316.775898386319
2023-06-22T07:49:00Z,45.29642287,4.85625406,170.0,3.15,3327.243948683416
2023-06-22T07:49:04Z,45.2964607,4.85613081,168.0,3.1,3337.786221870404
2023-06-22T07:49:08Z,45.29649966,4.85600928,168.0,3.0500000000000003,3348.256215029527
2023-06-22T07:49:12Z,45.2965354,4.8558815,None,3.0000000000000004,3359.037528255824
2023-06-22T07:49:16Z,45.29656865,4.85575231,None,2.94,3369.823818962591
2023-06-22T07:49:20Z,45.29659707,4.85561525,168.0,2.9320470361244118,3381.029044917852
2023-06-22T07:49:24Z,45.29663858,4.8554918,None,2.8400000000000003,3391.7551261830768
2023-06-22T07:49:28Z,45.2966841,4.85536381,168.0,2.75,3402.9971342101962
2023-06-22T07:49:32Z,45.29674262,4.85521408,168.0,2.7600000000000007,3416.422324387976
2023-06-22T07:49:34Z,45.29674262,4.85521408,168.0,2.7600000000000007,3416.422324387976
2023-06-22T07:49:35Z,45.29678897,4.85509815,168.0,2.7600000000000007,3426.8734078299317
2023-06-22T07:49:38Z,45.29683247,4.85498249,168.0,2.7900000000000005,3437.153359202175
2023-06-22T07:49:42Z,45.29688669,4.85483293,168.0,2.818135677244868,3450.341769605399
2023-06-22T07:49:44Z,45.29688669,4.85483293,168.0,2.8800000000000003,3450.341769605399
2023-06-22T07:49:45Z,45.29693439,4.85471643,168.0,2.8800000000000003,3460.9062431527495
2023-06-22T07:49:48Z,45.29698532,4.85461024,168.0,2.9200000000000004,3470.9768390036393
2023-06-22T07:49:51Z,45.29703512,4.85450308,168.0,2.9600000000000004,3481.040841071117
2023-06-22T07:49:54Z,45.29708683,4.8543898,168.0,3.0000000000000004,3491.622862485699
2023-06-22T07:49:57Z,45.29713177,4.85427131,168.0,3.0400000000000005,3502.174000685059
2023-06-22T07:50:00Z,45.29717856,4.85416099,164.0,3.0900000000000003,3512.2695936784603
2023-06-22T07:50:03Z,45.29722864,4.85404932,164.0,3.14,3522.6475114144837
2023-06-22T07:50:06Z,45.29727978,4.85392521,164.0,3.14,3533.9201460578074
2023-06-22T07:50:09Z,45.29733131,4.85381223,164.0,3.2000000000000006,3544.471513212501
2023-06-22T07:50:12Z,45.29738573,4.8536997,None,3.2500000000000004,3555.1714591353953
2023-06-22T07:50:15Z,45.29744744,4.85359387,None,3.26927740196412,3565.939197484997
2023-06-22T07:50:18Z,45.29750449,4.85348074,164.0,3.3600000000000003,3576.84527855461
2023-06-22T07:50:21Z,45.29755485,4.85336237,None,3.3600000000000003,3587.6864166707237
2023-06-22T07:50:24Z,45.29760548,4.85325242,164.0,3.4100000000000006,3597.9839449931337
2023-06-22T07:50:27Z,45.29766815,4.85314932,164.0,3.4500000000000006,3608.656773484919
2023-06-22T07:50:31Z,45.29770582,4.85299201,None,3.47,3621.686668387248
2023-06-22T07:50:35Z,45.29774597,4.8528519,164.0,3.4500000000000006,3633.547874300257
2023-06-22T07:50:39Z,45.29778621,4.85271509,164.0,3.4100000000000006,3645.1734966787503
2023-06-22T07:50:43Z,45.29782273,4.85258938,None,3.3700000000000006,3655.836518075869
2023-06-22T07:50:45Z,45.29782273,4.85258938,164.0,3.3700000000000006,3655.836518075869
2023-06-22T07:50:47Z,45.29785831,4.85247068,164.0,3.360834168551032,3665.9519411555884
2023-06-22T07:50:51Z,45.29790094,4.8523501,164.0,3.27,3676.5302071464735
2023-06-22T07:50:55Z,45.29790094,4.8523501,164.0,3.23,3676.5302071464735
2023-06-22T07:50:59Z,45.29798256,4.85210764,168.0,3.1700000000000004,3697.600642161439
2023-06-22T07:51:04Z,45.29803439,4.85196256,168.0,3.0900000000000003,3710.3551297997674
2023-06-22T07:51:08Z,45.29807214,4.85184416,168.0,3.02,3720.5457615869946
2023-06-22T07:51:12Z,45.2981289,4.85173527,168.0,2.9600000000000004,3731.1637471292056
2023-06-22T07:51:16Z,45.29818974,4.85163156,168.0,2.9,3741.7416711328215
2023-06-22T07:51:20Z,45.29825526,4.8515263,168.0,2.888993903747191,3752.7502755575215
2023-06-22T07:51:24Z,45.2983502,4.85145885,168.0,2.7900000000000005,3764.553752370254
2023-06-22T07:51:28Z,45.29840234,4.85132948,168.0,2.74,3776.2390899264897
2023-06-22T07:51:32Z,45.29845917,4.85118087,168.0,2.73,3789.496686583336
2023-06-22T07:51:36Z,45.29850396,4.85102887,None,2.75,3802.416477665269
2023-06-22T07:51:39Z,45.29853372,4.85090135,None,2.7900000000000005,3812.951338746103
2023-06-22T07:51:42Z,45.29854421,4.85076645,168.0,2.8400000000000003,3823.596429502686
2023-06-22T07:51:45Z,45.29854344,4.85063813,168.0,2.8400000000000003,3833.661739569733
2023-06-22T07:51:49Z,45.29854429,4.85046923,168.0,2.8800000000000003,3846.909967774523
2023-06-22T07:51:53Z,45.2985491,4.85030504,168.0,2.94,3859.79951355168
2023-06-22T07:51:57Z,45.29855341,4.85013624,168.0,2.97,3873.048221541218
2023-06-22T07:52:00Z,45.2985603,4.85000395,168.0,3.0000000000000004,3883.452773623868
2023-06-22T07:52:03Z,45.29857058,4.84987096,166.0,3.0500000000000003,3893.946393526542
2023-06-22T07:52:06Z,45.29857634,4.84973496,None,3.1200000000000006,3904.632915743691
2023-06-22T07:52:09Z,45.29858684,4.84959476,166.0,3.18,3915.691421080375
2023-06-22T07:52:12Z,45.29859156,4.84945665,166.0,3.2500000000000004,3926.536943566713
2023-06-22T07:52:15Z,45.29858907,4.84931035,None,3.2500000000000004,3938.0155014853167
2023-06-22T07:52:18Z,45.29858233,4.84917392,166.0,3.3200000000000007,3948.742743391465
2023-06-22T07:52:21Z,45.29857303,4.84904039,None,3.3700000000000006,3959.2672120803863
2023-06-22T07:52:24Z,45.29856019,4.84889784,None,3.377270013566745,3970.5389967992387
2023-06-22T07:52:27Z,45.29855086,4.84875537,None,3.43,3981.76181908126
2023-06-22T07:52:31Z,45.29853847,4.84859582,None,3.47,3994.351859623674
2023-06-22T07:52:35Z,45.29852402,4.84844299,None,3.465566284512256,4006.446376608498
2023-06-22T07:52:39Z,45.29851896,4.84829408,None,3.42,4018.1398610118295
2023-06-22T07:52:43Z,45.29852175,4.84815401,None,3.3700000000000006,4029.1308131010305
2023-06-22T07:52:47Z,45.2985178,4.84801512,166.0,3.3300000000000005,4040.0336771090856
2023-06-22T07:52:51Z,45.2985053,4.84787347,None,3.3000000000000003,4051.2307004343083
2023-06-22T07:52:55Z,45.29848927,4.84773296,None,3.2800000000000007,4062.3948564237085
2023-06-22T07:52:59Z,45.29848429,4.84759078,162.0,3.2400000000000007,4073.5606665069463
2023-06-22T07:53:03Z,45.29847424,4.84743843,None,3.2100000000000004,4085.562536405326
2023-06-22T07:53:07Z,45.29846554,4.84728898,None,3.20210514012074,4097.324665878858
2023-06-22T07:53:11Z,45.29845287,4.84713536,162.0,3.1300000000000003,4109.456066771656
2023-06-22T07:53:15Z,45.29844246,4.84698512,None,3.0900000000000003,4121.29701289959
2023-06-22T07:53:19Z,45.2984272,4.84683716,None,3.0400000000000005,4133.025735054019
2023-06-22T07:53:23Z,45.29841428,4.84669173,162.0,3.0000000000000004,4144.522770266859
2023-06-22T07:53:27Z,45.29840256,4.84654288,None,2.9,4156.270474406905
2023-06-22T07:53:31Z,45.29839199,4.84637347,None,2.93,4169.610227489929
2023-06-22T07:53:35Z,45.29837349,4.84621773,162.0,2.9200000000000004,4181.997751649754
2023-06-22T07:53:39Z,45.29836542,4.84605483,162.0,2.930359406686898,4194.806503188969
2023-06-22T07:53:42Z,45.29836234,4.8459209,None,2.97,4205.317085820327
2023-06-22T07:53:45Z,45.29835872,4.8457798,163.0,2.97,4216.391793741116
2023-06-22T07:53:48Z,45.29835406,4.84563359,163.0,3.0300000000000007,4227.871691426071
2023-06-22T07:53:51Z,45.29835148,4.84548493,None,3.1,4239.535596193359
2023-06-22T07:53:54Z,45.29834387,4.84533672,None,3.1700000000000004,4251.191405584926
2023-06-22T07:53:57Z,45.29833341,4.84519143,163.0,3.22,4262.646596232824
2023-06-22T07:54:00Z,45.29831969,4.84504895,None,3.2333786474483417,4273.925786143675
2023-06-22T07:54:03Z,45.2983117,4.84490422,None,3.3300000000000005,4285.312594966691
2023-06-22T07:54:06Z,45.29833395,4.8447483,163.0,3.4000000000000004,4297.789921591742
2023-06-22T07:54:09Z,45.29831889,4.84461381,None,3.4400000000000004,4308.470815047158
2023-06-22T07:54:12Z,45.29829789,4.84447762,None,3.47,4319.4050839586325
2023-06-22T07:54:15Z,45.29830393,4.84433048,163.0,3.47,4330.965755870641
2023-06-22T07:54:18Z,45.29828241,4.84419513,None,3.5200000000000005,4341.848223134701
2023-06-22T07:54:21Z,45.29826874,4.8440587,None,3.5600000000000005,4352.65664527218
2023-06-22T07:54:24Z,45.29825388,4.84392083,163.0,3.6100000000000003,4363.596092512514
2023-06-22T07:54:27Z,45.2982429,4.84378591,None,3.6400000000000006,4374.248896993972
2023-06-22T07:54:31Z,45.29822614,4.84362291,None,3.6400000000000006,4387.169056650871
2023-06-22T07:54:35Z,45.29822257,4.84346921,None,3.6000000000000005,4399.231311027216
2023-06-22T07:54:39Z,45.29821641,4.84332519,None,3.6100000000000003,4410.548497518943
2023-06-22T07:54:43Z,45.29821634,4.84318988,160.0,3.5600000000000005,4421.161777482313
2023-06-22T07:54:47Z,45.29820488,4.84305753,160.0,3.5,4431.620721017897
2023-06-22T07:54:51Z,45.298199,4.84291455,None,3.4400000000000004,4442.85463407296
2023-06-22T07:54:55Z,45.29817808,4.84277468,None,3.42406196551994,4454.069242949256
2023-06-22T07:54:59Z,45.29815743,4.84262859,160.0,3.2800000000000007,4465.755640518308
2023-06-22T07:55:03Z,45.29815483,4.84247718,160.0,3.23,4477.635276731429
2023-06-22T07:55:07Z,45.29814722,4.84232758,None,3.1600000000000006,4489.399868675173
2023-06-22T07:55:11Z,45.29815974,4.84218394,None,3.11,4500.752133413277
2023-06-22T07:55:15Z,45.29825732,4.84214609,160.0,3.06,4511.995967756171
2023-06-22T07:55:19Z,45.29834381,4.84208707,None,2.9900000000000007,4522.6649344240905
2023-06-22T07:55:23Z,45.29835152,4.84195032,None,2.89,4533.425307178701
2023-06-22T07:55:27Z,45.29834375,4.84180234,None,2.8400000000000003,4545.064429583791
2023-06-22T07:55:31Z,45.29832704,4.84164672,159.0,2.8300000000000005,4557.411196969591
2023-06-22T07:55:35Z,45.2983214,4.84149395,None,2.8300000000000005,4569.410340203609
2023-06-22T07:55:39Z,45.29831288,4.8413425,None,2.831155880022246,4581.327244093714
2023-06-22T07:55:43Z,45.2982962,4.84119281,159.0,2.85,4593.213865869425
2023-06-22T07:55:47Z,45.29829518,4.84104955,None,2.8800000000000003,4604.451271297103
2023-06-22T07:55:51Z,45.29829734,4.84089954,None,2.8800000000000003,4616.220000748472
2023-06-22T07:55:55Z,45.29828931,4.84074035,None,2.9100000000000006,4628.738182504475
2023-06-22T07:55:59Z,45.29827484,4.84058279,None,2.9200000000000004,4641.20085578145
2023-06-22T07:56:03Z,45.29825031,4.84042458,None,2.93,4653.906252645569
2023-06-22T07:56:07Z,45.29823373,4.84025939,None,2.9500000000000006,4666.9935843767025
2023-06-22T07:56:11Z,45.29821699,4.84009631,None,2.98,4679.919635381701
2023-06-22T07:56:15Z,45.29820321,4.83994129,None,3.0000000000000004,4692.174968507445
2023-06-22T07:56:19Z,45.29819784,4.83977827,None,3.0300000000000007,4704.975651763417
2023-06-22T07:56:23Z,45.29819225,4.8396202,None,3.0326475374206523,4717.389709179842
2023-06-22T07:56:27Z,45.29817432,4.83946854,None,3.06,4729.451181495928
2023-06-22T07:56:31Z,45.29817053,4.83931444,154.0,3.0700000000000007,4741.545631502636
2023-06-22T07:56:35Z,45.29816214,4.83915892,None,3.06,4753.779711933037
2023-06-22T07:56:39Z,45.29814189,4.83900623,None,3.0700000000000007,4765.965850787176
2023-06-22T07:56:43Z,45.29813347,4.83884995,154.0,3.0700000000000007,4778.259630139437
2023-06-22T07:56:47Z,45.29812856,4.83869264,154.0,3.0800000000000005,4790.610594867466
2023-06-22T07:56:51Z,45.2981284,4.83853158,None,3.11,4803.24365041369
2023-06-22T07:56:55Z,45.29812194,4.83837614,None,3.11,4815.456999118095
2023-06-22T07:56:59Z,45.29810282,4.83822016,154.0,3.11,4827.8747501179205
2023-06-22T07:57:03Z,45.29810514,4.83807001,None,3.1,4839.654874004356
2023-06-22T07:57:07Z,45.29809181,4.83791691,None,3.096439125544906,4851.75460193898
2023-06-22T07:57:11Z,45.29808029,4.83777244,154.0,3.06,4863.158483029118
2023-06-22T07:57:15Z,45.29806768,4.83762824,None,3.0400000000000005,4874.555583778391
2023-06-22T07:57:19Z,45.29805682,4.83748545,None,3.02,4885.82044332997
2023-06-22T07:57:23Z,45.29805046,4.8373371,155.0,3.0000000000000004,4897.478017534813
2023-06-22T07:57:27Z,45.2980354,4.83718988,155.0,2.9900000000000007,4909.14617928435
2023-06-22T07:57:31Z,45.29802281,4.8370435,None,2.98,4920.712733921405
2023-06-22T07:57:35Z,45.29800813,4.83689862,155.0,2.97,4932.19320909853
2023-06-22T07:57:39Z,45.29800462,4.83674787,None,2.97,4944.0240262723155
2023-06-22T07:57:43Z,45.29799371,4.83659551,155.0,2.9600000000000004,4956.036048676734
2023-06-22T07:57:47Z,45.29798339,4.8364456,155.0,2.9600000000000004,4967.850354095472
2023-06-22T07:57:51Z,45.29797511,4.83629558,None,2.9576789320571923,4979.653411788808
2023-06-22T07:57:55Z,45.29795926,4.83614515,155.0,2.94,4991.58347025437
2023-06-22T07:57:59Z,45.29795814,4.83598996,None,2.94,5003.756761559728
2023-06-22T07:58:03Z,45.29794717,4.83584154,155.0,2.9200000000000004,5015.462064145877
2023-06-22T07:58:07Z,45.29793936,4.83569421,None,2.9200000000000004,5027.0507579333325
2023-06-22T07:58:11Z,45.29793203,4.83554504,155.0,2.9200000000000004,5038.7795512685125
2023-06-22T07:58:15Z,45.29792591,4.83539539,152.0,2.9200000000000004,5050.537360113637
2023-06-22T07:58:19Z,45.29790582,4.83524389,None,2.94,5062.628529171242
2023-06-22T07:58:23Z,45.29789635,4.83509507,157.0,2.94,5074.34890246547
2023-06-22T07:58:27Z,45.29789136,4.83495225,157.0,2.94,5085.565021904365
2023-06-22T07:58:31Z,45.29787877,4.8348051,None,2.94,5097.191560789654
2023-06-22T07:58:35Z,45.29787116,4.83465811,157.0,2.9400451963247374,5108.752027432509
2023-06-22T07:58:39Z,45.29786117,4.83450663,157.0,2.94,5120.685460728043
2023-06-22T07:58:43Z,45.29785337,4.83435785,None,2.94,5132.387507196473
2023-06-22T07:58:47Z,45.29785054,4.83420865,157.0,2.93,5144.094571443792
2023-06-22T07:58:51Z,45.29784775,4.83405747,None,2.93,5155.956769682597
2023-06-22T07:58:55Z,45.29783767,4.83390966,None,2.93,5167.604580229665
2023-06-22T07:58:59Z,45.29783212,4.83375895,None,2.9200000000000004,5179.441943797325
2023-06-22T07:59:03Z,45.29782192,4.83360867,157.0,2.93,5191.283883373906
2023-06-22T07:59:07Z,45.29780851,4.83345817,157.0,2.9279004375934328,5203.18240459134
2023-06-22T07:59:11Z,45.2977995,4.8333274,None,2.9100000000000006,5213.488414980456
2023-06-22T07:59:15Z,45.29779431,4.83318633,158.0,2.9,5224.5685929941255
2023-06-22T07:59:19Z,45.2977807,4.83304819,158.0,2.89,5235.508994574393
2023-06-22T07:59:23Z,45.29776682,4.83290839,158.0,2.8700000000000006,5246.582509214684
2023-06-22T07:59:27Z,45.29775792,4.83276706,None,2.86,5257.712104599005
2023-06-22T07:59:31Z,45.29775386,4.83262134,None,2.86,5269.150903752435
2023-06-22T07:59:35Z,45.29774734,4.83247306,158.0,2.86,5280.804151508515
2023-06-22T07:59:39Z,45.29773763,4.83231712,None,2.861105615804313,5293.0831931354305
2023-06-22T07:59:43Z,45.29772594,4.83216847,158.0,2.8700000000000006,5304.815074934848
2023-06-22T07:59:47Z,45.29772655,4.83202048,158.0,2.8700000000000006,5316.423228050915
2023-06-22T07:59:51Z,45.29772051,4.83187149,None,2.8700000000000006,5328.128884350037
2023-06-22T07:59:55Z,45.29770404,4.83171904,None,2.8800000000000003,5340.225958992907
2023-06-22T07:59:59Z,45.2976953,4.83156392,158.0,2.8800000000000003,5352.431889589621
2023-06-22T08:00:03Z,45.29767567,4.83141248,None,2.89,5364.509141153387
2023-06-22T08:00:07Z,45.29765619,4.83126331,None,2.89,5376.4082717358215
2023-06-22T08:00:11Z,45.2976441,4.83111602,160.0,2.9,5388.039209008983
2023-06-22T08:00:15Z,45.29762879,4.83097043,160.0,2.9,5399.584997846326
2023-06-22T08:00:19Z,45.29761824,4.83081915,None,2.9200000000000004,5411.508821213056
2023-06-22T08:00:23Z,45.29760306,4.83066774,160.0,2.921294297139709,5423.504285576518
2023-06-22T08:00:27Z,45.29758455,4.83051925,160.0,2.94,5435.331761423397
2023-06-22T08:00:31Z,45.29757148,4.8303742,None,2.9500000000000006,5446.801491237395
2023-06-22T08:00:35Z,45.29755373,4.83023085,160.0,2.9500000000000006,5458.217265466782
2023-06-22T08:00:39Z,45.29753489,4.83008744,160.0,2.9500000000000006,5469.65922588221
2023-06-22T08:00:43Z,45.29751335,4.82994494,160.0,2.93,5481.090081081339
2023-06-22T08:00:47Z,45.29749833,4.82980445,160.0,2.9200000000000004,5492.235514372993
2023-06-22T08:00:51Z,45.29747867,4.82966734,160.0,2.9100000000000006,5503.209825827986
2023-06-22T08:00:55Z,45.29745957,4.82952778,160.0,2.9,5514.360516517296
2023-06-22T08:00:59Z,45.29744467,4.82938473,160.0,2.89,5525.702580982763
2023-06-22T08:01:03Z,45.29742589,4.82924198,160.0,2.8700000000000006,5537.092447913318
2023-06-22T08:01:07Z,45.29741558,4.82909906,156.0,2.869303314284447,5548.361191932705
2023-06-22T08:01:11Z,45.29740434,4.82895444,156.0,2.86,5559.773450050778
2023-06-22T08:01:15Z,45.29734829,4.82882604,156.0,2.86,5571.615635761309
2023-06-22T08:01:19Z,45.29726622,4.82872057,156.0,2.8700000000000006,5583.9296085039
2023-06-22T08:01:23Z,45.29717054,4.82863727,156.0,2.89,5596.410241042063
2023-06-22T08:01:27Z,45.29707902,4.8285529,156.0,2.8800000000000003,5608.544957068703
2023-06-22T08:01:31Z,45.2970042,4.82844757,156.0,2.89,5620.2668880452675
2023-06-22T08:01:35Z,45.29699202,4.82830095,156.0,2.89,5631.846921492433
2023-06-22T08:01:39Z,45.29702487,4.82815291,156.0,2.9,5644.019346841217
2023-06-22T08:01:43Z,45.29702975,4.82799726,156.0,2.9100000000000006,5656.240323048976
2023-06-22T08:01:47Z,45.2970059,4.82783323,156.0,2.9500000000000006,5669.376771571221
2023-06-22T08:01:50Z,45.29698762,4.82770538,156.0,2.9500000000000006,5679.60884175784
2023-06-22T08:01:53Z,45.29696363,4.82757836,156.0,2.9900000000000007,5689.922667266346
2023-06-22T08:01:56Z,45.29693281,4.82745342,156.0,3.02,5700.304116759285
2023-06-22T08:01:59Z,45.29690459,4.82732713,156.0,3.06,5710.694751945297
2023-06-22T08:02:02Z,45.296873,4.82720191,None,3.068343456019552,5721.125438180563
2023-06-22T08:02:05Z,45.29685103,4.82707608,154.0,3.14,5731.292906570472
2023-06-22T08:02:09Z,45.29682708,4.82691459,154.0,3.1700000000000004,5744.23660171941
2023-06-22T08:02:13Z,45.29678834,4.8267606,None,3.19,5757.059778742892
2023-06-22T08:02:17Z,45.2967538,4.82660608,154.0,3.2000000000000006,5769.773494253807
2023-06-22T08:02:21Z,45.29672536,4.82644991,154.0,3.2100000000000004,5782.424486649239
2023-06-22T08:02:25Z,45.2966912,4.82629244,None,3.2100000000000004,5795.346528057228
2023-06-22T08:02:29Z,45.29665987,4.82613953,None,3.22,5807.835806422068
2023-06-22T08:02:33Z,45.29663379,4.82599176,154.0,3.22,5819.783631143696
2023-06-22T08:02:37Z,45.29660283,4.82584454,154.0,3.23,5831.833134635826
2023-06-22T08:02:41Z,45.29657496,4.82568711,154.0,3.2400000000000007,5844.564320852967
2023-06-22T08:02:45Z,45.29653718,4.82553906,154.0,3.2402598938940432,5856.912971977377
2023-06-22T08:02:49Z,45.29650205,4.82538311,154.0,3.2400000000000007,5869.7535014497635
2023-06-22T08:02:53Z,45.29647691,4.82522025,154.0,3.23,5882.830074663192
2023-06-22T08:02:57Z,45.29644722,4.82506334,154.0,3.2100000000000004,5895.572602678085
2023-06-22T08:03:01Z,45.29639614,4.82490882,151.0,3.18,5908.956626171048
2023-06-22T08:03:05Z,45.29636144,4.82475591,151.0,3.1700000000000004,5921.555517233929
2023-06-22T08:03:09Z,45.29632876,4.82460789,151.0,3.15,5933.720921085988
2023-06-22T08:03:13Z,45.29629606,4.82445996,151.0,3.15,5945.88025804789
2023-06-22T08:03:17Z,45.296267,4.82430905,151.0,3.1485043181245147,5958.150229322714
2023-06-22T08:03:21Z,45.29623443,4.82416311,151.0,3.1300000000000003,5970.156345555097
2023-06-22T08:03:25Z,45.29620158,4.82402215,151.0,3.11,5981.800331287883
2023-06-22T08:03:29Z,45.29621389,4.82386176,151.0,3.11,5994.455414480273
2023-06-22T08:03:33Z,45.29616013,4.82372545,151.0,3.11,6006.703622688274
2023-06-22T08:03:37Z,45.2961291,4.82357879,151.0,3.1,6018.7133592002265
2023-06-22T08:03:41Z,45.29609935,4.82343034,151.0,3.1,6030.818034630701
2023-06-22T08:03:45Z,45.29607247,4.82327767,151.0,3.1,6043.160414194809
2023-06-22T08:03:50Z,45.29602051,4.82314945,151.0,3.0906565297516426,6054.757889927673
2023-06-22T08:03:55Z,45.29598923,4.82301031,151.0,2.97,6066.2122831971255
2023-06-22T08:03:59Z,45.29597071,4.82287555,152.0,2.94,6076.981361326395
2023-06-22T08:04:02Z,45.29594037,4.82273805,152.0,2.97,6088.2816457187255
2023-06-22T08:04:05Z,45.29590912,4.82261078,152.0,2.9900000000000007,6098.851570476707
2023-06-22T08:04:09Z,45.2958735,4.822452,152.0,3.0100000000000002,6111.920270975244
2023-06-22T08:04:13Z,45.29584029,4.82230908,152.0,3.0100000000000002,6123.722862233248
2023-06-22T08:04:17Z,45.29581081,4.82216089,158.0,3.0100000000000002,6135.799801755819
2023-06-22T08:04:21Z,45.29578234,4.82201703,158.0,3.0000000000000004,6147.5193976844685
2023-06-22T08:04:28Z,45.29575626,4.82205403,158.0,3.0000021811004496,6151.621149794844
