Time,LatitudeDegrees,LongitudeDegrees,Elevation,Speed,Distance
2023-06-03T07:19:08Z,45.77989943,4.85867374,171.0,0.0,0
2023-06-03T07:19:13Z,45.78002653,4.85864632,171.0,3.533241758241758,14.286826786280812
2023-06-03T07:19:17Z,45.78014721,4.85863147,171.0,3.349349670418576,27.749675123503312
2023-06-03T07:19:21Z,45.78023903,4.85865273,None,3.3809342187209728,38.08825793285172
2023-06-03T07:19:25Z,45.78038801,4.85868525,171.0,3.4085828356787373,54.83896379308645
2023-06-03T07:19:29Z,45.78051192,4.8586728,None,3.4244784636286094,68.64518464986715
2023-06-03T07:19:33Z,45.78063765,4.85867599,171.0,3.47,82.62190278533443
2023-06-03T07:19:37Z,45.78078405,4.85867205,171.0,3.5200000000000005,98.8967132362464
2023-06-03T07:19:41Z,45.78089316,4.85866621,171.0,3.4800000000000004,111.03246777257762
2023-06-03T07:19:45Z,45.78099309,4.8586666,None,3.4800000000000004,122.13943275202398
2023-06-03T07:19:48Z,45.78109822,4.85865915,171.0,3.5,133.83867590216252
2023-06-03T07:19:54Z,45.78125651,4.85860876,173.0,3.5,151.86328422489288
2023-06-03T07:19:57Z,45.78135304,4.85859742,173.0,3.4900000000000007,162.62849158964988
2023-06-03T07:20:00Z,45.78145518,4.85859957,173.0,3.4900000000000007,173.98228223432304
2023-06-03T07:20:03Z,45.78156396,4.85859564,173.0,3.5,186.07672051448944
2023-06-03T07:20:07Z,45.78166465,4.85859036,173.0,3.5200000000000005,197.27564730228016
2023-06-03T07:20:11Z,45.78180183,4.85856833,173.0,3.4900000000000007,212.6187491167264
2023-06-03T07:20:15Z,45.7819172,4.85857596,None,3.43,225.45550610527556
2023-06-03T07:20:19Z,45.78199664,4.85864679,173.0,3.4100000000000006,235.86228960146764
2023-06-03T07:20:27Z,45.78208907,4.85876614,173.0,3.34,249.70739709221417
2023-06-03T07:20:35Z,45.78222368,4.8588064,173.0,3.2000000000000006,264.99298269940664
2023-06-03T07:20:41Z,45.78236358,4.85882737,173.0,3.0800000000000005,280.6277371392827
2023-06-03T07:20:49Z,45.78246329,4.8588314,173.0,2.9600000000000004,291.7146415964708
2023-06-03T07:20:54Z,45.78257284,4.85882776,173.0,2.81,303.8940929713059
2023-06-03T07:21:08Z,45.78257284,4.85882776,173.0,2.771813438136476,303.8940929713059
2023-06-03T07:21:17Z,45.78276498,4.85882168,173.0,2.06,325.2551248974783
2023-06-03T07:21:22Z,45.78292738,4.85878165,None,2.1700000000000004,343.5718750685434
2023-06-03T07:21:25Z,45.78307516,4.85874635,173.0,2.4700000000000006,360.2250035997655
2023-06-03T07:21:31Z,45.78321771,4.85873858,173.0,2.62,376.0805376708594
2023-06-03T07:21:35Z,45.78333218,4.85875057,173.0,2.74,388.8376642386227
2023-06-03T07:21:39Z,45.78344077,4.85874471,None,2.73,400.9157262025506
2023-06-03T07:21:43Z,45.78356466,4.85878079,172.0,2.81,414.96868035985244
2023-06-03T07:21:47Z,45.78368041,4.85885064,172.0,2.86,428.93365319231884
2023-06-03T07:21:51Z,45.78379743,4.85888685,172.0,3.0000000000000004,442.2414076100715
2023-06-03T07:21:55Z,45.78391759,4.85892551,None,3.0900000000000003,455.9310353400645
2023-06-03T07:22:00Z,45.78408275,4.85895892,172.0,3.1300000000000003,474.4710350116791
2023-06-03T07:22:05Z,45.78420114,4.85898185,172.0,3.1600000000000006,487.75000598985923
2023-06-03T07:22:10Z,45.78433644,4.85901495,None,3.2000000000000006,503.00690391816215
2023-06-03T07:22:14Z,45.78447023,4.85900498,172.0,3.3300000000000005,517.897472707781
2023-06-03T07:22:19Z,45.78451274,4.85882928,172.0,3.34,532.3544129315763
2023-06-03T07:22:21Z,45.78451707,4.85869777,172.0,3.42,542.5924026448353
2023-06-03T07:22:26Z,45.78454124,4.85855038,None,3.2000000000000006,554.3645761086206
2023-06-03T07:22:31Z,45.78456551,4.85842274,172.0,3.0900000000000003,564.6503259054934
2023-06-03T07:22:37Z,45.78457025,4.85827829,175.0,3.0700000000000007,575.8955939836499
2023-06-03T07:22:43Z,45.78457501,4.85812717,None,2.9600000000000004,587.6590981354192
2023-06-03T07:22:49Z,45.78455889,4.85796729,175.0,2.9500000000000006,600.2203443733794
2023-06-03T07:22:52Z,45.78454662,4.85783934,175.0,2.86,610.2631996673215
2023-06-03T07:22:59Z,45.78451891,4.85764142,175.0,2.77,625.9592713571257
2023-06-03T07:23:06Z,45.78447118,4.85743115,None,2.7644329682808886,643.149660280969
2023-06-03T07:23:13Z,45.78440075,4.8572169,175.0,2.63,661.5578842097412
2023-06-03T07:23:20Z,45.78433061,4.85700749,175.0,2.57,679.6122454266214
2023-06-03T07:23:28Z,45.78427057,4.85674131,None,2.573971671852526,701.3605233771588
2023-06-03T07:23:35Z,45.78423304,4.85660285,175.0,2.57,712.9074839503176
2023-06-03T07:23:40Z,45.78411905,4.85635474,175.0,2.7900000000000005,735.9894889842097
2023-06-03T07:23:44Z,45.78419771,4.85610686,None,2.9100000000000006,757.1556457890805
2023-06-03T07:23:48Z,45.78425843,4.85600954,173.0,3.0100000000000002,767.29572946856
2023-06-03T07:23:53Z,45.78433704,4.85582173,173.0,3.1200000000000006,784.3145559891265
2023-06-03T07:23:56Z,45.78438332,4.85569772,173.0,3.1700000000000004,795.2441555628362
2023-06-03T07:24:02Z,45.78441355,4.85544363,173.0,3.3300000000000005,815.2867559189713
2023-06-03T07:24:06Z,45.78438634,4.85530965,None,3.42,826.1355905724325
2023-06-03T07:24:11Z,45.78435721,4.85504809,173.0,3.4800000000000004,846.7315305335732
2023-06-03T07:24:15Z,45.78432137,4.85491244,173.0,3.43,858.0072696904235
2023-06-03T07:24:20Z,45.78425852,4.85469176,None,3.4900000000000007,876.5354996543483
2023-06-03T07:24:25Z,45.78421325,4.854496,173.0,3.6100000000000003,892.5685446855966
2023-06-03T07:24:30Z,45.78416302,4.85437315,173.0,3.63,903.633554840628
2023-06-03T07:24:34Z,45.78413698,4.85424733,173.0,3.626797917649803,913.836915853582
2023-06-03T07:24:40Z,45.78410214,4.85405698,183.0,3.5500000000000003,929.1374258143735
2023-06-03T07:24:46Z,45.78407074,4.85391231,None,3.4800000000000004,940.9164556856854
2023-06-03T07:24:51Z,45.78402085,4.85376015,183.0,3.27,953.9839172748939
2023-06-03T07:24:59Z,45.78397753,4.85362534,183.0,3.2100000000000004,965.5201475163037
2023-06-03T07:25:02Z,45.78393156,4.85346102,183.0,3.0800000000000005,979.2820212693031
2023-06-03T07:25:10Z,45.78388304,4.85333148,None,2.86,990.708309687064
2023-06-03T07:25:13Z,45.78383169,4.85316261,183.0,2.9900000000000007,1005.0270276230963
2023-06-03T07:25:21Z,45.78377986,4.85302475,183.0,2.75,1017.1973879490617
2023-06-03T07:25:24Z,45.78373394,4.85291258,None,2.75,1027.3037006602426
2023-06-03T07:25:29Z,45.78365289,4.85277467,183.0,2.7900000000000005,1041.309692059504
2023-06-03T07:25:34Z,45.78362109,4.85264554,183.0,2.6400000000000006,1051.9553165961825
2023-06-03T07:25:36Z,45.78353803,4.85250074,183.0,2.6400000000000006,1066.5163170352848
2023-06-03T07:25:41Z,45.78344807,4.85230812,None,2.9900000000000007,1084.525991746548
2023-06-03T07:25:46Z,45.78339061,4.85218354,183.0,2.93,1096.1296168293227
2023-06-03T07:25:48Z,45.78332729,4.85203071,171.0,2.93121499357989,1109.941944095911
2023-06-03T07:25:54Z,45.78323201,4.85184373,None,3.22,1127.9301945889636
2023-06-03T07:25:57Z,45.78316087,4.85172953,171.0,3.27,1139.8209151938079
2023-06-03T07:26:01Z,45.7830348,4.85151748,171.0,3.5200000000000005,1161.460467283234
2023-06-03T07:26:03Z,45.78296306,4.8513966,None,3.5200000000000005,1173.7870813643513
2023-06-03T07:26:08Z,45.7828916,4.85124875,171.0,3.4800000000000004,1187.7613592980983
2023-06-03T07:26:14Z,45.78274701,4.85102997,171.0,3.6400000000000006,1211.1650323237545
2023-06-03T07:26:21Z,45.78265621,4.85086446,171.0,3.58,1227.5209307613475
2023-06-03T07:26:23Z,45.78259246,4.85076556,171.0,3.58,1237.978396121715
2023-06-03T07:26:28Z,45.78248786,4.85049879,None,3.83,1261.7596303436223
2023-06-03T07:26:31Z,45.78243608,4.85037987,171.0,3.87,1272.6521602733244
2023-06-03T07:26:36Z,45.78236651,4.85025344,171.0,3.9,1285.1605534627497
2023-06-03T07:26:42Z,45.78232647,4.85010741,171.0,3.891556059083827,1297.357665871436
2023-06-03T07:26:50Z,45.78232647,4.85010741,None,2.833559986076601,1297.357665871436
