Time,LatitudeDegrees,LongitudeDegrees,Elevation,Speed,Distance
2023-05-31T15:17:17Z,45.78003559,4.85873927,171.0,0.0,0
2023-05-31T15:17:22Z,45.78013882,4.85871658,None,3.1843837882547565,11.60860630714695
2023-05-31T15:17:28Z,45.78025842,4.85870478,171.0,2.867900463219013,24.933428209344292
2023-05-31T15:17:32Z,45.78036431,4.85870229,171.0,3.2543899145467687,36.704379774025945
2023-05-31T15:17:36Z,45.7804924,4.85872528,171.0,3.281366298894026,51.05302977063521
2023-05-31T15:17:40Z,45.7806386,4.85876287,None,3.286789144516098,67.5635871296373
2023-05-31T15:17:44Z,45.78075417,4.85871808,171.0,3.1300000000000003,80.87275291593004
2023-05-31T15:17:48Z,45.78084486,4.85870736,171.0,3.14,90.98709437677883
2023-05-31T15:17:54Z,45.78100006,4.85870866,None,3.18,108.23741096451442
2023-05-31T15:17:57Z,45.78100006,4.85870866,171.0,3.2100000000000004,108.23741096451442
2023-05-31T15:18:00Z,45.78116281,4.8586943,171.0,3.206218051220581,126.36103098824603
2023-05-31T15:18:06Z,45.78132295,4.85866099,None,3.1700000000000004,144.34763615563637
2023-05-31T15:18:08Z,45.78132295,4.85866099,173.0,3.2100000000000004,144.34763615563637
2023-05-31T15:18:12Z,45.78148539,4.85865758,173.0,3.15,162.40431001058997
2023-05-31T15:18:17Z,45.7815853,4.85864651,None,3.1200000000000006,173.54233176686031
2023-05-31T15:18:21Z,45.7816896,4.85862768,173.0,3.11,185.2270910186479
2023-05-31T15:18:23Z,45.7816896,4.85862768,173.0,3.11,185.2270910186479
2023-05-31T15:18:30Z,45.78187879,4.85859311,173.0,3.0700000000000007,206.42616232985677
2023-05-31T15:18:33Z,45.78187879,4.85859311,None,3.0700637293418667,206.42616232985677
2023-05-31T15:18:35Z,45.78196973,4.85865487,173.0,3.0800000000000005,217.61694672102226
2023-05-31T15:18:42Z,45.78204682,4.85874341,173.0,2.9600000000000004,228.60904044425183
2023-05-31T15:18:49Z,45.78214476,4.85877571,173.0,2.77,239.78083018916857
2023-05-31T15:18:55Z,45.78226534,4.85880284,173.0,2.46,253.34799372946622
2023-05-31T15:19:00Z,45.78235681,4.85880028,173.0,2.45,263.5165648194565
2023-05-31T15:19:07Z,45.7824689,4.85880974,173.0,2.34,275.99674125964253
2023-05-31T15:19:13Z,45.7825858,4.8588067,173.0,2.16,288.9919842494083
2023-05-31T15:19:19Z,45.78270292,4.8588006,None,2.22,302.0181697590115
2023-05-31T15:19:27Z,45.782847,4.85878553,173.0,2.0100000000000002,318.0750647663076
2023-05-31T15:19:32Z,45.78297234,4.85878989,173.0,2.06,332.0103648117137
2023-05-31T15:19:37Z,45.78311991,4.85877355,None,2.16,348.4614868907414
2023-05-31T15:19:42Z,45.78327203,4.85876361,173.0,2.3000000000000003,365.38684160794185
2023-05-31T15:19:47Z,45.78341284,4.85881253,172.0,2.306044626228286,381.4931880359717
2023-05-31T15:19:52Z,45.78355637,4.85886513,172.0,2.5100000000000007,397.96218883233956
2023-05-31T15:19:56Z,45.7836767,4.8588823,None,2.71,411.40300355143444
2023-05-31T15:19:59Z,45.78377244,4.85891448,172.0,2.7089190739425137,422.33451500510756
2023-05-31T15:20:05Z,45.78391125,4.85897,172.0,2.81,438.35556172179446
2023-05-31T15:20:11Z,45.78406741,4.85902659,172.0,2.77,456.26148386215345
2023-05-31T15:20:17Z,45.7842331,4.85906758,None,3.02,474.9512709785989
2023-05-31T15:20:24Z,45.78441526,4.85907532,172.0,3.06,495.2067721245708
2023-05-31T15:20:31Z,45.78452316,4.85893019,172.0,3.1600000000000006,511.67481139606923
2023-05-31T15:20:38Z,45.7845714,4.85874381,172.0,3.0800000000000005,527.1283235689424
2023-05-31T15:20:45Z,45.78458516,4.85854107,172.0,2.9500000000000006,542.9680748912715
2023-05-31T15:20:54Z,45.78458777,4.85831438,175.0,2.9,560.5986363789862
2023-05-31T15:21:02Z,45.78458947,4.85808106,None,2.895975764833231,578.743365276629
2023-05-31T15:21:10Z,45.78457316,4.85785288,175.0,2.69,596.5797709213366
2023-05-31T15:21:19Z,45.78453025,4.85762739,175.0,2.54,614.7516747342934
2023-05-31T15:21:26Z,45.78449248,4.85747825,None,2.42,627.0857222851243
2023-05-31T15:21:28Z,45.78445267,4.85735699,175.0,2.4800000000000004,637.5018626248071
2023-05-31T15:21:32Z,45.78439886,4.85724121,175.0,2.5200000000000005,648.3107800212575
2023-05-31T15:21:35Z,45.78434111,4.85709453,None,2.5093387854080564,661.3991578752139
2023-05-31T15:21:42Z,45.7843013,4.85690052,175.0,2.4700000000000006,677.121572148574
2023-05-31T15:21:45Z,45.78426329,4.85673775,175.0,2.7200000000000006,690.465604228263
2023-05-31T15:21:50Z,45.78420309,4.85659419,175.0,2.7200000000000006,703.4809857280859
2023-05-31T15:21:53Z,45.78412715,4.85644256,None,2.86,717.981953599629
2023-05-31T15:21:58Z,45.78408623,4.85630258,175.0,2.81,729.7793122703719
2023-05-31T15:22:01Z,45.7841656,4.85615913,173.0,3.0100000000000002,744.0012208060015
2023-05-31T15:22:07Z,45.78425241,4.85603977,None,3.0700000000000007,757.389672136621
2023-05-31T15:22:10Z,45.78432379,4.85588301,173.0,3.18,771.9342738470486
2023-05-31T15:22:16Z,45.78437591,4.85574374,173.0,3.0900000000000003,784.2164075481486
2023-05-31T15:22:19Z,45.78440853,4.85554999,None,3.0941753278134096,799.7132015483922
2023-05-31T15:22:25Z,45.78440572,4.85539371,173.0,3.2800000000000007,811.8701100938468
2023-05-31T15:22:28Z,45.78437933,4.85519639,173.0,3.4000000000000004,827.4922610428463
2023-05-31T15:22:35Z,45.78431564,4.85500153,173.0,3.3200000000000007,844.2172733967586
2023-05-31T15:22:38Z,45.78425857,4.85486636,None,3.42,856.4942346908599
2023-05-31T15:22:47Z,45.78422097,4.85461155,173.0,3.4100000000000006,876.7451478232508
2023-05-31T15:23:03Z,45.78418222,4.85433027,173.0,2.9500000000000006,899.0385687567464
2023-05-31T15:23:13Z,45.78411234,4.85404427,183.0,3.0040618301706155,922.5962687061434
2023-05-31T15:23:23Z,45.78400972,4.85376645,None,2.738498251015248,947.0266960601152
2023-05-31T15:23:33Z,45.78393196,4.85349016,183.0,2.3100000000000005,970.1853561479948
2023-05-31T15:23:43Z,45.78383262,4.85321964,183.0,2.06,993.9436963694191
2023-05-31T15:23:54Z,45.78383262,4.85321964,None,3.4425279920778835,993.9436963694191
2023-05-31T15:42:08Z,45.7789738,4.85875461,172.0,2.233749212731411,1684.5431291909308
2023-05-31T15:42:12Z,45.77907535,4.85869816,172.0,2.4304461475783943,1696.6538489492955
2023-05-31T15:42:16Z,45.77927862,4.85868976,171.0,2.5744081308940756,1719.2561432717357
2023-05-31T15:42:21Z,45.77937582,4.85869636,None,2.697291114339807,1730.0718189003478
2023-05-31T15:42:29Z,45.77946996,4.85869727,171.0,3.259089081842014,1740.5354376545392
2023-05-31T15:42:35Z,45.77957654,4.8586746,171.0,1.8900000000000001,1752.5119657585276
2023-05-31T15:42:41Z,45.7796668,4.85864216,None,1.8400000000000003,1762.8564559987133
2023-05-31T15:42:47Z,45.77983224,4.85850958,171.0,1.8500554699610428,1783.93811201281
2023-05-31T15:42:50Z,45.77993537,4.85836865,171.0,2.3000000000000003,1799.7973378838265
2023-05-31T15:42:52Z,45.78002435,4.85809488,174.0,2.3000000000000003,1823.2732231556824
2023-05-31T15:42:54Z,45.7800753,4.8578561,None,3.5,1842.6873377427407
2023-05-31T15:42:58Z,45.78007856,4.85772318,174.0,3.409466324444856,1853.0308245577346
2023-05-31T15:43:04Z,45.78010101,4.85755139,174.0,3.3200000000000007,1866.621886321605
2023-05-31T15:43:10Z,45.78010797,4.85738613,174.0,3.43,1879.497348208822
2023-05-31T15:43:17Z,45.78012502,4.85725352,None,3.34,1889.983037169937
2023-05-31T15:43:20Z,45.78014572,4.85707787,174.0,3.343062504602239,1903.8356554701088
2023-05-31T15:43:26Z,45.78016697,4.85683022,174.0,3.4800000000000004,1923.2395574104758
2023-05-31T15:43:28Z,45.78021614,4.85660229,None,3.6100000000000003,1941.7889016547051
2023-05-31T15:43:30Z,45.78024761,4.85644344,174.0,3.9,1954.6282068388216
2023-05-31T15:43:36Z,45.78017585,4.85633792,174.0,3.7600000000000007,1966.0718676819865
2023-05-31T15:43:40Z,45.7800787,4.85619361,170.0,3.8400000000000003,1981.645864985476
2023-05-31T15:43:41Z,45.7800787,4.85619361,None,3.8400000000000003,1981.645864985476
2023-05-31T15:43:51Z,45.78001109,4.85609882,170.0,3.7,1992.1726502176282
2023-05-31T15:43:59Z,45.779946,4.85596865,170.0,3.0400000000000005,2004.6153125534463
2023-05-31T15:44:01Z,45.77989529,4.85584129,None,3.0400000000000005,2016.011447634037
2023-05-31T15:44:03Z,45.77982367,4.85570672,170.0,3.27,2029.1603574868254
2023-05-31T15:44:11Z,45.77977613,4.85558286,170.0,3.31,2040.1470203429942
2023-05-31T15:44:14Z,45.7797103,4.85540918,None,3.4400000000000004,2055.508584970756
2023-05-31T15:44:25Z,45.77970689,4.85527212,170.0,3.2100000000000004,2066.1744959483613
2023-05-31T15:44:33Z,45.77965895,4.85508108,170.0,2.69,2081.9583013005376
2023-05-31T15:44:35Z,45.77963104,4.85494393,170.0,2.69,2093.066435023749
2023-05-31T15:44:43Z,45.77965651,4.85507786,None,2.54,2103.860056519702
2023-05-31T15:44:49Z,45.7797399,4.85543627,170.0,2.94,2133.23425540395
2023-05-31T15:44:57Z,45.77979648,4.8555741,170.0,2.9900000000000007,2145.661873026307
2023-05-31T15:44:59Z,45.77985428,4.85568873,None,3.0591866079850347,2156.650265076382
2023-05-31T15:45:01Z,45.77993634,4.85585319,170.0,3.38,2172.359261773555
2023-05-31T15:45:07Z,45.77999605,4.85599144,170.0,3.1300000000000003,2184.994243087132
2023-05-31T15:45:10Z,45.78004512,4.85633823,None,3.1533561197476483,2212.509940904905
2023-05-31T15:45:13Z,45.78006193,4.85663615,174.0,4.260000000000001,2235.754288830622
2023-05-31T15:45:18Z,45.7800865,4.85680152,174.0,4.0600000000000005,2248.901796216868
2023-05-31T15:45:24Z,45.78010104,4.8572065,None,4.17,2280.4383637311425
