Time,LatitudeDegrees,LongitudeDegrees,Elevation,Speed,Distance
2023-07-20T04:58:14Z,45.29524248,4.82170119,None,0.0,0
2023-07-20T04:58:17Z,45.29524248,4.82170119,158.0,3.3177551789077198,0.0
2023-07-20T04:58:21Z,45.29540598,4.82193485,158.0,3.3177551789077198,25.809250741603368
2023-07-20T04:58:25Z,45.29545302,4.8220625,None,3.214572960992165,37.10482754452349
2023-07-20T04:58:29Z,45.29549989,4.82218233,158.0,3.2424321743680165,47.85122232254034
2023-07-20T04:58:33Z,45.29556092,4.82231259,158.0,3.318668174333118,60.115226849667486
2023-07-20T04:58:37Z,45.29562185,4.82243407,158.0,3.3226425769315013,71.80519467295113
2023-07-20T04:58:41Z,45.29571734,4.82251563,None,3.1200000000000006,84.19691863707224
2023-07-20T04:58:44Z,45.29581272,4.82249576,158.0,3.14,94.91119023526558
2023-07-20T04:58:48Z,45.29587543,4.82259836,152.0,3.14,105.55743300579864
2023-07-20T04:58:52Z,45.29601298,4.82267293,152.0,3.1200000000000006,121.92524799317084
2023-07-20T04:58:55Z,45.29606392,4.82278356,152.0,3.31,132.28646886974062
2023-07-20T04:58:58Z,45.29604782,4.82290924,152.0,3.31,142.3058418698172
2023-07-20T04:59:01Z,45.29604523,4.82304509,151.0,3.3200000000000007,152.9657682436781
2023-07-20T04:59:04Z,45.2960617,4.823185,None,3.3215225839032505,164.0918735488059
2023-07-20T04:59:07Z,45.29606078,4.82331477,151.0,3.34,174.27151013176928
2023-07-20T04:59:11Z,45.29605478,4.82347077,151.0,3.34,186.5262635686174
2023-07-20T04:59:13Z,45.29605478,4.82347077,151.0,3.3200000000000007,186.5262635686174
2023-07-20T04:59:15Z,45.29606881,4.82360478,None,3.3200000000000007,197.15298857685266
2023-07-20T04:59:18Z,45.29609898,4.82374427,151.0,3.3000000000000003,208.59677832176024
2023-07-20T04:59:22Z,45.29613126,4.82388954,151.0,3.3200000000000007,220.54310363218764
2023-07-20T04:59:26Z,45.29615871,4.82402942,None,3.3000000000000003,231.93145832571992
2023-07-20T04:59:30Z,45.29618309,4.82417075,151.0,3.2900000000000005,243.34364369208996
2023-07-20T04:59:34Z,45.29620986,4.82431007,151.0,3.3000000000000003,254.66958786286688
2023-07-20T04:59:38Z,45.29623475,4.82444642,151.0,3.3000000000000003,265.7167505418969
2023-07-20T04:59:42Z,45.29626249,4.82458357,None,3.3000000000000003,276.9077557439184
2023-07-20T04:59:46Z,45.29629259,4.82472735,151.0,3.27,288.6714451218199
2023-07-20T04:59:50Z,45.29629259,4.82472735,151.0,3.2600000000000002,288.6714451218199
2023-07-20T04:59:54Z,45.29634701,4.82500933,None,3.2600000000000002,311.6017798148426
2023-07-20T04:59:58Z,45.29637299,4.82514895,154.0,3.06,322.9277004144176
2023-07-20T05:00:02Z,45.29640423,4.82528386,154.0,3.0300000000000007,334.06494445527454
2023-07-20T05:00:06Z,45.29644017,4.82542571,None,2.9900000000000007,345.8867730568911
2023-07-20T05:00:10Z,45.29647208,4.82556622,154.0,2.94,357.46477706947763
2023-07-20T05:00:14Z,45.29650435,4.82570557,154.0,2.9100000000000006,368.96860352937847
2023-07-20T05:00:18Z,45.29653586,4.82584459,None,2.904179033690583,380.42172430879594
2023-07-20T05:00:22Z,45.29656686,4.82599185,154.0,2.85,392.4755176443855
2023-07-20T05:00:26Z,45.29659781,4.82613662,154.0,2.86,404.34065907327636
2023-07-20T05:00:30Z,45.29662857,4.82628707,154.0,2.8700000000000006,416.6269817349883
2023-07-20T05:00:34Z,45.29665883,4.82643222,None,2.8800000000000003,428.4986906635071
2023-07-20T05:00:38Z,45.29668995,4.82657544,154.0,2.9,440.2530534965539
2023-07-20T05:00:42Z,45.29672112,4.82672783,154.0,2.9100000000000006,452.6981985987271
2023-07-20T05:00:46Z,45.29675267,4.82688217,None,2.93,465.3020036805111
2023-07-20T05:00:50Z,45.29678431,4.82703211,154.0,2.94,477.5775336712374
2023-07-20T05:00:54Z,45.29681453,4.82717953,156.0,2.9600000000000004,489.6188398162606
2023-07-20T05:00:58Z,45.29684949,4.82733212,None,2.97,502.20263862605987
2023-07-20T05:01:02Z,45.29687992,4.82748243,156.0,2.973710061524168,514.4682009198987
2023-07-20T05:01:06Z,45.29690876,4.82763229,156.0,3.0100000000000002,526.6521575063805
2023-07-20T05:01:10Z,45.29693925,4.82777789,None,3.0100000000000002,538.5649141229799
2023-07-20T05:01:14Z,45.29696598,4.8279263,156.0,3.0100000000000002,550.5790439331445
2023-07-20T05:01:18Z,45.29697259,4.8280798,156.0,3.02,562.6417394902289
2023-07-20T05:01:22Z,45.29694927,4.82823311,156.0,3.02,574.9432596488473
2023-07-20T05:01:26Z,45.29693067,4.82838364,156.0,3.0400000000000005,586.9301961267097
2023-07-20T05:01:30Z,45.29696509,4.82852797,None,3.0400000000000005,598.8800514992425
2023-07-20T05:01:34Z,45.2970414,4.82863405,156.0,3.0300000000000007,610.7611569246208
2023-07-20T05:01:38Z,45.29712919,4.8287102,156.0,3.0300000000000007,622.2010950985167
2023-07-20T05:01:42Z,45.29722608,4.82878091,156.0,3.0300000000000007,634.3136743605012
2023-07-20T05:01:46Z,45.29731858,4.82884068,None,3.0275149069072906,645.6124654924113
2023-07-20T05:01:50Z,45.29741975,4.82880048,156.0,3.0000000000000004,657.2900298220392
2023-07-20T05:01:54Z,45.29746662,4.82866523,156.0,2.9900000000000007,669.108604741651
2023-07-20T05:01:58Z,45.29744475,4.82851746,None,2.9900000000000007,680.9514630918695
2023-07-20T05:02:02Z,45.2973915,4.82838619,156.0,2.9900000000000007,692.8275865121493
2023-07-20T05:02:06Z,45.29733564,4.82826189,156.0,2.98,704.3861481817885
2023-07-20T05:02:10Z,45.29728193,4.82813712,156.0,2.97,715.8496134698385
2023-07-20T05:02:14Z,45.29721319,4.82802552,None,2.9500000000000006,727.4681570381441
2023-07-20T05:02:18Z,45.29716447,4.82789612,156.0,2.9500000000000006,738.9720084810552
2023-07-20T05:02:22Z,45.29714696,4.82775367,156.0,2.94,750.3137290450243
2023-07-20T05:02:26Z,45.29716619,4.82760428,None,2.93,762.2249148078778
2023-07-20T05:02:30Z,45.29720741,4.82746403,156.0,2.9292650874808555,774.1415997786588
2023-07-20T05:02:34Z,45.29725288,4.82733046,156.0,2.9200000000000004,785.7736330947131
2023-07-20T05:02:38Z,45.29729081,4.82719132,156.0,2.9200000000000004,797.4733163898059
2023-07-20T05:02:42Z,45.29733292,4.82705219,154.0,2.9200000000000004,809.3475628600088
2023-07-20T05:02:46Z,45.29737967,4.82691577,None,2.9200000000000004,821.2427674842718
2023-07-20T05:02:50Z,45.29742255,4.82677916,154.0,2.9200000000000004,832.9701079724356
2023-07-20T05:02:54Z,45.29746163,4.82664005,154.0,2.93,844.7142295893015
2023-07-20T05:02:58Z,45.29749987,4.82650456,None,2.93,856.160020225161
2023-07-20T05:03:02Z,45.2975315,4.82636589,154.0,2.9200000000000004,867.590918497655
2023-07-20T05:03:06Z,45.29757237,4.82623229,154.0,2.9100000000000006,879.0122439971967
2023-07-20T05:03:10Z,45.29764057,4.82611909,None,2.9100000000000006,890.6865380699329
2023-07-20T05:03:14Z,45.29768847,4.82598721,154.0,2.910026390049898,902.3203212667349
2023-07-20T05:03:18Z,45.29771447,4.82584499,154.0,2.9100000000000006,913.8438655383912
2023-07-20T05:03:22Z,45.29772229,4.82570365,154.0,2.9100000000000006,924.9642268139576
2023-07-20T05:03:26Z,45.29775684,4.82556394,None,2.9,936.5759713903933
2023-07-20T05:03:30Z,45.29779092,4.82542212,154.0,2.9,948.3270890244825
2023-07-20T05:03:34Z,45.29782092,4.82527729,154.0,2.9,960.1663355207946
2023-07-20T05:03:38Z,45.29784853,4.82513255,None,2.9,971.9267192809567
2023-07-20T05:03:42Z,45.29788212,4.8249938,151.0,2.9,983.4323458213321
2023-07-20T05:03:46Z,45.29791973,4.82485422,150.0,2.89,995.1513857504063
2023-07-20T05:03:50Z,45.29796229,4.82472111,None,2.89,1006.6136134972546
2023-07-20T05:03:54Z,45.29800039,4.82458268,150.0,2.89,1018.2680886280561
2023-07-20T05:03:58Z,45.29803891,4.82445533,150.0,2.8800000000000003,1029.1357636155271
2023-07-20T05:04:02Z,45.29807664,4.82432376,None,2.8700000000000006,1040.2750870482112
2023-07-20T05:04:06Z,45.29811539,4.82418868,150.0,2.8700000000000006,1051.7121393062585
2023-07-20T05:04:10Z,45.29815809,4.82406201,150.0,2.8700000000000006,1062.7228879471252
2023-07-20T05:04:14Z,45.29819979,4.82392345,150.0,2.86,1074.5379575014847
2023-07-20T05:04:18Z,45.29824213,4.82378537,None,2.8700000000000006,1086.3465594971865
2023-07-20T05:04:22Z,45.29828633,4.82364984,150.0,2.8700000000000006,1098.0571770026027
2023-07-20T05:04:26Z,45.29833094,4.82351333,150.0,2.8800000000000003,1109.85668259668
2023-07-20T05:04:30Z,45.29838155,4.82338542,150.0,2.879863535980334,1121.35861495919
2023-07-20T05:04:34Z,45.29843657,4.82326265,150.0,2.8800000000000003,1132.765664759579
2023-07-20T05:04:38Z,45.29849632,4.82313891,None,2.8800000000000003,1144.525634804388
2023-07-20T05:04:42Z,45.2985578,4.82301741,150.0,2.8700000000000006,1156.25199391685
2023-07-20T05:04:46Z,45.29861548,4.82289473,151.0,2.8800000000000003,1167.8143068559648
2023-07-20T05:04:50Z,45.29867723,4.82277452,None,2.8800000000000003,1179.4762012027588
2023-07-20T05:04:54Z,45.29874175,4.82265763,151.0,2.8800000000000003,1191.1156561950766
2023-07-20T05:04:58Z,45.29880602,4.82254021,151.0,2.8800000000000003,1202.7708284734979
2023-07-20T05:05:02Z,45.29887259,4.82242365,151.0,2.89,1214.5318602656955
2023-07-20T05:05:06Z,45.29893382,4.82229801,None,2.9,1226.5077546234668
2023-07-20T05:05:10Z,45.29900399,4.82218507,151.0,2.9100000000000006,1238.3098972145015
2023-07-20T05:05:14Z,45.29907938,4.82208288,151.0,2.910059013333378,1249.905052930406
2023-07-20T05:05:18Z,45.29917643,4.82199537,None,2.9200000000000004,1262.6897612039734
2023-07-20T05:05:22Z,45.29927526,4.82192123,151.0,2.94,1275.1179099756848
2023-07-20T05:05:26Z,45.29936636,4.82185791,151.0,2.9500000000000006,1286.3950816064466
2023-07-20T05:05:30Z,45.29945929,4.82178956,151.0,2.94,1298.0316075807486
2023-07-20T05:05:34Z,45.29955216,4.82169592,None,2.94,1310.6994488433302
2023-07-20T05:05:38Z,45.29964903,4.82160998,151.0,2.97,1323.401478802779
2023-07-20T05:05:42Z,45.29973669,4.82151188,151.0,2.98,1335.8158814523647
2023-07-20T05:05:46Z,45.29980131,4.82140573,None,2.9900000000000007,1346.811177290586
2023-07-20T05:05:51Z,45.2996988,4.82141316,151.0,2.9900000000000007,1358.2187916913056
2023-07-20T05:05:55Z,45.29961209,4.82151795,151.0,2.8800000000000003,1370.884562499755
2023-07-20T05:05:59Z,45.29953637,4.82162775,151.0,2.89,1382.9256214030625
2023-07-20T05:06:03Z,45.29946504,4.82173097,None,2.89,1394.2565785037323
2023-07-20T05:06:07Z,45.29938016,4.8218084,151.0,2.8800000000000003,1405.4758667475417
2023-07-20T05:06:11Z,45.29929244,4.82188528,151.0,2.8700000000000006,1416.9390665918386
2023-07-20T05:06:15Z,45.29920737,4.82196363,151.0,2.86,1428.215288919128
2023-07-20T05:06:19Z,45.29911927,4.822039,None,2.85,1439.6527727931593
2023-07-20T05:06:23Z,45.29903663,4.82212944,151.0,2.8300000000000005,1451.257694238866
2023-07-20T05:06:27Z,45.29896472,4.82223394,151.0,2.82,1462.7055601247707
2023-07-20T05:06:31Z,45.29889702,4.82235207,151.0,2.821271382125166,1474.6413254346714
2023-07-20T05:06:35Z,45.29884981,4.82248766,None,2.8300000000000005,1486.5002751275606
2023-07-20T05:06:39Z,45.29879275,4.82261488,151.0,2.81,1498.3234553563846
2023-07-20T05:06:43Z,45.29872843,4.8227397,151.0,2.8000000000000007,1510.4457815585665
2023-07-20T05:06:47Z,45.29865782,4.82286089,None,2.7900000000000005,1522.7721712018483
2023-07-20T05:06:51Z,45.29858698,4.82297831,150.0,2.82,1534.8885914874263
2023-07-20T05:06:55Z,45.29852089,4.82310315,150.0,2.94,1547.1292313462347
2023-07-20T05:06:59Z,45.29846161,4.82323025,None,2.94,1559.0787536356286
2023-07-20T05:07:03Z,45.2984044,4.82335564,150.0,2.93957982806776,1570.790141443296
2023-07-20T05:07:07Z,45.29835037,4.82347919,150.0,2.93,1582.1905561657336
2023-07-20T05:07:11Z,45.29830104,4.82360832,None,2.94,1593.707665018391
2023-07-20T05:07:15Z,45.2982499,4.82374256,150.0,2.94,1605.6730328075905
2023-07-20T05:07:19Z,45.29820907,4.82388395,150.0,2.9600000000000004,1617.6556465427975
2023-07-20T05:07:23Z,45.29817225,4.82402882,150.0,2.97,1629.7331491492457
2023-07-20T05:07:27Z,45.29813144,4.82416089,None,2.97,1641.0416883893552
2023-07-20T05:07:31Z,45.29808732,4.8243003,150.0,2.97,1653.0256371306357
2023-07-20T05:07:35Z,45.29805087,4.82444051,150.0,2.97,1664.745642793841
2023-07-20T05:07:39Z,45.29801632,4.82457794,None,2.97,1676.1887115081895
2023-07-20T05:07:43Z,45.29797484,4.82470572,150.0,2.9500000000000006,1687.2207669089512
2023-07-20T05:07:47Z,45.29793345,4.82483376,150.0,2.948083066130295,1698.2671910003323
2023-07-20T05:07:51Z,45.29789797,4.824964,None,2.9100000000000006,1709.217449894882
2023-07-20T05:07:55Z,45.29787088,4.8251015,154.0,2.9,1720.4149120522516
2023-07-20T05:07:59Z,45.29783572,4.82523788,154.0,2.8800000000000003,1731.8035452059503
2023-07-20T05:08:03Z,45.29779217,4.82536949,154.0,2.8800000000000003,1743.2049972519699
2023-07-20T05:08:07Z,45.2977567,4.82550585,None,2.8700000000000006,1754.6040394478086
2023-07-20T05:08:11Z,45.29771943,4.82564241,154.0,2.8700000000000006,1766.088435308701
2023-07-20T05:08:15Z,45.29767971,4.82576953,154.0,2.86,1776.9928864045419
2023-07-20T05:08:19Z,45.29764189,4.82590293,None,2.85,1788.2691129436002
2023-07-20T05:08:23Z,45.29760063,4.82604166,154.0,2.85,1800.07747187421
2023-07-20T05:08:27Z,45.29755671,4.82617771,154.0,2.8400000000000003,1811.8122655699692
2023-07-20T05:08:31Z,45.29751659,4.82631272,154.0,2.8400000000000003,1823.3025509353986
2023-07-20T05:08:35Z,45.29747906,4.82646258,None,2.85,1835.7753092155467
2023-07-20T05:08:39Z,45.29743901,4.82660343,154.0,2.85,1847.6862052183915
2023-07-20T05:08:43Z,45.29739865,4.82674329,154.0,2.86,1859.5381125659844
2023-07-20T05:08:47Z,45.29736311,4.82688784,None,2.8700000000000006,1871.5446073879239
2023-07-20T05:08:51Z,45.29731827,4.8270307,154.0,2.8719866069037088,1883.8084117006026
2023-07-20T05:08:55Z,45.29727425,4.82717125,156.0,2.9100000000000006,1895.8696378706509
2023-07-20T05:08:59Z,45.29723045,4.82731893,None,2.9200000000000004,1908.4346159160948
2023-07-20T05:09:03Z,45.29718584,4.82745967,156.0,2.94,1920.536196799921
2023-07-20T05:09:07Z,45.29714337,4.82760349,156.0,2.9600000000000004,1932.7648144455832
2023-07-20T05:09:11Z,45.29711848,4.8277504,156.0,2.9600000000000004,1944.6155462511167
2023-07-20T05:09:15Z,45.29713481,4.82790176,None,2.98,1956.6258752022136
2023-07-20T05:09:19Z,45.29718882,4.82804019,156.0,2.9900000000000007,1969.0327695713922
2023-07-20T05:09:23Z,45.29725622,4.82816772,156.0,3.0100000000000002,1981.5297482065675
2023-07-20T05:09:27Z,45.29731887,4.82830546,None,3.0300000000000007,1994.3830654491762
2023-07-20T05:09:31Z,45.29736757,4.82844856,156.0,3.0400000000000005,2006.8443191734173
2023-07-20T05:09:35Z,45.29740118,4.82859676,156.0,3.040505239000481,2019.0542188505729
2023-07-20T05:09:39Z,45.29743123,4.82873834,None,3.0500000000000003,2030.6507556246113
2023-07-20T05:09:43Z,45.29745502,4.82888474,156.0,3.0500000000000003,2042.4345006479352
2023-07-20T05:09:47Z,45.29752832,4.8289957,156.0,3.0400000000000005,2054.355645320184
2023-07-20T05:09:51Z,45.29762134,4.82908313,156.0,3.0500000000000003,2066.7614541284506
2023-07-20T05:09:55Z,45.29769804,4.82919691,160.0,3.0500000000000003,2079.1029191991906
2023-07-20T05:09:59Z,45.29778227,4.82928932,160.0,3.0500000000000003,2090.942255342588
2023-07-20T05:10:03Z,45.29786961,4.82936853,None,3.0400000000000005,2102.467130087589
2023-07-20T05:10:07Z,45.29795286,4.82945909,153.0,3.0300000000000007,2114.13159543552
2023-07-20T05:10:11Z,45.29803759,4.82954205,153.0,3.02,2125.5778559673995
2023-07-20T05:10:15Z,45.29812049,4.82963224,None,3.0100000000000002,2137.193781704645
2023-07-20T05:10:19Z,45.29823065,4.82967013,153.0,3.009973263395291,2149.7922603354186
2023-07-20T05:10:23Z,45.29833233,4.82973756,153.0,3.0100000000000002,2162.269199787452
2023-07-20T05:10:27Z,45.29843814,4.82979009,None,3.02,2174.7296079622747
2023-07-20T05:10:31Z,45.29853037,4.82987592,153.0,3.0000000000000004,2186.9929474342707
2023-07-20T05:10:35Z,45.29862175,4.82996577,153.0,3.0000000000000004,2199.3544434791593
2023-07-20T05:10:39Z,45.29871933,4.8300486,153.0,3.0100000000000002,2211.996402049922
2023-07-20T05:10:43Z,45.29882296,4.83010251,153.0,3.02,2224.26529648237
2023-07-20T05:10:47Z,45.29892508,4.83016506,None,3.0300000000000007,2236.6297094548872
2023-07-20T05:10:51Z,45.29901641,4.8302521,153.0,3.030109268907799,2248.862251018896
2023-07-20T05:10:55Z,45.29910348,4.83031956,153.0,3.0300000000000007,2259.891168828066
2023-07-20T05:10:59Z,45.29919861,4.83040686,None,3.0100000000000002,2272.487411572288
2023-07-20T05:11:03Z,45.29929169,4.83049996,153.0,3.0300000000000007,2285.149821843943
2023-07-20T05:11:07Z,45.2993908,4.83058311,153.0,3.0400000000000005,2297.950678738335
2023-07-20T05:11:11Z,45.29948954,4.83065864,153.0,3.06,2310.421400115598
2023-07-20T05:11:15Z,45.29958511,4.83073455,None,3.0700000000000007,2322.597799425938
2023-07-20T05:11:19Z,45.29968046,4.83080929,153.0,3.0800000000000005,2334.7081846995507
2023-07-20T05:11:23Z,45.29978162,4.83086829,153.0,3.0800000000000005,2346.866022705586
2023-07-20T05:11:27Z,45.29988069,4.83091852,None,3.0700000000000007,2358.5600721303454
2023-07-20T05:11:31Z,45.2999768,4.83097233,153.0,3.06,2370.045114987423
2023-07-20T05:11:35Z,45.30008228,4.83101,156.0,3.06,2382.134522362192
2023-07-20T05:11:39Z,45.3001839,4.83104085,None,3.0500000000000003,2393.6846303024076
2023-07-20T05:11:43Z,45.30028462,4.83107891,156.0,3.0300000000000007,2405.2696288672646
2023-07-20T05:11:47Z,45.3003853,4.83110719,156.0,3.02,2416.6767011320217
2023-07-20T05:11:51Z,45.30048967,4.83113308,156.0,3.0000000000000004,2428.452543233466
2023-07-20T05:11:54Z,45.30057629,4.83108919,None,3.0100000000000002,2438.676272549621
2023-07-20T05:11:58Z,45.30067303,4.83112436,156.0,3.0000000000000004,2449.775964447354
2023-07-20T05:12:02Z,45.30076791,4.83118524,156.0,3.0000000000000004,2461.351471567973
2023-07-20T05:12:06Z,45.3008641,4.83124107,156.0,2.98,2472.9038805820237
2023-07-20T05:12:10Z,45.30095703,4.83130422,159.0,2.9500000000000006,2484.3581688044337
2023-07-20T05:12:14Z,45.30104262,4.83138646,159.0,2.93,2495.851209787695
2023-07-20T05:12:18Z,45.30113249,4.83144519,None,2.931055592746039,2506.850187583817
2023-07-20T05:12:22Z,45.30106556,4.83135404,159.0,2.93,2517.167200671491
2023-07-20T05:12:26Z,45.30097981,4.83128985,159.0,2.85,2527.9453824389766
2023-07-20T05:12:30Z,45.30089755,4.83136558,159.0,2.8000000000000007,2538.8476725675996
2023-07-20T05:12:37Z,45.30083637,4.83147632,None,2.7900000000000005,2549.8782177405537
2023-07-20T05:12:44Z,45.30076043,4.8315498,159.0,2.67,2560.0980714117313
2023-07-20T05:12:49Z,45.30066417,4.83153516,159.0,2.58,2570.857629006961
2023-07-20T05:12:54Z,45.30057635,4.83147621,None,2.5100000000000007,2581.657530451694
2023-07-20T05:12:59Z,45.30048587,4.83141184,159.0,2.46,2592.909546320945
2023-07-20T05:13:04Z,45.30038955,4.83135647,159.0,2.37,2604.4617248610016
2023-07-20T05:13:09Z,45.30029305,4.83129099,159.0,2.3200000000000003,2616.352809375305
2023-07-20T05:13:14Z,45.30020725,4.83121171,None,2.2800000000000007,2627.7367634120505
2023-07-20T05:13:19Z,45.30012083,4.83110741,156.0,2.2400000000000007,2640.353027795242
2023-07-20T05:13:23Z,45.30004738,4.83102877,156.0,2.2100000000000004,2650.5843794202074
2023-07-20T05:13:27Z,45.29997388,4.83094643,153.0,2.2600000000000002,2660.997623825643
2023-07-20T05:13:31Z,45.29990532,4.83085944,None,2.29,2671.2256084326777
2023-07-20T05:13:35Z,45.29982972,4.83078238,153.0,2.2895576617021742,2681.5757569627167
2023-07-20T05:13:39Z,45.29975357,4.83069505,153.0,2.3100000000000005,2692.463496252935
2023-07-20T05:13:43Z,45.29967151,4.83060289,None,2.41,2704.1007370199395
2023-07-20T05:13:47Z,45.29958929,4.83050556,153.0,2.4400000000000004,2716.007755392558
2023-07-20T05:13:51Z,45.29949634,4.83041409,153.0,2.5200000000000005,2728.5849785730497
2023-07-20T05:13:55Z,45.29940357,4.83031561,None,2.6000000000000005,2741.4677410263926
2023-07-20T05:13:58Z,45.29933391,4.83023181,153.0,2.67,2751.6234672633213
2023-07-20T05:14:02Z,45.29924337,4.83012708,153.0,2.71,2764.613092006064
2023-07-20T05:14:05Z,45.29916567,4.83004438,None,2.7900000000000005,2775.4133738616265
2023-07-20T05:14:08Z,45.2990892,4.82997248,153.0,2.7920482350549474,2785.612976745807
2023-07-20T05:14:12Z,45.29899007,4.82988527,153.0,2.93,2798.58088136348
2023-07-20T05:14:15Z,45.29889696,4.82980716,153.0,2.9900000000000007,2810.606563278779
2023-07-20T05:14:18Z,45.29880462,4.82972702,None,3.0900000000000003,2822.641086873867
2023-07-20T05:14:21Z,45.29870468,4.82964379,153.0,3.2000000000000006,2835.524615081697
2023-07-20T05:14:24Z,45.29861838,4.82956948,153.0,3.23,2846.7479441294067
2023-07-20T05:14:27Z,45.29852735,4.82949987,None,3.23,2858.244109874572
2023-07-20T05:14:30Z,45.29843247,4.82943003,153.0,3.3000000000000003,2870.1268672997608
2023-07-20T05:14:33Z,45.29834003,4.82935401,153.0,3.38,2882.005434748592
2023-07-20T05:14:36Z,45.29824663,4.82927974,153.0,3.47,2893.908626462982
2023-07-20T05:14:39Z,45.29815344,4.8292166,None,3.54,2905.3887350115488
2023-07-20T05:14:42Z,45.29806972,4.82915021,153.0,3.59,2916.0512810697605
2023-07-20T05:14:45Z,45.29798042,4.82906592,153.0,3.6500000000000004,2927.9764140395096
2023-07-20T05:14:48Z,45.29789857,4.82901172,None,3.6500000000000004,2938.017422447104
2023-07-20T05:14:52Z,45.29778775,4.8290569,156.0,3.66,2950.833387535457
2023-07-20T05:14:55Z,45.29771105,4.829145,156.0,3.6800000000000006,2961.8067929167905
2023-07-20T05:14:59Z,45.2976505,4.82927596,160.0,3.6900000000000004,2974.0869448330695
2023-07-20T05:15:03Z,45.29760593,4.82940314,None,3.6500000000000004,2985.224744284263
2023-07-20T05:15:07Z,45.29757022,4.82953005,160.0,3.63,2995.9412362826133
2023-07-20T05:15:11Z,45.29752963,4.82966736,160.0,3.58,3007.6180791148104
2023-07-20T05:15:15Z,45.2975023,4.82981207,None,3.5600000000000005,3019.368170085686
2023-07-20T05:15:19Z,45.29749606,4.82998387,160.0,3.5100000000000002,3032.8616072572013
2023-07-20T05:15:23Z,45.29750201,4.83013813,160.0,3.4800000000000004,3044.9794694939646
2023-07-20T05:15:27Z,45.29750201,4.83013813,None,3.4000000000000004,3044.9794694939646
2023-07-20T05:15:57Z,45.29755853,4.83062676,160.0,2.251254303925124,3083.817815632495
2023-07-20T05:16:01Z,45.29756991,4.83076905,160.0,2.6705218636754977,3095.0501407537868
2023-07-20T05:16:05Z,45.29758164,4.83092323,None,2.8981602051829443,3107.21371704982
2023-07-20T05:16:09Z,45.2975963,4.83108793,160.0,3.0162363106333587,3120.2347280464983
2023-07-20T05:16:13Z,45.2976086,4.83125109,158.0,3.076895228222595,3133.1054067365926
2023-07-20T05:16:16Z,45.29761353,4.83138012,158.0,3.1118020682221577,3143.241028882534
2023-07-20T05:16:20Z,45.2976222,4.83153236,None,3.15191544435686,3155.221178389099
2023-07-20T05:16:24Z,45.29763674,4.83168867,158.0,2.82,3167.587785587483
2023-07-20T05:16:27Z,45.29764682,4.8318265,158.0,2.82,3178.4567199197186
2023-07-20T05:16:31Z,45.29765998,4.83198397,None,2.9,3190.8945691344848
2023-07-20T05:16:35Z,45.29766906,4.83213533,158.0,2.9100000000000006,3202.809681420979
2023-07-20T05:16:39Z,45.29767915,4.83229997,158.0,2.9200000000000004,3215.772227415554
2023-07-20T05:16:42Z,45.29768775,4.83243126,None,2.9500000000000006,3226.114544214682
2023-07-20T05:16:46Z,45.29769278,4.83259259,158.0,2.98,3238.781204443158
2023-07-20T05:16:50Z,45.29770332,4.83275058,158.0,2.98,3251.228779962473
2023-07-20T05:16:54Z,45.29771655,4.8329211,None,3.0000000000000004,3264.6845104087697
2023-07-20T05:16:58Z,45.29773098,4.83308326,158.0,3.0212216953266413,3277.5046273302087
2023-07-20T05:17:02Z,45.29774074,4.83324558,158.0,3.1700000000000004,3290.2827109301547
2023-07-20T05:17:06Z,45.29775225,4.83341277,157.0,3.2000000000000006,3303.4589015097963
2023-07-20T05:17:10Z,45.29776484,4.8335711,None,3.22,3315.9564678132174
2023-07-20T05:17:14Z,45.29776749,4.83372137,157.0,3.2000000000000006,3327.746930953217
2023-07-20T05:17:18Z,45.2977694,4.83388273,157.0,3.19,3340.405365099098
2023-07-20T05:17:22Z,45.29777965,4.8340437,None,3.18,3353.0827124037396
2023-07-20T05:17:26Z,45.29778501,4.83419333,157.0,3.19,3364.8344011436807
2023-07-20T05:17:30Z,45.29780415,4.8343561,157.0,3.18,3377.777639258957
2023-07-20T05:17:34Z,45.29781584,4.83451883,157.0,3.1600000000000006,3390.607692625418
2023-07-20T05:17:38Z,45.29782638,4.834681,None,3.1700000000000004,3403.381691611125
2023-07-20T05:17:42Z,45.29783724,4.83484134,157.0,3.168739918587363,3416.016107430184
2023-07-20T05:17:46Z,45.29785251,4.83500987,157.0,3.1700000000000004,3429.343630362738
2023-07-20T05:17:50Z,45.2978613,4.8351748,157.0,3.19,3442.31711824643
2023-07-20T05:17:54Z,45.29786574,4.83534048,None,3.18,3455.3219651905197
2023-07-20T05:17:58Z,45.29787557,4.83550157,154.0,3.18,3468.0045595951397
2023-07-20T05:18:02Z,45.29789101,4.83566724,154.0,3.18,3481.1120605443125
2023-07-20T05:18:06Z,45.29790258,4.83583048,None,3.18,3493.980553051411
2023-07-20T05:18:10Z,45.29791354,4.83599665,154.0,3.18,3507.0712518262526
2023-07-20T05:18:13Z,45.29792164,4.83612462,155.0,3.18,3517.149142550574
2023-07-20T05:18:17Z,45.29793311,4.83628978,155.0,3.2000000000000006,3530.166389468644
2023-07-20T05:18:21Z,45.29794032,4.83644701,None,3.2100000000000004,3542.5250652954815
2023-07-20T05:18:25Z,45.29794652,4.83660189,155.0,3.2000000000000006,3554.6929337879087
2023-07-20T05:18:29Z,45.29795788,4.8367541,155.0,3.2000000000000006,3566.6984168945705
2023-07-20T05:18:33Z,45.2979679,4.83690301,None,3.2000000000000006,3578.4314520537305
2023-07-20T05:18:37Z,45.29797726,4.83705066,155.0,3.1956560976840214,3590.0593129708786
2023-07-20T05:18:41Z,45.29798697,4.83720123,155.0,3.1600000000000006,3601.9187837839645
2023-07-20T05:18:45Z,45.29799495,4.83735669,None,3.14,3614.144819339661
2023-07-20T05:18:49Z,45.2980079,4.83750782,154.0,3.14,3626.0860605180887
2023-07-20T05:18:53Z,45.29802121,4.8376624,154.0,3.1200000000000006,3638.3007583117314
2023-07-20T05:18:57Z,45.29803208,4.83781682,154.0,3.1,3650.473098852378
2023-07-20T05:19:01Z,45.29803867,4.8379735,None,3.0900000000000003,3662.784412839094
2023-07-20T05:19:05Z,45.29805032,4.83812808,154.0,3.0800000000000005,3674.9781373569217
2023-07-20T05:19:09Z,45.29805952,4.8382813,154.0,3.0700000000000007,3687.039666615607
2023-07-20T05:19:13Z,45.29806971,4.83843194,154.0,3.06,3698.909559042814
2023-07-20T05:19:17Z,45.29808086,4.83858482,None,3.0400000000000005,3710.9648576931913
2023-07-20T05:19:21Z,45.29808622,4.83874235,154.0,3.0365668333992204,3723.3353794311283
2023-07-20T05:19:25Z,45.29809413,4.83889742,154.0,3.0100000000000002,3735.530320890249
2023-07-20T05:19:29Z,45.29810257,4.8390476,None,3.0100000000000002,3747.3472639714564
2023-07-20T05:19:33Z,45.29811335,4.83920395,154.0,3.0100000000000002,3759.6692557154115
2023-07-20T05:19:37Z,45.29812611,4.83936237,154.0,3.0100000000000002,3772.1758868575184
2023-07-20T05:19:41Z,45.29813678,4.83952284,None,3.0300000000000007,3784.818388820864
2023-07-20T05:19:45Z,45.29814649,4.83968627,159.0,3.0400000000000005,3797.682667375088
2023-07-20T05:19:49Z,45.29815943,4.83985104,159.0,3.06,3810.686472825663
2023-07-20T05:19:53Z,45.29817014,4.84000925,159.0,3.0700000000000007,3823.152916501869
2023-07-20T05:19:57Z,45.29817898,4.84017182,None,3.0800000000000005,3835.942180303255
2023-07-20T05:20:01Z,45.29818818,4.84032689,159.0,3.0900000000000003,3848.1482744361283
2023-07-20T05:20:05Z,45.29819862,4.84048078,159.0,3.089718234152856,3860.2745482311284
2023-07-20T05:20:09Z,45.29821506,4.84064071,None,3.0900000000000003,3872.9513015745797
2023-07-20T05:20:13Z,45.29822333,4.84079732,159.0,3.0900000000000003,3885.2696175403944
2023-07-20T05:20:17Z,45.2982365,4.84095483,159.0,3.1,3897.7105888897554
2023-07-20T05:20:21Z,45.29825163,4.84111398,159.0,3.11,3910.3065344937336
2023-07-20T05:20:25Z,45.29826056,4.84126958,None,3.11,3922.5515704208797
2023-07-20T05:20:29Z,45.29826635,4.84142761,159.0,3.11,3934.963611919502
2023-07-20T05:20:33Z,45.29827595,4.84159158,159.0,3.1200000000000006,3947.8690519681372
2023-07-20T05:20:37Z,45.29828908,4.84175282,None,3.1300000000000003,3960.600085080599
2023-07-20T05:20:41Z,45.29829812,4.84190566,160.0,3.1300000000000003,3972.630367655126
2023-07-20T05:20:45Z,45.29830803,4.84205747,160.0,3.1200000000000006,3984.5886600163676
2023-07-20T05:20:49Z,45.29831265,4.84220767,160.0,3.1188110375594102,3996.3810245163854
2023-07-20T05:20:53Z,45.29831055,4.84235889,160.0,3.1,4008.244506462837
2023-07-20T05:20:57Z,45.29831085,4.84250997,None,3.0800000000000005,4020.094758433501
2023-07-20T05:21:01Z,45.29831251,4.84265409,160.0,3.06,4031.4005497522053
2023-07-20T05:21:05Z,45.29831978,4.84280145,160.0,3.0500000000000003,4042.9871749138524
2023-07-20T05:21:09Z,45.29833713,4.84293834,160.0,3.0300000000000007,4053.8961282846617
2023-07-20T05:21:13Z,45.29834395,4.84308716,None,3.0100000000000002,4065.5936428343543
2023-07-20T05:21:17Z,45.29835421,4.8432339,160.0,3.0000000000000004,4077.159770527045
2023-07-20T05:21:21Z,45.29836006,4.84338479,160.0,2.9900000000000007,4089.0129071949573
2023-07-20T05:21:25Z,45.29836188,4.8435396,None,2.98,4101.157354700559
2023-07-20T05:21:29Z,45.29836454,4.84369372,160.0,2.98,4113.249610151498
2023-07-20T05:21:33Z,45.2983735,4.84385066,163.0,2.9803739681484767,4125.599652434543
2023-07-20T05:21:37Z,45.29838488,4.8440137,163.0,2.98,4138.450332832607
2023-07-20T05:21:41Z,45.29839669,4.84417205,163.0,2.97,4150.93991357456
2023-07-20T05:21:45Z,45.29840864,4.84432976,None,2.97,4163.381222782507
2023-07-20T05:21:49Z,45.29841737,4.84448477,163.0,2.98,4175.578312229485
2023-07-20T05:21:53Z,45.29842425,4.84463887,163.0,2.98,4187.689533480072
2023-07-20T05:21:57Z,45.2984287,4.84479735,None,2.9900000000000007,4200.129978664379
2023-07-20T05:22:01Z,45.29844039,4.84495067,163.0,3.0000000000000004,4212.2258305547275
2023-07-20T05:22:05Z,45.29844774,4.84510469,163.0,3.0100000000000002,4224.3341961814485
2023-07-20T05:22:09Z,45.29845559,4.84526141,None,3.0100000000000002,4236.657673619243
2023-07-20T05:22:13Z,45.29846554,4.84541442,163.0,3.0500000000000003,4248.710066983642
2023-07-20T05:22:17Z,45.29847038,4.84557075,163.0,3.04862613950842,4260.983823149803
2023-07-20T05:22:21Z,45.29847838,4.84572291,163.0,3.0500000000000003,4272.951776837803
2023-07-20T05:22:25Z,45.29848614,4.84587444,None,3.06,4284.868491018089
2023-07-20T05:22:29Z,45.29849505,4.8460287,162.0,3.0500000000000003,4297.008539339216
2023-07-20T05:22:33Z,45.29850248,4.84618053,162.0,3.06,4308.946126421766
2023-07-20T05:22:37Z,45.29850724,4.84633001,None,3.0500000000000003,4320.68272134451
2023-07-20T05:22:41Z,45.29852118,4.8464828,162.0,3.0400000000000005,4332.766734745272
2023-07-20T05:22:45Z,45.29853649,4.84663324,162.0,3.0300000000000007,4344.688740641358
2023-07-20T05:22:49Z,45.29855046,4.84678297,162.0,3.0100000000000002,4356.535190071949
2023-07-20T05:22:53Z,45.2985626,4.84693868,None,3.0100000000000002,4368.822801909972
2023-07-20T05:22:57Z,45.29857432,4.84709525,162.0,3.02,4381.172450377508
2023-07-20T05:23:01Z,45.2985847,4.84725167,162.0,3.0203260945160095,4393.495564457167
2023-07-20T05:23:05Z,45.2985908,4.84740247,None,3.02,4405.343161988411
2023-07-20T05:23:09Z,45.29860303,4.84754828,162.0,3.0100000000000002,4416.8604336261105
2023-07-20T05:23:16Z,45.29863861,4.84742319,162.0,2.94,4427.438877576263
2023-07-20T05:23:20Z,45.29861114,4.84725861,162.0,2.9500000000000006,4440.704001551201
2023-07-20T05:23:24Z,45.29859339,4.84709398,162.0,2.97,4453.766770267283
2023-07-20T05:23:28Z,45.29857891,4.8469413,162.0,2.98,4465.850058225725
2023-07-20T05:23:32Z,45.29855996,4.84678909,None,2.97,4477.973178548659
2023-07-20T05:23:36Z,45.29853551,4.84663173,162.0,2.9900000000000007,4490.611490210875
2023-07-20T05:23:40Z,45.29851689,4.84647745,162.0,3.0000000000000004,4502.888311052434
2023-07-20T05:23:44Z,45.29850128,4.84632737,162.0,2.9900000000000007,4514.787189087794
2023-07-20T05:23:48Z,45.29849588,4.84616314,162.0,3.0100000000000002,4527.682765715081
2023-07-20T05:23:52Z,45.29848145,4.84600067,None,3.0300000000000007,4540.52683763084
2023-07-20T05:23:56Z,45.29847,4.84584509,162.0,3.0272926391015074,4552.796141299022
2023-07-20T05:24:00Z,45.29845681,4.84569994,163.0,3.0100000000000002,4564.275171522885
2023-07-20T05:24:04Z,45.29844403,4.84554513,163.0,3.0100000000000002,4576.500701782108
2023-07-20T05:24:08Z,45.29842965,4.84538625,None,3.02,4589.064743106328
2023-07-20T05:24:12Z,45.29842245,4.84522662,163.0,3.0400000000000005,4601.611099498369
2023-07-20T05:24:16Z,45.29842651,4.84507147,163.0,3.1,4613.78887957343
2023-07-20T05:24:20Z,45.29841795,4.84490988,None,3.0900000000000003,4626.4990817572925
2023-07-20T05:24:24Z,45.29840855,4.84475289,163.0,3.0900000000000003,4638.857061324987
2023-07-20T05:24:28Z,45.29840184,4.84459772,163.0,3.0800000000000005,4651.0508766188705
2023-07-20T05:24:32Z,45.29839805,4.84444109,None,3.0800000000000005,4663.343604220543
2023-07-20T05:24:36Z,45.29839644,4.84428251,163.0,3.0800000000000005,4675.783351970687
2023-07-20T05:24:40Z,45.29838883,4.84412722,163.0,3.079703833809943,4687.993085321104
2023-07-20T05:24:44Z,45.29838164,4.84396953,163.0,3.0800000000000005,4700.38752572798
2023-07-20T05:24:48Z,45.29836189,4.84381532,None,3.0900000000000003,4712.680768217392
2023-07-20T05:24:52Z,45.29834492,4.843655,160.0,3.0800000000000005,4725.396364304639
2023-07-20T05:24:56Z,45.29833812,4.84349038,160.0,3.0900000000000003,4738.3306914559
2023-07-20T05:25:00Z,45.2983399,4.84332691,None,3.0900000000000003,4751.154245888977
2023-07-20T05:25:04Z,45.29834453,4.84316572,160.0,3.1200000000000006,4763.8079051035065
2023-07-20T05:25:08Z,45.2983424,4.84300073,160.0,3.1200000000000006,4776.7513210534
2023-07-20T05:25:12Z,45.29833421,4.84284287,None,3.1200000000000006,4789.166730966153
2023-07-20T05:25:16Z,45.29833271,4.84268926,160.0,3.11,4801.216529099284
2023-07-20T05:25:20Z,45.29833402,4.84252944,160.0,3.1200000000000006,4813.7531106762735
2023-07-20T05:25:24Z,45.29833084,4.84236446,160.0,3.1185351797285863,4826.698405066376
2023-07-20T05:25:28Z,45.29835807,4.84221906,None,3.11,4838.497771129355
2023-07-20T05:25:32Z,45.2983575,4.84206822,160.0,3.11,4850.329311205891
2023-07-20T05:25:36Z,45.29833083,4.84190972,160.0,3.1200000000000006,4863.109963294259
2023-07-20T05:25:40Z,45.29831108,4.8417523,None,3.1200000000000006,4875.6510325564295
2023-07-20T05:25:44Z,45.29829628,4.84159193,159.0,3.1300000000000003,4888.337000440786
2023-07-20T05:25:48Z,45.29828568,4.84142533,159.0,3.14,4901.457540841103
2023-07-20T05:25:52Z,45.29827082,4.84126922,None,3.1300000000000003,4913.813160143527
2023-07-20T05:25:56Z,45.29826612,4.84111355,159.0,3.1300000000000003,4926.034566110415
2023-07-20T05:26:00Z,45.29825616,4.84096101,159.0,3.1200000000000006,4938.050394424268
2023-07-20T05:26:04Z,45.29824322,4.84081812,159.0,3.0900000000000003,4949.350104404411
2023-07-20T05:26:08Z,45.29822566,4.84066993,159.0,3.086153595630965,4961.136338096087
2023-07-20T05:26:12Z,45.29820961,4.84052747,None,3.0500000000000003,4972.451915751208
2023-07-20T05:26:16Z,45.2981892,4.84037544,159.0,3.0500000000000003,4984.590481110687
2023-07-20T05:26:20Z,45.29817395,4.84021887,159.0,3.0500000000000003,4996.98773032739
2023-07-20T05:26:24Z,45.2981545,4.84006389,159.0,3.0500000000000003,5009.334565908306
2023-07-20T05:26:28Z,45.29814137,4.83991263,None,3.0400000000000005,5021.288324864637
2023-07-20T05:26:32Z,45.2981404,4.83975639,159.0,3.0500000000000003,5033.543773636963
2023-07-20T05:26:36Z,45.29814152,4.83959704,159.0,3.0500000000000003,5046.04330666164
2023-07-20T05:26:40Z,45.29812333,4.83943441,None,3.0511959435597937,5058.9586917364895
2023-07-20T05:26:44Z,45.2981095,4.8392731,154.0,3.06,5071.704363452382
2023-07-20T05:26:48Z,45.29809589,4.83911268,154.0,3.06,5084.377800201214
2023-07-20T05:26:52Z,45.29807979,4.83895238,154.0,3.0500000000000003,5097.077919994112
2023-07-20T05:26:56Z,45.29807178,4.83879131,None,3.06,5109.74308356239
2023-07-20T05:27:00Z,45.29806377,4.83862844,154.0,3.0700000000000007,5122.549090081751
2023-07-20T05:27:04Z,45.29804863,4.83846977,154.0,3.0700000000000007,5135.107913630169
2023-07-20T05:27:08Z,45.29804185,4.8383071,None,3.1,5147.889488975661
2023-07-20T05:27:12Z,45.29803126,4.83814336,154.0,3.1200000000000006,5160.786578079907
2023-07-20T05:27:16Z,45.29802954,4.83798424,154.0,3.1300000000000003,5173.268938877525
2023-07-20T05:27:20Z,45.29801762,4.83782437,None,3.14,5185.878448169914
2023-07-20T05:27:24Z,45.298008,4.83766287,154.0,3.1408435693945704,5198.59106697906
2023-07-20T05:27:28Z,45.29800005,4.83750487,154.0,3.15,5211.015575827018
2023-07-20T05:27:32Z,45.2979937,4.83734762,None,3.15,5223.36997599364
2023-07-20T05:27:36Z,45.29798326,4.83719278,155.0,3.15,5235.5704684764405
2023-07-20T05:27:40Z,45.29797354,4.83703657,155.0,3.14,5247.87065334548
2023-07-20T05:27:44Z,45.29796058,4.83687306,None,3.15,5260.776528764355
2023-07-20T05:27:48Z,45.29794807,4.83671147,155.0,3.15,5273.527209510781
2023-07-20T05:27:52Z,45.29793668,4.83655729,155.0,3.14,5285.6867165123485
2023-07-20T05:27:56Z,45.29792113,4.83640446,155.0,3.1300000000000003,5297.798198051687
2023-07-20T05:28:00Z,45.29790648,4.83624534,None,3.1300000000000003,5310.384871665939
2023-07-20T05:28:04Z,45.29788498,4.83608938,154.0,3.1200000000000006,5322.849116170519
2023-07-20T05:28:08Z,45.29787093,4.83592876,154.0,3.1202389951724645,5335.544099681779
2023-07-20T05:28:12Z,45.29786396,4.83576517,None,3.1200000000000006,5348.399007448588
2023-07-20T05:28:16Z,45.29785718,4.83560392,154.0,3.1200000000000006,5361.069438670186
2023-07-20T05:28:20Z,45.29785904,4.83544451,154.0,3.1200000000000006,5373.5748289190515
2023-07-20T05:28:24Z,45.29785543,4.83528524,157.0,3.1200000000000006,5386.073970281311
2023-07-20T05:28:28Z,45.29784935,4.83512891,None,3.1200000000000006,5398.354670350636
2023-07-20T05:28:32Z,45.29784208,4.83496554,157.0,3.1200000000000006,5411.194413164218
2023-07-20T05:28:36Z,45.29783954,4.83481302,157.0,3.1200000000000006,5423.160995819456
2023-07-20T05:28:40Z,45.29783311,4.8346588,None,3.1200000000000006,5435.278682541044
2023-07-20T05:28:44Z,45.29782109,4.83449883,157.0,3.1200000000000006,5447.897206973936
2023-07-20T05:28:48Z,45.2978113,4.83433985,157.0,3.11,5460.414546804956
2023-07-20T05:28:52Z,45.29780182,4.83417958,157.0,3.1112007203105256,5473.02976888603
2023-07-20T05:28:56Z,45.29779293,4.83401933,None,3.1200000000000006,5485.6381220608755
2023-07-20T05:29:00Z,45.29778534,4.83386008,157.0,3.1200000000000006,5498.157718638062
2023-07-20T05:29:04Z,45.2977798,4.83370373,157.0,3.1200000000000006,5510.436844600083
2023-07-20T05:29:08Z,45.29777239,4.83354699,None,3.1200000000000006,5522.7586676027395
2023-07-20T05:29:12Z,45.29776352,4.83338866,157.0,3.11,5535.216720107526
2023-07-20T05:29:16Z,45.2977555,4.83322892,158.0,3.11,5547.777970979297
2023-07-20T05:29:20Z,45.29773702,4.83306925,None,3.11,5560.469356510121
2023-07-20T05:29:24Z,45.29772233,4.83290761,158.0,3.11,5573.252664333959
2023-07-20T05:29:28Z,45.29771261,4.83274607,158.0,3.1200000000000006,5585.969414316603
2023-07-20T05:29:32Z,45.29770991,4.83259476,None,3.1,5597.841577649029
2023-07-20T05:29:36Z,45.29770263,4.83243899,158.0,3.1014771601184608,5610.08653942532
2023-07-20T05:29:40Z,45.29769172,4.83227987,158.0,3.11,5622.626268223221
2023-07-20T05:29:44Z,45.2976762,4.83212382,158.0,3.11,5634.987371985833
2023-07-20T05:29:48Z,45.29766256,4.83197224,None,3.11,5646.973179383746
2023-07-20T05:29:52Z,45.29765375,4.83181238,158.0,3.1,5659.55037160073
2023-07-20T05:29:56Z,45.29764009,4.83165644,158.0,3.1,5671.875774528373
2023-07-20T05:30:00Z,45.29762802,4.83150383,None,3.0900000000000003,5683.921057694221
2023-07-20T05:30:04Z,45.29760958,4.83134769,158.0,3.0900000000000003,5696.338582251162
2023-07-20T05:30:08Z,45.29760263,4.83119032,160.0,3.0900000000000003,5708.706449532329
2023-07-20T05:30:12Z,45.29758784,4.83102924,160.0,3.1,5721.447651944977
2023-07-20T05:30:16Z,45.29757776,4.83087532,160.0,3.0900000000000003,5733.572634978089
2023-07-20T05:30:20Z,45.29756425,4.83071885,None,3.0906099627663512,5745.937275130382
2023-07-20T05:30:24Z,45.2975433,4.83056099,160.0,3.0900000000000003,5758.5364524526
2023-07-20T05:30:28Z,45.29751805,4.83040342,160.0,3.0800000000000005,5771.2104557603425
2023-07-20T05:30:32Z,45.29750007,4.83024735,None,3.0800000000000005,5783.614249770948
2023-07-20T05:30:36Z,45.29747713,4.83009203,160.0,3.0900000000000003,5796.061107230897
2023-07-20T05:30:40Z,45.29744646,4.8299362,160.0,3.1,5808.7504441222945
2023-07-20T05:30:44Z,45.2974267,4.82978061,160.0,3.1,5821.150598871488
2023-07-20T05:30:48Z,45.29740961,4.82962261,None,3.11,5833.68847872855
2023-07-20T05:30:52Z,45.29738852,4.82946053,160.0,3.11,5846.615952524086
2023-07-20T05:30:56Z,45.29737889,4.82930404,160.0,3.11,5858.93727000964
2023-07-20T05:31:00Z,45.29736432,4.82915222,None,3.11,5870.955302562064
2023-07-20T05:31:04Z,45.29733004,4.82900517,156.0,3.1097649801242415,5883.102509849992
2023-07-20T05:31:08Z,45.29729325,4.82886327,156.0,3.1,5894.960108021066
2023-07-20T05:31:12Z,45.29723031,4.82874656,156.0,3.0800000000000005,5906.481176597196
2023-07-20T05:31:16Z,45.29713907,4.82866925,None,3.0700000000000007,5918.29626386777
2023-07-20T05:31:20Z,45.29705604,4.82857684,156.0,3.06,5930.030484785924
2023-07-20T05:31:24Z,45.29697253,4.82848444,156.0,3.06,5941.806226599901
2023-07-20T05:31:28Z,45.29693717,4.8283461,None,3.0300000000000007,5953.3470954707
2023-07-20T05:31:32Z,45.29696273,4.82818735,156.0,3.0400000000000005,5966.11911690142
2023-07-20T05:31:35Z,45.29697711,4.82806091,156.0,3.06,5976.164816555106
2023-07-20T05:31:38Z,45.29697863,4.82793108,None,3.06,5986.349882967484
2023-07-20T05:31:41Z,45.29696691,4.82780402,156.0,3.0700000000000007,5996.4010299281545
2023-07-20T05:31:45Z,45.29693474,4.82764228,156.0,3.0900000000000003,6009.581835841816
2023-07-20T05:31:49Z,45.29690263,4.82748731,156.0,3.0900000000000003,6022.250467344962
2023-07-20T05:31:53Z,45.29686776,4.82733218,None,3.1,6035.020864165509
2023-07-20T05:31:57Z,45.29683121,4.82717817,156.0,3.0900000000000003,6047.7658618769465
2023-07-20T05:32:01Z,45.29679841,4.82702623,154.0,3.1,6060.228863361468
2023-07-20T05:32:05Z,45.29676672,4.82687141,None,3.1,6072.873152762332
2023-07-20T05:32:09Z,45.29673094,4.82672192,154.0,3.11,6085.254883515491
2023-07-20T05:32:13Z,45.29670069,4.82657024,154.0,3.1200000000000006,6097.618351848882
2023-07-20T05:32:17Z,45.29667358,4.82641833,154.0,3.1300000000000003,6109.909017444552
2023-07-20T05:32:21Z,45.29664365,4.82627105,154.0,3.130278694771074,6121.930848172152
2023-07-20T05:32:25Z,45.29661352,4.82612262,154.0,3.14,6134.045518531789
2023-07-20T05:32:29Z,45.29658082,4.8259744,154.0,3.15,6146.226509548016
2023-07-20T05:32:33Z,45.2965444,4.82581956,154.0,3.1700000000000004,6159.028715643096
2023-07-20T05:32:37Z,45.29651171,4.82566977,154.0,3.15,6171.326987367643
2023-07-20T05:32:41Z,45.29647948,4.82551744,154.0,3.14,6183.80097123171
2023-07-20T05:32:45Z,45.29645068,4.82536877,154.0,3.1,6195.893805959615
2023-07-20T05:32:49Z,45.29641274,4.82522478,154.0,3.1,6207.949686461782
2023-07-20T05:32:53Z,45.29638447,4.82507886,154.0,3.0900000000000003,6219.818928880743
2023-07-20T05:32:57Z,45.29635069,4.82493044,None,3.0800000000000005,6232.051241948549
2023-07-20T05:33:01Z,45.29631778,4.82477912,151.0,3.0700000000000007,6244.471436698401
2023-07-20T05:33:05Z,45.29628651,4.82463168,151.0,3.069292080590602,6256.547410582476
2023-07-20T05:33:09Z,45.29625672,4.82448091,151.0,3.06,6268.828412603626
2023-07-20T05:33:13Z,45.29622549,4.82432896,None,3.06,6281.242368421634
2023-07-20T05:33:17Z,45.29619621,4.8241771,151.0,3.06,6293.590680038912
2023-07-20T05:33:21Z,45.29617045,4.8240263,151.0,3.0500000000000003,6305.760889931701
2023-07-20T05:33:25Z,45.2961424,4.82386601,None,3.06,6318.714678530416
2023-07-20T05:33:29Z,45.29611216,4.82370913,151.0,3.0800000000000005,6331.470971374749
2023-07-20T05:33:33Z,45.29604981,4.82358212,151.0,3.0700000000000007,6343.606492633275
2023-07-20T05:33:36Z,45.29597341,4.82350906,None,3.0900000000000003,6353.850405290098
2023-07-20T05:33:39Z,45.29590441,4.82341804,151.0,3.11,6364.3279832624185
2023-07-20T05:33:44Z,45.29591226,4.82326696,151.0,3.0700000000000007,6376.210758767189
2023-07-20T05:33:47Z,45.29590874,4.82313621,151.0,3.0900000000000003,6386.474238252907
2023-07-20T05:33:51Z,45.2958906,4.82297634,151.0,3.1,6399.17545371066
2023-07-20T05:33:55Z,45.29587442,4.82281919,152.0,3.11,6411.632763380365
2023-07-20T05:33:59Z,45.29584519,4.82267068,152.0,3.1,6423.726364595587
2023-07-20T05:34:03Z,45.29581813,4.82251558,158.0,3.11,6436.258608238592
2023-07-20T05:34:06Z,45.29580345,4.82236919,158.0,3.11,6447.856773913853
2023-07-20T05:34:09Z,45.29578397,4.82223143,158.0,3.1600000000000006,6458.877421920784
2023-07-20T05:34:12Z,45.29576198,4.8220997,None,3.19,6469.495420775971
2023-07-20T05:34:15Z,45.2957441,4.82197237,158.0,3.2100000000000004,6479.678964251873
2023-07-20T05:34:19Z,45.2957164,4.82181316,158.0,3.23,6492.541269235919
2023-07-20T05:34:23Z,45.29568875,4.82165779,158.0,3.2400000000000007,6505.1099713347285
2023-07-20T05:34:27Z,45.29565876,4.82150593,None,3.23,6517.479419632513
2023-07-20T05:34:31Z,45.29562866,4.82135366,158.0,3.22,6529.883139498157
2023-07-20T05:34:35Z,45.29559319,4.82119986,158.0,3.23,6542.574982005846
2023-07-20T05:34:39Z,45.29556291,4.82105187,None,3.22,6554.661324428824
2023-07-20T05:34:43Z,45.2955261,4.82090553,158.0,3.19,6566.847500898151
2023-07-20T05:34:47Z,45.2954857,4.82076068,159.0,3.23,6579.064585063801
2023-07-20T05:34:51Z,45.29545302,4.82061162,159.0,3.2100000000000004,6591.3080413620355
2023-07-20T05:34:55Z,45.29541684,4.82046757,None,3.2094806967158473,6603.301530443571
2023-07-20T05:34:59Z,45.29538508,4.82031412,159.0,3.2000000000000006,6615.84511456472
2023-07-20T05:35:03Z,45.29534808,4.8201641,159.0,3.2100000000000004,6628.310561352089
2023-07-20T05:35:07Z,45.29531578,4.82000928,None,3.2100000000000004,6640.974198183182
2023-07-20T05:35:11Z,45.29528458,4.81985507,159.0,3.1600000000000006,6653.557728015055
2023-07-20T05:35:15Z,45.29525154,4.81970158,159.0,3.14,6666.145110976791
2023-07-20T05:35:19Z,45.29521593,4.81955508,159.0,3.11,6678.2990909316195
2023-07-20T05:35:23Z,45.29517895,4.81941194,None,3.1,6690.255667353458
2023-07-20T05:35:27Z,45.2951479,4.81926244,159.0,3.0800000000000005,6702.479779103918
2023-07-20T05:35:31Z,45.29510975,4.81911597,159.0,3.0800000000000005,6714.726399227395
2023-07-20T05:35:37Z,45.29511891,4.8192746,159.0,3.0900000000000003,6727.211074531907
2023-07-20T05:35:41Z,45.29518207,4.81941826,159.0,3.11,6740.487339018835
2023-07-20T05:35:44Z,45.29522452,4.81953344,None,3.11,6750.679766178357
2023-07-20T05:35:48Z,45.29528155,4.81967685,159.0,3.1300000000000003,6763.591658778929
2023-07-20T05:35:52Z,45.29532453,4.81982481,159.0,3.14,6776.14228652718
2023-07-20T05:35:56Z,45.29536786,4.8199718,None,3.14,6788.637517937631
2023-07-20T05:36:00Z,45.2953977,4.82012073,159.0,3.15,6800.781289114995
2023-07-20T05:36:04Z,45.29543312,4.82027116,159.0,3.15,6813.220411366175
2023-07-20T05:36:08Z,45.29546529,4.82041993,None,3.14,6825.425425805279
2023-07-20T05:36:12Z,45.29549905,4.82056892,159.0,3.139426891593652,6837.699792493231
2023-07-20T05:36:16Z,45.295525,4.82072154,159.0,3.1300000000000003,6850.0138676939405
2023-07-20T05:36:20Z,45.29555695,4.82086782,None,3.1300000000000003,6862.02500093254
2023-07-20T05:36:24Z,45.29558823,4.82101452,158.0,3.1200000000000006,6874.045859332464
2023-07-20T05:36:28Z,45.2956177,4.82115848,158.0,3.1300000000000003,6885.8035179570015
2023-07-20T05:36:32Z,45.29564173,4.8213006,158.0,3.1200000000000006,6897.266886588006
2023-07-20T05:36:36Z,45.29568236,4.82144295,None,3.14,6909.311340384808
2023-07-20T05:36:40Z,45.29570992,4.8215863,158.0,3.1300000000000003,6920.965453434552
2023-07-20T05:36:44Z,45.29573482,4.82173408,158.0,3.0700000000000007,6932.883089040848
2023-07-20T05:36:48Z,45.29576214,4.82187591,None,3.02,6944.415145759727
2023-07-20T05:36:52Z,45.29579539,4.8220144,158.0,3.0100000000000002,6955.889635333499
2023-07-20T05:36:56Z,45.29582706,4.82216134,158.0,3.0087419700294937,6967.941057530131
2023-07-20T05:37:00Z,45.29585744,4.82230861,152.0,2.9900000000000007,6979.976228186657
2023-07-20T05:37:04Z,45.29588643,4.82245462,152.0,2.98,6991.873800079623
2023-07-20T05:37:08Z,45.29591784,4.82260443,152.0,2.97,7004.132428431196
2023-07-20T05:37:12Z,45.29595175,4.82275029,152.0,2.98,7016.178380685454
2023-07-20T05:37:16Z,45.29598508,4.82288747,None,2.97,7027.55849334893
2023-07-20T05:37:20Z,45.29602867,4.8230228,151.0,2.9600000000000004,7039.226944495569
2023-07-20T05:37:24Z,45.29606034,4.82316846,151.0,2.9500000000000006,7051.182332190976
2023-07-20T05:37:27Z,45.2960874,4.82330166,None,2.9600000000000004,7062.054709347121
2023-07-20T05:37:30Z,45.29611792,4.82342549,151.0,3.0000000000000004,7072.343103536752
2023-07-20T05:37:33Z,45.2961477,4.82355006,151.0,3.0300000000000007,7082.65963310722
2023-07-20T05:37:37Z,45.29616731,4.8237135,151.0,3.0500000000000003,7095.66372851898
2023-07-20T05:37:42Z,45.29619932,4.82386366,None,3.0300000000000007,7107.967735286501
2023-07-20T05:37:46Z,45.29622322,4.82400991,151.0,3.02,7119.743008466181
2023-07-20T05:37:50Z,45.29624906,4.82416392,151.0,3.02,7132.160127147376
2023-07-20T05:37:54Z,45.29627195,4.82432533,None,3.0400000000000005,7145.074085035596
2023-07-20T05:37:58Z,45.29629994,4.82447971,151.0,3.06,7157.5767302265995
2023-07-20T05:38:02Z,45.29633064,4.82463052,151.0,3.0605621605000555,7169.888388135213
2023-07-20T05:38:06Z,45.29636201,4.82477858,None,3.0700000000000007,7182.0141272601995
2023-07-20T05:38:10Z,45.29639485,4.82492306,151.0,3.0700000000000007,7193.920240864306
2023-07-20T05:38:14Z,45.29642488,4.82506746,154.0,3.06,7205.728336525293
2023-07-20T05:38:18Z,45.29645451,4.82521801,None,3.06,7217.987899758536
2023-07-20T05:38:22Z,45.29648526,4.8253668,154.0,3.0800000000000005,7230.1489254038215
2023-07-20T05:38:26Z,45.296522,4.82551241,154.0,3.0800000000000005,7242.278376515783
2023-07-20T05:38:30Z,45.29655479,4.82565133,154.0,3.0700000000000007,7253.768349285371
2023-07-20T05:38:34Z,45.29658145,4.82580187,None,3.0300000000000007,7265.942616679962
2023-07-20T05:38:38Z,45.29661326,4.82594311,154.0,3.0000000000000004,7277.571732597315
2023-07-20T05:38:42Z,45.29664334,4.82608678,154.0,2.98,7289.326451234621
2023-07-20T05:38:46Z,45.29667612,4.826236,None,2.984240882028566,7301.584958283483
2023-07-20T05:38:50Z,45.2967074,4.82638593,154.0,3.0300000000000007,7313.848350214778
2023-07-20T05:38:54Z,45.29673374,4.82653477,154.0,3.02,7325.884595139768
2023-07-20T05:38:58Z,45.29676655,4.82668365,None,3.0100000000000002,7338.1186161223395
2023-07-20T05:39:02Z,45.29679722,4.8268349,154.0,3.0100000000000002,7350.4624247397305
2023-07-20T05:39:06Z,45.29682702,4.82698163,154.0,3.0100000000000002,7362.438771095519
2023-07-20T05:39:10Z,45.29685685,4.82712966,156.0,3.0000000000000004,7374.514053277817
2023-07-20T05:39:14Z,45.29688945,4.82727596,None,3.0100000000000002,7386.547980550588
2023-07-20T05:39:18Z,45.29691763,4.82742085,156.0,3.0000000000000004,7398.336573457414
2023-07-20T05:39:22Z,45.29694552,4.82756775,156.0,3.0000000000000004,7410.268817321748
2023-07-20T05:39:26Z,45.29697504,4.82771962,156.0,3.0000000000000004,7422.624789848811
2023-07-20T05:39:30Z,45.29700342,4.82786974,156.0,3.000473489498892,7434.815076950272
2023-07-20T05:39:34Z,45.29701887,4.82802525,None,3.0100000000000002,7447.133296242556
2023-07-20T05:39:38Z,45.29701719,4.82818273,156.0,3.02,7459.4871873742
2023-07-20T05:39:42Z,45.29698896,4.82833553,156.0,3.0300000000000007,7471.876415610464
2023-07-20T05:39:46Z,45.29699115,4.8284855,None,3.0400000000000005,7483.642346764038
2023-07-20T05:39:50Z,45.29707484,4.82858757,156.0,3.02,7495.9146682330465
2023-07-20T05:39:54Z,45.29717849,4.82866856,156.0,3.0300000000000007,7509.069659672754
2023-07-20T05:39:58Z,45.29728552,4.82873616,None,3.0500000000000003,7522.093022214861
2023-07-20T05:40:02Z,45.29738376,4.82881086,156.0,3.06,7534.484056563898
2023-07-20T05:40:06Z,45.2974669,4.82874316,156.0,3.0500000000000003,7545.141255381965
2023-07-20T05:40:10Z,45.29749661,4.82860927,None,3.0300000000000007,7556.150125282892
2023-07-20T05:40:14Z,45.29747664,4.82846361,156.0,3.0292487833045665,7567.788940374539
2023-07-20T05:40:18Z,45.29743437,4.82831806,156.0,3.02,7580.134322271132
2023-07-20T05:40:22Z,45.29737116,4.82818222,156.0,3.0300000000000007,7592.896758142185
2023-07-20T05:40:26Z,45.29730119,4.8280601,None,3.0400000000000005,7605.234710088481
2023-07-20T05:40:30Z,45.29723696,4.82792944,156.0,3.0500000000000003,7617.724405181871
2023-07-20T05:40:34Z,45.2971916,4.82778757,156.0,3.0500000000000003,7629.941053492169
2023-07-20T05:40:38Z,45.29718402,4.82762743,None,3.0500000000000003,7642.530359587192
2023-07-20T05:40:42Z,45.29722245,4.82747697,156.0,3.0500000000000003,7655.081222886636
2023-07-20T05:40:46Z,45.29727035,4.82733915,156.0,3.0500000000000003,7667.131241578346
2023-07-20T05:40:50Z,45.29731642,4.82720153,None,3.06,7679.078617435362
2023-07-20T05:40:54Z,45.29736189,4.82706448,154.0,3.0500000000000003,7690.957083507719
2023-07-20T05:40:58Z,45.29741174,4.82692919,154.0,3.0482994613960996,7702.928113220956
2023-07-20T05:41:02Z,45.29744688,4.82678381,None,3.02,7714.981620755377
2023-07-20T05:41:06Z,45.29748858,4.82664821,154.0,3.0000000000000004,7726.583602920698
2023-07-20T05:41:10Z,45.29753393,4.82650964,154.0,3.0300000000000007,7738.564428423702
2023-07-20T05:41:14Z,45.29757764,4.82636292,154.0,3.0300000000000007,7751.056070827131
2023-07-20T05:41:17Z,45.29761385,4.82624507,None,3.06,7761.1379407957875
2023-07-20T05:41:21Z,45.29767633,4.82612968,154.0,3.0500000000000003,7772.545673235687
2023-07-20T05:41:25Z,45.29771011,4.82598627,154.0,3.0300000000000007,7784.404336312384
2023-07-20T05:41:28Z,45.29771551,4.82585455,None,3.0500000000000003,7794.75353252908
2023-07-20T05:41:31Z,45.29771758,4.82571917,154.0,3.051661685344338,7805.374885252705
2023-07-20T05:41:34Z,45.29773891,4.8255838,154.0,3.0800000000000005,7816.254365130197
2023-07-20T05:41:38Z,45.29777001,4.82542279,None,3.11,7829.348003149719
2023-07-20T05:41:42Z,45.29780661,4.82526629,154.0,3.1103444152485786,7842.27983191821
2023-07-20T05:41:46Z,45.29784858,4.8251199,154.0,3.1200000000000006,7854.673514020078
2023-07-20T05:41:50Z,45.2978873,4.8249701,151.0,3.1200000000000006,7867.186628585587
2023-07-20T05:41:54Z,45.29792704,4.82482107,None,3.1300000000000003,7879.6826548444515
2023-07-20T05:41:58Z,45.29797405,4.82467845,150.0,3.14,7892.029254544287
2023-07-20T05:42:02Z,45.29802561,4.82454904,150.0,3.15,7903.685551516783
2023-07-20T05:42:06Z,45.29806551,4.82440702,None,3.14,7915.675337896435
2023-07-20T05:42:10Z,45.29810462,4.82425969,150.0,3.14,7928.021860465977
2023-07-20T05:42:14Z,45.2981436,4.82411344,150.0,3.15,7940.284011397716
2023-07-20T05:42:18Z,45.29818087,4.82396509,150.0,3.1600000000000006,7952.635362886762
2023-07-20T05:42:22Z,45.29822145,4.82381395,150.0,3.14,7965.319180833439
2023-07-20T05:42:26Z,45.29826254,4.82367049,None,3.1420807166830986,7977.4630561030635
2023-07-20T05:42:30Z,45.29831616,4.82353384,150.0,3.1600000000000006,7989.726639274045
2023-07-20T05:42:34Z,45.29837257,4.82339642,150.0,3.15,8002.196014713925
2023-07-20T05:42:38Z,45.29842658,4.82326671,None,3.1200000000000006,8014.008751893788
2023-07-20T05:42:42Z,45.29848926,4.82314004,150.0,3.0800000000000005,8026.143067157995
2023-07-20T05:42:46Z,45.29855389,4.8230117,150.0,3.06,8038.509463623345
2023-07-20T05:42:50Z,45.29862807,4.82289131,151.0,3.06,8051.044842614046
2023-07-20T05:42:54Z,45.2986897,4.82275766,None,3.06,8063.567123725816
2023-07-20T05:42:58Z,45.29875915,4.82264185,151.0,3.058747248541308,8075.48721541391
2023-07-20T05:43:02Z,45.29884292,4.82253334,151.0,3.0500000000000003,8088.101280089376
2023-07-20T05:43:06Z,45.29892078,4.82241474,None,3.0800000000000005,8100.806151593669
2023-07-20T05:43:10Z,45.29897975,4.82228232,151.0,3.0800000000000005,8113.087465600103
2023-07-20T05:43:14Z,45.29904,4.8221539,151.0,3.0800000000000005,8125.18277080461
2023-07-20T05:43:18Z,45.29911766,4.82204162,None,3.0800000000000005,8137.513708295349
2023-07-20T05:43:22Z,45.29921205,4.8219445,151.0,3.0800000000000005,8150.478066367848
2023-07-20T05:43:26Z,45.29931304,4.82185947,151.0,3.0900000000000003,8163.533859150703
2023-07-20T05:43:30Z,45.29940157,4.82176096,151.0,3.1,8176.04414749329
2023-07-20T05:43:34Z,45.29950749,4.82169123,None,3.1,8189.024357233426
2023-07-20T05:43:38Z,45.29961119,4.82162348,151.0,3.1200000000000006,8201.715425296426
2023-07-20T05:43:42Z,45.29970981,4.82154033,151.0,3.14,8214.469434780089
2023-07-20T05:43:46Z,45.29980767,4.82145835,None,3.14,8227.10397637342
2023-07-20T05:43:53Z,45.29971339,4.82140918,151.0,3.0700000000000007,8238.269246729076
2023-07-20T05:43:57Z,45.29962615,4.82151954,151.0,3.0800000000000005,8251.266666893594
2023-07-20T05:44:01Z,45.29955031,4.8216277,None,3.0800000000000005,8263.225455903012
2023-07-20T05:44:05Z,45.29945751,4.8217277,151.0,3.0800000000000005,8276.182702059392
2023-07-20T05:44:09Z,45.29935331,4.82180316,151.0,3.0900000000000003,8289.188089388415
2023-07-20T05:44:13Z,45.29925323,4.82187317,151.0,3.0900000000000003,8301.592414254672
2023-07-20T05:44:17Z,45.29916192,4.82195752,None,3.1,8313.706588291332
2023-07-20T05:44:21Z,45.29907233,4.82205122,151.0,3.0900000000000003,8326.082049779172
2023-07-20T05:44:25Z,45.29899636,4.82216979,151.0,3.088663095521293,8338.64303888089
2023-07-20T05:44:29Z,45.29893447,4.82229026,None,3.06,8350.330535244651
2023-07-20T05:44:33Z,45.29887487,4.82241488,151.0,3.0500000000000003,8362.138114455109
2023-07-20T05:44:37Z,45.29882288,4.82254659,151.0,3.0300000000000007,8373.974964624558
2023-07-20T05:44:41Z,45.29876134,4.82267007,None,3.0100000000000002,8385.83169326574
2023-07-20T05:44:45Z,45.29869217,4.82278371,151.0,3.0000000000000004,8397.602247328343
2023-07-20T05:44:49Z,45.29861988,4.82289737,151.0,2.9900000000000007,8409.603311297109
2023-07-20T05:44:53Z,45.29855026,4.82301672,None,2.9900000000000007,8421.748373610608
2023-07-20T05:44:57Z,45.29848413,4.82314438,150.0,3.0500000000000003,8434.169300646881
2023-07-20T05:45:01Z,45.29843042,4.82327506,150.0,3.0400000000000005,8446.030806774277
2023-07-20T05:45:05Z,45.29837668,4.82340964,150.0,3.0500000000000003,8458.159284188889
2023-07-20T05:45:09Z,45.29833033,4.82355721,150.0,3.0487621652200603,8470.828660119483
2023-07-20T05:45:13Z,45.29828458,4.82369952,150.0,3.0300000000000007,8483.09446271047
2023-07-20T05:45:17Z,45.2982332,4.82383591,150.0,3.02,8495.22103480914
2023-07-20T05:45:21Z,45.29819108,4.82398123,150.0,3.02,8507.543252538155
2023-07-20T05:45:25Z,45.29815166,4.82412845,150.0,3.02,8519.893862503852
2023-07-20T05:45:29Z,45.29811745,4.82427955,None,3.0300000000000007,8532.34057887768
2023-07-20T05:45:33Z,45.29807053,4.82442335,150.0,3.0400000000000005,8544.766874483303
2023-07-20T05:45:37Z,45.29803157,4.82456742,150.0,3.0400000000000005,8556.8684287405
2023-07-20T05:45:41Z,45.29799075,4.82470656,150.0,3.0400000000000005,8568.687504858153
2023-07-20T05:45:45Z,45.29794979,4.8248407,None,3.0300000000000007,8580.151602647076
2023-07-20T05:45:49Z,45.29791521,4.82497736,151.0,3.0300000000000007,8591.538937420424
2023-07-20T05:45:53Z,45.29788128,4.825121,154.0,3.029372333392199,8603.41995664759
2023-07-20T05:45:57Z,45.29784127,4.82526366,None,3.02,8615.460940391999
2023-07-20T05:46:01Z,45.29780454,4.82540971,154.0,3.02,8627.622272914541
2023-07-20T05:46:05Z,45.29776498,4.82555117,154.0,3.02,8639.557335945283
2023-07-20T05:46:09Z,45.29772791,4.8256922,154.0,3.0000000000000004,8651.36164742671
2023-07-20T05:46:13Z,45.29769191,4.82583524,None,3.0000000000000004,8663.273370289535
2023-07-20T05:46:17Z,45.29764501,4.82596967,154.0,3.0000000000000004,8675.035684422737
2023-07-20T05:46:21Z,45.2975999,4.82610202,154.0,2.98,8686.564080910528
2023-07-20T05:46:25Z,45.29755588,4.82624011,None,2.98,8698.449144788061
2023-07-20T05:46:29Z,45.29751603,4.82637984,154.0,2.97,8710.270241369602
2023-07-20T05:46:33Z,45.2974837,4.8265174,154.0,2.94,8721.642666836682
2023-07-20T05:46:37Z,45.2974458,4.82665607,None,2.9401847776180343,8733.306729146836
2023-07-20T05:46:41Z,45.29741536,4.82680505,154.0,2.94,8745.472243459604
2023-07-20T05:46:45Z,45.2973742,4.82694216,154.0,2.9500000000000006,8757.159294761532
2023-07-20T05:46:49Z,45.29732852,4.82707897,None,2.9500000000000006,8769.03068692086
2023-07-20T05:46:53Z,45.29728345,4.82721334,156.0,2.9500000000000006,8780.700107989092
2023-07-20T05:46:57Z,45.29722973,4.82735368,156.0,2.9600000000000004,8793.222914079897
2023-07-20T05:47:01Z,45.2971828,4.82749679,156.0,2.97,8805.600731747436
2023-07-20T05:47:04Z,45.29715405,4.82761924,None,2.97,8815.723019182098
2023-07-20T05:47:08Z,45.29713817,4.82778097,156.0,2.9900000000000007,8828.531010617606
2023-07-20T05:47:12Z,45.29716952,4.8279349,156.0,3.0000000000000004,8841.097662833507
2023-07-20T05:47:16Z,45.2972295,4.82806495,None,3.0100000000000002,8853.283473578314
2023-07-20T05:47:20Z,45.29729074,4.82819556,156.0,3.02,8865.583001555166
2023-07-20T05:47:24Z,45.29734337,4.82833328,156.0,3.02,8877.867397674529
2023-07-20T05:47:28Z,45.29738795,4.82847088,None,3.0400000000000005,8889.743311173432
2023-07-20T05:47:32Z,45.29742325,4.82861988,156.0,3.039476711096164,8902.071441806767
2023-07-20T05:47:36Z,45.2974285,4.82877192,156.0,3.0400000000000005,8914.01139636293
2023-07-20T05:47:39Z,45.2974756,4.82888222,156.0,3.0500000000000003,8924.123397914496
2023-07-20T05:47:43Z,45.29754673,4.82899095,None,3.050864677438249,8935.752170200461
2023-07-20T05:47:47Z,45.29762129,4.82909557,156.0,3.0700000000000007,8947.41431168652
2023-07-20T05:47:51Z,45.29770569,4.82918172,160.0,3.0700000000000007,8958.974890820606
2023-07-20T05:47:55Z,45.29778972,4.82927689,160.0,3.0700000000000007,8970.930619590708
2023-07-20T05:47:59Z,45.2978865,4.82935425,None,3.0800000000000005,8983.280065613308
2023-07-20T05:48:03Z,45.29798249,4.82943212,153.0,3.0700000000000007,8995.572940173839
2023-07-20T05:48:07Z,45.29807062,4.82951216,153.0,3.0700000000000007,9007.206850384884
2023-07-20T05:48:11Z,45.29816955,4.82959296,None,3.0400000000000005,9019.89751709285
2023-07-20T05:48:15Z,45.29827182,4.82967585,153.0,3.0500000000000003,9032.991715047283
2023-07-20T05:48:19Z,45.29837383,4.82974368,153.0,3.06,9045.51517652669
2023-07-20T05:48:22Z,45.29845783,4.82979304,153.0,3.0700000000000007,9055.621716094554
2023-07-20T05:48:26Z,45.29856485,4.82986557,153.0,3.0800000000000005,9068.806198100003
2023-07-20T05:48:30Z,45.29867248,4.82993571,153.0,3.0900000000000003,9081.97243986998
2023-07-20T05:48:34Z,45.29876476,4.83001627,None,3.11,9094.018532749995
2023-07-20T05:48:38Z,45.29886131,4.83008746,153.0,3.108899896000948,9106.114794779272
2023-07-20T05:48:41Z,45.29894763,4.83013541,153.0,3.1,9116.419085463796
2023-07-20T05:48:45Z,45.29905159,4.83021171,None,3.11,9129.430917860605
2023-07-20T05:48:49Z,45.29915442,4.8302836,153.0,3.1120956484108104,9142.17457916017
2023-07-20T05:48:53Z,45.29925798,4.83035422,153.0,3.1600000000000006,9154.947530354073
2023-07-20T05:48:57Z,45.29935982,4.83041935,None,3.1700000000000004,9167.365242010645
2023-07-20T05:49:01Z,45.29946079,4.83048987,153.0,3.18,9179.875965789066
2023-07-20T05:49:05Z,45.29956396,4.8305594,153.0,3.18,9192.572907018803
2023-07-20T05:49:09Z,45.29965412,4.83064323,153.0,3.18,9204.557769837085
2023-07-20T05:49:13Z,45.29975426,4.83071086,None,3.18,9216.886596102542
2023-07-20T05:49:17Z,45.29985423,4.83077072,153.0,3.1700000000000004,9228.948334880664
2023-07-20T05:49:21Z,45.29995659,4.83081832,153.0,3.15,9240.92136063834
2023-07-20T05:49:25Z,45.30005987,4.83086358,None,3.14,9252.936072897599
2023-07-20T05:49:29Z,45.30015942,4.83092087,156.0,3.1200000000000006,9264.877516940012
2023-07-20T05:49:33Z,45.3002633,4.83096221,156.0,3.119168618178603,9276.86918430591
2023-07-20T05:49:37Z,45.30036211,4.8310113,None,3.0900000000000003,9288.506131137068
2023-07-20T05:49:41Z,45.30045702,4.8310456,156.0,3.0700000000000007,9299.391876822905
2023-07-20T05:49:45Z,45.30055618,4.83108519,156.0,3.0500000000000003,9310.841400983049
2023-07-20T05:49:49Z,45.30066153,4.8311052,None,3.0300000000000007,9322.654473506893
2023-07-20T05:49:59Z,45.30057033,4.8310713,156.0,2.9500000000000006,9333.133176815072
2023-07-20T05:50:03Z,45.30046236,4.8310459,156.0,2.9600000000000004,9345.296962548598
2023-07-20T05:50:07Z,45.30035522,4.83101205,156.0,2.94,9357.496652174641
2023-07-20T05:50:11Z,45.30025556,4.83097032,156.0,2.94,9369.046115872172
2023-07-20T05:50:15Z,45.30016194,4.83090976,None,2.93,9380.483775815359
2023-07-20T05:50:19Z,45.30006322,4.8308642,156.0,2.9100000000000006,9392.02256262536
2023-07-20T05:50:23Z,45.29995119,4.83083659,153.0,2.9200000000000004,9404.660239144854
2023-07-20T05:50:27Z,45.29983903,4.83079506,None,2.93,9417.544015290092
2023-07-20T05:50:30Z,45.29975445,4.83074654,153.0,2.9600000000000004,9427.685185740222
2023-07-20T05:50:34Z,45.29965224,4.83067691,153.0,2.97,9440.289250221525
2023-07-20T05:50:38Z,45.29955419,4.83060579,153.0,2.98,9452.531098961932
2023-07-20T05:50:42Z,45.29945635,4.83052992,None,3.0100000000000002,9464.926672033293
2023-07-20T05:50:46Z,45.29936148,4.83044886,153.0,3.02,9477.238925867465
2023-07-20T05:50:50Z,45.29926757,4.83036755,153.0,3.0212297215404846,9489.470156095951
2023-07-20T05:50:54Z,45.29917265,4.83029246,None,3.0500000000000003,9501.552125138713
2023-07-20T05:50:58Z,45.29907635,4.83020612,153.0,3.0500000000000003,9514.217284769007
2023-07-20T05:51:01Z,45.29899892,4.83014135,153.0,3.0514963906163897,9524.210375611476
2023-07-20T05:51:05Z,45.2989011,4.83006559,None,3.0900000000000003,9536.599885368703
2023-07-20T05:51:09Z,45.29880141,4.82999215,153.0,3.1,9549.08717900933
2023-07-20T05:51:12Z,45.29872297,4.82992915,153.0,3.101689305118579,9559.107920479897
2023-07-20T05:51:15Z,45.2986454,4.82986315,None,3.14,9569.163753234663
2023-07-20T05:51:19Z,45.29854236,4.82978193,153.0,3.18,9582.268104403789
2023-07-20T05:51:23Z,45.29845054,4.8296924,153.0,3.18,9594.655566050375
2023-07-20T05:51:27Z,45.29835526,4.82961157,153.0,3.1700000000000004,9606.99764258303
2023-07-20T05:51:31Z,45.2982597,4.82952869,None,3.1600000000000006,9619.449619934805
2023-07-20T05:51:35Z,45.29815785,4.8294504,153.0,3.15,9632.327415774995
2023-07-20T05:51:39Z,45.29806296,4.82936345,153.0,3.1600000000000006,9644.886416480202
2023-07-20T05:51:43Z,45.29796826,4.82928528,None,3.15,9657.066905117199
2023-07-20T05:51:47Z,45.29787324,4.82919531,160.0,3.1600000000000006,9669.768123631504
2023-07-20T05:51:51Z,45.29777761,4.8291125,156.0,3.1600000000000006,9682.223900774792
2023-07-20T05:51:55Z,45.29768107,4.82903522,None,3.160372627807894,9694.54704028324
2023-07-20T05:51:59Z,45.29758226,4.82897356,156.0,3.1600000000000006,9706.546407398058
2023-07-20T05:52:03Z,45.29749047,4.82889827,156.0,3.14,9718.33380416225
2023-07-20T05:52:07Z,45.29742143,4.8287877,None,3.1200000000000006,9729.913641456093
2023-07-20T05:52:11Z,45.29731987,4.82876661,156.0,3.11,9741.321355739305
2023-07-20T05:52:15Z,45.29723294,4.82870033,156.0,3.0500000000000003,9752.292540300012
2023-07-20T05:52:19Z,45.29713862,4.82863075,156.0,3.0500000000000003,9764.110727172876
2023-07-20T05:52:23Z,45.29704896,4.82853798,None,3.0400000000000005,9776.44944021256
2023-07-20T05:52:27Z,45.29698554,4.8284004,156.0,3.0400000000000005,9789.33884882142
2023-07-20T05:52:30Z,45.29699056,4.82827259,156.0,3.0400000000000005,9799.379578792208
2023-07-20T05:52:34Z,45.29700536,4.82810835,None,3.0500000000000003,9812.3668869882
2023-07-20T05:52:37Z,45.29700865,4.82797307,156.0,3.0700000000000007,9822.984334408025
2023-07-20T05:52:40Z,45.2969964,4.82783655,156.0,3.0900000000000003,9833.778945925984
2023-07-20T05:52:43Z,45.29696922,4.82770388,None,3.1200000000000006,9844.61492882908
2023-07-20T05:52:46Z,45.29693912,4.82756998,156.0,3.1600000000000006,9855.637716469066
2023-07-20T05:52:49Z,45.29690498,4.82743924,156.0,3.19,9866.572174666568
2023-07-20T05:52:52Z,45.29687431,4.82729243,156.0,3.19,9878.581620799187
2023-07-20T05:52:55Z,45.29683885,4.82715684,None,3.2400000000000007,9889.923786407959
2023-07-20T05:52:58Z,45.29680284,4.827025,154.0,3.2800000000000007,9901.012526008568
2023-07-20T05:53:01Z,45.29677034,4.82689342,154.0,3.2824532596756297,9911.947273577354
2023-07-20T05:53:04Z,45.29674251,4.82676521,None,3.34,9922.468788956287
2023-07-20T05:53:08Z,45.29671058,4.82660388,154.0,3.3600000000000003,9935.611464655654
2023-07-20T05:53:12Z,45.29668554,4.82646329,154.0,3.3597006981398834,9946.984898650766
2023-07-20T05:53:16Z,45.29666365,4.82632893,154.0,3.35,9957.801092606853
2023-07-20T05:53:18Z,45.29666365,4.82632893,None,3.35,9957.801092606853
2023-07-20T05:53:20Z,45.29663705,4.82618152,154.0,3.3600000000000003,9969.735707856677
2023-07-20T05:53:24Z,45.29660297,4.82602657,154.0,3.38,9982.46630919961
2023-07-20T05:53:28Z,45.29660297,4.82602657,None,3.38,9982.46630919961
2023-07-20T05:53:32Z,45.29653114,4.82572212,154.0,3.38,10007.646048410115
2023-07-20T05:53:36Z,45.29650404,4.82557697,154.0,3.3600000000000003,10019.423112260294
2023-07-20T05:53:39Z,45.29647986,4.82544478,None,3.35,10030.134557286668
2023-07-20T05:53:42Z,45.29645442,4.82530159,154.0,3.35,10041.716656678784
2023-07-20T05:53:45Z,45.2964295,4.82515831,154.0,3.3700000000000006,10053.291643336976
2023-07-20T05:53:48Z,45.29639732,4.82500393,154.0,3.39,10065.918181271994
2023-07-20T05:53:51Z,45.29636467,4.82485431,None,3.42,10078.202429179815
2023-07-20T05:53:54Z,45.29633397,4.82471928,151.0,3.42,10089.330076433978
2023-07-20T05:53:58Z,45.29630249,4.82456284,151.0,3.4000000000000004,10102.090134032704
