Time,LatitudeDegrees,LongitudeDegrees,Elevation,Speed,Distance
2023-09-17T09:37:32Z,45.19166321,4.79578231,142.0,0.0,0
2023-09-17T09:37:37Z,45.19166321,4.79578231,142.0,1.6323404294153543,0.0
2023-09-17T09:37:44Z,45.19168887,4.7960268,160.0,3.283317449119906,19.42336754427664
2023-09-17T09:37:50Z,45.19171515,4.7961717,None,3.310474295344888,31.17871106574874
2023-09-17T09:37:54Z,45.19174189,4.7963091,160.0,3.322450408239985,42.37757003993243
2023-09-17T09:37:58Z,45.19176776,4.79645815,160.0,2.9500000000000006,54.43812723491015
2023-09-17T09:38:03Z,45.19180522,4.79659641,160.0,2.89,66.07335419993245
2023-09-17T09:38:07Z,45.19182534,4.79673611,160.0,2.89,77.27685097877907
2023-09-17T09:38:12Z,45.19184786,4.79688715,None,2.85,89.40707077193527
2023-09-17T09:38:17Z,45.19186133,4.79703996,160.0,2.82,101.50832907174852
2023-09-17T09:38:21Z,45.19186442,4.79716814,160.0,2.8000000000000007,111.58698192532259
2023-09-17T09:38:26Z,45.19185442,4.79731743,None,2.7999407333371384,123.37119802076535
2023-09-17T09:38:31Z,45.19184527,4.7974779,160.0,2.7600000000000007,136.02238918311863
2023-09-17T09:38:35Z,45.1918112,4.79762645,160.0,2.77,148.29465322090104
2023-09-17T09:38:39Z,45.19179105,4.79776199,None,2.5300000000000002,159.17870423880595
2023-09-17T09:38:43Z,45.19175408,4.7978905,160.0,2.54,170.08127221165734
2023-09-17T09:38:47Z,45.19171733,4.79802902,135.0,2.61,181.7076363628216
2023-09-17T09:38:51Z,45.19167144,4.79818204,None,2.7,194.76929659039752
2023-09-17T09:38:57Z,45.19161244,4.79827916,132.0,2.62,204.8312121963358
2023-09-17T09:39:05Z,45.19166219,4.79838945,132.0,2.5100000000000007,215.11159683720336
2023-09-17T09:39:14Z,45.19166071,4.79852696,132.0,2.4000000000000004,225.91886906747686
2023-09-17T09:39:20Z,45.19156323,4.79855607,None,2.33,236.99124413359297
2023-09-17T09:39:26Z,45.19147688,4.79860933,132.0,2.2700000000000005,247.46077737860114
2023-09-17T09:39:30Z,45.19141017,4.79874353,132.0,2.34,260.35194586356084
2023-09-17T09:39:34Z,45.19135563,4.79887665,None,2.38,272.44219549390897
2023-09-17T09:39:38Z,45.19129579,4.79901327,132.0,2.3900000000000006,285.071207334788
2023-09-17T09:39:42Z,45.19124292,4.79915076,132.0,2.42,297.3700680939576
2023-09-17T09:39:46Z,45.19117203,4.79925536,None,2.4300000000000006,308.7558453019489
2023-09-17T09:39:50Z,45.19110874,4.7993591,132.0,2.41,319.5231265282929
2023-09-17T09:39:54Z,45.19104909,4.79947259,132.0,2.37,330.63559718647343
2023-09-17T09:39:58Z,45.1909859,4.79959023,None,2.4700000000000006,342.24514409211537
2023-09-17T09:40:02Z,45.19093061,4.79971667,132.0,2.5,353.9278515227953
2023-09-17T09:40:06Z,45.19087241,4.79983719,132.0,2.5142076602772083,365.39677566112465
2023-09-17T09:40:10Z,45.19081244,4.79995126,132.0,2.6400000000000006,376.56707190114446
2023-09-17T09:40:14Z,45.19075673,4.80007832,130.0,2.75,388.3158025645936
2023-09-17T09:40:18Z,45.19070154,4.8002104,None,2.77,400.3720995613996
2023-09-17T09:40:23Z,45.19064188,4.80034049,130.0,2.8300000000000005,412.55706568310916
2023-09-17T09:40:27Z,45.19056918,4.80044563,130.0,2.9,424.1133109512375
2023-09-17T09:40:31Z,45.19047906,4.80054746,None,2.9,436.93313889840783
2023-09-17T09:40:35Z,45.19041913,4.80065383,130.0,2.8800000000000003,447.62121348323194
2023-09-17T09:40:39Z,45.19038858,4.80081255,130.0,2.880403741717766,460.54809754779694
2023-09-17T09:40:43Z,45.19036844,4.80096096,None,2.8800000000000003,472.4237766161866
2023-09-17T09:40:47Z,45.19032741,4.80109822,130.0,2.8800000000000003,484.13461868032476
2023-09-17T09:40:51Z,45.19028246,4.801225,130.0,2.89,495.2799275329638
2023-09-17T09:40:56Z,45.1901793,4.80125691,130.0,2.9,507.01570973898515
2023-09-17T09:41:00Z,45.19008803,4.80128711,None,2.8400000000000003,517.4329915652108
2023-09-17T09:41:05Z,45.18999595,4.80130478,130.0,2.7900000000000005,527.760131264599
2023-09-17T09:41:09Z,45.18990346,4.80130632,130.0,2.77,538.0397651130038
2023-09-17T09:41:16Z,45.18987274,4.80145194,None,2.6800000000000006,549.9818737289427
2023-09-17T09:41:20Z,45.18988217,4.80158318,130.0,2.65,560.3486070642114
2023-09-17T09:41:26Z,45.18991055,4.80171034,130.0,2.6000000000000005,570.8275250304358
2023-09-17T09:41:31Z,45.1899914,4.80177445,None,2.49,581.1289111223196
2023-09-17T09:41:36Z,45.19008338,4.80175112,130.0,2.4400000000000004,591.5142670701302
2023-09-17T09:41:41Z,45.19018328,4.80172872,130.0,2.37,602.7553879900464
2023-09-17T09:41:46Z,45.19027798,4.80178929,130.0,2.3200000000000003,614.3062594362734
2023-09-17T09:41:51Z,45.1903172,4.80193056,130.0,2.2300000000000004,626.233020606716
2023-09-17T09:41:55Z,45.19032726,4.8020683,None,2.2100000000000004,637.1149550612087
2023-09-17T09:41:59Z,45.19031435,4.80221977,129.0,2.2700000000000005,649.1044380811512
2023-09-17T09:42:04Z,45.19028568,4.8023758,129.0,2.3100000000000005,661.7733373324984
2023-09-17T09:42:09Z,45.19025746,4.80253111,None,2.3200000000000003,674.3749481654837
2023-09-17T09:42:13Z,45.19022754,4.80267357,129.0,2.37,686.0536140217192
2023-09-17T09:42:17Z,45.19020034,4.80280751,129.0,2.3775560463361822,697.0048297478002
2023-09-17T09:42:22Z,45.1901598,4.80292629,None,2.45,707.369665626924
2023-09-17T09:42:25Z,45.190121,4.80306336,129.0,2.4800000000000004,718.9724247080431
2023-09-17T09:42:29Z,45.19007793,4.8031947,129.0,2.5600000000000005,730.3497604440597
2023-09-17T09:42:33Z,45.19004099,4.80331485,129.0,2.6000000000000005,740.6457133266745
2023-09-17T09:42:37Z,45.18999894,4.80344379,None,2.65,751.8042934235497
2023-09-17T09:42:41Z,45.18995422,4.80358037,129.0,2.67,763.6323720763668
2023-09-17T09:42:45Z,45.18991176,4.80369911,129.0,2.69,774.0889571431885
2023-09-17T09:42:49Z,45.18987575,4.80382959,None,2.69767847957369,785.096149932096
2023-09-17T09:42:53Z,45.18983514,4.8039583,129.0,2.75,796.1721768190943
2023-09-17T09:42:57Z,45.18979366,4.80409556,129.0,2.7600000000000007,807.9026747639807
2023-09-17T09:43:01Z,45.18974484,4.80422621,None,2.75,819.5153618263728
2023-09-17T09:43:05Z,45.1896955,4.80435832,126.0,2.7800000000000002,831.2565004814727
2023-09-17T09:43:09Z,45.18964652,4.80447274,126.0,2.77,841.7676360188342
2023-09-17T09:43:13Z,45.1895912,4.80458517,None,2.7800000000000002,852.5316255856279
2023-09-17T09:43:17Z,45.18953819,4.80469336,127.0,2.7600000000000007,862.875503423589
2023-09-17T09:43:21Z,45.18948514,4.80480119,127.0,2.75,873.1986842908061
2023-09-17T09:43:25Z,45.18942667,4.80490524,127.0,2.75,883.643175808751
2023-09-17T09:43:29Z,45.18937242,4.80501612,None,2.73,894.2393248084343
2023-09-17T09:43:33Z,45.18931675,4.80513061,127.0,2.732303727969876,905.1586177182502
2023-09-17T09:43:37Z,45.1892553,4.805239,127.0,2.74,916.0762963198881
2023-09-17T09:43:41Z,45.18919253,4.80534528,None,2.74,926.9585608367363
2023-09-17T09:43:45Z,45.18913596,4.80544759,127.0,2.71,937.16497387346
2023-09-17T09:43:49Z,45.18907377,4.80554851,127.0,2.71,947.6849487334005
2023-09-17T09:43:53Z,45.18901011,4.80564796,127.0,2.7,958.2270486227712
2023-09-17T09:43:57Z,45.18894381,4.80574259,127.0,2.69,968.695869426767
2023-09-17T09:44:01Z,45.18887728,4.80583645,127.0,2.67,979.1398777772256
2023-09-17T09:44:05Z,45.18881604,4.80593634,127.0,2.6658835246807726,989.5295245756867
2023-09-17T09:44:09Z,45.18874983,4.80603727,None,2.6400000000000006,1000.3488720368149
2023-09-17T09:44:13Z,45.18867605,4.80612861,127.0,2.65,1011.2465521835013
2023-09-17T09:44:17Z,45.18860733,4.8062127,127.0,2.6400000000000006,1021.3459938240609
2023-09-17T09:44:21Z,45.18853225,4.80630637,None,2.65,1032.4730856043432
2023-09-17T09:44:25Z,45.1884647,4.80639833,127.0,2.6501368148438016,1042.8935816172518
2023-09-17T09:44:29Z,45.1883931,4.80647781,127.0,2.65,1053.0095725303013
2023-09-17T09:44:33Z,45.18831853,4.80655351,127.0,2.6400000000000006,1063.2111663048024
2023-09-17T09:44:37Z,45.18824693,4.80664161,None,2.63,1073.7589192075147
2023-09-17T09:44:41Z,45.18817164,4.80671864,127.0,2.62,1084.0865484851254
2023-09-17T09:44:46Z,45.18809674,4.80680501,127.0,2.63,1094.8272332840736
2023-09-17T09:44:49Z,45.18801352,4.80687795,None,2.63,1105.7082688420708
2023-09-17T09:44:53Z,45.18793849,4.80695703,127.0,2.63,1116.1079818749934
2023-09-17T09:44:57Z,45.18785565,4.80703209,127.0,2.6400000000000006,1127.0421285423784
2023-09-17T09:45:01Z,45.1877798,4.80710858,None,2.6400000000000006,1137.3955716240582
2023-09-17T09:45:05Z,45.18770149,4.80717447,127.0,2.63,1147.5225901798422
2023-09-17T09:45:09Z,45.18762413,4.80725586,127.0,2.630172671553836,1158.2384370271777
2023-09-17T09:45:13Z,45.18754175,4.80733286,127.0,2.63,1169.212917042359
2023-09-17T09:45:17Z,45.18746765,4.80741444,None,2.63,1179.649505203422
2023-09-17T09:45:21Z,45.18738752,4.80748775,128.0,2.6400000000000006,1190.2559948715216
2023-09-17T09:45:25Z,45.18730535,4.80755581,128.0,2.63,1200.8391444319907
2023-09-17T09:45:29Z,45.18722727,4.80763248,None,2.63,1211.4034438919762
2023-09-17T09:45:33Z,45.18714749,4.80770624,128.0,2.6400000000000006,1221.9966201497698
2023-09-17T09:45:37Z,45.18706986,4.80778242,128.0,2.65,1232.4978866279978
2023-09-17T09:45:41Z,45.18699269,4.8078577,None,2.6498706610356724,1242.9168727012445
2023-09-17T09:45:45Z,45.1869132,4.80792956,128.0,2.65,1253.4019242571808
2023-09-17T09:45:49Z,45.18683007,4.80800361,128.0,2.65,1264.3207649677138
2023-09-17T09:45:53Z,45.18675323,4.8080718,128.0,2.6400000000000006,1274.402687559867
2023-09-17T09:45:57Z,45.18667596,4.80814765,None,2.6400000000000006,1284.8563216051766
2023-09-17T09:46:01Z,45.18659563,4.80822726,128.0,2.6400000000000006,1295.7579392209145
2023-09-17T09:46:05Z,45.18652054,4.808305,128.0,2.6400000000000006,1306.1005330017183
2023-09-17T09:46:09Z,45.18643871,4.80837234,None,2.6400000000000006,1316.6225607289998
2023-09-17T09:46:13Z,45.18635904,4.80843736,127.0,2.63,1326.8454732500861
2023-09-17T09:46:18Z,45.18626802,4.8085178,127.0,2.61,1338.774013103513
2023-09-17T09:46:22Z,45.18618421,4.80859167,None,2.62,1349.749415566246
2023-09-17T09:46:26Z,45.18610672,4.8086674,127.0,2.62,1360.2178122285447
2023-09-17T09:46:31Z,45.1860167,4.80875605,127.0,2.6000000000000005,1372.409156526365
2023-09-17T09:46:35Z,45.1859413,4.80883832,None,2.6000000000000005,1382.993261083844
2023-09-17T09:46:40Z,45.18586158,4.80893295,127.0,2.58,1394.5606782081275
2023-09-17T09:46:44Z,45.18577912,4.80899286,127.0,2.58,1404.8637000232193
2023-09-17T09:46:48Z,45.18570129,4.80907188,127.0,2.58,1415.511928483692
2023-09-17T09:46:52Z,45.18562629,4.8091455,None,2.57,1425.6584433490923
2023-09-17T09:46:57Z,45.18554002,4.80923568,127.0,2.5600000000000005,1437.5813008608256
2023-09-17T09:47:02Z,45.18544623,4.80932253,127.0,2.54,1450.040733021339
2023-09-17T09:47:06Z,45.18537007,4.80939179,None,2.54,1460.1040293436931
2023-09-17T09:47:11Z,45.18527918,4.8094797,130.0,2.5200000000000005,1472.3419638633823
2023-09-17T09:47:15Z,45.1851941,4.80954073,130.0,2.5300000000000002,1482.944365392914
2023-09-17T09:47:20Z,45.18510592,4.80963123,None,2.5300000000000002,1495.0533611399774
2023-09-17T09:47:24Z,45.18502569,4.80970306,130.0,2.5300000000000002,1505.6066328551715
2023-09-17T09:47:28Z,45.18493275,4.80976879,130.0,2.5500000000000007,1517.1553633260378
2023-09-17T09:47:32Z,45.18485703,4.80984589,None,2.5600000000000005,1527.5251631948545
2023-09-17T09:47:36Z,45.18476757,4.80992506,130.0,2.58,1539.2538716838658
2023-09-17T09:47:40Z,45.18469052,4.81001023,130.0,2.61,1550.1226907556093
2023-09-17T09:47:44Z,45.18461514,4.81009367,130.0,2.61,1560.7615586939094
2023-09-17T09:47:48Z,45.18453484,4.81016743,None,2.61,1571.4032929570808
2023-09-17T09:47:52Z,45.18446311,4.81026234,130.0,2.611877888584921,1582.3207000795046
2023-09-17T09:47:56Z,45.18438336,4.8103385,130.0,2.63,1593.0156502590544
2023-09-17T09:48:00Z,45.18431118,4.8104154,None,2.6400000000000006,1603.059384020168
2023-09-17T09:48:04Z,45.18422691,4.81048033,127.0,2.65,1613.7248341511156
2023-09-17T09:48:08Z,45.1841461,4.8105472,127.0,2.65,1624.1304412742804
2023-09-17T09:48:12Z,45.18405531,4.81061518,None,2.6800000000000006,1635.5476820101894
2023-09-17T09:48:16Z,45.18397118,4.81068134,127.0,2.6800000000000006,1646.2461328678346
2023-09-17T09:48:20Z,45.1838843,4.81072896,127.0,2.6800000000000006,1656.6015663968506
2023-09-17T09:48:24Z,45.18379541,4.81078359,None,2.7,1667.373112099826
2023-09-17T09:48:28Z,45.18370409,4.81085542,127.0,2.7,1678.9864990707642
2023-09-17T09:48:32Z,45.18361583,4.8109287,127.0,2.7200000000000006,1690.361184957373
2023-09-17T09:48:36Z,45.18353574,4.81100017,127.0,2.7177552442957014,1700.8862636975364
2023-09-17T09:48:40Z,45.1834462,4.8110664,None,2.7,1712.1165388261552
2023-09-17T09:48:45Z,45.18335301,4.81113799,127.0,2.6800000000000006,1723.9029737060944
2023-09-17T09:48:49Z,45.18326315,4.81117653,128.0,2.6800000000000006,1734.3388638821416
2023-09-17T09:48:53Z,45.18317495,4.81120591,None,2.66,1744.409314724136
2023-09-17T09:48:57Z,45.18308338,4.81121697,128.0,2.66,1754.6230369172995
2023-09-17T09:49:01Z,45.18298112,4.81122525,128.0,2.6800000000000006,1766.0063553216942
2023-09-17T09:49:05Z,45.18288498,4.81123557,None,2.6800000000000006,1776.7216509752118
2023-09-17T09:49:11Z,45.18279394,4.81126626,128.0,2.6400000000000006,1787.122965565635
2023-09-17T09:49:13Z,45.1826974,4.81127985,128.0,2.6400000000000006,1797.9050087614562
2023-09-17T09:49:17Z,45.18258281,4.81127882,None,2.69,1810.64026543791
2023-09-17T09:49:21Z,45.18247786,4.81126339,128.0,2.7200000000000006,1822.3667980363266
2023-09-17T09:49:25Z,45.18236569,4.81125194,128.0,2.75,1834.8652901425087
2023-09-17T09:49:29Z,45.18226051,4.81124485,128.0,2.77,1846.5677802720227
2023-09-17T09:49:33Z,45.18216321,4.81123721,None,2.77,1857.3979082677474
2023-09-17T09:49:37Z,45.18206628,4.81123593,128.0,2.7600000000000007,1868.1707261868312
2023-09-17T09:49:41Z,45.18196769,4.81123247,128.0,2.7600000000000007,1879.1309330858667
2023-09-17T09:49:45Z,45.18186946,4.81121716,None,2.7600000000000007,1890.113875167697
2023-09-17T09:49:49Z,45.18176861,4.81120332,128.0,2.7900000000000005,1901.3745365184968
2023-09-17T09:49:53Z,45.18167425,4.81118887,128.0,2.790398768357657,1911.9225875112502
2023-09-17T09:49:57Z,45.18158429,4.81116712,None,2.8000000000000007,1922.0654198537547
2023-09-17T09:50:01Z,45.181486,4.8111435,128.0,2.8000000000000007,1933.1455437734417
2023-09-17T09:50:05Z,45.18139003,4.81111602,128.0,2.8000000000000007,1944.02769621118
2023-09-17T09:50:09Z,45.18128951,4.81109255,128.0,2.81,1955.3502984976933
2023-09-17T09:50:13Z,45.18119557,4.81107609,None,2.8000000000000007,1965.8702033068996
2023-09-17T09:50:17Z,45.18109463,4.8110597,127.0,2.85,1977.161926560961
2023-09-17T09:50:21Z,45.18099427,4.81103926,127.0,2.8000000000000007,1988.430575547616
2023-09-17T09:50:25Z,45.18089227,4.81100718,None,2.7900000000000005,2000.0434145144798
2023-09-17T09:50:29Z,45.18079561,4.81098181,127.0,2.75,2010.969257913893
2023-09-17T09:50:33Z,45.18070573,4.81096359,127.0,2.75,2021.0602325212856
2023-09-17T09:50:37Z,45.18061734,4.81093251,None,2.7462594621419725,2031.1826698044938
2023-09-17T09:50:41Z,45.18052626,4.81089928,127.0,2.7200000000000006,2041.6364109169876
2023-09-17T09:50:45Z,45.18042857,4.81085947,127.0,2.7200000000000006,2052.935130359178
2023-09-17T09:50:49Z,45.18032614,4.81082514,127.0,2.73,2064.6341453405566
2023-09-17T09:50:53Z,45.18022487,4.81078971,None,2.74,2076.228220531746
2023-09-17T09:50:57Z,45.18013141,4.81075138,127.0,2.7600000000000007,2087.04302868463
2023-09-17T09:51:02Z,45.1800335,4.81071422,127.0,2.75,2098.3094640759296
2023-09-17T09:51:06Z,45.1799407,4.81067991,127.0,2.7200000000000006,2108.9695658357095
2023-09-17T09:51:10Z,45.17984644,4.81064191,None,2.7200000000000006,2119.8626541004974
2023-09-17T09:51:15Z,45.1797488,4.8105975,127.0,2.7,2131.2615157104015
2023-09-17T09:51:20Z,45.17964289,4.81055228,127.0,2.66,2143.55679350266
2023-09-17T09:51:24Z,45.17955023,4.81050311,None,2.66,2154.5559311862776
2023-09-17T09:51:28Z,45.17946413,4.81045683,127.0,2.6400000000000006,2164.7927869340865
2023-09-17T09:51:32Z,45.1793785,4.81041444,128.0,2.62,2174.8757131055772
2023-09-17T09:51:36Z,45.17929254,4.81037386,None,2.62,2184.9473075374076
2023-09-17T09:51:41Z,45.17918953,4.81031398,128.0,2.619614055767207,2197.325104936174
2023-09-17T09:51:45Z,45.17910385,4.81026462,126.0,2.61,2207.607232925248
2023-09-17T09:51:49Z,45.17901742,4.81021183,None,2.59,2218.0705569728275
2023-09-17T09:51:53Z,45.1789301,4.81017584,126.0,2.5600000000000005,2228.1787938393077
2023-09-17T09:51:57Z,45.17883652,4.8101218,126.0,2.5500000000000007,2239.412802339375
2023-09-17T09:52:01Z,45.17874988,4.81007106,None,2.57,2249.8348447546273
2023-09-17T09:52:05Z,45.17866264,4.81002015,126.0,2.57,2260.3236166440365
2023-09-17T09:52:09Z,45.17857317,4.80997238,126.0,2.58,2270.95221637626
2023-09-17T09:52:13Z,45.17847715,4.80992664,126.0,2.59,2282.212785470255
2023-09-17T09:52:17Z,45.17838418,4.80987591,None,2.62,2293.28776542677
2023-09-17T09:52:21Z,45.17829467,4.80982701,126.0,2.6400000000000006,2303.9522193715666
2023-09-17T09:52:25Z,45.17820916,4.80977136,126.0,2.6382171089355606,2314.413767180151
2023-09-17T09:52:29Z,45.1781195,4.80972641,None,2.63,2324.9860074657167
2023-09-17T09:52:33Z,45.1780314,4.80967446,126.0,2.6400000000000006,2335.5944019332533
2023-09-17T09:52:37Z,45.17794054,4.80962712,126.0,2.65,2346.3559372388695
2023-09-17T09:52:41Z,45.1778537,4.80957387,None,2.65,2356.875471945391
2023-09-17T09:52:45Z,45.17776674,4.80951892,126.0,2.66,2367.4610613455984
2023-09-17T09:52:49Z,45.17767629,4.80947578,126.0,2.67,2378.0697716701006
2023-09-17T09:52:53Z,45.17758782,4.80942434,126.0,2.67,2388.7008300060065
2023-09-17T09:52:57Z,45.17749672,4.80937245,None,2.6800000000000006,2399.6159458177935
2023-09-17T09:53:01Z,45.17740778,4.80932945,126.0,2.67,2410.062222051184
2023-09-17T09:53:06Z,45.17732024,4.80928241,126.0,2.67,2420.469940828097
2023-09-17T09:53:09Z,45.17723068,4.80923035,None,2.6706095896486235,2431.2315772982693
2023-09-17T09:53:13Z,45.17714107,4.80918811,126.0,2.67,2441.7292943337925
2023-09-17T09:53:17Z,45.17705285,4.80913953,127.0,2.65,2452.2510196085273
2023-09-17T09:53:21Z,45.1769636,4.80909121,None,2.65,2462.872167395798
2023-09-17T09:53:25Z,45.17687507,4.80904245,127.0,2.65,2473.431134560011
2023-09-17T09:53:29Z,45.17678539,4.80899929,127.0,2.65,2483.959317479285
2023-09-17T09:53:33Z,45.17669484,4.80895431,None,2.65,2494.62564072049
2023-09-17T09:53:37Z,45.17660617,4.80890399,127.0,2.66,2505.2441772457546
2023-09-17T09:53:41Z,45.17651723,4.80885646,127.0,2.65,2515.811053649912
2023-09-17T09:53:45Z,45.17643133,4.80880908,127.0,2.65,2526.0583073947223
2023-09-17T09:53:49Z,45.17634296,4.80875786,None,2.65,2536.672548261285
2023-09-17T09:53:53Z,45.17625259,4.8087076,127.0,2.649618338031228,2547.464928561571
2023-09-17T09:53:57Z,45.17616094,4.80866108,127.0,2.65,2558.286975652272
2023-09-17T09:54:01Z,45.17606704,4.80860781,None,2.66,2569.5313090362056
2023-09-17T09:54:05Z,45.17597313,4.80856439,127.0,2.67,2580.5119128777833
2023-09-17T09:54:09Z,45.17588252,4.80851175,127.0,2.67,2591.398846570241
2023-09-17T09:54:13Z,45.17578987,4.8084615,None,2.6800000000000006,2602.4271468652496
2023-09-17T09:54:17Z,45.17570137,4.80840898,127.0,2.6800000000000006,2613.0939049039457
2023-09-17T09:54:21Z,45.17560775,4.80835836,127.0,2.69,2624.23328163923
2023-09-17T09:54:25Z,45.17551635,4.80831743,126.0,2.69,2634.8883866620586
2023-09-17T09:54:29Z,45.17542453,4.8082737,126.0,2.7,2645.6562287834436
2023-09-17T09:54:33Z,45.17533221,4.80822229,None,2.7,2656.68339440268
2023-09-17T09:54:37Z,45.17523836,4.80817593,126.0,2.70068462560049,2667.7317306597934
2023-09-17T09:54:41Z,45.1751517,4.80812539,126.0,2.71,2678.149912008796
2023-09-17T09:54:45Z,45.17506104,4.80807655,None,2.7200000000000006,2688.932072276171
2023-09-17T09:54:49Z,45.17496841,4.80802615,130.0,2.7200000000000006,2699.9625457215498
2023-09-17T09:54:53Z,45.17487747,4.80797917,130.0,2.7200000000000006,2710.7227428163314
2023-09-17T09:54:57Z,45.17478918,4.80793337,130.0,2.7200000000000006,2721.1744967797645
2023-09-17T09:55:01Z,45.1747003,4.8078787,130.0,2.71,2731.9465352931657
2023-09-17T09:55:05Z,45.17461676,4.80782758,None,2.7,2742.063077281596
2023-09-17T09:55:09Z,45.17452471,4.80777883,130.0,2.700047015574072,2752.9872577411343
2023-09-17T09:55:13Z,45.17443127,4.80772276,130.0,2.7,2764.268363503934
2023-09-17T09:55:17Z,45.17433924,4.80767222,None,2.7,2775.2406259324744
2023-09-17T09:55:21Z,45.17424855,4.8076169,130.0,2.71,2786.217565831017
2023-09-17T09:55:25Z,45.17415045,4.80757498,130.0,2.7200000000000006,2797.6070352528563
2023-09-17T09:55:29Z,45.17406229,4.80751815,130.0,2.71,2808.3750909913338
2023-09-17T09:55:33Z,45.17397068,4.80746455,None,2.71,2819.393585651012
2023-09-17T09:55:37Z,45.17387566,4.80741213,130.0,2.7200000000000006,2830.7291286231075
2023-09-17T09:55:41Z,45.17378297,4.80736371,130.0,2.73,2841.7109424634837
2023-09-17T09:55:45Z,45.17369266,4.80732026,None,2.7200000000000006,2852.312805770485
2023-09-17T09:55:49Z,45.17359965,4.80727139,130.0,2.73,2863.340262413849
2023-09-17T09:55:53Z,45.17350752,4.80722512,130.0,2.7305558047205056,2874.205990306106
2023-09-17T09:55:57Z,45.17341198,4.8071849,None,2.74,2885.2845627459974
2023-09-17T09:56:01Z,45.17332186,4.80713401,130.0,2.74,2896.069433409716
2023-09-17T09:56:05Z,45.1732293,4.80708288,130.0,2.75,2907.113441698788
2023-09-17T09:56:09Z,45.17313384,4.80703643,None,2.7600000000000007,2918.3331878932568
2023-09-17T09:56:13Z,45.17304249,4.80699151,130.0,2.75,2929.081951023551
2023-09-17T09:56:17Z,45.17295074,4.80694888,130.0,2.75,2939.8151531623735
2023-09-17T09:56:21Z,45.17286314,4.8069043,127.0,2.74,2950.162115665604
2023-09-17T09:56:25Z,45.17277402,4.80686707,None,2.73,2960.4898263607106
2023-09-17T09:56:29Z,45.17268394,4.80682687,127.0,2.71,2970.9878012474746
2023-09-17T09:56:33Z,45.17259703,4.80678432,127.0,2.71,2981.209324576754
2023-09-17T09:56:37Z,45.17250144,4.80675432,None,2.707744942826086,2992.091345121135
2023-09-17T09:56:41Z,45.17241473,4.80671115,127.0,2.6800000000000006,3002.3079564580257
2023-09-17T09:56:45Z,45.17232453,4.80668089,127.0,2.67,3012.6107136327882
2023-09-17T09:56:49Z,45.17223468,4.80664682,None,2.66,3022.949141156518
2023-09-17T09:56:53Z,45.17214832,4.80660985,127.0,2.65,3032.9771346183966
2023-09-17T09:56:57Z,45.172058,4.80657404,127.0,2.65,3043.402123344044
2023-09-17T09:57:01Z,45.17196792,4.80654289,None,2.6400000000000006,3053.708306581868
2023-09-17T09:57:05Z,45.17187481,4.80651603,127.0,2.63,3064.2693279673344
2023-09-17T09:57:09Z,45.17177928,4.80648695,127.0,2.62,3075.1293907962868
2023-09-17T09:57:13Z,45.17168387,4.80645712,None,2.62,3085.9889955616372
2023-09-17T09:57:17Z,45.17159173,4.80643165,127.0,2.62,3096.4228978818583
2023-09-17T09:57:21Z,45.1714959,4.8064118,127.0,2.61966374306037,3107.186686363102
2023-09-17T09:57:25Z,45.17140401,4.80639348,127.0,2.62,3117.499941414767
2023-09-17T09:57:29Z,45.17130949,4.8063637,127.0,2.63,3128.2621376038064
2023-09-17T09:57:33Z,45.17121221,4.80634627,127.0,2.6400000000000006,3139.159845249108
2023-09-17T09:57:37Z,45.17111544,4.80632535,None,2.6400000000000006,3150.0394051704325
2023-09-17T09:57:41Z,45.17102209,4.806306,127.0,2.6400000000000006,3160.5247930118076
2023-09-17T09:57:45Z,45.17092913,4.80629526,127.0,2.6400000000000006,3170.8903554100616
2023-09-17T09:57:49Z,45.17083518,4.80627537,None,2.6400000000000006,3181.44792719983
2023-09-17T09:57:53Z,45.17073555,4.80626,126.0,2.66,3192.5860496027126
2023-09-17T09:57:57Z,45.17063539,4.80624159,144.0,2.6800000000000006,3203.8110318456966
2023-09-17T09:58:01Z,45.17053304,4.80621988,None,2.7,3215.313034416864
2023-09-17T09:58:05Z,45.17043725,4.80619818,144.0,2.700698061395233,3226.0944795783016
2023-09-17T09:58:09Z,45.17033714,4.80617817,144.0,2.71,3237.3308692817195
2023-09-17T09:58:13Z,45.17024215,4.8061759,144.0,2.7,3247.889101102366
2023-09-17T09:58:17Z,45.17014666,4.80616617,None,2.71,3258.528922560182
2023-09-17T09:58:21Z,45.17004921,4.80617229,144.0,2.71,3269.369719320514
2023-09-17T09:58:25Z,45.1699531,4.80619836,144.0,2.71,3280.245755244637
2023-09-17T09:58:29Z,45.16985486,4.80620625,None,2.7200000000000006,3291.181271934501
2023-09-17T09:58:34Z,45.16976435,4.80624912,144.0,2.6800000000000006,3301.7896753050327
2023-09-17T09:58:39Z,45.16966496,4.80630899,126.0,2.66,3313.796339301485
2023-09-17T09:58:43Z,45.16955598,4.80631974,None,2.69,3325.9372898858687
2023-09-17T09:58:47Z,45.16945491,4.80631721,126.0,2.7,3337.171474202673
2023-09-17T09:58:51Z,45.16935355,4.80629518,126.0,2.71,3348.568481222976
2023-09-17T09:58:55Z,45.16925656,4.80627811,None,2.71,3359.430685746044
2023-09-17T09:58:59Z,45.16917144,4.80632212,126.0,2.69,3369.503347722899
2023-09-17T09:59:03Z,45.16907862,4.80637525,126.0,2.6800000000000006,3380.632423145963
2023-09-17T09:59:07Z,45.16898429,4.8064277,126.0,2.69,3391.897547031046
2023-09-17T09:59:13Z,45.16889465,4.80640718,None,2.62,3401.9894614789264
2023-09-17T09:59:19Z,45.16896578,4.80630036,126.0,2.5600000000000005,3413.5224518635687
2023-09-17T09:59:24Z,45.16904724,4.80620964,144.0,2.5300000000000002,3425.0473083662237
2023-09-17T09:59:33Z,45.16895665,4.80620139,None,2.3900000000000006,3435.1359043959487
2023-09-17T09:59:38Z,45.1688598,4.80627928,126.0,2.42,3447.5192153574035
2023-09-17T09:59:42Z,45.1687796,4.80634652,126.0,2.4178078137283094,3457.881873764117
2023-09-17T09:59:46Z,45.16869006,4.80640723,None,2.41,3468.9182660148285
2023-09-17T09:59:50Z,45.16860083,4.80647419,128.0,2.41,3480.1454240336
2023-09-17T09:59:54Z,45.16850905,4.80651047,128.0,2.4000000000000004,3490.7366640675514
2023-09-17T09:59:58Z,45.16842024,4.80655008,None,2.3900000000000006,3501.086145559763
2023-09-17T10:00:02Z,45.16833371,4.80660074,128.0,2.3900000000000006,3511.494748856461
2023-09-17T10:00:06Z,45.16824188,4.80663969,128.0,2.38,3522.149759216717
2023-09-17T10:00:10Z,45.16814983,4.80667376,128.0,2.37,3532.724568430512
2023-09-17T10:00:14Z,45.16805094,4.80672526,None,2.4700000000000006,3544.4367611407642
2023-09-17T10:00:18Z,45.16797057,4.80678705,128.0,2.4700000000000006,3554.604179732728
2023-09-17T10:00:23Z,45.16786323,4.80684188,128.0,2.5200000000000005,3567.288316851813
2023-09-17T10:00:27Z,45.16775971,4.80689472,None,2.57,3579.520021102024
2023-09-17T10:00:31Z,45.16765843,4.80693959,128.0,2.6000000000000005,3591.3155924643856
2023-09-17T10:00:35Z,45.16756399,4.80696383,128.0,2.7,3601.9827883264797
2023-09-17T10:00:39Z,45.16746811,4.80699665,None,2.7200000000000006,3612.9463581474006
2023-09-17T10:00:43Z,45.1673753,4.80704963,128.0,2.73,3624.0700263849644
2023-09-17T10:00:47Z,45.16728065,4.80711992,128.0,2.7292950116617916,3635.9521344581062
2023-09-17T10:00:52Z,45.16718819,4.80719685,None,2.7200000000000006,3647.8754456557335
2023-09-17T10:00:56Z,45.16709766,4.80726782,128.0,2.73,3659.380022500063
2023-09-17T10:01:00Z,45.16701488,4.80733725,128.0,2.74,3670.077206328597
2023-09-17T10:01:04Z,45.1669158,4.80741017,128.0,2.77,3682.4914201242314
2023-09-17T10:01:08Z,45.16682945,4.80747424,None,2.77,3693.329533539148
2023-09-17T10:01:12Z,45.1667468,4.80753995,128.0,2.77,3703.8679016544447
2023-09-17T10:01:16Z,45.16665415,4.80760975,162.0,2.77,3715.5355570295574
2023-09-17T10:01:20Z,45.16655592,4.80768269,None,2.774663054824208,3727.8668061566864
2023-09-17T10:01:24Z,45.16647808,4.80778084,162.0,2.8300000000000005,3739.4589514418667
2023-09-17T10:01:28Z,45.16639367,4.8078453,162.0,2.81,3750.1211900449175
2023-09-17T10:01:32Z,45.16630375,4.80786081,None,2.7800000000000002,3760.188570289693
2023-09-17T10:01:36Z,45.16622243,4.80791828,162.0,2.77,3770.2925583570163
2023-09-17T10:01:40Z,45.16613623,4.80797834,162.0,2.7600000000000007,3780.972868143094
2023-09-17T10:01:44Z,45.16604543,4.80803303,None,2.7600000000000007,3791.941757999272
2023-09-17T10:01:48Z,45.16595955,4.80810586,162.0,2.75,3803.071811395313
2023-09-17T10:01:52Z,45.16587122,4.8081794,162.0,2.7800000000000002,3814.4644453454807
2023-09-17T10:01:56Z,45.16578224,4.80825451,162.0,2.7900000000000005,3825.9821792579073
2023-09-17T10:02:00Z,45.16568897,4.80832952,None,2.7900000000000005,3837.907872845279
2023-09-17T10:02:04Z,45.16560097,4.80839649,128.0,2.788954710194929,3849.0149756561323
2023-09-17T10:02:08Z,45.16551133,4.80845891,128.0,2.7800000000000002,3860.120249601972
2023-09-17T10:02:12Z,45.16541999,4.80852636,128.0,2.8000000000000007,3871.572974176598
2023-09-17T10:02:16Z,45.16532435,4.80858754,None,2.81,3883.2396049449576
2023-09-17T10:02:20Z,45.16522737,4.80863919,128.0,2.8000000000000007,3894.7570675674897
2023-09-17T10:02:24Z,45.16513185,4.80870438,128.0,2.8000000000000007,3906.5451688711546
2023-09-17T10:02:28Z,45.16504538,4.80877034,None,2.7800000000000002,3917.464940818479
2023-09-17T10:02:32Z,45.16495171,4.80883288,128.0,2.82,3928.9777340485266
2023-09-17T10:02:36Z,45.16486168,4.80889766,128.0,2.82,3940.204871606251
2023-09-17T10:02:40Z,45.16476675,4.80895789,None,2.85,3951.7688943692638
2023-09-17T10:02:44Z,45.1646752,4.80902508,128.0,2.85,3963.232907086956
2023-09-17T10:02:48Z,45.16457806,4.80909568,138.0,2.851611145736706,3975.3719163371793
2023-09-17T10:02:52Z,45.16448301,4.80915023,138.0,2.8700000000000006,3986.7727297256497
2023-09-17T10:02:56Z,45.1643964,4.80920612,None,2.86,3997.3536891434915
2023-09-17T10:03:01Z,45.16430112,4.80927465,138.0,2.82,4009.234564476298
2023-09-17T10:03:05Z,45.16420345,4.80933365,138.0,2.8300000000000005,4021.038735238585
2023-09-17T10:03:09Z,45.16411527,4.80940155,None,2.8300000000000005,4032.1983105247
2023-09-17T10:03:13Z,45.16402391,4.80945542,138.0,2.82,4043.1995577747884
2023-09-17T10:03:17Z,45.16393879,4.80951306,138.0,2.8000000000000007,4053.68882619885
2023-09-17T10:03:21Z,45.16385952,4.80957492,None,2.7981563375824745,4063.751842714828
2023-09-17T10:03:25Z,45.16377125,4.80962589,138.0,2.7600000000000007,4074.3486690899144
2023-09-17T10:03:29Z,45.16368464,4.80968206,138.0,2.75,4084.938811336354
2023-09-17T10:03:33Z,45.16358797,4.8097286,None,2.75,4096.288253494177
2023-09-17T10:03:37Z,45.16349009,4.80978013,138.0,2.7600000000000007,4107.89611209623
2023-09-17T10:03:41Z,45.16339455,4.80982839,138.0,2.75,4119.171538775062
2023-09-17T10:03:45Z,45.1632984,4.80987635,138.0,2.75,4130.502958262864
2023-09-17T10:03:49Z,45.1631996,4.80993058,None,2.75,4142.2818604034865
2023-09-17T10:03:53Z,45.16310963,4.8100043,138.0,2.75,4153.8391382702175
2023-09-17T10:03:57Z,45.16302705,4.81009951,138.0,2.77,4165.682381850337
2023-09-17T10:04:01Z,45.16294239,4.8101875,None,2.7800000000000002,4177.360677572525
2023-09-17T10:04:05Z,45.16285807,4.81026107,138.0,2.7802128803078845,4188.373029896976
2023-09-17T10:04:09Z,45.1627705,4.810335,138.0,2.7900000000000005,4199.708815138465
2023-09-17T10:04:13Z,45.16268434,4.81041095,None,2.8000000000000007,4210.993591373939
2023-09-17T10:04:17Z,45.1625935,4.81048863,126.0,2.82,4222.79275644317
2023-09-17T10:04:21Z,45.16251068,4.81056926,126.0,2.8400000000000003,4233.968868029193
2023-09-17T10:04:25Z,45.16244075,4.81067367,None,2.8400000000000003,4245.273208159045
2023-09-17T10:04:29Z,45.16236773,4.81078349,138.0,2.86,4257.122612455489
2023-09-17T10:04:33Z,45.16228715,4.81087942,138.0,2.8800000000000003,4268.830909123475
2023-09-17T10:04:37Z,45.16220268,4.81095593,138.0,2.8788767127793498,4279.9804811733775
2023-09-17T10:04:41Z,45.16211652,4.81102066,None,2.86,4290.82434606421
2023-09-17T10:04:45Z,45.1620285,4.811088,138.0,2.86,4301.947374412851
2023-09-17T10:04:49Z,45.16194033,4.81114341,138.0,2.85,4312.670974673563
2023-09-17T10:04:53Z,45.16185739,4.81120199,None,2.8300000000000005,4322.975172313452
2023-09-17T10:04:57Z,45.16178252,4.81127683,138.0,2.7900000000000005,4333.166254502437
2023-09-17T10:05:01Z,45.16170747,4.81135676,138.0,2.77,4343.609504469875
2023-09-17T10:05:05Z,45.16162432,4.81143806,138.0,2.7800000000000002,4354.84577800109
2023-09-17T10:05:09Z,45.16155224,4.81153458,None,2.7791777963211612,4365.880307356955
2023-09-17T10:05:13Z,45.16149103,4.81164128,138.0,2.7600000000000007,4376.68100534889
2023-09-17T10:05:17Z,45.16141752,4.8117233,138.0,2.74,4387.089108065187
2023-09-17T10:05:21Z,45.16134926,4.81182232,None,2.74,4397.959339694646
2023-09-17T10:05:25Z,45.16127662,4.81192586,138.0,2.74,4409.424259606587
2023-09-17T10:05:29Z,45.16120768,4.81202811,138.0,2.7200000000000006,4420.529817993367
2023-09-17T10:05:34Z,45.16113424,4.81214337,None,2.69,4432.725749033263
2023-09-17T10:05:39Z,45.16107515,4.812265,138.0,2.66,4444.3266247517395
2023-09-17T10:05:43Z,45.16101368,4.81237013,138.0,2.66,4455.05016132084
2023-09-17T10:05:48Z,45.16093886,4.8124871,138.0,2.6400000000000006,4467.44867897009
2023-09-17T10:05:53Z,45.16086568,4.81260098,None,2.62,4479.544786961171
2023-09-17T10:05:58Z,45.16079685,4.81272944,128.0,2.62,4492.214806578773
2023-09-17T10:06:03Z,45.16073359,4.81285739,128.0,2.620269732315747,4504.48811465227
2023-09-17T10:06:07Z,45.16066578,4.81299356,None,2.6400000000000006,4517.580926771546
2023-09-17T10:06:11Z,45.16060165,4.81312025,128.0,2.67,4529.8291880859515
2023-09-17T10:06:15Z,45.16053873,4.81322884,128.0,2.67,4540.865244097951
2023-09-17T10:06:19Z,45.16048744,4.81334487,None,2.6800000000000006,4551.622600640643
2023-09-17T10:06:23Z,45.16044216,4.81348764,128.0,2.7,4563.9244182914645
2023-09-17T10:06:27Z,45.16042033,4.81363035,128.0,2.7,4575.4044831350075
2023-09-17T10:06:31Z,45.16040869,4.81376632,136.0,2.69,4586.1733102669905
2023-09-17T10:06:35Z,45.1603863,4.81390778,136.0,2.7200000000000006,4597.570762449251
2023-09-17T10:06:39Z,45.16035744,4.81405758,None,2.75,4609.777913500418
2023-09-17T10:06:43Z,45.16030914,4.81418728,136.0,2.7900000000000005,4621.30223863722
2023-09-17T10:06:47Z,45.16025809,4.81431156,136.0,2.7906358320940257,4632.601553100985
2023-09-17T10:06:51Z,45.16020861,4.81443868,136.0,2.82,4644.009410694682
2023-09-17T10:06:55Z,45.16016255,4.81455992,None,2.8400000000000003,4654.82955654892
2023-09-17T10:06:59Z,45.1601187,4.81468088,131.0,2.8400000000000003,4665.516104015229
2023-09-17T10:07:03Z,45.16007371,4.81481302,131.0,2.8700000000000006,4677.046360634281
2023-09-17T10:07:07Z,45.16002729,4.81493954,None,2.8400000000000003,4688.252366982176
2023-09-17T10:07:11Z,45.15997605,4.81507384,131.0,2.8400000000000003,4700.24959329765
2023-09-17T10:07:15Z,45.15991902,4.81521588,131.0,2.86,4713.090903975053
2023-09-17T10:07:19Z,45.15987688,4.81534438,131.0,2.86,4724.227119316944
2023-09-17T10:07:23Z,45.15982356,4.81548156,None,2.8700000000000006,4736.533777885489
2023-09-17T10:07:27Z,45.1597613,4.81561208,131.0,2.89,4748.91093039941
2023-09-17T10:07:31Z,45.15970394,4.81574827,131.0,2.8910686863582935,4761.373027886025
2023-09-17T10:07:35Z,45.15965322,4.81587875,131.0,2.9200000000000004,4773.078869304249
2023-09-17T10:07:39Z,45.15960151,4.81600881,None,2.9100000000000006,4784.80929386876
2023-09-17T10:07:43Z,45.15954672,4.81613511,131.0,2.9100000000000006,4796.458122359256
2023-09-17T10:07:47Z,45.15949703,4.81626713,131.0,2.9200000000000004,4808.21606167451
2023-09-17T10:07:51Z,45.15944549,4.81639693,131.0,2.93,4819.919434642316
2023-09-17T10:07:55Z,45.15940713,4.81652331,None,2.9100000000000006,4830.732301811265
2023-09-17T10:07:59Z,45.15936642,4.81664882,131.0,2.93,4841.588562403661
2023-09-17T10:08:03Z,45.15932082,4.81676907,125.0,2.929906383400151,4852.316069841314
2023-09-17T10:08:07Z,45.15928211,4.816909,None,2.93,4864.129654004745
2023-09-17T10:08:11Z,45.1592616,4.81705364,125.0,2.93,4875.728592265149
2023-09-17T10:08:15Z,45.15927426,4.81718913,125.0,2.89,4886.474418628989
2023-09-17T10:08:19Z,45.15930578,4.81732032,None,2.8800000000000003,4897.368200125908
2023-09-17T10:08:23Z,45.15934014,4.81745488,125.0,2.8800000000000003,4908.616399760545
2023-09-17T10:08:27Z,45.15937005,4.81758666,125.0,2.8400000000000003,4919.4981230443
2023-09-17T10:08:31Z,45.15938074,4.81772725,125.0,2.8400000000000003,4930.616082498454
2023-09-17T10:08:35Z,45.15937948,4.81786329,None,2.81,4941.313543452858
2023-09-17T10:08:39Z,45.15936888,4.81799089,125.0,2.7800000000000002,4951.4153923928625
2023-09-17T10:08:43Z,45.15935792,4.81812269,125.0,2.7600000000000007,4961.849893164662
2023-09-17T10:08:47Z,45.15933075,4.8182704,None,2.760392447845122,4973.850136184304
2023-09-17T10:08:51Z,45.15930301,4.81840984,125.0,2.7600000000000007,4985.239213321705
2023-09-17T10:08:56Z,45.15928249,4.81855196,125.0,2.7200000000000006,4996.644157109188
2023-09-17T10:09:01Z,45.15926292,4.81870383,125.0,2.7,5008.78185105976
2023-09-17T10:09:05Z,45.15925538,4.81883427,None,2.7,5019.072275223851
2023-09-17T10:09:09Z,45.1592451,4.81898142,126.0,2.7002682625792223,5030.698670645983
2023-09-17T10:09:13Z,45.15922832,4.81913844,126.0,2.71,5043.184904499812
2023-09-17T10:09:17Z,45.15921107,4.81926991,None,2.7,5053.6984097223
2023-09-17T10:09:21Z,45.15918472,4.81941387,126.0,2.7200000000000006,5065.390390545495
2023-09-17T10:09:25Z,45.15916779,4.8195532,126.0,2.7200000000000006,5076.506056116244
2023-09-17T10:09:29Z,45.15914912,4.81968526,126.0,2.71,5087.094977467538
2023-09-17T10:09:33Z,45.15913632,4.81981412,126.0,2.7,5097.326388612268
2023-09-17T10:09:38Z,45.15911573,4.81995244,126.0,2.67,5108.440370567235
2023-09-17T10:09:43Z,45.1590963,4.8201039,None,2.669772231998476,5120.543598729874
2023-09-17T10:09:47Z,45.15907072,4.82025985,126.0,2.67,5133.130915430444
2023-09-17T10:09:51Z,45.1590429,4.82041996,126.0,2.71,5146.094200622873
2023-09-17T10:09:55Z,45.15901642,4.82056092,None,2.71,5157.561698261111
2023-09-17T10:09:59Z,45.1589925,4.82070201,126.0,2.75,5168.969446850742
2023-09-17T10:10:03Z,45.15895855,4.82085218,126.0,2.750869173022583,5181.365257817034
2023-09-17T10:10:07Z,45.15893917,4.8209782,126.0,2.7900000000000005,5191.505400670654
2023-09-17T10:10:11Z,45.15890629,4.82111284,None,2.7800000000000002,5202.704846956544
2023-09-17T10:10:15Z,45.15887194,4.82124164,126.0,2.7600000000000007,5213.527818024676
2023-09-17T10:10:19Z,45.1588407,4.82137933,126.0,2.77,5224.897262412123
2023-09-17T10:10:23Z,45.15880201,4.82151879,None,2.77,5236.6757105555325
2023-09-17T10:10:27Z,45.158767,4.82165418,126.0,2.77,5248.010005832482
2023-09-17T10:10:31Z,45.15874088,4.82178255,126.0,2.77,5258.512711618495
2023-09-17T10:10:35Z,45.15870545,4.82190512,126.0,2.7800000000000002,5268.9235757595025
2023-09-17T10:10:40Z,45.15867242,4.82205747,None,2.8000000000000007,5281.452492723619
2023-09-17T10:10:44Z,45.15862493,4.8221809,126.0,2.7800000000000002,5292.499911178414
2023-09-17T10:10:48Z,45.15858337,4.82231225,126.0,2.8000000000000007,5303.813571832854
2023-09-17T10:10:52Z,45.1585416,4.82243264,None,2.7600000000000007,5314.356682026059
2023-09-17T10:10:56Z,45.15850052,4.82255384,126.0,2.74,5324.923663087958
2023-09-17T10:11:00Z,45.15845622,4.82266894,126.0,2.73,5335.2263367862415
2023-09-17T10:11:05Z,45.15839654,4.82279873,None,2.6800000000000006,5347.397548294172
2023-09-17T10:11:09Z,45.15834566,4.82291697,127.0,2.6803283169334926,5358.279207084649
2023-09-17T10:11:13Z,45.15829305,4.82303833,128.0,2.69,5369.470442168544
2023-09-17T10:11:17Z,45.15823618,4.82315735,128.0,2.7,5380.76320861582
2023-09-17T10:11:21Z,45.1581898,4.8232784,None,2.69,5391.587373425295
2023-09-17T10:11:25Z,45.15813034,4.82339554,128.0,2.69,5402.923298991308
2023-09-17T10:11:29Z,45.15807978,4.82351182,128.0,2.6800000000000006,5413.654956627891
2023-09-17T10:11:33Z,45.15802732,4.82362118,None,2.67,5424.044009839525
2023-09-17T10:11:37Z,45.15797069,4.8237257,128.0,2.67,5434.395383259046
2023-09-17T10:11:41Z,45.1579028,4.82382914,128.0,2.69,5445.489511892972
2023-09-17T10:11:45Z,45.15783268,4.82392003,128.0,2.6800000000000006,5456.063178827168
2023-09-17T10:11:49Z,45.1577579,4.82400237,None,2.67,5466.598123294941
2023-09-17T10:11:53Z,45.15768644,4.82408474,128.0,2.669959110897568,5476.846006682163
2023-09-17T10:11:57Z,45.15760781,4.82416416,128.0,2.67,5487.586572368098
2023-09-17T10:12:01Z,45.15753348,4.8242537,128.0,2.6800000000000006,5498.4405119207995
2023-09-17T10:12:05Z,45.15745999,4.82433114,128.0,2.69,5508.627882560971
2023-09-17T10:12:09Z,45.15738384,4.8244005,None,2.67,5518.695909052774
2023-09-17T10:12:13Z,45.15731053,4.82448521,128.0,2.67,5529.21944520741
2023-09-17T10:12:17Z,45.15722767,4.82456082,128.0,2.66,5540.180524674795
2023-09-17T10:12:21Z,45.15714665,4.82462976,128.0,2.66,5550.69051525296
2023-09-17T10:12:25Z,45.15706266,4.82468991,None,2.65,5561.15460890763
2023-09-17T10:12:29Z,45.15697899,4.82475091,128.0,2.6400000000000006,5571.617465652609
2023-09-17T10:12:33Z,45.15689127,4.82480504,128.0,2.6400000000000006,5582.254866260762
2023-09-17T10:12:38Z,45.15680133,4.82486031,None,2.61,5593.154257612164
2023-09-17T10:12:42Z,45.15670272,4.82490607,128.0,2.62,5604.6888457797595
2023-09-17T10:12:46Z,45.15661868,4.82495321,128.0,2.61,5614.737275642671
2023-09-17T10:12:50Z,45.1565266,4.82499256,None,2.61,5625.428121112597
2023-09-17T10:12:55Z,45.15641963,4.82503233,127.0,2.61,5637.720642944836
2023-09-17T10:12:59Z,45.15633111,4.82506168,127.0,2.6099472023591628,5647.825376586864
2023-09-17T10:13:03Z,45.15623521,4.82508527,127.0,2.6000000000000005,5658.643422899025
2023-09-17T10:13:08Z,45.15613664,4.82510499,None,2.57,5669.7071853814095
2023-09-17T10:13:12Z,45.15603915,4.82512888,127.0,2.59,5680.703366905137
2023-09-17T10:13:16Z,45.15593908,4.82514809,127.0,2.6000000000000005,5691.926743250779
2023-09-17T10:13:20Z,45.15583664,4.82516567,None,2.600119624049747,5703.395013194838
2023-09-17T10:13:24Z,45.15573646,4.82517526,127.0,2.62,5714.554008281914
2023-09-17T10:13:28Z,45.1556312,4.82517063,127.0,2.6400000000000006,5726.257723421123
2023-09-17T10:13:32Z,45.15552497,4.82516783,127.0,2.66,5738.06562799201
2023-09-17T10:13:36Z,45.15543104,4.82516229,127.0,2.66,5748.513606961005
2023-09-17T10:13:40Z,45.15533055,4.82515873,127.0,2.7,5759.685052284187
2023-09-17T10:13:44Z,45.15523725,4.82514862,127.0,2.6800000000000006,5770.08436149229
2023-09-17T10:13:48Z,45.15514092,4.82513814,127.0,2.69,5780.821648368033
2023-09-17T10:13:53Z,45.15503913,4.82512869,None,2.689790011493696,5792.158440270755
2023-09-17T10:13:57Z,45.1549437,4.82512926,127.0,2.6800000000000006,5802.764129551507
2023-09-17T10:14:01Z,45.15483538,4.82510927,127.0,2.71,5814.904444133234
2023-09-17T10:14:05Z,45.15474129,4.82509468,None,2.71,5825.423867066206
2023-09-17T10:14:09Z,45.15463789,4.82507833,127.0,2.75,5836.986903454788
2023-09-17T10:14:13Z,45.15453283,4.82505236,127.0,2.77,5848.839968382504
2023-09-17T10:14:17Z,45.15443919,4.82503022,None,2.7600000000000007,5859.391252804799
2023-09-17T10:14:21Z,45.15435127,4.82497744,131.0,2.74,5870.007148201829
2023-09-17T10:14:25Z,45.15425439,4.82493925,131.0,2.74,5881.1848526928925
2023-09-17T10:14:29Z,45.15415706,4.82490417,127.0,2.74,5892.347804047132
2023-09-17T10:14:33Z,45.15406621,4.82487514,127.0,2.71,5902.699244722371
2023-09-17T10:14:37Z,45.15397936,4.82482703,None,2.7100021388413604,5913.066229464897
2023-09-17T10:14:41Z,45.15388968,4.82478579,127.0,2.7,5923.54711833561
2023-09-17T10:14:45Z,45.1538039,4.82474058,127.0,2.69,5933.721577568199
2023-09-17T10:14:49Z,45.15371888,4.82468649,None,2.69,5944.083477771152
2023-09-17T10:14:53Z,45.15363204,4.82463766,127.0,2.6800000000000006,5954.470232670016
2023-09-17T10:14:57Z,45.15354241,4.82457311,127.0,2.7200000000000006,5965.649989744648
2023-09-17T10:15:01Z,45.15345704,4.82450882,127.0,2.7200000000000006,5976.400444512717
2023-09-17T10:15:05Z,45.15337164,4.82444173,None,2.7,5987.259098478961
2023-09-17T10:15:09Z,45.15328674,4.82437722,127.0,2.699946362905356,5997.971672292588
2023-09-17T10:15:13Z,45.15320423,4.8243065,127.0,2.67,6008.6959670294
2023-09-17T10:15:17Z,45.15311725,4.82424158,None,2.67,6019.627715220673
2023-09-17T10:15:21Z,45.15303486,4.82417417,127.0,2.6678340299997774,6030.207838894883
2023-09-17T10:15:26Z,45.1529366,4.82409921,127.0,2.65,6042.617313145509
2023-09-17T10:15:30Z,45.15285199,4.824039,None,2.6400000000000006,6053.145187876534
2023-09-17T10:15:35Z,45.15275612,4.82396236,127.0,2.63,6065.386091653479
2023-09-17T10:15:39Z,45.15267335,4.82390698,127.0,2.63,6075.563519621351
2023-09-17T10:15:44Z,45.15257483,4.82382889,127.0,2.62,6088.116993969037
2023-09-17T10:15:48Z,45.15249333,4.82376907,None,2.62,6098.3231892983085
2023-09-17T10:15:53Z,45.15239496,4.82370404,127.0,2.61,6110.392433311605
2023-09-17T10:15:58Z,45.15229891,4.82361067,127.0,2.6000000000000005,6123.348341125967
2023-09-17T10:16:02Z,45.15222176,4.82353424,None,2.59,6133.81914587745
2023-09-17T10:16:06Z,45.15214197,4.82346547,127.0,2.58,6144.205539181592
2023-09-17T10:16:11Z,45.15204652,4.82339222,127.0,2.5600000000000005,6156.276410128404
2023-09-17T10:16:15Z,45.15196527,4.82331799,127.0,2.5600000000000005,6167.028599429632
2023-09-17T10:16:19Z,45.15186891,4.82323851,None,2.59,6179.428036362122
2023-09-17T10:16:22Z,45.15179311,4.82315757,127.0,2.59,6189.986305433463
2023-09-17T10:16:26Z,45.15169896,4.82307024,127.0,2.6037479674613055,6202.5020508078505
2023-09-17T10:16:30Z,45.15161047,4.82298964,None,2.69,6214.201937898013
2023-09-17T10:16:34Z,45.15152791,4.82291484,123.0,2.71,6225.10082769618
2023-09-17T10:16:38Z,45.15145105,4.82284608,123.0,2.7200000000000006,6235.210252239673
2023-09-17T10:16:42Z,45.15136305,4.82277449,None,2.73,6246.494745339954
2023-09-17T10:16:46Z,45.15127137,4.8227073,123.0,2.74,6257.9721311532885
2023-09-17T10:16:50Z,45.15118729,4.82263679,123.0,2.7600000000000007,6268.837652229277
2023-09-17T10:16:55Z,45.15109209,4.8225572,123.0,2.7600000000000007,6281.130364717041
2023-09-17T10:16:59Z,45.15101524,4.82249039,None,2.7600000000000007,6291.15768053145
2023-09-17T10:17:03Z,45.15092928,4.82242537,123.0,2.7600000000000007,6301.993118214812
2023-09-17T10:17:07Z,45.15084789,4.82236235,123.0,2.7600000000000007,6312.307054270901
2023-09-17T10:17:11Z,45.1507599,4.82230054,None,2.77,6323.227240080595
2023-09-17T10:17:15Z,45.15067718,4.82223953,123.0,2.7900000000000005,6333.596978739735
2023-09-17T10:17:19Z,45.15059393,4.82217578,123.0,2.7800000000000002,6344.119906991602
2023-09-17T10:17:23Z,45.15051353,4.82210173,None,2.75,6354.7852318920195
2023-09-17T10:17:27Z,45.15043242,4.82203572,123.0,2.7,6365.187229188977
2023-09-17T10:17:31Z,45.15035534,4.82196706,123.0,2.66,6375.313178948875
2023-09-17T10:17:35Z,45.15027745,4.82189308,None,2.6400000000000006,6385.742859075612
2023-09-17T10:17:40Z,45.15018447,4.82181668,123.0,2.6400000000000006,6397.695887937551
2023-09-17T10:17:44Z,45.15010597,4.82173954,123.0,2.63,6408.321797182575
2023-09-17T10:17:48Z,45.15002559,4.82166388,123.0,2.62,6419.054953368121
2023-09-17T10:17:52Z,45.14994501,4.82159619,None,2.61,6429.47285546255
2023-09-17T10:17:57Z,45.14986162,4.82151916,126.0,2.59,6440.544570931715
2023-09-17T10:18:02Z,45.14976758,4.82143437,126.0,2.589134628980536,6452.941650572492
2023-09-17T10:18:07Z,45.14968206,4.82135094,None,2.57,6464.490580179539
2023-09-17T10:18:12Z,45.14958865,4.82126556,126.0,2.54,6476.85384081474
2023-09-17T10:18:16Z,45.14950273,4.82119376,126.0,2.54,6487.947082959468
2023-09-17T10:18:20Z,45.14941557,4.82111379,None,2.5600000000000005,6499.496082726712
2023-09-17T10:18:25Z,45.14932495,4.82104918,126.0,2.54,6510.776266229544
2023-09-17T10:18:29Z,45.14924955,4.82097578,126.0,2.5300000000000002,6520.9515555800235
2023-09-17T10:18:33Z,45.14917397,4.82090326,126.0,2.54,6531.104293990002
2023-09-17T10:18:37Z,45.14909555,4.82083638,None,2.5300000000000002,6541.283565802534
2023-09-17T10:18:41Z,45.14901498,4.82077716,125.0,2.5300000000000002,6551.376419404954
2023-09-17T10:18:46Z,45.14892957,4.82071682,125.0,2.5234348117199192,6561.988485375389
2023-09-17T10:18:50Z,45.14885475,4.82064107,None,2.49,6572.217296796834
2023-09-17T10:18:54Z,45.14877552,4.82056446,125.0,2.49,6582.886400481417
2023-09-17T10:18:58Z,45.14867388,4.82047322,125.0,2.5500000000000007,6596.2684461291565
2023-09-17T10:19:02Z,45.14858419,4.82038863,None,2.61,6608.2521309190115
2023-09-17T10:19:06Z,45.14849672,4.82031691,125.0,2.63,6619.4908792591505
2023-09-17T10:19:10Z,45.14841868,4.82022972,125.0,2.65,6630.54695734027
2023-09-17T10:19:14Z,45.14834118,4.82016167,125.0,2.66,6640.68712311923
2023-09-17T10:19:18Z,45.1482649,4.82007891,None,2.66,6651.374788932399
2023-09-17T10:19:22Z,45.1481847,4.82001031,125.0,2.6400000000000006,6661.793370469498
2023-09-17T10:19:27Z,45.1480982,4.81992816,125.0,2.65,6673.375745143868
2023-09-17T10:19:32Z,45.14801668,4.81984915,None,2.62,6684.3615201106095
2023-09-17T10:19:36Z,45.14794243,4.81977073,125.0,2.61,6694.663273276492
2023-09-17T10:19:40Z,45.14785733,4.81968399,126.0,2.6132122626733922,6706.324280096291
2023-09-17T10:19:45Z,45.14776215,4.81959007,None,2.6400000000000006,6719.225682989559
2023-09-17T10:19:50Z,45.14767274,4.81951545,126.0,2.6431727248145176,6730.765757000939
2023-09-17T10:19:54Z,45.14759003,4.81945312,126.0,2.67,6741.183069340713
2023-09-17T10:19:58Z,45.14751378,4.81936704,None,2.69,6752.02916181212
2023-09-17T10:20:02Z,45.14744389,4.81928544,126.0,2.6400000000000006,6762.104484152888
2023-09-17T10:20:06Z,45.14735661,4.81921122,126.0,2.59,6773.425137413968
2023-09-17T10:20:11Z,45.14726481,4.81911766,None,2.59,6786.003849835063
2023-09-17T10:20:15Z,45.1471866,4.81904655,126.0,2.57,6796.339384649132
2023-09-17T10:20:19Z,45.1471048,4.81895179,126.0,2.57,6808.094419380697
2023-09-17T10:20:23Z,45.14701912,4.81887287,126.0,2.574927624515136,6819.460656912345
2023-09-17T10:20:27Z,45.14694175,4.81878132,None,2.62,6830.675524466172
2023-09-17T10:20:31Z,45.14686312,4.81868585,129.0,2.6400000000000006,6842.1966122309395
2023-09-17T10:20:35Z,45.14677744,4.81860363,129.0,2.7,6853.706636472416
2023-09-17T10:20:39Z,45.14669834,4.81852006,None,2.71,6864.682682994154
2023-09-17T10:20:44Z,45.14661839,4.81843873,129.0,2.67,6875.630689048764
2023-09-17T10:20:49Z,45.14652822,4.81834923,129.0,2.66,6887.876710029601
2023-09-17T10:20:53Z,45.14644154,4.81827368,129.0,2.67,6899.194888145735
2023-09-17T10:20:57Z,45.14636422,4.81820441,None,2.6800000000000006,6909.369213803719
2023-09-17T10:21:02Z,45.14626997,4.81811744,129.0,2.66,6921.879098367664
2023-09-17T10:21:06Z,45.14618443,4.81803401,129.0,2.6800000000000006,6933.430080335729
2023-09-17T10:21:10Z,45.14610714,4.81795234,None,2.69,6944.155585906352
2023-09-17T10:21:15Z,45.14601951,4.81785443,129.0,2.6800000000000006,6956.570767531275
2023-09-17T10:21:19Z,45.14592866,4.81775316,129.0,2.69,6969.430569213401
2023-09-17T10:21:23Z,45.14584344,4.81765572,None,2.7600000000000007,6981.613516338903
2023-09-17T10:21:27Z,45.14574659,4.81756762,126.0,2.75,6994.414232998201
2023-09-17T10:21:31Z,45.14566571,4.81747578,126.0,2.77,7005.945273184279
2023-09-17T10:21:35Z,45.14559039,4.81739453,126.0,2.7600000000000007,7016.476216476634
2023-09-17T10:21:39Z,45.14551044,4.81730436,None,2.7606463961425707,7027.84449438832
2023-09-17T10:21:43Z,45.14542979,4.81722822,126.0,2.77,7038.623821203463
2023-09-17T10:21:47Z,45.1453418,4.81716129,126.0,2.7900000000000005,7049.729308050925
2023-09-17T10:21:51Z,45.1452623,4.81706406,None,2.82,7061.41414938494
2023-09-17T10:21:55Z,45.14517679,4.81697314,126.0,2.8300000000000005,7073.307034223124
2023-09-17T10:21:59Z,45.14509784,4.81690687,126.0,2.86,7083.512380153079
2023-09-17T10:22:04Z,45.14500935,4.81680319,None,2.8300000000000005,7096.287522396695
2023-09-17T10:22:08Z,45.14493103,4.81670799,126.0,2.85,7107.76880542364
2023-09-17T10:22:12Z,45.14484873,4.81661967,128.0,2.846652460136842,7119.253823594673
2023-09-17T10:22:16Z,45.1447696,4.81652269,128.0,2.8400000000000003,7130.89475469738
2023-09-17T10:22:20Z,45.14468856,4.8164391,None,2.8800000000000003,7142.045285198133
2023-09-17T10:22:24Z,45.14460794,4.81636565,128.0,2.8300000000000005,7152.705777504132
2023-09-17T10:22:28Z,45.1445233,4.81629834,128.0,2.82,7163.499548057191
2023-09-17T10:22:32Z,45.1444481,4.81622097,None,2.77,7173.837458799261
2023-09-17T10:22:36Z,45.14435889,4.81614347,128.0,2.77,7185.475581622753
2023-09-17T10:22:42Z,45.14427063,4.81605262,128.0,2.7800000000000002,7197.610889064931
2023-09-17T10:22:47Z,45.14417889,4.81596168,None,2.71,7210.064950684801
2023-09-17T10:22:51Z,45.14409919,4.81589646,128.0,2.69,7220.3004570587445
2023-09-17T10:22:56Z,45.14400147,4.8158003,128.0,2.686463931945558,7233.5344462402945
2023-09-17T10:23:00Z,45.14390864,4.81571253,None,2.6800000000000006,7245.947529428753
2023-09-17T10:23:04Z,45.14382436,4.81562076,128.0,2.7200000000000006,7257.77226031262
2023-09-17T10:23:08Z,45.14374092,4.81553753,127.0,2.73,7269.123021956523
2023-09-17T10:23:12Z,45.14366058,4.81543944,127.0,2.73,7280.922856664375
2023-09-17T10:23:17Z,45.14357736,4.81535212,None,2.7,7292.442494536578
2023-09-17T10:23:21Z,45.14349471,4.8152846,127.0,2.6800000000000006,7303.052391088607
2023-09-17T10:23:25Z,45.14340774,4.81520437,127.0,2.69,7314.595204115526
2023-09-17T10:23:29Z,45.1433158,4.81511922,None,2.71,7326.812080441099
2023-09-17T10:23:33Z,45.14323651,4.8150229,127.0,2.7200000000000006,7338.432675852526
2023-09-17T10:23:37Z,45.14314441,4.81494516,127.0,2.75,7350.35532660938
2023-09-17T10:23:41Z,45.14305821,4.8148769,127.0,2.74,7361.336911262349
2023-09-17T10:23:45Z,45.14296691,4.81478642,127.0,2.82,7373.730249431791
2023-09-17T10:23:49Z,45.14288334,4.81468858,None,2.85,7385.7914937539545
2023-09-17T10:23:53Z,45.14279804,4.81459896,127.0,2.8700000000000006,7397.604622449047
2023-09-17T10:23:57Z,45.14272831,4.81450508,124.0,2.8800000000000003,7408.308498541865
2023-09-17T10:24:01Z,45.14264657,4.81441521,None,2.8783850980445815,7419.818634928985
2023-09-17T10:24:05Z,45.14256921,4.81431771,124.0,2.86,7431.3390620229875
2023-09-17T10:24:10Z,45.14249512,4.81420703,124.0,2.8300000000000005,7443.321421290468
2023-09-17T10:24:13Z,45.14242316,4.81412753,None,2.85,7453.47292556101
2023-09-17T10:24:17Z,45.14235367,4.8140354,124.0,2.8400000000000003,7464.062889294184
2023-09-17T10:24:21Z,45.14227953,4.81395361,124.0,2.8700000000000006,7474.5162047825415
2023-09-17T10:24:25Z,45.14218434,4.81386474,124.0,2.89,7487.195709618325
2023-09-17T10:24:29Z,45.14210414,4.81376581,None,2.9,7499.027255478234
2023-09-17T10:24:33Z,45.14202244,4.81366178,124.0,2.9,7511.249704696483
2023-09-17T10:24:37Z,45.14194057,4.81354474,124.0,2.9200000000000004,7524.192807427993
2023-09-17T10:24:41Z,45.14189093,4.81341109,None,2.9200000000000004,7536.064320865166
2023-09-17T10:24:45Z,45.14182417,4.81327749,124.0,2.922098702524704,7548.927557155195
2023-09-17T10:24:48Z,45.14175691,4.81317556,124.0,2.94,7559.888704053103
2023-09-17T10:24:52Z,45.14166651,4.81305861,None,2.97,7573.510142962259
2023-09-17T10:24:56Z,45.14158224,4.81295202,128.0,2.9744043201929937,7586.079668754059
2023-09-17T10:25:00Z,45.14151464,4.81285741,128.0,3.0100000000000002,7596.653866959771
2023-09-17T10:25:05Z,45.14145906,4.81271637,128.0,2.9900000000000007,7609.350781943419
2023-09-17T10:25:12Z,45.14145906,4.81271637,128.0,2.9900000000000007,7609.350781943419
2023-09-17T10:25:15Z,45.14150658,4.81284799,128.0,2.9,7620.972279440153
2023-09-17T10:25:20Z,45.14160182,4.81293209,128.0,2.8800000000000003,7633.453647056361
2023-09-17T10:25:24Z,45.14167674,4.81300771,None,2.8800000000000003,7643.685979031177
2023-09-17T10:25:29Z,45.14176335,4.81310011,124.0,2.870675537951758,7655.746810933421
2023-09-17T10:25:33Z,45.14183623,4.81317762,124.0,2.7900000000000005,7665.884209634676
2023-09-17T10:25:37Z,45.1418933,4.81328044,None,2.7600000000000007,7676.1616723728475
2023-09-17T10:25:39Z,45.1418933,4.81328044,124.0,2.7600000000000007,7676.1616723728475
2023-09-17T10:25:41Z,45.14192486,4.8134057,124.0,2.71,7686.619335294229
2023-09-17T10:25:45Z,45.14195196,4.81353505,124.0,2.69,7697.229390983568
2023-09-17T10:25:49Z,45.14202068,4.81363483,None,2.65,7708.179987525134
2023-09-17T10:25:53Z,45.14202068,4.81363483,124.0,2.59,7708.179987525134
2023-09-17T10:25:57Z,45.14216316,4.8138149,124.0,2.54,7729.424166291152
2023-09-17T10:26:01Z,45.14223853,4.81389055,None,2.5398553491433957,7739.698566840168
2023-09-17T10:26:05Z,45.14231089,4.81397821,124.0,2.5300000000000002,7750.291215815836
2023-09-17T10:26:09Z,45.14238977,4.81406423,124.0,2.5200000000000005,7761.364657594342
2023-09-17T10:26:13Z,45.142461,4.81416103,None,2.54,7772.347797355116
2023-09-17T10:26:17Z,45.14253842,4.81424018,124.0,2.61,7782.967734292238
2023-09-17T10:26:21Z,45.14262173,4.81431772,124.0,2.6400000000000006,7794.054437795152
2023-09-17T10:26:25Z,45.14270094,4.8143971,124.0,2.6400000000000006,7804.846619640113
2023-09-17T10:26:29Z,45.14277235,4.81448752,None,2.66,7815.5029300765855
2023-09-17T10:26:34Z,45.1428601,4.81458067,124.0,1.3542123265622754,7827.700369139146
2023-09-17T10:26:39Z,45.14294336,4.81466618,127.0,1.4914553909976271,7839.139353902746
2023-09-17T10:26:43Z,45.14294336,4.81466618,None,1.9759341342354495,7839.139353902746
2023-09-17T10:26:48Z,45.14308808,4.81482946,127.0,2.6000000000000005,7859.720745831014
2023-09-17T10:26:52Z,45.14316511,4.81490994,127.0,2.6000000000000005,7870.367415440567
2023-09-17T10:26:56Z,45.14323834,4.81499417,None,2.593816260081817,7880.861224410486
2023-09-17T10:27:01Z,45.14332439,4.81507493,127.0,2.57,7892.341580343506
2023-09-17T10:27:06Z,45.14340056,4.81514508,127.0,2.5200000000000005,7902.445976155237
2023-09-17T10:27:11Z,45.14347443,4.8152381,127.0,2.4800000000000004,7913.442342840807
2023-09-17T10:27:16Z,45.14354897,4.81530976,None,2.46,7923.461781609621
2023-09-17T10:27:17Z,45.14354897,4.81530976,127.0,2.46,7923.461781609621
2023-09-17T10:27:19Z,45.14362605,4.81539089,127.0,2.4700000000000006,7934.143349991783
2023-09-17T10:27:24Z,45.14371379,4.81548122,None,2.4400000000000004,7946.207912985293
2023-09-17T10:27:29Z,45.14379428,4.81556055,128.0,2.413000023632585,7957.114120554531
2023-09-17T10:27:34Z,45.14387863,4.81563374,128.0,2.3600000000000003,7968.114627762577
2023-09-17T10:27:39Z,45.14396247,4.81569554,None,2.3500000000000005,7978.623714850229
2023-09-17T10:27:44Z,45.14405806,4.81577713,128.0,2.38,7991.034729673387
2023-09-17T10:27:48Z,45.14413717,4.81586042,128.0,2.41,8001.998673085166
2023-09-17T10:27:52Z,45.14421847,4.8159502,128.0,2.41,8013.465784452436
2023-09-17T10:27:54Z,45.14421847,4.8159502,128.0,2.41,8013.465784452436
2023-09-17T10:27:56Z,45.14430193,4.81604798,128.0,2.45,8025.514492362655
2023-09-17T10:28:00Z,45.14438326,4.81612863,None,2.46,8036.55666869983
2023-09-17T10:28:04Z,45.14445953,4.81619886,128.0,2.4800000000000004,8046.673756131355
2023-09-17T10:28:08Z,45.14453804,4.81627198,128.0,2.5200000000000005,8057.123640863706
2023-09-17T10:28:12Z,45.14453804,4.81627198,128.0,2.5200000000000005,8057.123640863706
2023-09-17T10:28:13Z,45.14462583,4.81635215,None,2.519811119237994,8068.740240592765
2023-09-17T10:28:18Z,45.1447043,4.8164375,128.0,2.5100000000000007,8079.745260401988
2023-09-17T10:28:23Z,45.14479307,4.81653417,128.0,2.5,8092.200407806612
2023-09-17T10:28:27Z,45.14487397,4.81660521,None,2.5100000000000007,8102.785800679487
2023-09-17T10:28:31Z,45.14495014,4.81668412,126.0,2.54,8113.282180699574
2023-09-17T10:28:35Z,45.14502725,4.81675551,126.0,2.542033520070669,8123.527291279012
2023-09-17T10:28:39Z,45.14510145,4.81684141,None,2.58,8134.1875384772675
2023-09-17T10:28:43Z,45.14518153,4.81691847,126.0,2.62,8144.954829101019
2023-09-17T10:28:47Z,45.14525464,4.81699996,126.0,2.62,8155.303329428147
2023-09-17T10:28:51Z,45.14532848,4.81708141,None,2.61,8165.713707223667
2023-09-17T10:28:55Z,45.14540181,4.8171596,126.0,2.59,8175.923007251959
2023-09-17T10:28:59Z,45.14547893,4.81723433,126.0,2.5600000000000005,8186.315291166458
2023-09-17T10:29:03Z,45.14555247,4.8173087,126.0,2.5500000000000007,8196.365457972748
2023-09-17T10:29:08Z,45.14564713,4.81739777,None,2.5500000000000007,8209.004350011355
2023-09-17T10:29:12Z,45.14572128,4.81747019,126.0,2.54,8219.021728502337
2023-09-17T10:29:17Z,45.14580951,4.81755542,126.0,2.5439828623720113,8230.899311171132
2023-09-17T10:29:21Z,45.14588329,4.8176295,None,2.57,8240.957933052228
2023-09-17T10:29:26Z,45.14597662,4.81769228,129.0,2.5500000000000007,8252.44534243715
2023-09-17T10:29:31Z,45.14605741,4.81777298,129.0,2.5200000000000005,8263.440613813376
2023-09-17T10:29:36Z,45.14613397,4.8178467,None,2.4800000000000004,8273.736655905632
2023-09-17T10:29:41Z,45.1462182,4.81792207,129.0,2.45,8284.816448908961
2023-09-17T10:29:46Z,45.14629762,4.8179948,129.0,2.4000000000000004,8295.334115360865
2023-09-17T10:29:50Z,45.14637871,4.81806789,None,2.3970164174503834,8306.023202864251
2023-09-17T10:29:55Z,45.1464692,4.81815842,129.0,2.4000000000000004,8318.344981263148
2023-09-17T10:29:58Z,45.1465461,4.81823954,129.0,2.4700000000000006,8329.009851784755
2023-09-17T10:30:01Z,45.14662222,4.81832462,129.0,2.485871685709359,8339.795766453231
2023-09-17T10:30:04Z,45.14669968,4.81840639,None,2.62,8350.541079421837
2023-09-17T10:30:08Z,45.14678329,4.81850047,129.0,2.65,8362.4190062279
2023-09-17T10:30:13Z,45.14686881,4.81859896,129.0,2.65,8374.679812507133
2023-09-17T10:30:17Z,45.14694543,4.81868126,None,2.67,8385.375638399415
2023-09-17T10:30:21Z,45.14702464,4.81876388,126.0,2.6800000000000006,8396.31692783456
2023-09-17T10:30:26Z,45.14710773,4.81886814,126.0,2.7,8408.666101071894
2023-09-17T10:30:30Z,45.14718498,4.81894365,None,2.69,8419.104980819264
2023-09-17T10:30:34Z,45.14726753,4.81902042,126.0,2.6960435088602366,8430.087572704995
2023-09-17T10:30:38Z,45.14734372,4.8190919,126.0,2.7600000000000007,8440.251105634461
2023-09-17T10:30:42Z,45.14741875,4.81917244,126.0,2.7900000000000005,8450.722462654943
2023-09-17T10:30:46Z,45.14750367,4.81926326,None,2.8400000000000003,8462.558105358547
2023-09-17T10:30:51Z,45.14758717,4.8193497,126.0,2.82,8474.061432379956
2023-09-17T10:30:55Z,45.14767174,4.81944096,126.0,2.85,8485.887039031359
2023-09-17T10:30:59Z,45.14775838,4.81952977,126.0,2.81,8497.782141057576
2023-09-17T10:31:03Z,45.14783736,4.81960086,None,2.75,8508.188869098954
2023-09-17T10:31:07Z,45.14790878,4.81967836,126.0,2.743396108666714,8518.196238781295
2023-09-17T10:31:12Z,45.14799735,4.81976876,125.0,2.6400000000000006,8530.338392998206
2023-09-17T10:31:17Z,45.14809018,4.81985721,None,2.6400000000000006,8542.781025253853
2023-09-17T10:31:21Z,45.1481743,4.81993071,125.0,2.65,8553.772339385401
2023-09-17T10:31:25Z,45.14825338,4.82000962,125.0,2.6400000000000006,8564.531033352474
2023-09-17T10:31:29Z,45.14832584,4.82009085,125.0,2.6415365998966442,8574.80998317556
2023-09-17T10:31:33Z,45.14839971,4.82017314,None,2.65,8585.263548159144
2023-09-17T10:31:37Z,45.14847302,4.82025132,125.0,2.6400000000000006,8595.470404872543
2023-09-17T10:31:42Z,45.14856337,4.8203422,125.0,2.63,8607.795281258994
2023-09-17T10:31:47Z,45.14865837,4.8204267,125.0,2.6000000000000005,8620.270344484154
2023-09-17T10:31:51Z,45.14873817,4.82050145,None,2.6000000000000005,8630.910284703923
2023-09-17T10:31:55Z,45.14881465,4.82058291,125.0,2.6000000000000005,8641.553710900282
2023-09-17T10:31:59Z,45.14889506,4.82065265,125.0,2.58,8652.038850554689
2023-09-17T10:32:03Z,45.14897672,4.82072505,125.0,2.59,8662.752326501466
2023-09-17T10:32:07Z,45.14905849,4.82079247,None,2.59,8673.273455624061
2023-09-17T10:32:11Z,45.14914005,4.82085521,126.0,2.59,8683.593490760626
2023-09-17T10:32:15Z,45.14922383,4.82091472,126.0,2.6000000000000005,8694.014356401609
2023-09-17T10:32:19Z,45.14930848,4.82098371,None,2.62,8704.87428699482
2023-09-17T10:32:23Z,45.14938665,4.82105518,126.0,2.6180355339208834,8715.221325327613
2023-09-17T10:32:27Z,45.14946131,4.82112888,126.0,2.6000000000000005,8725.342480352901
2023-09-17T10:32:32Z,45.1495532,4.82120897,None,2.59,8737.340738266801
2023-09-17T10:32:36Z,45.1496351,4.82127702,126.0,2.59,8747.899347077962
2023-09-17T10:32:40Z,45.14971357,4.82134974,126.0,2.59,8758.32795746435
2023-09-17T10:32:44Z,45.14978937,4.82142233,126.0,2.6000000000000005,8768.50399040941
2023-09-17T10:32:48Z,45.14986881,4.82150159,None,2.61,8779.311143746581
2023-09-17T10:32:52Z,45.14995371,4.82157415,126.0,2.62,8790.337755095927
2023-09-17T10:32:57Z,45.15004944,4.82167057,123.0,2.62,8803.402279270913
2023-09-17T10:33:01Z,45.15012389,4.82174286,None,2.61,8813.441066310577
2023-09-17T10:33:05Z,45.15020314,4.82181338,123.0,2.6000000000000005,8823.849041047237
2023-09-17T10:33:09Z,45.15028994,4.82189484,123.0,2.62,8835.428867002121
2023-09-17T10:33:13Z,45.15037293,4.8219701,123.0,2.63,8846.387578931322
2023-09-17T10:33:17Z,45.1504602,4.82204293,None,2.65,8857.65115171452
2023-09-17T10:33:21Z,45.15054478,4.82210966,123.0,2.6400000000000006,8868.416543643103
2023-09-17T10:33:25Z,45.15062685,4.82217875,123.0,2.65,8879.033019967093
2023-09-17T10:33:29Z,45.15071054,4.8222317,None,2.650534611798367,8889.22344913482
2023-09-17T10:33:33Z,45.15079293,4.82229511,123.0,2.66,8899.649625564905
2023-09-17T10:33:37Z,45.1508703,4.8223716,123.0,2.66,8910.143248577733
2023-09-17T10:33:41Z,45.1509541,4.82244326,123.0,2.67,8921.02857783861
2023-09-17T10:33:45Z,45.15103837,4.82250094,123.0,2.67,8931.434532642634
2023-09-17T10:33:49Z,45.15112037,4.82257447,None,2.67,8942.227272349146
2023-09-17T10:33:53Z,45.15120448,4.822637,123.0,2.67,8952.789303357697
2023-09-17T10:33:57Z,45.15128638,4.82271086,123.0,2.67,8963.586589892031
2023-09-17T10:34:01Z,45.15137346,4.82276711,123.0,2.6725010532695315,8974.227221727559
2023-09-17T10:34:05Z,45.15145657,4.82283564,123.0,2.69,8984.920859088712
2023-09-17T10:34:09Z,45.15153816,4.82290359,None,2.67,8995.445701012304
2023-09-17T10:34:13Z,45.15161591,4.82297475,127.0,2.66,9005.740192318804
2023-09-17T10:34:17Z,45.15169231,4.82305063,127.0,2.65,9016.117961810272
2023-09-17T10:34:21Z,45.15177061,4.82312269,127.0,2.6400000000000006,9026.502254843848
2023-09-17T10:34:25Z,45.15184715,4.82319224,None,2.63,9036.615096022892
2023-09-17T10:34:29Z,45.15192282,4.8232668,127.0,2.63,9046.866862165558
2023-09-17T10:34:33Z,45.15200346,4.8233303,127.0,2.629528945313073,9057.12605404219
2023-09-17T10:34:37Z,45.1520846,4.82338911,127.0,2.62,9067.260288080603
2023-09-17T10:34:42Z,45.15218395,4.82345683,None,2.6000000000000005,9079.51868803928
2023-09-17T10:34:46Z,45.15226302,4.82352513,127.0,2.6000000000000005,9089.817525342834
2023-09-17T10:34:51Z,45.1523596,4.82359716,127.0,2.58,9101.953822898487
2023-09-17T10:34:55Z,45.15244071,4.82366703,None,2.5794113069038778,9112.51048915545
2023-09-17T10:34:59Z,45.15252187,4.82372754,127.0,2.57,9122.70837285007
2023-09-17T10:35:03Z,45.15260367,4.82378634,127.0,2.57,9132.907553109311
2023-09-17T10:35:07Z,45.1526892,4.82386231,None,2.57,9144.13436389728
2023-09-17T10:35:12Z,45.15278038,4.82394252,127.0,2.5600000000000005,9156.070335335613
2023-09-17T10:35:17Z,45.15286332,4.82401967,127.0,2.557908629086452,9167.105242980719
2023-09-17T10:35:22Z,45.15295569,4.82409954,127.0,2.5200000000000005,9179.139708488949
2023-09-17T10:35:27Z,45.15304349,4.82415735,127.0,2.49,9189.904345170899
2023-09-17T10:35:32Z,45.15313633,4.82423307,None,2.4800000000000004,9201.816961878098
2023-09-17T10:35:36Z,45.15322224,4.82430438,127.0,2.49,9212.889506258576
2023-09-17T10:35:40Z,45.15330633,4.82437536,127.0,2.5,9223.774790334084
2023-09-17T10:35:43Z,45.15339136,4.82444414,127.0,2.5,9234.66292524033
2023-09-17T10:35:47Z,45.15348823,4.82452236,None,2.58,9247.061815020388
2023-09-17T10:35:51Z,45.15358328,4.82458245,127.0,2.61,9258.633869290557
2023-09-17T10:35:55Z,45.15367856,4.82464256,127.0,2.6400000000000006,9270.229899142514
2023-09-17T10:35:59Z,45.15377403,4.82469019,127.0,2.67,9281.481612833591
2023-09-17T10:36:03Z,45.15386108,4.82473289,None,2.6800000000000006,9291.722031002584
2023-09-17T10:36:07Z,45.15394852,4.82476989,127.0,2.6800000000000006,9301.8658719435
2023-09-17T10:36:11Z,45.15403909,4.82481734,127.0,2.66,9312.600677245131
2023-09-17T10:36:15Z,45.15412889,4.82485771,None,2.69,9323.073306270988
2023-09-17T10:36:19Z,45.15421828,4.82489824,131.0,2.6800000000000006,9333.506358148821
2023-09-17T10:36:24Z,45.15431342,4.82493363,131.0,2.71,9344.439816635102
2023-09-17T10:36:28Z,45.1544069,4.8249621,131.0,2.73,9355.067176061304
2023-09-17T10:36:32Z,45.15450416,4.82499814,None,2.74,9366.24149326297
2023-09-17T10:36:36Z,45.15460152,4.8250261,127.0,2.7600000000000007,9377.28269599123
2023-09-17T10:36:41Z,45.15471231,4.82506524,127.0,2.75,9389.974160707294
2023-09-17T10:36:46Z,45.15480708,4.82507593,None,2.7200000000000006,9400.539897670264
2023-09-17T10:36:51Z,45.15490238,4.8250811,127.0,2.6000000000000005,9411.138844032188
2023-09-17T10:36:56Z,45.15499938,4.8250894,127.0,2.5500000000000007,9421.938659298934
2023-09-17T10:37:00Z,45.15509415,4.82509332,127.0,2.5100000000000007,9432.475414699853
2023-09-17T10:37:04Z,45.15518742,4.82509889,None,2.5,9442.85020774242
2023-09-17T10:37:08Z,45.15528935,4.8251047,127.0,2.5200000000000005,9454.187387999162
2023-09-17T10:37:12Z,45.15539136,4.82511104,127.0,2.54,9465.535206516013
2023-09-17T10:37:16Z,45.15549206,4.82512318,None,2.54,9476.767122384932
2023-09-17T10:37:20Z,45.15558982,4.82513144,127.0,2.5500000000000007,9487.651059493985
2023-09-17T10:37:24Z,45.1556886,4.82512613,127.0,2.58,9498.636894591784
2023-09-17T10:37:28Z,45.15578685,4.82512099,None,2.5830552087060283,9509.563368549765
2023-09-17T10:37:32Z,45.15588679,4.82511883,127.0,2.62,9520.671481330544
2023-09-17T10:37:36Z,45.15598547,4.82510996,127.0,2.61,9531.660422563808
2023-09-17T10:37:40Z,45.15608132,4.82509208,None,2.61,9542.405077880756
2023-09-17T10:37:44Z,45.15617064,4.82507687,127.0,2.61,9552.403430956345
2023-09-17T10:37:49Z,45.15627749,4.82503772,127.0,2.62,9564.670733912188
2023-09-17T10:37:54Z,45.15638585,4.82500429,127.0,2.6400000000000006,9576.99686144276
2023-09-17T10:37:59Z,45.15648932,4.82496906,128.0,2.66,9588.824956213759
2023-09-17T10:38:03Z,45.15657564,4.82493345,None,2.66,9598.818411606724
2023-09-17T10:38:08Z,45.1566847,4.82490482,128.0,2.65,9611.146074729804
2023-09-17T10:38:12Z,45.15676958,4.8248623,128.0,2.6477588911425203,9621.154185219373
2023-09-17T10:38:16Z,45.15685975,4.82479833,128.0,2.62,9632.36678827442
2023-09-17T10:38:20Z,45.15695076,4.82473714,None,2.62,9643.56727009961
2023-09-17T10:38:25Z,45.15704961,4.82466931,128.0,2.6000000000000005,9655.77922989022
2023-09-17T10:38:29Z,45.15714104,4.82460972,128.0,2.6000000000000005,9666.968609351565
2023-09-17T10:38:33Z,45.15722765,4.82453923,None,2.599292447124089,9678.075796162995
2023-09-17T10:38:37Z,45.15730711,4.82446884,128.0,2.59,9688.497738336671
2023-09-17T10:38:41Z,45.15738772,4.8243902,128.0,2.58,9699.383145651109
2023-09-17T10:38:46Z,45.15747917,4.82430192,128.0,2.58,9711.690739969774
2023-09-17T10:38:50Z,45.15755548,4.82422259,128.0,2.59,9722.218413224551
2023-09-17T10:38:54Z,45.15763416,4.82413682,128.0,2.59,9733.261166114446
2023-09-17T10:38:58Z,45.15770609,4.82404931,None,2.61,9743.808687622084
2023-09-17T10:39:02Z,45.15777625,4.82396655,128.0,2.63,9753.9646401505
2023-09-17T10:39:06Z,45.15785257,4.82388376,128.0,2.6312067940352004,9764.656620677915
2023-09-17T10:39:10Z,45.15791812,4.82379114,128.0,2.65,9774.957469614832
2023-09-17T10:39:14Z,45.15798036,4.82368871,128.0,2.65,9785.574119661926
2023-09-17T10:39:18Z,45.15803951,4.82357848,128.0,2.66,9796.452345330215
2023-09-17T10:39:22Z,45.15809913,4.82347107,None,2.65,9807.186893848055
2023-09-17T10:39:26Z,45.15815732,4.82336024,128.0,2.65,9818.038816809776
2023-09-17T10:39:30Z,45.15820889,4.82324925,128.0,2.66,9828.479562477718
2023-09-17T10:39:34Z,45.15825909,4.82313656,None,2.65,9838.950377854955
2023-09-17T10:39:38Z,45.15830698,4.82302132,128.0,2.6400000000000006,9849.45907504105
2023-09-17T10:39:42Z,45.15835825,4.82290652,126.0,2.6400000000000006,9860.133640434437
2023-09-17T10:39:46Z,45.15840217,4.82278454,None,2.65,9870.895413943077
2023-09-17T10:39:50Z,45.15844707,4.82266429,126.0,2.6500721270037753,9881.586524658938
2023-09-17T10:39:54Z,45.15849475,4.82255194,126.0,2.65,9891.887875018889
2023-09-17T10:39:58Z,45.15853488,4.82243199,126.0,2.6400000000000006,9902.320736031425
2023-09-17T10:40:02Z,45.15857324,4.8223086,None,2.6400000000000006,9912.91809012779
2023-09-17T10:40:06Z,45.15861472,4.82218708,126.0,2.6400000000000006,9923.526998400917
2023-09-17T10:40:10Z,45.15864866,4.82206247,126.0,2.65,9934.02591705848
2023-09-17T10:40:14Z,45.15868343,4.82193847,None,2.6400000000000006,9944.51371732
2023-09-17T10:40:18Z,45.15871539,4.82181309,126.0,2.6400000000000006,9954.992532677888
2023-09-17T10:40:22Z,45.15875014,4.82168565,126.0,2.6400000000000006,9965.731439931738
2023-09-17T10:40:26Z,45.15877939,4.82156141,126.0,2.6400000000000006,9976.02693666216
2023-09-17T10:40:30Z,45.15881244,4.8214373,None,2.63,9986.453897451745
2023-09-17T10:40:34Z,45.15884855,4.821317,126.0,2.630364114524584,9996.729017656784
2023-09-17T10:40:38Z,45.15887763,4.82119163,126.0,2.63,10007.10294040323
2023-09-17T10:40:42Z,45.15891249,4.82106265,None,2.62,10017.959252073852
2023-09-17T10:40:46Z,45.15894323,4.8209354,126.0,2.63,10028.531892351919
2023-09-17T10:40:50Z,45.15896911,4.82080426,126.0,2.63,10039.236852576609
2023-09-17T10:40:54Z,45.15898729,4.82067215,None,2.63,10049.819129298161
2023-09-17T10:40:58Z,45.15900595,4.82054376,126.0,2.62,10060.12503852152
2023-09-17T10:41:02Z,45.15903054,4.82041593,126.0,2.62,10070.541002001897
2023-09-17T10:41:06Z,45.15905342,4.82028594,126.0,2.62,10081.073455484782
2023-09-17T10:41:10Z,45.15907386,4.82015886,None,2.62,10091.320507950259
2023-09-17T10:41:14Z,45.15909239,4.82002412,126.0,2.62,10102.113181012159
2023-09-17T10:41:19Z,45.15912367,4.81988166,126.0,2.62,10113.841598372623
2023-09-17T10:41:23Z,45.15913591,4.81975193,None,2.6000000000000005,10124.13234696909
2023-09-17T10:41:27Z,45.15915462,4.81962283,126.0,2.59,10134.494034425563
2023-09-17T10:41:32Z,45.15917593,4.8194677,126.0,2.59,10146.919418016312
2023-09-17T10:41:36Z,45.1591943,4.81933764,126.0,2.59,10157.347593909371
2023-09-17T10:41:40Z,45.15921241,4.819206,126.0,2.590459568162151,10167.89206977532
2023-09-17T10:41:45Z,45.15923247,4.81905837,None,2.59,10179.712087367594
2023-09-17T10:41:49Z,45.15924789,4.81892371,126.0,2.57,10190.437937558398
2023-09-17T10:41:53Z,45.15925518,4.81879083,126.0,2.57,10200.917405602167
2023-09-17T10:41:57Z,45.15927185,4.81864686,None,2.57,10212.388088504358
2023-09-17T10:42:01Z,45.1592905,4.81850501,125.0,2.58,10223.73243056779
2023-09-17T10:42:05Z,45.15931188,4.81837754,125.0,2.6000000000000005,10234.032941858286
2023-09-17T10:42:09Z,45.15934142,4.8182445,None,2.6000000000000005,10244.996664744047
2023-09-17T10:42:13Z,45.15936716,4.81810979,125.0,2.601648233870435,10255.968128450244
2023-09-17T10:42:17Z,45.1593865,4.81795107,125.0,2.63,10268.631689377009
2023-09-17T10:42:21Z,45.15939235,4.81782072,None,2.65,10278.901438756942
2023-09-17T10:42:25Z,45.15938831,4.81768886,125.0,2.67,10289.2790337286
2023-09-17T10:42:29Z,45.15937519,4.81754354,125.0,2.6800000000000006,10300.797902219865
2023-09-17T10:42:33Z,45.15934454,4.81741155,125.0,2.69,10311.720714861594
2023-09-17T10:42:37Z,45.15932028,4.81727569,None,2.71,10322.738101415665
2023-09-17T10:42:41Z,45.1592943,4.81714832,125.0,2.71,10333.160850167818
2023-09-17T10:42:46Z,45.15929716,4.81700829,125.0,2.71,10344.175723144052
2023-09-17T10:42:50Z,45.1593238,4.81687953,125.0,2.7,10354.723882709468
2023-09-17T10:42:54Z,45.15936108,4.81676138,None,2.71,10364.895781842866
2023-09-17T10:42:58Z,45.1594014,4.81664454,131.0,2.69,10375.117225031825
2023-09-17T10:43:02Z,45.15943973,4.81652524,131.0,2.67,10385.419459883258
2023-09-17T10:43:06Z,45.15947686,4.81640409,None,2.66,10395.800578619015
2023-09-17T10:43:10Z,45.1595245,4.81628307,131.0,2.66,10406.689873255933
2023-09-17T10:43:14Z,45.15956639,4.8161665,131.0,2.65,10416.970045366348
2023-09-17T10:43:18Z,45.15961019,4.81605103,131.0,2.6484628204227443,10427.271757489487
2023-09-17T10:43:22Z,45.15965506,4.81593185,None,2.62,10437.886792820751
2023-09-17T10:43:26Z,45.15969802,4.81581632,131.0,2.61,10448.148887483085
2023-09-17T10:43:30Z,45.15974109,4.81569835,131.0,2.61,10458.58678169071
2023-09-17T10:43:34Z,45.15978575,4.81558065,None,2.59,10469.088160901225
2023-09-17T10:43:38Z,45.15983115,4.8154637,131.0,2.58,10479.57691454993
2023-09-17T10:43:42Z,45.15987636,4.81533894,131.0,2.59,10490.598337335976
2023-09-17T10:43:46Z,45.15992104,4.8152185,None,2.6000000000000005,10501.291071496944
2023-09-17T10:43:50Z,45.15997017,4.81509814,131.0,2.63,10512.216788370511
2023-09-17T10:43:54Z,45.16001343,4.81498224,131.0,2.62,10522.52011440328
2023-09-17T10:43:58Z,45.16005637,4.81486948,None,2.62,10532.588825000128
2023-09-17T10:44:02Z,45.16010224,4.81475153,131.0,2.62,10543.17160211937
2023-09-17T10:44:06Z,45.16014747,4.81463705,131.0,2.63,10553.481247523197
2023-09-17T10:44:10Z,45.16019429,4.81452171,136.0,2.62,10563.936782815641
2023-09-17T10:44:14Z,45.16024449,4.81441313,None,2.62,10574.135329545037
2023-09-17T10:44:18Z,45.16029358,4.81429119,136.0,2.62,10585.166580418821
2023-09-17T10:44:22Z,45.1603379,4.81417247,136.0,2.63,10595.720938497943
2023-09-17T10:44:26Z,45.16036254,4.81404122,136.0,2.63,10606.397815512568
2023-09-17T10:44:30Z,45.1603812,4.81390818,None,2.6400000000000006,10617.06187555991
2023-09-17T10:44:34Z,45.16039407,4.81377063,136.0,2.640448390150932,10627.971127353925
2023-09-17T10:44:38Z,45.16040812,4.81363524,136.0,2.65,10638.730280547996
2023-09-17T10:44:42Z,45.16043722,4.81350496,128.0,2.65,10649.47213378181
2023-09-17T10:44:46Z,45.16048149,4.8133846,None,2.65,10660.138121017653
2023-09-17T10:44:50Z,45.16052966,4.81326975,128.0,2.6400000000000006,10670.635920989405
2023-09-17T10:44:54Z,45.16058586,4.81316645,128.0,2.6400000000000006,10680.881811839172
2023-09-17T10:44:59Z,45.16064107,4.81306001,128.0,2.62,10691.259061491963
2023-09-17T10:45:04Z,45.16070404,4.81293339,None,2.6000000000000005,10703.428251064564
2023-09-17T10:45:08Z,45.16076301,4.81282142,128.0,2.6000000000000005,10714.403506572668
2023-09-17T10:45:12Z,45.16082513,4.812717,128.0,2.61,10725.13044740298
2023-09-17T10:45:17Z,45.1608959,4.81259707,None,2.6089214051474245,10737.409533230628
2023-09-17T10:45:21Z,45.16095708,4.81248995,138.0,2.6000000000000005,10748.233874145606
2023-09-17T10:45:25Z,45.1610171,4.81236735,138.0,2.61,10759.956219199314
2023-09-17T10:45:29Z,45.16108986,4.81227313,None,2.62,10770.922819130838
2023-09-17T10:45:33Z,45.1611482,4.81216852,138.0,2.63,10781.396029886386
2023-09-17T10:45:38Z,45.16121663,4.81203955,138.0,2.61,10794.071267903859
2023-09-17T10:45:42Z,45.16128177,4.81193951,None,2.61,10804.761302243118
2023-09-17T10:45:46Z,45.16134529,4.81183977,138.0,2.61,10815.31269479257
2023-09-17T10:45:51Z,45.16141986,4.81171717,138.0,2.6000000000000005,10828.024846967126
2023-09-17T10:45:55Z,45.16148778,4.81162179,138.0,2.6000000000000005,10838.665124634346
2023-09-17T10:46:00Z,45.16155421,4.8115114,None,2.59,10850.059701081802
2023-09-17T10:46:05Z,45.16163247,4.81142788,138.0,2.6000000000000005,10860.957743740457
2023-09-17T10:46:10Z,45.16172287,4.811346,138.0,2.6000000000000005,10872.890026142546
2023-09-17T10:46:14Z,45.1618079,4.81128308,138.0,2.57,10883.556432662299
2023-09-17T10:46:18Z,45.16189335,4.81122888,138.0,2.58,10893.965231856604
2023-09-17T10:46:22Z,45.16197608,4.81117076,138.0,2.58,10904.232408343336
2023-09-17T10:46:27Z,45.16206616,4.81109487,138.0,2.5500000000000007,10915.886743139545
2023-09-17T10:46:32Z,45.16215935,4.81100749,None,2.5300000000000002,10928.314933021255
2023-09-17T10:46:36Z,45.16224088,4.81091635,138.0,2.5200000000000005,10939.866873194933
2023-09-17T10:46:40Z,45.16231316,4.81082408,138.0,2.5500000000000007,10950.690740768758
2023-09-17T10:46:45Z,45.16238463,4.81070267,None,2.5484749824103803,10963.108837086855
2023-09-17T10:46:49Z,45.16245352,4.81061924,138.0,2.5300000000000002,10973.190689831472
2023-09-17T10:46:53Z,45.1625335,4.81055021,126.0,2.5200000000000005,10983.605261867915
2023-09-17T10:46:58Z,45.1626228,4.81046596,None,2.5200000000000005,10995.537175594945
2023-09-17T10:47:02Z,45.16269162,4.81038355,138.0,2.5100000000000007,11005.56108074287
2023-09-17T10:47:06Z,45.16276555,4.81030756,138.0,2.5300000000000002,11015.719907087388
2023-09-17T10:47:10Z,45.16284532,4.81023451,None,2.5500000000000007,11026.283019910974
2023-09-17T10:47:15Z,45.16292987,4.81013138,138.0,2.57,11038.69429112329
2023-09-17T10:47:19Z,45.16300748,4.81005057,138.0,2.5500000000000007,11049.40695100746
2023-09-17T10:47:23Z,45.16309125,4.81000268,138.0,2.5500000000000007,11059.44931310601
2023-09-17T10:47:28Z,45.16319303,4.80994165,None,2.5500000000000007,11071.736299031061
2023-09-17T10:47:32Z,45.16328861,4.80988913,138.0,2.5500000000000007,11083.132948863386
2023-09-17T10:47:35Z,45.16337205,4.80982633,138.0,2.6000000000000005,11093.638626214493
2023-09-17T10:47:39Z,45.16346907,4.80976691,None,2.63,11105.389519175009
2023-09-17T10:47:43Z,45.16356155,4.80970721,138.0,2.6400000000000006,11116.688354081982
2023-09-17T10:47:47Z,45.16365305,4.80966224,138.0,2.65,11127.454330203493
2023-09-17T10:47:51Z,45.16374543,4.80961073,None,2.650788269615969,11138.490865809425
2023-09-17T10:47:55Z,45.1638289,4.80955139,138.0,2.67,11148.874431640785
2023-09-17T10:47:59Z,45.16391228,4.80950212,138.0,2.6800000000000006,11158.917952765798
2023-09-17T10:48:03Z,45.16399842,4.80945647,138.0,2.6800000000000006,11169.141798093058
2023-09-17T10:48:08Z,45.16409872,4.80939442,None,2.6800000000000006,11181.309437003545
2023-09-17T10:48:13Z,45.16419443,4.80932878,138.0,2.679294075502605,11193.131996537642
2023-09-17T10:48:18Z,45.164279,4.80926913,138.0,2.65,11203.635763728333
2023-09-17T10:48:23Z,45.16437518,4.80924841,None,2.61,11214.448148895599
2023-09-17T10:48:28Z,45.16447664,4.80919205,138.0,2.61,11226.563310510153
2023-09-17T10:48:33Z,45.16455701,4.80911115,138.0,2.54,11237.5284476885
2023-09-17T10:48:37Z,45.16463618,4.80904375,None,2.5,11247.799495893421
2023-09-17T10:48:41Z,45.16471823,4.80897488,128.0,2.5100000000000007,11258.404555332922
2023-09-17T10:48:45Z,45.16481198,4.8088914,128.0,2.5200000000000005,11270.718358362434
2023-09-17T10:48:49Z,45.1649057,4.80881699,128.0,2.54,11282.664417438087
2023-09-17T10:48:52Z,45.1649057,4.80881699,128.0,2.54,11282.664417438087
2023-09-17T10:48:53Z,45.16498907,4.80874548,128.0,2.54,11293.502067664927
2023-09-17T10:48:57Z,45.16507166,4.80869004,None,2.5391224439746223,11303.663057385222
2023-09-17T10:49:02Z,45.16516669,4.80862652,128.0,2.5100000000000007,11315.345419157664
2023-09-17T10:49:07Z,45.16525699,4.80856161,128.0,2.49,11326.60392356183
2023-09-17T10:49:12Z,45.16534725,4.80849199,None,2.4800000000000004,11338.031136250833
2023-09-17T10:49:14Z,45.16534725,4.80849199,128.0,2.4800000000000004,11338.031136250833
2023-09-17T10:49:17Z,45.16544363,4.80844132,128.0,2.4800000000000004,11349.459135741214
2023-09-17T10:49:22Z,45.16553421,4.80839967,128.0,2.46,11360.044927980745
2023-09-17T10:49:26Z,45.16561954,4.80832587,None,2.5200000000000005,11371.162241420243
2023-09-17T10:49:30Z,45.16571691,4.80825748,162.0,2.5208918700576914,11383.24563551848
2023-09-17T10:49:35Z,45.16581305,4.80819141,162.0,2.57,11395.125889414465
2023-09-17T10:49:39Z,45.16589228,4.80813002,None,2.57,11405.167123676998
2023-09-17T10:49:43Z,45.16597196,4.80806761,162.0,2.5600000000000005,11415.290860141546
2023-09-17T10:49:48Z,45.16607015,4.80799918,162.0,2.5100000000000007,11427.457309618732
2023-09-17T10:49:53Z,45.16616939,4.80793121,None,2.46,11439.712715056241
2023-09-17T10:49:57Z,45.16625857,4.80789675,162.0,2.46,11449.987348149256
2023-09-17T10:50:02Z,45.16636047,4.80783256,162.0,2.4700000000000006,11462.385542624603
2023-09-17T10:50:07Z,45.1664472,4.80773932,162.0,2.4800000000000004,11474.495027533001
2023-09-17T10:50:11Z,45.16653035,4.80766556,None,2.5,11485.4046919908
2023-09-17T10:50:15Z,45.16662242,4.80759436,162.0,2.5500000000000007,11497.067930870795
2023-09-17T10:50:20Z,45.16672366,4.80752044,128.0,2.5600000000000005,11509.731452501203
2023-09-17T10:50:24Z,45.16681648,4.80744286,None,2.63,11521.715211960156
2023-09-17T10:50:28Z,45.16690389,4.80737366,128.0,2.63,11532.849178148685
2023-09-17T10:50:32Z,45.16698539,4.80730806,128.0,2.6000000000000005,11543.272049995267
2023-09-17T10:50:36Z,45.16707456,4.80724588,None,2.6017055428850506,11554.322077362016
2023-09-17T10:50:40Z,45.16715524,4.80718196,128.0,2.63,11564.600632617605
2023-09-17T10:50:45Z,45.16726013,4.80712489,128.0,2.63,11577.091225525708
2023-09-17T10:50:49Z,45.16734591,4.8070756,128.0,2.6400000000000006,11587.38185763524
2023-09-17T10:50:53Z,45.16743124,4.80702242,None,2.63,11597.745722393907
2023-09-17T10:50:58Z,45.16753789,4.80698319,128.0,2.6400000000000006,11609.992963491197
2023-09-17T10:51:02Z,45.16762551,4.80693618,128.0,2.65,11620.408365536749
2023-09-17T10:51:06Z,45.16771489,4.80690138,None,2.6400000000000006,11630.711490437177
2023-09-17T10:51:10Z,45.16780088,4.80684383,128.0,2.66,11641.284887397049
2023-09-17T10:51:15Z,45.16790299,4.80678478,128.0,2.62,11653.54571899276
2023-09-17T10:51:19Z,45.16799179,4.8067358,None,2.621474881083325,11664.139129613644
2023-09-17T10:51:23Z,45.16807555,4.80667618,128.0,2.63,11674.561230218365
2023-09-17T10:51:27Z,45.16816268,4.80663666,128.0,2.6000000000000005,11684.730652909688
2023-09-17T10:51:31Z,45.16825646,4.80660182,None,2.59,11695.506793163662
2023-09-17T10:51:35Z,45.16835528,4.80655449,128.0,2.61,11707.102366996098
2023-09-17T10:51:39Z,45.16845114,4.80651637,128.0,2.61,11718.169256702025
2023-09-17T10:51:43Z,45.16855216,4.80647041,128.0,2.6400000000000006,11729.963214583655
2023-09-17T10:51:47Z,45.16864095,4.80641907,None,2.65,11740.624421456168
2023-09-17T10:51:51Z,45.16873132,4.80635432,128.0,2.66,11751.884033595274
2023-09-17T10:51:55Z,45.16882394,4.8062892,126.0,2.6800000000000006,11763.380163829863
2023-09-17T10:51:59Z,45.16891192,4.8062211,144.0,2.7,11774.527564331836
2023-09-17T10:52:03Z,45.16900456,4.8061433,None,2.698748398707322,11786.502817035082
2023-09-17T10:52:12Z,45.16896716,4.8062673,126.0,2.6400000000000006,11797.100175089066
2023-09-17T10:52:16Z,45.16889366,4.8063407,126.0,2.6400000000000006,11807.101169357435
2023-09-17T10:52:26Z,45.16899763,4.8063816,126.0,2.5300000000000002,11819.09491186958
2023-09-17T10:52:30Z,45.16908178,4.80632249,None,2.54,11829.537804835503
2023-09-17T10:52:34Z,45.16917196,4.80626582,126.0,2.54,11840.505553553125
2023-09-17T10:52:38Z,45.16927225,4.80626849,126.0,2.5300000000000002,11851.653267456511
2023-09-17T10:52:42Z,45.16937155,4.80631362,None,2.54,11863.245260695017
2023-09-17T10:52:46Z,45.16947263,4.80632986,126.0,2.5300000000000002,11874.551110883645
2023-09-17T10:52:50Z,45.16957958,4.80629901,126.0,2.5600000000000005,11886.681913191542
2023-09-17T10:52:54Z,45.16967924,4.80624275,None,2.57,11898.608058222275
2023-09-17T10:52:56Z,45.16967924,4.80624275,144.0,2.57,11898.608058222275
2023-09-17T10:52:58Z,45.1697822,4.8062071,144.0,2.570986220766288,11910.388743668766
2023-09-17T10:53:00Z,45.16980845,4.80619994,144.0,2.580012057080676,11913.359845146402
2023-09-17T10:55:50Z,45.17212309,4.80662661,127.0,2.674797165618665,12172.77515944269
2023-09-17T10:55:54Z,45.17221893,4.80666232,None,2.9725217701267495,12183.79006410005
2023-09-17T10:55:58Z,45.17232009,4.80671504,127.0,3.113548130342886,12195.772039328478
2023-09-17T10:56:02Z,45.17242319,4.80675328,127.0,3.2019729065104694,12207.617834491577
2023-09-17T10:56:06Z,45.17251248,4.80679272,None,3.2615232613647467,12218.014149534794
2023-09-17T10:56:10Z,45.17259758,4.8068414,127.0,3.2994572431816254,12228.216602711313
2023-09-17T10:56:14Z,45.17269404,4.80689051,127.0,3.372324383838218,12239.610640709901
2023-09-17T10:56:18Z,45.17279629,4.8069293,127.0,2.59,12251.376214398237
2023-09-17T10:56:22Z,45.17289334,4.80697234,None,2.63,12262.680092521194
2023-09-17T10:56:26Z,45.17298592,4.80702102,130.0,2.627577931966206,12273.657567122942
2023-09-17T10:56:30Z,45.17307984,4.80706847,130.0,2.66,12284.741830609753
2023-09-17T10:56:34Z,45.17317915,4.80711347,None,2.66,12296.33169343152
2023-09-17T10:56:38Z,45.17328555,4.80715718,130.0,2.69,12308.645568113332
2023-09-17T10:56:42Z,45.17338646,4.80721463,130.0,2.73,12320.73536836081
2023-09-17T10:56:46Z,45.17348187,4.80726997,None,2.73,12332.196453202272
2023-09-17T10:56:50Z,45.17359052,4.80731207,130.0,2.8300000000000005,12344.716593093814
2023-09-17T10:56:53Z,45.1736755,4.80735376,130.0,2.8800000000000003,12354.71329718711
2023-09-17T10:56:57Z,45.17377435,4.80740118,130.0,2.9,12366.314196859885
2023-09-17T10:57:01Z,45.17388112,4.80744718,None,2.9,12378.718828631674
2023-09-17T10:57:05Z,45.17397876,4.80749759,130.0,2.9,12390.27096174618
2023-09-17T10:57:09Z,45.17407799,4.80754402,130.0,2.9100000000000006,12401.887169735135
2023-09-17T10:57:13Z,45.17417708,4.80759621,None,2.9500000000000006,12413.638910159494
2023-09-17T10:57:17Z,45.17426656,4.80764726,130.0,2.9500000000000006,12424.362440091694
2023-09-17T10:57:21Z,45.17435607,4.80770821,130.0,2.947883294086591,12435.403806842589
2023-09-17T10:57:25Z,45.17444151,4.80776873,130.0,2.9200000000000004,12446.024280352578
2023-09-17T10:57:29Z,45.17452818,4.80782304,None,2.9200000000000004,12456.56006587189
2023-09-17T10:57:33Z,45.17462836,4.8078764,130.0,2.9200000000000004,12468.457499543521
2023-09-17T10:57:37Z,45.17473601,4.80794374,130.0,2.94,12481.539936304353
2023-09-17T10:57:41Z,45.17483071,4.80798998,None,2.94,12492.67442128565
2023-09-17T10:57:45Z,45.17492988,4.80803661,130.0,2.9100000000000006,12504.289235280556
2023-09-17T10:57:49Z,45.17502595,4.80808438,126.0,2.9200000000000004,12515.607072147915
2023-09-17T10:57:53Z,45.17512671,4.80813301,126.0,2.9191894831410097,12527.439539725416
2023-09-17T10:57:57Z,45.17523239,4.80819049,None,2.9100000000000006,12540.023437027274
2023-09-17T10:58:01Z,45.17533324,4.80823877,126.0,2.9,12551.856514448402
2023-09-17T10:58:05Z,45.17543053,4.80829822,126.0,2.9,12563.63551507475
2023-09-17T10:58:09Z,45.17553348,4.80834854,None,2.9,12575.741318138713
2023-09-17T10:58:13Z,45.17563621,4.80840191,127.0,2.9,12587.904608202285
2023-09-17T10:58:16Z,45.17573043,4.80844635,127.0,2.93,12598.9430786717
2023-09-17T10:58:19Z,45.17582019,4.80849658,None,2.9900000000000007,12609.671544969238
2023-09-17T10:58:22Z,45.17590714,4.80854687,127.0,3.0400000000000005,12620.112054516794
2023-09-17T10:58:26Z,45.17601926,4.80861018,127.0,3.0469720402073666,12633.52954422378
2023-09-17T10:58:29Z,45.17610886,4.80866077,127.0,3.1300000000000003,12644.251934594315
2023-09-17T10:58:32Z,45.17619508,4.80870538,None,3.18,12654.455473967451
2023-09-17T10:58:35Z,45.17628181,4.80875125,127.0,3.19,12664.746538081563
2023-09-17T10:58:39Z,45.17638346,4.80880029,127.0,3.18,12676.682999109187
2023-09-17T10:58:42Z,45.17646703,4.8088482,None,3.19,12686.705038974325
2023-09-17T10:58:46Z,45.17657593,4.80890772,127.0,3.22,12699.680485673056
2023-09-17T10:58:50Z,45.17668033,4.80896987,127.0,3.2400000000000007,12712.269532738857
2023-09-17T10:58:54Z,45.17678519,4.80902702,127.0,3.2500000000000004,12724.75902413221
2023-09-17T10:58:58Z,45.17689449,4.80908763,None,3.2600000000000002,12737.80697498727
2023-09-17T10:59:02Z,45.17699281,4.80913824,127.0,3.2500000000000004,12749.435426738904
2023-09-17T10:59:06Z,45.1770874,4.8091891,126.0,3.2500000000000004,12760.68221872944
2023-09-17T10:59:10Z,45.17719734,4.80924666,126.0,3.252289104067201,12773.711223540826
2023-09-17T10:59:14Z,45.17730445,4.80930814,None,3.2800000000000007,12786.558455064453
2023-09-17T10:59:17Z,45.17738933,4.80935528,126.0,3.2800000000000007,12796.693254475276
2023-09-17T10:59:21Z,45.17749018,4.80940828,126.0,3.275510184878106,12808.650439909024
2023-09-17T10:59:25Z,45.17759829,4.80946435,None,3.2100000000000004,12821.448103108503
2023-09-17T10:59:29Z,45.17769484,4.80951913,126.0,3.2000000000000006,12833.0099226288
2023-09-17T10:59:34Z,45.17769484,4.80951913,126.0,3.15,12833.0099226288
2023-09-17T10:59:36Z,45.17778634,4.80957998,None,3.15,12844.247487283037
2023-09-17T10:59:40Z,45.17782086,4.80959871,126.0,3.1499697591836022,12848.356663707435
