Time,LatitudeDegrees,LongitudeDegrees,Elevation,Speed,Distance
2023-09-19T15:59:54Z,45.77934263,4.87244232,169.0,0.0,0
2023-09-19T16:00:01Z,45.77940703,4.87232792,169.0,3.1798082114335164,11.418883542861803
2023-09-19T16:00:05Z,45.7794756,4.87222966,169.0,3.2751365565316575,22.21152086544634
2023-09-19T16:00:11Z,45.77960839,4.87214915,169.0,3.298018201587324,38.243928940180595
2023-09-19T16:00:15Z,45.77971368,4.87209813,169.0,3.3138393269909705,50.600958648283864
2023-09-19T16:00:19Z,45.77982449,4.87204405,169.0,3.0400000000000005,63.61547334832375
2023-09-19T16:00:23Z,45.77993026,4.87198932,169.0,3.06,76.11829283147419
2023-09-19T16:00:26Z,45.78003584,4.87193798,169.0,3.0582514605631146,88.51383961268395
2023-09-19T16:00:34Z,45.78018968,4.87186393,169.0,3.0500000000000003,106.55643214393089
2023-09-19T16:00:40Z,45.78035047,4.87181346,169.0,3.0900000000000003,124.85370573536511
2023-09-19T16:00:46Z,45.7804841,4.87174549,169.0,3.06,140.61887383585344
2023-09-19T16:00:52Z,45.78061975,4.8716856,169.0,3.0800000000000005,156.3989837047167
2023-09-19T16:00:58Z,45.78073756,4.87163113,169.0,3.0900000000000003,170.16136597251378
2023-09-19T16:01:03Z,45.78083404,4.87164161,169.0,3.02,180.9157591585994
2023-09-19T16:01:07Z,45.78094655,4.87168183,169.0,2.9500000000000006,193.8061545963771
2023-09-19T16:01:11Z,45.78103157,4.87178295,169.0,2.9599755050917733,206.1000036193486
2023-09-19T16:01:15Z,45.78110318,4.87189882,169.0,3.02,218.12280435722656
2023-09-19T16:01:19Z,45.78116364,4.87202621,169.0,3.0000000000000004,230.0937736439657
2023-09-19T16:01:23Z,45.78121255,4.87215648,169.0,2.9900000000000007,241.5910065574414
2023-09-19T16:01:27Z,45.78125505,4.87230507,171.0,2.93,254.07477721732894
2023-09-19T16:01:31Z,45.78129789,4.87245239,171.0,2.86,266.481628436348
2023-09-19T16:01:35Z,45.78133125,4.87257906,171.0,2.8800000000000003,277.00720273284617
2023-09-19T16:01:40Z,45.78134521,4.87277014,171.0,2.8700000000000006,291.94787450371973
2023-09-19T16:01:42Z,45.78132307,4.87291204,171.0,2.8700000000000006,303.2541786281183
2023-09-19T16:01:47Z,45.78133462,4.87312571,170.0,2.7900000000000005,319.9203575158662
2023-09-19T16:01:52Z,45.78137326,4.87330456,170.0,2.86,334.47710123246856
2023-09-19T16:01:57Z,45.78141067,4.87349561,170.0,2.82,349.9054994202754
2023-09-19T16:02:03Z,45.78149315,4.87370173,170.0,2.9100000000000006,368.3712957662123
2023-09-19T16:02:09Z,45.7815792,4.87376702,170.0,2.89,379.19970527410743
2023-09-19T16:02:20Z,45.78162358,4.87389693,170.0,2.77,390.442377659477
2023-09-19T16:02:26Z,45.78170049,4.87398538,170.0,2.66,401.4145207125976
2023-09-19T16:02:32Z,45.78181608,4.87425895,170.0,2.71,426.26758718170095
2023-09-19T16:02:35Z,45.78188103,4.87447119,170.0,2.9600000000000004,444.2825526091076
2023-09-19T16:02:41Z,45.78191645,4.87460499,170.0,2.8300000000000005,455.40764014129735
2023-09-19T16:02:44Z,45.78195345,4.87477685,170.0,2.9600000000000004,469.39107898625673
2023-09-19T16:02:49Z,45.78198866,4.87489957,170.0,2.9452244822260973,479.7058752337994
2023-09-19T16:02:52Z,45.78203997,4.87509592,173.0,2.9,496.00564378590354
2023-09-19T16:02:57Z,45.78206838,4.8752788,173.0,3.14,510.57398100718234
2023-09-19T16:03:00Z,45.7820932,4.87546055,173.0,3.2500000000000004,524.974803430001
2023-09-19T16:03:05Z,45.78211697,4.87561335,173.0,3.19,537.1477303286277
2023-09-19T16:03:09Z,45.78214468,4.8757601,173.0,3.2000000000000006,548.9682917494534
2023-09-19T16:03:14Z,45.78217108,4.87589452,173.0,3.2500000000000004,559.8257162578298
2023-09-19T16:03:16Z,45.78219469,4.87602002,173.0,3.2500000000000004,569.9320742892049
2023-09-19T16:03:21Z,45.78221798,4.87615656,173.0,3.3200000000000007,580.8613184345731
2023-09-19T16:03:23Z,45.78224855,4.87628333,173.0,3.333393794858478,591.288894575831
2023-09-19T16:03:27Z,45.7822792,4.87644123,173.0,3.5,604.0320335861495
2023-09-19T16:03:31Z,45.78232306,4.87659144,173.0,3.5,616.6897493893263
2023-09-19T16:03:35Z,45.78236785,4.87673952,173.0,3.5700000000000007,629.2354116393432
2023-09-19T16:03:40Z,45.78244202,4.87690175,173.0,3.3300000000000005,644.306057445623
2023-09-19T16:03:46Z,45.78253743,4.87702848,173.0,3.5,658.7830607929316
2023-09-19T16:03:51Z,45.78264201,4.87706305,173.0,3.34,670.7136589648707
2023-09-19T16:03:55Z,45.7827491,4.87711289,173.0,3.3404754931301053,683.2315455510607
2023-09-19T16:04:00Z,45.78293275,4.87715158,173.0,3.3000000000000003,703.8642603355744
2023-09-19T16:04:04Z,45.78302201,4.87713479,173.0,3.23,713.8707991275955
2023-09-19T16:04:10Z,45.78319526,4.87709876,173.0,3.3000000000000003,733.3298082638083
2023-09-19T16:04:14Z,45.78328946,4.87714591,173.0,3.2600000000000002,744.42333046153
2023-09-19T16:04:20Z,45.78342497,4.87730541,172.0,3.2500000000000004,763.9348022433205
2023-09-19T16:04:24Z,45.78350728,4.87738603,172.0,3.23,775.0253759947306
2023-09-19T16:04:30Z,45.78367192,4.87736228,172.0,3.18,793.4175996520743
2023-09-19T16:04:36Z,45.78381096,4.87731397,172.0,3.27,809.3215725054978
2023-09-19T16:04:41Z,45.78394425,4.8772635,172.0,3.0500000000000003,824.6474324429591
2023-09-19T16:04:46Z,45.78406381,4.87723353,172.0,3.11,838.1390023351315
2023-09-19T16:04:52Z,45.78420236,4.87718311,172.0,3.1600000000000006,854.0297422153201
2023-09-19T16:04:57Z,45.78432796,4.87712063,172.0,3.19,868.8111670780245
2023-09-19T16:04:59Z,45.78461211,4.87715048,172.0,3.1300000000000003,900.4788058539699
2023-09-19T16:05:02Z,45.78465968,4.87726513,172.0,3.5100000000000002,910.8442496624166
2023-09-19T16:05:06Z,45.78466788,4.87742388,172.0,3.5,923.2227631941392
2023-09-19T16:05:11Z,45.78463544,4.87754472,172.0,3.4900000000000007,933.2876729830772
2023-09-19T16:05:15Z,45.78458775,4.87768838,172.0,3.43,945.6528802460391
2023-09-19T16:05:18Z,45.78450783,4.87776443,172.0,3.47,956.3243281749437
2023-09-19T16:05:21Z,45.78441662,4.87782005,172.0,3.5200000000000005,967.3461674439252
2023-09-19T16:05:25Z,45.78432896,4.87791405,172.0,3.4900000000000007,979.5265617414497
2023-09-19T16:05:28Z,45.78425433,4.87800239,172.0,3.5300000000000007,990.2967803313098
2023-09-19T16:05:32Z,45.78418745,4.87812087,172.0,3.5,1002.1350691707792
2023-09-19T16:05:36Z,45.7841058,4.87822289,172.0,3.4800000000000004,1014.1890579273695
2023-09-19T16:05:40Z,45.78402864,4.87834723,172.0,3.5700000000000007,1027.113562125206
2023-09-19T16:05:45Z,45.78401378,4.87850968,172.0,3.47,1039.853859571838
2023-09-19T16:05:47Z,45.78400773,4.87864174,172.0,3.5300000000000007,1050.1453856436533
2023-09-19T16:05:51Z,45.78398245,4.87880034,172.0,3.5500000000000003,1062.7947999870999
2023-09-19T16:05:56Z,45.78395043,4.8789518,172.0,3.54,1075.098914278233
2023-09-19T16:05:59Z,45.78393088,4.87911783,172.0,3.54,1088.191685539284
2023-09-19T16:06:04Z,45.78398227,4.87925832,173.0,3.14,1100.5198224404808
2023-09-19T16:06:07Z,45.78409844,4.87929108,173.0,3.1480654376233517,1113.680699897075
2023-09-19T16:06:11Z,45.78421056,4.87929766,173.0,3.1600000000000006,1126.1530135063856
2023-09-19T16:06:15Z,45.78430523,4.87929308,173.0,3.19,1136.6813356738485
2023-09-19T16:06:19Z,45.78439977,4.8792945,173.0,3.15,1147.1897631976683
2023-09-19T16:06:25Z,45.78449804,4.87932253,173.0,3.0300000000000007,1158.3275609871096
2023-09-19T16:06:30Z,45.78457952,4.87924136,173.0,2.94,1169.3664931389014
2023-09-19T16:06:35Z,45.78461548,4.87907525,172.0,2.97,1182.8879807727922
2023-09-19T16:06:37Z,45.78469833,4.87898698,172.0,2.97,1194.3733585823695
2023-09-19T16:06:40Z,45.78478868,4.87890064,172.0,2.9789425665873823,1206.4532316434515
2023-09-19T16:06:44Z,45.78486646,4.87881255,172.0,3.0700000000000007,1217.4832313007512
2023-09-19T16:06:46Z,45.78494258,4.87873937,172.0,3.1,1227.6795210250339
2023-09-19T16:06:50Z,45.78504662,4.87866542,172.0,3.0900000000000003,1240.594208116998
2023-09-19T16:06:54Z,45.78515396,4.8785907,172.0,3.1,1253.8644237200726
2023-09-19T16:06:58Z,45.78524243,4.87855849,172.0,3.1200000000000006,1264.0116015411309
2023-09-19T16:07:00Z,45.78533527,4.87851892,172.0,3.1300000000000003,1274.779514846737
2023-09-19T16:07:03Z,45.78542301,4.87847569,173.0,3.15,1285.0947088679425
2023-09-19T16:07:07Z,45.78553514,4.87843466,173.0,3.1600000000000006,1297.959558511265
2023-09-19T16:07:10Z,45.78562157,4.87839511,173.0,3.1700000000000004,1308.0463036141869
2023-09-19T16:07:15Z,45.78573453,4.87834089,173.0,3.18,1321.290520460433
2023-09-19T16:07:18Z,45.78584672,4.87828434,173.0,3.22,1334.512781065642
2023-09-19T16:07:21Z,45.78593535,4.878246,173.0,3.22,1344.8050224769013
2023-09-19T16:07:25Z,45.78602232,4.87821372,173.0,3.27,1354.7920826239101
2023-09-19T16:07:28Z,45.7861361,4.8781688,173.0,3.3600000000000003,1367.9119435862322
2023-09-19T16:07:33Z,45.78624555,4.87811624,173.0,3.42,1380.7452261448316
2023-09-19T16:07:36Z,45.78634712,4.87806154,173.0,3.4100000000000006,1392.8091749788869
2023-09-19T16:07:40Z,45.78645023,4.878002,173.0,3.3600000000000003,1405.1694398772886
2023-09-19T16:07:47Z,45.78642625,4.87786996,173.0,3.2400000000000007,1415.7772723524492
2023-09-19T16:07:50Z,45.7863837,4.87772133,173.0,3.1700000000000004,1428.2650385358147
2023-09-19T16:07:55Z,45.78634264,4.87759769,173.0,3.15,1438.9075574316983
2023-09-19T16:07:59Z,45.78630615,4.87746187,173.0,3.0900000000000003,1450.221012512343
2023-09-19T16:08:02Z,45.78627153,4.87732251,173.0,3.0500000000000003,1461.7206669392058
2023-09-19T16:08:07Z,45.78624402,4.87717862,173.0,3.0100000000000002,1473.3199672615135
2023-09-19T16:08:10Z,45.78619617,4.87704573,173.0,2.9900000000000007,1484.9419301438204
2023-09-19T16:08:15Z,45.78616387,4.87690552,173.0,2.97,1496.4206701053438
2023-09-19T16:08:21Z,45.78609639,4.87680813,173.0,2.89,1507.079279226955
2023-09-19T16:08:27Z,45.7859966,4.87684239,173.0,2.73,1518.4861191984367
2023-09-19T16:08:32Z,45.7859056,4.87688913,173.0,2.66,1529.233722461027
2023-09-19T16:08:35Z,45.78580421,4.87695412,173.0,2.63,1541.5842363143133
2023-09-19T16:08:39Z,45.78569639,4.87699467,173.0,2.63,1553.976023272027
2023-09-19T16:08:43Z,45.78558849,4.87704835,173.0,2.6400000000000006,1566.6744913395999
2023-09-19T16:08:48Z,45.78547765,4.87710069,173.0,2.71,1579.6489541471499
2023-09-19T16:08:51Z,45.78539154,4.87713948,172.0,2.7800000000000002,1589.683911206518
2023-09-19T16:08:55Z,45.78527837,4.87718305,172.0,2.81,1602.7107456583249
2023-09-19T16:08:59Z,45.78517089,4.87722883,172.0,2.8400000000000003,1615.175996830784
2023-09-19T16:09:03Z,45.78506863,4.87719142,172.0,2.8408106046509283,1626.9082875023141
2023-09-19T16:09:07Z,45.78501599,4.87707037,172.0,2.86,1637.9915895274676
2023-09-19T16:09:11Z,45.78495842,4.87694056,172.0,2.8700000000000006,1649.9431814848026
2023-09-19T16:09:14Z,45.78492635,4.87679917,172.0,2.85,1661.5014337500006
2023-09-19T16:09:18Z,45.78487898,4.87665171,172.0,2.8700000000000006,1674.11931288456
2023-09-19T16:09:22Z,45.78482999,4.8764994,172.0,2.94,1687.1550831673183
2023-09-19T16:09:26Z,45.78478057,4.87635912,172.0,3.0400000000000005,1699.3685762046007
2023-09-19T16:09:30Z,45.78473942,4.87621746,172.0,3.0400000000000005,1711.2962463543474
2023-09-19T16:09:35Z,45.78470259,4.87607838,172.0,3.0700000000000007,1722.8603233936524
2023-09-19T16:09:38Z,45.78466444,4.87593336,172.0,3.0900000000000003,1734.9083755649883
2023-09-19T16:09:42Z,45.78461813,4.87580429,172.0,3.0700000000000007,1746.1881534388178
2023-09-19T16:09:46Z,45.78457231,4.87565439,172.0,3.0696554811486676,1758.9088234928058
2023-09-19T16:09:50Z,45.78453346,4.87550584,172.0,3.06,1771.2412477608405
2023-09-19T16:09:53Z,45.78452339,4.87537524,172.0,3.06,1781.4586408390408
2023-09-19T16:09:57Z,45.78449619,4.87525227,172.0,3.06,1791.4877257406383
2023-09-19T16:10:00Z,45.78446686,4.87509451,172.0,3.0700000000000007,1804.1814376047123
2023-09-19T16:10:04Z,45.7844211,4.87495774,171.0,3.0500000000000003,1815.9707077083033
2023-09-19T16:10:08Z,45.78439407,4.87479893,171.0,3.0513552258547634,1828.6805231544704
2023-09-19T16:10:12Z,45.78434944,4.8746598,171.0,3.0700000000000007,1840.5827429186807
2023-09-19T16:10:17Z,45.78430748,4.87451943,171.0,3.0800000000000005,1852.4529889366856
2023-09-19T16:10:20Z,45.7842654,4.87437387,171.0,3.0800000000000005,1864.7004953618018
2023-09-19T16:10:25Z,45.78422671,4.87422869,171.0,3.06,1876.7815106588941
2023-09-19T16:10:28Z,45.78416957,4.87412404,171.0,3.0300000000000007,1887.104369435827
2023-09-19T16:10:32Z,45.78413054,4.87396848,171.0,3.0400000000000005,1899.9556474423307
2023-09-19T16:10:35Z,45.78410692,4.87384058,171.0,3.0400000000000005,1910.2423091262563
2023-09-19T16:10:40Z,45.78407217,4.87369898,171.0,3.06,1921.9114359341138
2023-09-19T16:10:45Z,45.78402987,4.87355386,171.0,3.0300000000000007,1934.1367531109506
2023-09-19T16:10:49Z,45.78399184,4.87339104,171.0,2.9900000000000007,1947.485235400077
2023-09-19T16:10:53Z,45.78395714,4.87326056,171.0,3.0100000000000002,1958.3401845691226
2023-09-19T16:10:57Z,45.78391942,4.87310334,171.0,2.97,1971.2651302380095
2023-09-19T16:11:01Z,45.7839059,4.87294401,171.0,2.97,1983.746107941142
2023-09-19T16:11:04Z,45.78386694,4.87279674,173.0,3.0300000000000007,1995.9897918779345
2023-09-19T16:11:10Z,45.78381647,4.87265594,173.0,3.0300000000000007,2008.2923564289276
2023-09-19T16:11:14Z,45.78376385,4.87251822,173.0,3.022821716221325,2020.4949705625277
2023-09-19T16:11:19Z,45.78372032,4.87236436,173.0,2.9200000000000004,2033.4010210966273
2023-09-19T16:11:22Z,45.78368636,4.87220226,173.0,3.0000000000000004,2046.5596454515883
2023-09-19T16:11:25Z,45.78366179,4.87203769,173.0,3.003776122663234,2059.6454952713066
2023-09-19T16:11:28Z,45.78365189,4.87189608,173.0,3.0800000000000005,2070.7125847198613
2023-09-19T16:11:32Z,45.78362716,4.87172284,173.0,3.14,2084.4620811265736
2023-09-19T16:11:35Z,45.78360298,4.8715837,173.0,3.19,2095.611034890349
2023-09-19T16:11:40Z,45.78356764,4.87145894,173.0,3.1700000000000004,2106.077941704172
2023-09-19T16:11:43Z,45.78353051,4.87131817,173.0,3.14,2117.7769568559315
2023-09-19T16:11:48Z,45.78352875,4.87116368,173.0,3.1436072859663224,2129.7924369162965
2023-09-19T16:11:52Z,45.78361314,4.87106482,173.0,3.2000000000000006,2141.9201521351883
2023-09-19T16:11:55Z,45.78375389,4.87095867,173.0,3.2600000000000002,2159.6083844919553
2023-09-19T16:11:57Z,45.78386481,4.87087304,173.0,3.4500000000000006,2173.6202433788317
2023-09-19T16:12:00Z,45.78396928,4.87080206,172.0,3.5100000000000002,2186.4769530162876
2023-09-19T16:12:03Z,45.78406008,4.87073159,172.0,3.5100000000000002,2197.960961798852
2023-09-19T16:12:07Z,45.78415048,4.87067761,172.0,3.5100000000000002,2208.8502654674444
2023-09-19T16:12:09Z,45.78424326,4.87063335,172.0,3.5116913411028556,2219.721707097623
2023-09-19T16:12:12Z,45.78433683,4.87058741,172.0,3.5500000000000003,2230.7182175221233
2023-09-19T16:12:15Z,45.78442844,4.87054735,172.0,3.63,2241.3662906186933
2023-09-19T16:12:20Z,45.78454005,4.87048421,172.0,3.7300000000000004,2254.7077744894627
2023-09-19T16:12:23Z,45.78464649,4.87042778,172.0,3.66,2267.3258909985007
2023-09-19T16:12:26Z,45.78473091,4.87038044,172.0,3.66,2277.4052496503377
2023-09-19T16:12:29Z,45.78481591,4.87033229,172.0,3.6100000000000003,2287.5676840979636
2023-09-19T16:12:33Z,45.78490938,4.87027723,172.0,3.6100000000000003,2298.804321699598
2023-09-19T16:12:38Z,45.7849745,4.87040822,172.0,3.5500000000000003,2311.300120767125
2023-09-19T16:12:40Z,45.78500756,4.87054907,172.0,3.5500000000000003,2322.852951846612
2023-09-19T16:12:44Z,45.78505049,4.87070131,172.0,3.6100000000000003,2335.616967027257
2023-09-19T16:12:50Z,45.78505734,4.8705426,172.0,3.6000000000000005,2347.9821474816945
2023-09-19T16:12:54Z,45.78503666,4.87040306,172.0,3.590911685732031,2359.0739283618036
2023-09-19T16:12:59Z,45.78501029,4.87024515,172.0,3.31,2371.6983871874027
2023-09-19T16:13:03Z,45.78498284,4.87011263,172.0,3.1700000000000004,2382.4456711719986
2023-09-19T16:13:08Z,45.78499121,4.86995155,172.0,3.1,2395.006201499409
2023-09-19T16:13:11Z,45.7849567,4.86981595,172.0,3.0500000000000003,2406.226802202662
2023-09-19T16:13:15Z,45.78492092,4.86968855,172.0,3.044587571741071,2416.9021811525026
2023-09-19T16:13:21Z,45.78489439,4.86956285,172.0,2.85,2427.112063213892
2023-09-19T16:13:25Z,45.7849336,4.86968274,172.0,2.81,2437.403373290814
2023-09-19T16:13:29Z,45.78498519,4.86979626,172.0,2.7600000000000007,2447.929856431854
2023-09-19T16:13:35Z,45.78507351,4.8698725,172.0,2.6800000000000006,2459.397750954069
2023-09-19T16:13:43Z,45.78504223,4.87003407,172.0,2.4700000000000006,2472.4340237488777
2023-09-19T16:13:46Z,45.78507812,4.87017377,172.0,2.57,2484.0067155061724
2023-09-19T16:13:57Z,45.78509243,4.87001996,172.0,2.4000000000000004,2496.0726792344017
2023-09-19T16:14:01Z,45.78515773,4.86991364,172.0,2.42,2507.0741523320667
2023-09-19T16:14:05Z,45.78519929,4.86979596,172.0,2.41,2517.325017103151
2023-09-19T16:14:08Z,45.7852854,4.86975899,172.0,2.4700000000000006,2527.318346888256
2023-09-19T16:14:12Z,45.78539202,4.86971049,172.0,2.5,2539.7545240698887
2023-09-19T16:14:16Z,45.78549534,4.86968159,177.0,2.5200000000000005,2551.456076402243
2023-09-19T16:14:22Z,45.78557994,4.86960949,177.0,2.5300000000000002,2562.4037580683575
2023-09-19T16:14:31Z,45.78567598,4.86964851,177.0,2.4000000000000004,2573.501201224517
2023-09-19T16:14:35Z,45.78573053,4.86979752,177.0,2.49,2586.578895511432
2023-09-19T16:14:39Z,45.78576419,4.86992139,177.0,2.57,2596.9122770607046
2023-09-19T16:14:43Z,45.785806,4.87005655,177.0,2.5696965855303966,2608.404054579102
2023-09-19T16:14:47Z,45.78584203,4.87022975,177.0,2.61,2622.455124910139
2023-09-19T16:14:51Z,45.78586006,4.87035926,177.0,2.67,2632.723477258552
2023-09-19T16:14:53Z,45.78587884,4.87049133,177.0,2.67,2643.2034246426933
2023-09-19T16:14:57Z,45.78591078,4.87065133,177.0,2.73,2656.1418287961446
2023-09-19T16:15:01Z,45.78594126,4.87081556,177.0,2.9100000000000006,2669.35430433049
2023-09-19T16:15:04Z,45.78596217,4.87094771,175.0,2.9600000000000004,2679.890014067351
2023-09-19T16:15:07Z,45.78598735,4.8710752,175.0,3.02,2690.1912831759605
2023-09-19T16:15:11Z,45.78601718,4.87122904,175.0,3.0000000000000004,2702.605046788669
2023-09-19T16:15:15Z,45.78604348,4.87135305,175.0,3.02,2712.6815506488056
2023-09-19T16:15:19Z,45.78607273,4.87151227,175.0,3.0400000000000005,2725.4824240881817
2023-09-19T16:15:22Z,45.78610684,4.87166019,175.0,3.0400000000000005,2737.5935629279647
2023-09-19T16:15:26Z,45.78614,4.8718107,175.0,3.11,2749.8640081084154
2023-09-19T16:15:30Z,45.78616883,4.87197046,175.0,3.1200000000000006,2762.6937407174455
2023-09-19T16:15:34Z,45.78620116,4.87212551,175.0,3.23,2775.2746940342827
2023-09-19T16:15:37Z,45.78622528,4.87226517,175.0,3.2600000000000002,2786.460807654404
2023-09-19T16:15:41Z,45.78626132,4.87242193,175.0,3.2400000000000007,2799.2919316754737
2023-09-19T16:15:45Z,45.78628116,4.87258429,175.0,3.3000000000000003,2812.108341776706
2023-09-19T16:15:50Z,45.78630701,4.87272526,175.0,3.22,2823.440583192462
2023-09-19T16:15:54Z,45.78632711,4.87285132,175.0,3.1700000000000004,2833.4944831005278
2023-09-19T16:15:58Z,45.78635775,4.8729827,172.0,3.1200000000000006,2844.2633776209123
2023-09-19T16:16:02Z,45.7864019,4.87313862,172.0,3.1200000000000006,2857.343245391327
2023-09-19T16:16:05Z,45.78645136,4.87325764,172.0,3.1200000000000006,2868.1078824879673
2023-09-19T16:16:09Z,45.78652959,4.87337286,172.0,3.1,2880.59299248781
2023-09-19T16:16:13Z,45.78661163,4.87343785,172.0,3.0700000000000007,2891.0182863806335
2023-09-19T16:16:17Z,45.78668873,4.87353724,172.0,3.0400000000000005,2902.5580816756715
2023-09-19T16:16:21Z,45.78677457,4.87359438,172.0,3.0390994333560872,2913.0828382396517
2023-09-19T16:16:25Z,45.78685999,4.87370064,172.0,3.02,2925.669083807051
2023-09-19T16:16:28Z,45.78688293,4.87382527,172.0,3.0300000000000007,2935.6901313282965
2023-09-19T16:16:31Z,45.78690153,4.87395198,172.0,3.0300000000000007,2945.75766639491
2023-09-19T16:16:34Z,45.78692108,4.87407916,172.0,3.0400000000000005,2955.883102661636
2023-09-19T16:16:38Z,45.78694768,4.8742476,172.0,3.06,2969.310545069637
2023-09-19T16:16:41Z,45.78697001,4.87437242,172.0,3.0400000000000005,2979.32885528321
2023-09-19T16:16:45Z,45.78699528,4.87453197,172.0,3.0400000000000005,2992.0494190514096
2023-09-19T16:16:50Z,45.78701861,4.87467276,172.0,3.0100000000000002,3003.3001493358843
2023-09-19T16:16:54Z,45.78704483,4.87480783,172.0,3.0100000000000002,3014.200002792291
2023-09-19T16:16:57Z,45.78705288,4.87496505,172.0,3.0700000000000007,3026.4581165300106
2023-09-19T16:17:00Z,45.7870683,4.87511371,173.0,3.1600000000000006,3038.14426788902
2023-09-19T16:17:04Z,45.78709622,4.87528153,173.0,3.158356826621596,3051.557833826279
2023-09-19T16:17:07Z,45.78712443,4.87541465,173.0,3.1600000000000006,3062.373674255333
2023-09-19T16:17:10Z,45.78715162,4.87555107,173.0,3.2000000000000006,3073.403748891268
2023-09-19T16:17:13Z,45.78718385,4.87568482,173.0,3.2000000000000006,3084.403764623098
2023-09-19T16:17:17Z,45.78723655,4.87583711,173.0,3.2600000000000002,3097.6152503269223
2023-09-19T16:17:21Z,45.78730839,4.87597035,173.0,3.2800000000000007,3110.695814426068
2023-09-19T16:17:24Z,45.78737516,4.8760778,173.0,3.3300000000000005,3121.8710557332092
2023-09-19T16:17:27Z,45.78744435,4.87616723,173.0,3.3700000000000006,3132.2392167101707
2023-09-19T16:17:31Z,45.78753534,4.87626576,165.0,3.3600000000000003,3144.9269648062414
2023-09-19T16:17:35Z,45.78757898,4.87641497,165.0,3.34,3157.502493363812
2023-09-19T16:17:39Z,45.78760074,4.87657393,165.0,3.3300000000000005,3170.0974864330256
2023-09-19T16:17:43Z,45.78761718,4.87673147,165.0,3.31,3182.4831921899677
2023-09-19T16:17:47Z,45.78764245,4.87687304,165.0,3.3091994510077987,3193.844208918149
2023-09-19T16:17:51Z,45.78766765,4.87700724,165.0,3.2900000000000005,3204.6488347655695
2023-09-19T16:17:55Z,45.78768896,4.87714864,169.0,3.3200000000000007,3215.8961857181575
2023-09-19T16:17:59Z,45.78771482,4.87729377,169.0,3.2900000000000005,3227.5416310187693
2023-09-19T16:18:03Z,45.78774059,4.87742927,169.0,3.2100000000000004,3238.460354246683
2023-09-19T16:18:07Z,45.78776188,4.87757675,169.0,3.18,3250.169837508133
2023-09-19T16:18:11Z,45.78778631,4.87772703,169.0,3.1300000000000003,3262.166774266391
2023-09-19T16:18:15Z,45.78781317,4.87788436,169.0,3.0900000000000003,3274.7595773695593
2023-09-19T16:18:19Z,45.78784256,4.87803816,169.0,3.0700000000000007,3287.1569919612202
2023-09-19T16:18:23Z,45.78785597,4.87819585,169.0,3.06,3299.509035690518
2023-09-19T16:18:27Z,45.78787767,4.87835054,169.0,2.9900000000000007,3311.776970655633
2023-09-19T16:18:31Z,45.78791052,4.87849504,169.0,2.990008938032566,3323.591453043802
2023-09-19T16:18:35Z,45.78790705,4.87864522,169.0,2.97,3335.2756269787296
2023-09-19T16:18:39Z,45.7878604,4.87878868,169.0,2.9600000000000004,3347.577029535228
2023-09-19T16:18:43Z,45.7878079,4.87892006,None,2.9600000000000004,3359.342046762343
2023-09-19T16:18:47Z,45.78774777,4.87905774,169.0,2.9500000000000006,3371.962720212866
2023-09-19T16:18:50Z,45.78770518,4.87917727,176.0,2.98,3382.393290059714
2023-09-19T16:18:54Z,45.7876366,4.8793123,176.0,3.02,3395.3681901441937
2023-09-19T16:18:58Z,45.78758404,4.87942909,176.0,3.0300000000000007,3406.1663946186127
2023-09-19T16:19:03Z,45.78760735,4.87958687,176.0,2.9900000000000007,3418.7058098592447
2023-09-19T16:19:07Z,45.78763012,4.87974683,176.0,3.0000000000000004,3431.39902254495
2023-09-19T16:19:10Z,45.78763952,4.87988596,176.0,3.0400000000000005,3442.2679799678103
2023-09-19T16:19:14Z,45.78765031,4.88001744,176.0,3.0800000000000005,3452.561845741211
2023-09-19T16:19:17Z,45.78766965,4.88017832,176.0,3.0900000000000003,3465.255066014446
2023-09-19T16:19:21Z,45.78768993,4.88033542,176.0,3.0800000000000005,3477.6772306449047
2023-09-19T16:19:25Z,45.7877053,4.8804873,176.0,3.0800000000000005,3489.6101880200636
2023-09-19T16:19:29Z,45.78772849,4.88064078,176.0,3.0800000000000005,3501.819801234369
2023-09-19T16:19:33Z,45.7877918,4.88075744,176.0,3.0800000000000005,3513.300440191117
2023-09-19T16:19:37Z,45.78787044,4.88082815,176.0,3.0783882693940914,3523.626617414549
2023-09-19T16:19:42Z,45.78794993,4.88089877,176.0,3.0000000000000004,3534.0291849003506
2023-09-19T16:19:46Z,45.78803605,4.88097475,176.0,2.98,3545.2776838130603
2023-09-19T16:19:50Z,45.78811883,4.88106763,176.0,2.94,3556.9744507613977
2023-09-19T16:19:54Z,45.78820469,4.88116287,176.0,2.9200000000000004,3569.0539877616084
2023-09-19T16:19:57Z,45.78823948,4.88128468,173.0,2.94,3579.284630518087
2023-09-19T16:20:01Z,45.78826904,4.88141642,173.0,2.98,3590.0424882330162
2023-09-19T16:20:04Z,45.78830852,4.88157804,173.0,3.0500000000000003,3603.3538330077213
2023-09-19T16:20:08Z,45.78835715,4.88172967,173.0,3.0400000000000005,3616.3241874972127
2023-09-19T16:20:12Z,45.78841152,4.8818625,173.0,3.0000000000000004,3628.2907577232645
2023-09-19T16:20:16Z,45.78846616,4.88200358,173.0,3.0000000000000004,3640.8297123906946
2023-09-19T16:20:21Z,45.78853059,4.88214016,173.0,2.9997155347757323,3653.638737066786
2023-09-19T16:20:24Z,45.7885957,4.88226115,173.0,3.0000000000000004,3665.508030327011
2023-09-19T16:20:28Z,45.78867145,4.88237617,173.0,3.0000000000000004,3677.791187359832
2023-09-19T16:20:32Z,45.7887476,4.88249749,173.0,3.02,3690.465131264019
2023-09-19T16:20:37Z,45.78883211,4.8826006,173.0,3.0500000000000003,3702.8146620649545
2023-09-19T16:20:40Z,45.7889228,4.88268339,173.0,3.0400000000000005,3714.774888475728
2023-09-19T16:20:44Z,45.78900966,4.88276818,173.0,3.1,3726.465594610846
2023-09-19T16:20:48Z,45.78909409,4.88285172,173.0,3.11,3737.87866828733
2023-09-19T16:20:52Z,45.78918736,4.88291479,173.0,3.1,3749.3468414875497
2023-09-19T16:20:56Z,45.78928491,4.88297211,173.0,3.1,3761.069593419806
2023-09-19T16:21:01Z,45.7893871,4.88300617,173.0,3.0400000000000005,3772.732404940781
2023-09-19T16:21:04Z,45.78948586,4.88305367,173.0,3.0399115702831656,3784.31401880284
2023-09-19T16:21:08Z,45.78959443,4.88306112,171.0,3.02,3796.3951672586045
2023-09-19T16:21:12Z,45.78970813,4.8830553,171.0,3.0100000000000002,3809.0407049709966
2023-09-19T16:21:16Z,45.78982038,4.88305859,171.0,3.02,3821.5196018136944
2023-09-19T16:21:20Z,45.78993461,4.88303801,171.0,3.0300000000000007,3834.31639457181
2023-09-19T16:21:24Z,45.79004956,4.88303029,171.0,3.0300000000000007,3847.1068606377667
2023-09-19T16:21:28Z,45.79015716,4.8829972,171.0,3.0300000000000007,3859.339939447362
2023-09-19T16:21:32Z,45.79026375,4.88294253,171.0,3.0300000000000007,3871.9266718918398
2023-09-19T16:21:36Z,45.79036221,4.8828754,171.0,3.02933279265181,3884.051311141561
2023-09-19T16:21:40Z,45.79044333,4.88280516,171.0,3.0000000000000004,3894.5927201361146
2023-09-19T16:21:44Z,45.79052064,4.88272327,171.0,2.98,3905.2875540137693
2023-09-19T16:21:48Z,45.79059518,4.88264517,171.0,2.9600000000000004,3915.5597066157393
2023-09-19T16:21:52Z,45.79067419,4.88255893,171.0,2.9500000000000006,3926.60886450395
2023-09-19T16:21:56Z,45.7907536,4.88246351,171.0,2.9500000000000006,3938.139208336368
2023-09-19T16:22:00Z,45.79082712,4.88235896,171.0,2.9500000000000006,3949.665654208783
2023-09-19T16:22:04Z,45.79089413,4.88225551,171.0,2.94,3960.62803178629
2023-09-19T16:22:08Z,45.79094991,4.88214013,171.0,2.9200000000000004,3971.533168229619
2023-09-19T16:22:12Z,45.79100309,4.88200696,171.0,2.9200000000000004,3983.456030374713
2023-09-19T16:22:16Z,45.79105466,4.88187626,171.0,2.89,3995.123534421638
2023-09-19T16:22:20Z,45.79110984,4.88173813,171.0,2.8897183507872723,4007.4915158177496
2023-09-19T16:22:24Z,45.79116579,4.88159117,171.0,2.89,4020.500859037666
2023-09-19T16:22:28Z,45.79123462,4.88149926,171.0,2.93,4030.969734815935
2023-09-19T16:22:30Z,45.79133584,4.88146579,171.0,2.93,4042.5171333725048
2023-09-19T16:22:33Z,45.79142831,4.88144492,171.0,2.97,4052.922233488334
2023-09-19T16:22:37Z,45.79152719,4.88141479,171.0,2.97,4064.1593909295693
2023-09-19T16:22:42Z,45.79162651,4.88139623,171.0,2.96913700489755,4075.2924619641426
2023-09-19T16:22:46Z,45.79171725,4.88136601,169.0,2.94,4085.6480632305306
2023-09-19T16:22:50Z,45.79181346,4.88132665,169.0,2.9500000000000006,4096.770847507074
2023-09-19T16:22:54Z,45.79191949,4.88127513,169.0,2.97,4109.218003437197
2023-09-19T16:22:58Z,45.79201753,4.88119936,167.0,2.9900000000000007,4121.605495007409
2023-09-19T16:23:02Z,45.79210537,4.88112058,167.0,2.9900000000000007,4133.131111848268
2023-09-19T16:23:06Z,45.79221338,4.88104849,167.0,3.02,4146.3802126489045
2023-09-19T16:23:09Z,45.79230456,4.88101273,167.0,3.0700000000000007,4156.889115192987
2023-09-19T16:23:12Z,45.7923963,4.88096091,167.0,3.1,4167.852947379578
2023-09-19T16:23:15Z,45.79248506,4.88091565,167.0,3.0994167267743284,4178.327231137137
2023-09-19T16:23:26Z,45.79238718,4.88095584,167.0,3.0100000000000002,4189.646219817813
2023-09-19T16:23:30Z,45.79229276,4.88100636,167.0,2.9600000000000004,4200.851785306739
2023-09-19T16:23:34Z,45.79219558,4.88108174,167.0,2.86,4213.14077182045
2023-09-19T16:23:39Z,45.79211019,4.88115924,167.0,2.8400000000000003,4224.382982839498
2023-09-19T16:23:42Z,45.79202682,4.88123691,167.0,2.8700000000000006,4235.443523896159
2023-09-19T16:23:46Z,45.79194847,4.88130606,169.0,2.8700000000000006,4245.677980392837
2023-09-19T16:23:50Z,45.79184499,4.88134834,169.0,2.89,4257.640084727899
2023-09-19T16:23:54Z,45.79174092,4.8813666,169.0,2.8800000000000003,4269.293986894373
2023-09-19T16:23:59Z,45.79162982,4.88137678,171.0,2.8792943874168393,4281.667788565687
2023-09-19T16:24:03Z,45.7915222,4.88137233,171.0,2.8400000000000003,4293.634458432404
2023-09-19T16:24:06Z,45.79142465,4.88133501,171.0,2.8400000000000003,4304.858459925001
2023-09-19T16:24:10Z,45.79135807,4.88123673,171.0,2.8800000000000003,4315.496014532772
2023-09-19T16:24:12Z,45.79135085,4.88109627,171.0,2.8800000000000003,4326.446776411846
2023-09-19T16:24:16Z,45.79133215,4.88094625,171.0,2.8700000000000006,4338.295152339986
2023-09-19T16:24:20Z,45.79131167,4.88079669,171.0,2.82,4350.144731398346
2023-09-19T16:24:23Z,45.79129705,4.88066949,171.0,2.8400000000000003,4360.167644021999
2023-09-19T16:24:27Z,45.79126804,4.88051974,171.0,2.86,4372.249516418527
2023-09-19T16:24:31Z,45.79124731,4.88035625,171.0,2.9900000000000007,4385.168653421361
2023-09-19T16:24:35Z,45.79121353,4.88020245,171.0,3.0000000000000004,4397.702782119072
2023-09-19T16:24:39Z,45.79117362,4.88006738,171.0,3.0400000000000005,4409.10341609657
2023-09-19T16:24:43Z,45.79112359,4.87992934,171.0,3.0400297802064076,4421.191542265896
2023-09-19T16:24:47Z,45.79106851,4.87978107,171.0,3.0700000000000007,4434.244820783155
2023-09-19T16:24:52Z,45.79101203,4.87963124,171.0,3.1200000000000006,4447.478462930001
2023-09-19T16:24:55Z,45.79094985,4.87950092,171.0,3.14,4459.743889895624
2023-09-19T16:24:59Z,45.79087459,4.87939501,171.0,3.14,4471.4821698805445
2023-09-19T16:25:03Z,45.79080583,4.87929453,171.0,3.1700000000000004,4482.41136081444
2023-09-19T16:25:07Z,45.79072668,4.87920075,171.0,3.15,4493.837799374344
2023-09-19T16:25:12Z,45.79063485,4.87914151,167.0,3.1,4505.035690918512
2023-09-19T16:25:15Z,45.79054089,4.87905978,167.0,3.0400000000000005,4517.260642286982
2023-09-19T16:25:19Z,45.79045096,4.8789677,167.0,3.0300000000000007,4529.555788661352
2023-09-19T16:25:23Z,45.79034782,4.87888246,167.0,3.0500000000000003,4542.797597514604
2023-09-19T16:25:27Z,45.79025713,4.87877437,167.0,3.0503152406610123,4555.921705764154
2023-09-19T16:25:30Z,45.79018737,4.87868456,167.0,3.0700000000000007,4566.356464190663
2023-09-19T16:25:33Z,45.79010484,4.87861785,167.0,3.0900000000000003,4576.894459045337
2023-09-19T16:25:37Z,45.79000825,4.87852398,167.0,3.1200000000000006,4589.876364588926
2023-09-19T16:25:41Z,45.78991437,4.87843764,167.0,3.1200000000000006,4602.283987837247
2023-09-19T16:25:45Z,45.78982734,4.87834888,167.0,3.1200000000000006,4614.1668358583465
2023-09-19T16:25:50Z,45.78973505,4.87826682,167.0,3.119462852044893,4626.247187542559
2023-09-19T16:25:53Z,45.78964328,4.87818387,167.0,3.0900000000000003,4638.31535036664
2023-09-19T16:25:57Z,45.78955242,4.87809532,169.0,3.0800000000000005,4650.538043023304
2023-09-19T16:26:01Z,45.78945857,4.87801027,169.0,3.0900000000000003,4662.888893664837
2023-09-19T16:26:05Z,45.78936118,4.87792545,169.0,3.1,4675.564490810469
2023-09-19T16:26:09Z,45.78926738,4.87783807,169.0,3.1300000000000003,4688.008645830666
2023-09-19T16:26:13Z,45.78916875,4.87776232,169.0,3.14,4700.4532587279955
2023-09-19T16:26:17Z,45.78907419,4.87767469,169.0,3.1600000000000006,4712.978845192227
2023-09-19T16:26:22Z,45.78898032,4.87758606,169.0,3.1600000000000006,4725.482843806469
2023-09-19T16:26:25Z,45.78888399,4.877499,169.0,3.1600000000000006,4738.1502268406775
2023-09-19T16:26:29Z,45.78878554,4.87740853,169.0,3.1600000000000006,4751.15884900194
2023-09-19T16:26:33Z,45.78869386,4.87731091,169.0,3.1592695774169997,4763.865313047968
2023-09-19T16:26:37Z,45.78859245,4.87723425,169.0,3.11,4776.615908472108
2023-09-19T16:26:41Z,45.78849778,4.87714974,169.0,3.11,4789.021595813378
2023-09-19T16:26:45Z,45.78840818,4.87706324,165.0,3.1200000000000006,4801.038975155245
2023-09-19T16:26:49Z,45.78831436,4.8769843,165.0,3.11,4813.1392816373545
2023-09-19T16:26:53Z,45.788219,4.87690443,165.0,3.11,4825.423809973259
2023-09-19T16:26:57Z,45.7881245,4.87682148,165.0,3.1200000000000006,4837.74958871473
2023-09-19T16:27:01Z,45.78803106,4.87673304,165.0,3.1200000000000006,4850.205636646373
2023-09-19T16:27:05Z,45.78796189,4.87660313,165.0,3.1200000000000006,4862.900079142073
2023-09-19T16:27:09Z,45.78793207,4.87644837,165.0,3.14,4875.3821007058605
2023-09-19T16:27:14Z,45.78791784,4.87631619,165.0,3.1200000000000006,4885.781227227765
2023-09-19T16:27:18Z,45.78789242,4.87617321,165.0,3.0800000000000005,4897.252554878193
2023-09-19T16:27:24Z,45.78787164,4.87602607,165.0,3.0300000000000007,4908.924771925227
2023-09-19T16:27:29Z,45.78784579,4.87589658,165.0,2.94,4919.395661430236
2023-09-19T16:27:35Z,45.78778931,4.87575147,165.0,2.8400000000000003,4932.307963023805
2023-09-19T16:27:39Z,45.78777451,4.87560122,165.0,2.8386995488794375,4944.106475652677
2023-09-19T16:27:43Z,45.78774971,4.87546026,165.0,2.75,4955.408658817059
2023-09-19T16:27:47Z,45.78771701,4.87529167,165.0,2.75,4969.012543834433
2023-09-19T16:27:50Z,45.78769359,4.87513295,165.0,2.7512935249834105,4981.625978348681
2023-09-19T16:27:53Z,45.78766413,4.87498503,165.0,2.8700000000000006,4993.5850926798585
2023-09-19T16:27:56Z,45.78764234,4.87483251,165.0,2.9500000000000006,5005.689671539251
2023-09-19T16:27:59Z,45.78763286,4.87469777,165.0,2.9900000000000007,5016.219783850703
2023-09-19T16:28:03Z,45.78761172,4.87453688,165.0,2.9900000000000007,5028.949184741931
2023-09-19T16:28:07Z,45.78760026,4.87438001,165.0,2.9600000000000004,5041.213586702694
2023-09-19T16:28:11Z,45.78757921,4.87422202,165.0,2.960174494650543,5053.719561973188
2023-09-19T16:28:14Z,45.78755582,4.8740921,165.0,2.97,5064.151179216728
2023-09-19T16:28:17Z,45.78753568,4.87396254,165.0,3.0000000000000004,5074.471362813931
2023-09-19T16:28:20Z,45.78752567,4.87383083,165.0,3.0700000000000007,5084.773289352244
2023-09-19T16:28:23Z,45.78751674,4.87369677,165.0,3.15,5095.24484275052
2023-09-19T16:28:27Z,45.78748923,4.87352897,172.0,3.2500000000000004,5108.64632960931
2023-09-19T16:28:30Z,45.78748615,4.87339697,172.0,3.2600000000000002,5118.916267043336
2023-09-19T16:28:34Z,45.78747875,4.87322771,172.0,3.3300000000000005,5132.103485188514
2023-09-19T16:28:38Z,45.78746397,4.87308844,172.0,3.35,5143.056916645878
2023-09-19T16:28:43Z,45.78744416,4.87293857,172.0,3.3300000000000005,5154.916891498905
2023-09-19T16:28:47Z,45.78741807,4.87281392,175.0,3.3000000000000003,5165.034085792791
2023-09-19T16:28:51Z,45.78740248,4.87266212,175.0,3.2500000000000004,5176.964473522509
2023-09-19T16:28:55Z,45.78739877,4.8725091,175.0,3.249289562286984,5188.870366253913
2023-09-19T16:29:00Z,45.78737936,4.87234502,175.0,3.06,5201.810245954032
2023-09-19T16:29:04Z,45.78737028,4.87219715,175.0,3.0400000000000005,5213.352744796715
2023-09-19T16:29:07Z,45.78736686,4.8720661,175.0,3.06,5223.55021265534
2023-09-19T16:29:10Z,45.78734834,4.87193346,175.0,3.0900000000000003,5234.06763680811
2023-09-19T16:29:14Z,45.78733289,4.87177822,175.0,3.0900000000000003,5246.26055606728
2023-09-19T16:29:18Z,45.78732037,4.87161959,175.0,3.0700000000000007,5258.6737983633975
2023-09-19T16:29:21Z,45.78732289,4.87145227,175.0,3.1200000000000006,5271.687540949003
2023-09-19T16:29:25Z,45.7873109,4.87128635,175.0,3.11,5284.658050158383
2023-09-19T16:29:29Z,45.78730011,4.87112675,175.0,3.0900000000000003,5297.126289358299
2023-09-19T16:29:33Z,45.78728912,4.87097464,175.0,3.06,5309.017207106655
2023-09-19T16:29:37Z,45.78728612,4.87082002,177.0,3.0400000000000005,5321.04501901191
2023-09-19T16:29:41Z,45.78729454,4.87066573,177.0,3.06,5333.078992033192
2023-09-19T16:29:46Z,45.78727996,4.87050202,177.0,3.0700015629428368,5345.911747486158
2023-09-19T16:29:50Z,45.78725765,4.87037279,177.0,3.0800000000000005,5356.262051474612
2023-09-19T16:29:54Z,45.78722881,4.87023948,177.0,3.06,5367.112488928976
2023-09-19T16:29:57Z,45.78719379,4.87011852,177.0,3.0600532002596466,5377.291875271424
2023-09-19T16:30:00Z,45.78715862,4.86998578,177.0,3.0900000000000003,5388.329121531836
2023-09-19T16:30:04Z,45.78710551,4.8698617,177.0,3.15,5399.6400924747895
2023-09-19T16:30:08Z,45.78706749,4.8697347,177.0,3.1421446554304056,5410.3817451104305
2023-09-19T16:30:12Z,45.78702654,4.86960526,177.0,3.0900000000000003,5421.42824256673
2023-09-19T16:30:16Z,45.78698478,4.86948074,177.0,3.0500000000000003,5432.165921417352
2023-09-19T16:30:20Z,45.78693193,4.86936123,177.0,3.02,5443.159881491023
2023-09-19T16:30:24Z,45.78688745,4.86923317,177.0,3.0000000000000004,5454.277543410758
2023-09-19T16:30:27Z,45.78684524,4.8691108,177.0,2.89,5464.88675518103
2023-09-19T16:30:31Z,45.7867975,4.86897827,177.0,2.9100000000000006,5476.478134222556
2023-09-19T16:30:36Z,45.78675514,4.86883147,177.0,2.8800000000000003,5488.826177868013
2023-09-19T16:30:40Z,45.78670258,4.86868582,172.0,2.86,5501.56986038477
2023-09-19T16:30:43Z,45.78666405,4.86856598,172.0,2.89,5511.825592514559
2023-09-19T16:30:47Z,45.78662313,4.86842392,172.0,2.94,5523.77189710029
2023-09-19T16:30:51Z,45.78658108,4.86830005,172.0,2.9200000000000004,5534.478114491201
2023-09-19T16:30:55Z,45.78653867,4.86816554,172.0,2.9200000000000004,5545.950788609087
2023-09-19T16:30:59Z,45.78649987,4.86802138,172.0,2.9200000000000004,5557.9616727070015
2023-09-19T16:31:03Z,45.78644692,4.86789999,172.0,2.85,5569.085425140602
2023-09-19T16:31:06Z,45.78638527,4.8677773,172.0,2.9200000000000004,5580.831640701349
2023-09-19T16:31:09Z,45.78632729,4.86765681,172.0,2.9200000000000004,5592.203315782901
2023-09-19T16:31:12Z,45.78629133,4.86752932,172.0,3.0000000000000004,5602.892429514203
2023-09-19T16:31:16Z,45.78626146,4.86738951,172.0,3.0400000000000005,5614.259815537478
2023-09-19T16:31:20Z,45.78622342,4.86723939,172.0,3.0300000000000007,5626.675396320307
2023-09-19T16:31:24Z,45.78619269,4.86710025,172.0,3.0334079653050496,5638.021384806651
2023-09-19T16:31:28Z,45.78616243,4.86694028,172.0,3.06,5650.907492963542
2023-09-19T16:31:31Z,45.78613731,4.86680406,172.0,3.0800000000000005,5661.861904025458
2023-09-19T16:31:34Z,45.78611562,4.86667486,172.0,3.1,5672.193846080536
2023-09-19T16:31:37Z,45.78609664,4.8665442,168.0,3.1600000000000006,5682.570823632163
2023-09-19T16:31:40Z,45.78607287,4.86640554,168.0,3.1600000000000006,5693.672159745359
2023-09-19T16:31:44Z,45.78603359,4.8662477,168.0,3.2100000000000004,5706.699362947194
2023-09-19T16:31:48Z,45.78600048,4.86609929,168.0,3.2000000000000006,5718.812480754535
2023-09-19T16:31:53Z,45.78596398,4.86594913,168.0,3.18,5731.173809281653
2023-09-19T16:31:57Z,45.78594079,4.86579845,168.0,3.182565098213671,5743.171052970274
2023-09-19T16:32:01Z,45.78590248,4.86563716,168.0,3.2000000000000006,5756.41629882944
2023-09-19T16:32:05Z,45.78586952,4.86547344,168.0,3.2100000000000004,5769.664015571558
2023-09-19T16:32:08Z,45.78583493,4.86533448,168.0,3.2181034336858367,5781.133324525158
2023-09-19T16:32:11Z,45.78580944,4.86520377,168.0,3.2500000000000004,5791.6850126671825
2023-09-19T16:32:14Z,45.78579084,4.86507165,168.0,3.2400000000000007,5802.1648177295865
2023-09-19T16:32:18Z,45.78577266,4.86490222,168.0,3.2600000000000002,5815.494032981204
2023-09-19T16:32:21Z,45.78575901,4.86476972,168.0,3.27,5825.908560346753
2023-09-19T16:32:25Z,45.78574245,4.8646309,168.0,3.27,5836.859236944268
2023-09-19T16:32:29Z,45.78573318,4.86449251,166.0,3.2600000000000002,5847.669897103912
2023-09-19T16:32:33Z,45.78572874,4.86433539,166.0,3.23,5859.8977875228675
2023-09-19T16:32:37Z,45.78570385,4.86419296,166.0,3.18,5871.3136716847985
2023-09-19T16:32:41Z,45.78568261,4.86404861,166.0,3.169994100447493,5882.784155383923
2023-09-19T16:32:45Z,45.7856643,4.86390413,166.0,3.1,5894.202017285912
2023-09-19T16:32:49Z,45.78565751,4.86374503,166.0,3.1,5906.5969259468375
2023-09-19T16:32:53Z,45.7856761,4.86360504,166.0,3.0900000000000003,5917.677165372771
2023-09-19T16:32:56Z,45.78570097,4.86346935,166.0,3.14,5928.584738364377
2023-09-19T16:32:59Z,45.78573282,4.86331478,166.0,3.2100000000000004,5941.114844912441
2023-09-19T16:33:02Z,45.78577491,4.86316234,166.0,3.27,5953.8585754911
2023-09-19T16:33:05Z,45.78582564,4.86300121,166.0,3.27,5967.598551192301
2023-09-19T16:33:08Z,45.78585369,4.86287594,166.0,3.3300000000000005,5977.826494836531
2023-09-19T16:33:11Z,45.7858841,4.86274561,166.0,3.3300000000000005,5988.50992780434
2023-09-19T16:33:14Z,45.78591093,4.86260973,166.0,3.331107808919741,5999.488914473341
2023-09-19T16:33:17Z,45.78593734,4.86246426,166.0,3.34,6011.17553463749
2023-09-19T16:33:20Z,45.78596903,4.86232232,166.0,3.3700000000000006,6022.761379628753
2023-09-19T16:33:23Z,45.78599752,4.86217911,166.0,3.4000000000000004,6034.339050136646
2023-09-19T16:33:26Z,45.78600697,4.86204017,166.0,3.43,6045.19415205128
2023-09-19T16:33:29Z,45.78602017,4.86190939,166.0,3.43,6055.469069086977
2023-09-19T16:33:32Z,45.78604122,4.86178379,166.0,3.4800000000000004,6065.512217045461
2023-09-19T16:33:36Z,45.78605798,4.86161874,166.0,3.5,6078.481205454342
2023-09-19T16:33:39Z,45.78608022,4.8614935,166.0,3.5200000000000005,6088.528844438454
2023-09-19T16:33:43Z,45.78610049,4.86133443,166.0,3.54,6101.101828656346
2023-09-19T16:33:47Z,45.78611693,4.86117508,166.0,3.5600000000000005,6113.627084386954
2023-09-19T16:33:51Z,45.78614077,4.86102114,166.0,3.5500000000000003,6125.887405930113
2023-09-19T16:33:55Z,45.78614724,4.86086009,166.0,3.58,6138.431475076889
2023-09-19T16:33:59Z,45.78614926,4.86069622,166.0,3.5600000000000005,6151.176177816114
2023-09-19T16:34:03Z,45.78615401,4.86053017,166.0,3.5,6164.099210132337
2023-09-19T16:34:07Z,45.78617219,4.86036764,168.0,3.38,6176.8982443120185
2023-09-19T16:34:11Z,45.78619567,4.86020671,168.0,3.38,6189.681569109664
2023-09-19T16:34:15Z,45.78618575,4.86004154,168.0,3.35,6202.572612618523
2023-09-19T16:34:19Z,45.78618047,4.85990442,168.0,3.327653651842008,6213.25135705423
2023-09-19T16:34:23Z,45.78620179,4.85977635,168.0,3.1600000000000006,6223.4882660931635
2023-09-19T16:34:27Z,45.7861644,4.85965206,168.0,3.1,6234.008793737855
2023-09-19T16:34:31Z,45.78618014,4.8594861,168.0,3.0900000000000003,6247.032073805588
2023-09-19T16:34:35Z,45.78618076,4.8593364,168.0,3.06,6258.673120095344
2023-09-19T16:34:39Z,45.78618811,4.85918179,168.0,3.0400000000000005,6270.723491776469
2023-09-19T16:34:42Z,45.78619515,4.85904509,168.0,3.0700000000000007,6281.382197505976
2023-09-19T16:34:46Z,45.78618353,4.85889437,168.0,3.0500000000000003,6293.173301145714
2023-09-19T16:34:50Z,45.78619086,4.858734,168.0,3.06,6305.670437662745
2023-09-19T16:34:54Z,45.78620575,4.85856762,168.0,3.0700000000000007,6318.713752511801
2023-09-19T16:34:58Z,45.78620629,4.85840764,168.0,3.0700000000000007,6331.154118427061
2023-09-19T16:35:02Z,45.78622224,4.85823726,166.0,3.0700000000000007,6344.521132976794
2023-09-19T16:35:06Z,45.78622503,4.85807043,166.0,3.0800000000000005,6357.497719325076
2023-09-19T16:35:10Z,45.78622625,4.85790899,166.0,3.0700000000000007,6370.0521995794
2023-09-19T16:35:14Z,45.78622306,4.85775234,166.0,3.065691833784101,6382.23863115475
2023-09-19T16:35:19Z,45.78611737,4.85769627,166.0,3.0300000000000007,6394.768815510126
2023-09-19T16:35:23Z,45.78600472,4.85767079,166.0,3.0400000000000005,6407.445342569151
2023-09-19T16:35:26Z,45.78591575,4.85763605,166.0,3.0400000000000005,6417.696456021328
2023-09-19T16:35:30Z,45.78580057,4.85759976,166.0,3.1300000000000003,6430.805721341697
2023-09-19T16:35:34Z,45.78569693,4.85756241,166.0,3.14,6442.685517613028
2023-09-19T16:35:38Z,45.78564722,4.8576914,166.0,3.1200000000000006,6454.137064707959
2023-09-19T16:35:42Z,45.78564376,4.85783176,166.0,3.11,6465.058495291097
2023-09-19T16:35:46Z,45.78563048,4.85796643,166.0,3.0500000000000003,6475.634199830295
2023-09-19T16:35:50Z,45.78562387,4.85811343,166.0,3.0300000000000007,6487.088785244787
2023-09-19T16:35:54Z,45.7856291,4.85824795,166.0,3.0100000000000002,6497.565456277392
2023-09-19T16:35:59Z,45.78560846,4.85840865,168.0,2.9600000000000004,6510.270624908713
2023-09-19T16:36:02Z,45.78557389,4.85854315,168.0,2.9500000000000006,6521.4130677207095
2023-09-19T16:36:05Z,45.78552468,4.85866573,168.0,2.98,6532.402894683246
2023-09-19T16:36:09Z,45.78545204,4.85879602,168.0,2.97889437297691,6545.358004803562
2023-09-19T16:36:12Z,45.78538413,4.85888211,172.0,2.9900000000000007,6555.447072733733
2023-09-19T16:36:15Z,45.78530277,4.85894482,172.0,3.02,6565.7210486902195
2023-09-19T16:36:18Z,45.7852176,4.85898612,172.0,3.02,6575.717399731569
2023-09-19T16:36:23Z,45.7851088,4.85904108,172.0,3.0400000000000005,6588.543217339472
2023-09-19T16:36:26Z,45.78499737,4.85909078,172.0,3.0800000000000005,6601.517345905672
2023-09-19T16:36:30Z,45.78488615,4.85910302,172.0,3.0900000000000003,6613.915717516291
2023-09-19T16:36:34Z,45.78477913,4.85909349,172.0,3.0500000000000003,6625.833744838686
2023-09-19T16:36:38Z,45.7846829,4.85908584,172.0,3.0700000000000007,6636.545962385209
2023-09-19T16:36:43Z,45.78459716,4.85901752,172.0,3.0500000000000003,6647.456595093578
2023-09-19T16:36:47Z,45.78460062,4.85885178,172.0,3.06,6660.350826661172
2023-09-19T16:36:50Z,45.78459798,4.8586806,172.0,3.06,6673.665588197633
2023-09-19T16:36:54Z,45.78458622,4.85851625,172.0,3.15,6686.512660250722
2023-09-19T16:36:59Z,45.78456376,4.85835641,172.0,3.14,6699.190562382625
2023-09-19T16:37:03Z,45.7845423,4.85818741,175.0,3.1600000000000006,6712.547276419109
2023-09-19T16:37:06Z,45.78452385,4.85805283,175.0,3.1600000000000006,6723.211696988341
2023-09-19T16:37:09Z,45.7844961,4.85793007,175.0,3.15,6733.243837799622
2023-09-19T16:37:13Z,45.78445819,4.85779508,175.0,3.14,6744.55522721913
2023-09-19T16:37:17Z,45.78441146,4.8576574,175.0,3.1,6756.455038929429
2023-09-19T16:37:21Z,45.78435285,4.85753296,175.0,3.06,6768.1203315169705
2023-09-19T16:37:25Z,45.78430214,4.85741587,175.0,3.0500000000000003,6778.828972619601
2023-09-19T16:37:29Z,45.78426528,4.85727077,175.0,3.0000000000000004,6790.8332365376555
2023-09-19T16:37:32Z,45.78422939,4.85711945,175.0,3.0300000000000007,6803.258219077791
2023-09-19T16:37:35Z,45.78419654,4.85696769,175.0,3.11,6815.611568667486
2023-09-19T16:37:38Z,45.78415488,4.85684309,175.0,3.15,6826.350501501413
2023-09-19T16:37:41Z,45.78410982,4.85672852,175.0,3.2000000000000006,6836.571103911745
2023-09-19T16:37:44Z,45.78405884,4.85660313,175.0,3.2000000000000006,6847.848758494017
2023-09-19T16:37:47Z,45.78405147,4.85644064,175.0,3.31,6860.511169972778
2023-09-19T16:37:50Z,45.78411349,4.85627982,175.0,3.3700000000000006,6874.7911768980175
2023-09-19T16:37:53Z,45.78418576,4.85614225,173.0,3.4500000000000006,6888.169130018905
2023-09-19T16:37:56Z,45.78423264,4.85602601,173.0,3.47,6898.6026608039965
2023-09-19T16:38:00Z,45.78429078,4.85588064,173.0,3.5200000000000005,6911.623832518036
2023-09-19T16:38:03Z,45.78431818,4.85575079,173.0,3.5,6922.170710090507
2023-09-19T16:38:07Z,45.78432255,4.85559577,173.0,3.4900000000000007,6934.235423692789
2023-09-19T16:38:12Z,45.78430368,4.85545018,173.0,3.4400000000000004,6945.749675092097
2023-09-19T16:38:16Z,45.78428786,4.85530791,173.0,3.43,6956.951983245344
2023-09-19T16:38:19Z,45.7842699,4.85517158,173.0,3.43,6967.739818774076
2023-09-19T16:38:23Z,45.78423946,4.85503576,173.0,3.43,6978.830363308268
2023-09-19T16:38:27Z,45.78419714,4.85492019,173.0,3.4100000000000006,6988.9740532115065
2023-09-19T16:38:31Z,45.78416185,4.85476522,173.0,3.4400000000000004,7001.647390374098
2023-09-19T16:38:34Z,45.78414105,4.85462901,173.0,3.4500000000000006,7012.488977292702
2023-09-19T16:38:37Z,45.78410931,4.85448961,173.0,3.4500000000000006,7023.888870314354
2023-09-19T16:38:40Z,45.78406957,4.85434415,173.0,3.4000000000000004,7036.0322268252285
2023-09-19T16:38:44Z,45.78403309,4.85419183,173.0,3.4400000000000004,7048.552004380721
2023-09-19T16:38:48Z,45.7839879,4.85406906,183.0,3.38,7059.339733990914
2023-09-19T16:38:52Z,45.78394749,4.85393649,183.0,3.27,7070.584857583806
2023-09-19T16:38:56Z,45.78390819,4.85380824,183.0,3.14,7081.472749816932
2023-09-19T16:39:00Z,45.78386644,4.85367162,183.0,3.0500000000000003,7093.066112317425
2023-09-19T16:39:04Z,45.78381636,4.85352454,183.0,3.0300000000000007,7105.786233567218
2023-09-19T16:39:08Z,45.78375804,4.85338007,183.0,3.0500000000000003,7118.756760318294
2023-09-19T16:39:11Z,45.78372093,4.85325603,183.0,3.1,7129.247542902716
2023-09-19T16:39:15Z,45.78367426,4.8531146,183.0,3.0900000000000003,7141.407675249812
2023-09-19T16:39:19Z,45.7836104,4.85298159,183.0,3.11,7153.952278250128
2023-09-19T16:39:23Z,45.78354632,4.85286053,183.0,3.1300000000000003,7165.757125665474
2023-09-19T16:39:27Z,45.78349204,4.852735,183.0,3.15,7177.232795265127
2023-09-19T16:39:31Z,45.78343292,4.85260133,183.0,3.14,7189.530391502913
2023-09-19T16:39:35Z,45.78337123,4.85246451,183.0,3.1200000000000006,7202.188169333226
2023-09-19T16:39:38Z,45.78331123,4.85236456,167.0,3.1300000000000003,7212.429597677723
2023-09-19T16:39:41Z,45.78325168,4.85225048,167.0,3.1300000000000003,7223.49807829965
2023-09-19T16:39:44Z,45.78318774,4.85214638,167.0,3.1300000000000003,7234.2702980743625
2023-09-19T16:39:48Z,45.78311916,4.85201492,171.0,3.1,7247.022254525593
2023-09-19T16:39:51Z,45.78306227,4.85191511,171.0,3.1200000000000006,7257.033616123798
2023-09-19T16:39:54Z,45.78299827,4.85180957,171.0,3.18,7267.894629558605
2023-09-19T16:39:58Z,45.7829215,4.85167414,171.0,3.186975708923056,7281.449214311817
2023-09-19T16:40:02Z,45.78285483,4.85153334,171.0,3.2600000000000002,7294.6704223094775
2023-09-19T16:40:05Z,45.78280291,4.85141875,171.0,3.2800000000000007,7305.286956804267
2023-09-19T16:40:09Z,45.7827343,4.85130553,171.0,3.2783909316224857,7316.934907416841
2023-09-19T16:40:13Z,45.78265919,4.85118494,171.0,3.2600000000000002,7329.490245564581
2023-09-19T16:40:17Z,45.78259747,4.85107141,171.0,3.23,7340.6708969595775
2023-09-19T16:40:20Z,45.78253775,4.85095812,171.0,3.238209854410773,7351.7016477728275
2023-09-19T16:40:23Z,45.78247487,4.85081592,171.0,3.3000000000000003,7364.783407622062
2023-09-19T16:40:26Z,45.7824044,4.85067243,171.0,3.39,7378.416638823586
2023-09-19T16:40:29Z,45.78233488,4.85053565,171.0,3.4800000000000004,7391.563849936212
2023-09-19T16:40:32Z,45.78228364,4.85038023,171.0,3.4800000000000004,7404.924906934669
2023-09-19T16:40:35Z,45.78224188,4.85026593,171.0,3.5600000000000005,7414.952513319971
2023-09-19T16:40:39Z,45.78219067,4.85013125,171.0,3.54,7426.872815776645
2023-09-19T16:40:43Z,45.78213878,4.84998375,172.0,3.5100000000000002,7439.711725844543
2023-09-19T16:40:46Z,45.78209576,4.84985854,172.0,3.5100000000000002,7450.559575880999
2023-09-19T16:40:49Z,45.78204197,4.84973422,172.0,3.54,7461.926783520465
2023-09-19T16:40:52Z,45.78197929,4.84962377,172.0,3.54,7472.986256722333
2023-09-19T16:40:55Z,45.78191157,4.849529,172.0,3.5500000000000003,7483.520511551103
2023-09-19T16:40:58Z,45.78184214,4.84943268,172.0,3.54,7494.2750079071375
2023-09-19T16:41:01Z,45.78177962,4.84934015,172.0,3.5600000000000005,7504.2783546130095
2023-09-19T16:41:05Z,45.78169381,4.84925044,172.0,3.54,7516.095126122391
2023-09-19T16:41:10Z,45.78159684,4.84918919,172.0,3.4800000000000004,7527.878689869092
2023-09-19T16:41:14Z,45.78149311,4.84915199,172.0,3.4800000000000004,7539.765386722256
2023-09-19T16:41:18Z,45.78142444,4.84903988,172.0,3.4900000000000007,7551.352770157401
2023-09-19T16:41:22Z,45.78139059,4.84887545,172.0,3.47,7564.682119637771
2023-09-19T16:41:25Z,45.78134499,4.84872934,172.0,3.4800000000000004,7577.123892193958
2023-09-19T16:41:28Z,45.78129613,4.8486164,172.0,3.42,7587.450307490667
2023-09-19T16:41:32Z,45.78123263,4.84851617,177.0,3.31,7597.965542406532
2023-09-19T16:41:37Z,45.78115517,4.84839773,177.0,3.2976403095780102,7610.573571291025
2023-09-19T16:41:41Z,45.78108526,4.84829415,177.0,3.18,7621.765715426451
2023-09-19T16:41:45Z,45.78100351,4.84822548,177.0,3.14,7632.305147399162
2023-09-19T16:41:49Z,45.78092152,4.84813604,177.0,3.0800000000000005,7643.769274970403
2023-09-19T16:41:53Z,45.78083651,4.84803146,177.0,3.0800000000000005,7656.236127474207
2023-09-19T16:41:56Z,45.78075959,4.84793609,177.0,3.0800000000000005,7667.55432421302
2023-09-19T16:41:59Z,45.78067893,4.84785301,173.0,3.0768326685520875,7678.60503602112
2023-09-19T16:42:03Z,45.7805832,4.84776141,173.0,3.0500000000000003,7691.4096408346895
2023-09-19T16:42:07Z,45.7805008,4.84767372,173.0,3.06,7702.828258244542
2023-09-19T16:42:11Z,45.78042441,4.84757047,173.0,3.0500000000000003,7714.514334081789
2023-09-19T16:42:15Z,45.78034671,4.8474554,173.0,3.0800000000000005,7726.950791441487
2023-09-19T16:42:19Z,45.78026946,4.84734917,173.0,3.1,7738.866013705428
2023-09-19T16:42:23Z,45.78016757,4.84726369,173.0,3.11,7751.997759400547
2023-09-19T16:42:27Z,45.78009104,4.84717953,173.0,3.0300000000000007,7762.73049287441
2023-09-19T16:42:31Z,45.77999889,4.84708824,173.0,2.9900000000000007,7775.192709388314
2023-09-19T16:42:35Z,45.77990289,4.84699098,173.0,3.0300000000000007,7788.27184433761
2023-09-19T16:42:39Z,45.77981013,4.8469222,173.0,3.0300000000000007,7799.886835293484
2023-09-19T16:42:43Z,45.77971956,4.84684915,173.0,3.0700000000000007,7811.4458605788295
2023-09-19T16:42:47Z,45.77962726,4.84676621,173.0,3.06,7823.564038801066
2023-09-19T16:42:51Z,45.77953572,4.84666837,173.0,3.0900000000000003,7836.268997120078
2023-09-19T16:42:55Z,45.77944454,4.84656571,173.0,3.1200000000000006,7849.170493883786
2023-09-19T16:42:59Z,45.77935744,4.84645663,173.0,3.1200000000000006,7862.042355225252
2023-09-19T16:43:03Z,45.77926937,4.84637121,173.0,3.0800000000000005,7873.872431787443
2023-09-19T16:43:07Z,45.77918437,4.84625588,173.0,3.0500000000000003,7886.899466668523
2023-09-19T16:43:11Z,45.77911128,4.84616008,173.0,3.06,7897.922366566148
2023-09-19T16:43:17Z,45.77902029,4.84619494,173.0,3.0500000000000003,7908.392714987267
2023-09-19T16:43:23Z,45.77898541,4.84633173,173.0,2.9600000000000004,7919.715404508651
2023-09-19T16:43:28Z,45.7790298,4.84646213,173.0,2.89,7930.993239859142
2023-09-19T16:43:33Z,45.779092,4.84657845,173.0,2.8400000000000003,7942.378772318146
2023-09-19T16:43:37Z,45.77915571,4.84669252,173.0,2.7800000000000002,7953.729700950448
2023-09-19T16:43:42Z,45.77914178,4.84683284,173.0,2.7600000000000007,7964.751800920243
2023-09-19T16:43:46Z,45.77905891,4.84690709,173.0,2.7200000000000006,7975.622989956491
2023-09-19T16:43:50Z,45.77895761,4.84694873,173.0,2.7,7987.338643985959
2023-09-19T16:43:54Z,45.77885217,4.84688264,173.0,2.69,8000.135577730658
2023-09-19T16:43:58Z,45.77876691,4.84680603,173.0,2.6865418495096365,8011.329351542635
2023-09-19T16:44:02Z,45.77867888,4.84673505,173.0,2.65,8022.5634418330455
2023-09-19T16:44:06Z,45.77858961,4.84664793,173.0,2.62,8034.578217274924
2023-09-19T16:44:10Z,45.77849135,4.84655419,173.0,2.65,8047.709237910044
2023-09-19T16:44:13Z,45.77841062,4.84647761,None,2.65,8058.478828353792
2023-09-19T16:44:16Z,45.77832828,4.8463895,173.0,2.7200000000000006,8069.911800817332
2023-09-19T16:44:19Z,45.77824375,4.84632386,173.0,2.7900000000000005,8080.604389122884
2023-09-19T16:44:22Z,45.77816267,4.84625634,173.0,2.89,8091.03450875746
2023-09-19T16:44:25Z,45.77806724,4.84617412,None,3.02,8103.419668574554
2023-09-19T16:44:28Z,45.7779884,4.84607494,173.0,3.02,8115.093778105442
2023-09-19T16:44:31Z,45.77791468,4.8459811,173.0,3.036253430755288,8126.066518890794
2023-09-19T16:44:34Z,45.7778401,4.84589754,None,3.15,8136.599614140037
2023-09-19T16:44:37Z,45.77775591,4.84581494,174.0,3.2400000000000007,8147.949958961124
2023-09-19T16:44:40Z,45.77767848,4.8457367,174.0,3.2800000000000007,8158.489967308478
2023-09-19T16:44:43Z,45.77760303,4.84566012,None,3.35,8168.775777323608
2023-09-19T16:44:46Z,45.77751916,4.84560703,174.0,3.35,8178.971177783326
2023-09-19T16:44:49Z,45.77743337,4.84556042,174.0,3.4000000000000004,8189.172286664238
2023-09-19T16:44:52Z,45.77734931,4.84551297,None,3.4000000000000004,8199.21771184481
2023-09-19T16:44:56Z,45.77723198,4.84549916,174.0,3.42,8212.30274045308
2023-09-19T16:45:00Z,45.77711997,4.845551,174.0,3.42,8225.388883240017
2023-09-19T16:45:04Z,45.77701662,4.84562433,182.0,3.42516341583779,8238.213781397008
2023-09-19T16:45:08Z,45.776901,4.84566309,None,3.47,8251.413428416801
2023-09-19T16:45:11Z,45.7768337,4.84575368,182.0,3.4900000000000007,8261.689277995161
2023-09-19T16:45:14Z,45.77677956,4.84585909,178.0,3.5,8271.858857106943
2023-09-19T16:45:18Z,45.77671057,4.84599709,178.0,3.4800000000000004,8285.049485304513
2023-09-19T16:45:21Z,45.77664627,4.84608849,None,3.4500000000000006,8295.129558177641
2023-09-19T16:45:24Z,45.77659214,4.84619556,178.0,3.46,8305.402870556127
2023-09-19T16:45:28Z,45.77651937,4.84632072,178.0,3.4100000000000006,8318.058864665281
2023-09-19T16:45:32Z,45.77644121,4.84643532,None,3.3700000000000006,8330.505121368415
2023-09-19T16:45:35Z,45.77638586,4.84654708,178.0,3.3600000000000003,8341.154043660888
2023-09-19T16:45:39Z,45.77633225,4.84667735,178.0,3.3300000000000005,8352.908045730226
2023-09-19T16:45:43Z,45.77629165,4.84681629,None,3.2900000000000005,8364.61845673145
2023-09-19T16:45:47Z,45.77624064,4.84695509,178.0,3.2600000000000002,8376.811893058622
2023-09-19T16:45:50Z,45.77619148,4.84708708,178.0,3.2800000000000007,8388.440996315816
2023-09-19T16:45:53Z,45.77613045,4.84720905,None,3.31,8400.102968589406
2023-09-19T16:45:57Z,45.77606888,4.84733831,178.0,3.3128280092690296,8412.264306891311
2023-09-19T16:46:00Z,45.77600774,4.84746371,178.0,3.3300000000000005,8424.151293323384
2023-09-19T16:46:03Z,45.77596085,4.84758468,178.0,3.3300000000000005,8434.906808121847
2023-09-19T16:46:06Z,45.77592938,4.84771079,None,3.35,8445.320086389927
2023-09-19T16:46:09Z,45.77588333,4.84784116,178.0,3.3700000000000006,8456.678267672438
2023-09-19T16:46:12Z,45.77582912,4.84796043,173.0,3.39,8467.739613392112
2023-09-19T16:46:15Z,45.77577389,4.84807157,None,3.4000000000000004,8478.341561227357
2023-09-19T16:46:18Z,45.77571777,4.84819466,173.0,3.43,8489.767728440163
2023-09-19T16:46:22Z,45.77565441,4.84834251,173.0,3.43,8503.251934629245
2023-09-19T16:46:25Z,45.77561712,4.84846968,None,3.43,8513.975981565827
2023-09-19T16:46:28Z,45.7755784,4.84861074,173.0,3.4373496023836325,8525.760939899435
2023-09-19T16:46:31Z,45.77553744,4.84874514,173.0,3.4900000000000007,8537.162382275406
2023-09-19T16:46:35Z,45.77550527,4.84888577,173.0,3.5100000000000002,8548.669627990057
2023-09-19T16:46:39Z,45.77545172,4.84903086,None,3.505304633880678,8561.427596943846
2023-09-19T16:46:42Z,45.77540313,4.84914641,173.0,3.4900000000000007,8571.91251229566
2023-09-19T16:46:45Z,45.77535449,4.84927023,173.0,3.5300000000000007,8582.956444758958
2023-09-19T16:46:49Z,45.77528856,4.84941208,None,3.5600000000000005,8596.200904848465
2023-09-19T16:46:53Z,45.77523452,4.84956322,173.0,3.5,8609.401634933505
2023-09-19T16:46:56Z,45.77517651,4.84967748,173.0,3.5100000000000002,8620.380977428593
2023-09-19T16:46:59Z,45.77511389,4.84977055,173.0,3.5300000000000007,8630.422891563605
2023-09-19T16:47:02Z,45.77506026,4.84988347,None,3.5300000000000007,8641.03722478557
2023-09-19T16:47:05Z,45.77500957,4.84999488,173.0,3.5100000000000002,8651.37290303011
2023-09-19T16:47:09Z,45.77493713,4.85011991,172.0,3.5,8663.997909327974
2023-09-19T16:47:12Z,45.77487132,4.85021937,172.0,3.4948577290107266,8674.644215705082
2023-09-19T16:47:15Z,45.77481076,4.85032146,None,3.46,8685.053567685083
2023-09-19T16:47:19Z,45.77474871,4.85046813,172.0,3.4500000000000006,8698.383842276722
2023-09-19T16:47:22Z,45.77469755,4.850585,172.0,3.4400000000000004,8709.105703426445
2023-09-19T16:47:25Z,45.77463477,4.85067841,None,3.4400000000000004,8719.179051230285
2023-09-19T16:47:28Z,45.77457984,4.8507845,172.0,3.42,8729.443556105129
2023-09-19T16:47:31Z,45.7745298,4.85089609,172.0,3.39,8739.751877941218
2023-09-19T16:47:34Z,45.77447602,4.8510072,172.0,3.390221385600372,8750.259577218703
2023-09-19T16:47:37Z,45.77442033,4.85111027,None,3.39,8760.387651588271
2023-09-19T16:47:41Z,45.77435282,4.85123798,172.0,3.4100000000000006,8772.836217872642
2023-09-19T16:47:45Z,45.77428766,4.85134571,172.0,3.4023625584136985,8783.9113589281
2023-09-19T16:47:49Z,45.77421086,4.85142305,172.0,3.3300000000000005,8794.354006625494
2023-09-19T16:47:53Z,45.77410771,4.85145234,172.0,3.3000000000000003,8806.042955079905
2023-09-19T16:47:58Z,45.77399296,4.85148479,None,3.2800000000000007,8819.044389730132
2023-09-19T16:48:00Z,45.77390055,4.85149588,172.0,3.2800000000000007,8829.351629923407
2023-09-19T16:48:04Z,45.77378665,4.85153639,172.0,3.2800000000000007,8842.397464926607
2023-09-19T16:48:08Z,45.77371763,4.85167225,None,3.2600000000000002,8855.45544031906
2023-09-19T16:48:11Z,45.77365723,4.85179121,172.0,3.2600000000000002,8866.886860186693
2023-09-19T16:48:14Z,45.77360431,4.8519178,172.0,3.31,8878.355958397167
2023-09-19T16:48:17Z,45.77358147,4.85204399,172.0,3.31,8888.493830836684
2023-09-19T16:48:21Z,45.77357095,4.85221078,None,3.3200000000000007,8901.519121623565
2023-09-19T16:48:24Z,45.77356932,4.85235498,168.0,3.3000000000000003,8912.736268861954
2023-09-19T16:48:27Z,45.77354307,4.8525088,168.0,3.35,8925.050803184577
2023-09-19T16:48:30Z,45.77348573,4.85264413,None,3.4000000000000004,8937.355664989977
2023-09-19T16:48:33Z,45.77344088,4.85279248,168.0,3.4000000000000004,8949.924925285417
2023-09-19T16:48:36Z,45.77338098,4.85292952,168.0,3.4400000000000004,8962.492159629594
2023-09-19T16:48:39Z,45.77332476,4.85305929,None,3.4800000000000004,8974.363226982183
2023-09-19T16:48:42Z,45.77327209,4.85319762,168.0,3.54,8986.611917664246
2023-09-19T16:48:45Z,45.7732186,4.853334,168.0,3.6000000000000005,8998.771908138899
2023-09-19T16:48:48Z,45.77318176,4.8534702,168.0,3.6100000000000003,9010.129237798026
2023-09-19T16:48:51Z,45.77312697,4.85359231,None,3.6171625330569874,9021.411514471869
2023-09-19T16:48:54Z,45.77309676,4.85373633,168.0,3.6800000000000006,9033.105711587468
2023-09-19T16:48:57Z,45.77304296,4.85386084,168.0,3.74,9044.487393168165
2023-09-19T16:49:00Z,45.77299155,4.85399524,None,3.7800000000000002,9056.400719260446
2023-09-19T16:49:03Z,45.77298732,4.85414339,168.0,3.8000000000000007,9067.933336030239
2023-09-19T16:49:06Z,45.77306822,4.85425812,173.0,3.86,9080.601539917667
2023-09-19T16:49:09Z,45.77314213,4.85434663,None,3.86,9091.319603555927
2023-09-19T16:49:12Z,45.77321447,4.85442546,173.0,3.854638844224834,9101.431020683245
2023-09-19T16:49:15Z,45.77328482,4.85451774,173.0,3.8200000000000003,9112.044951001972
2023-09-19T16:49:18Z,45.77335487,4.85460798,None,3.83,9122.527438793726
2023-09-19T16:49:21Z,45.77342455,4.85470346,173.0,3.83,9133.25735083568
2023-09-19T16:49:25Z,45.77349115,4.85483215,173.0,3.83,9145.706547701107
2023-09-19T16:49:29Z,45.77352509,4.85496661,173.0,3.8200000000000003,9156.824234222937
2023-09-19T16:49:34Z,45.77353628,4.85510424,None,3.74,9167.600929981514
2023-09-19T16:49:38Z,45.77356502,4.85527388,173.0,3.58,9181.176480015662
2023-09-19T16:49:41Z,45.77358276,4.85544832,173.0,3.6000000000000005,9194.88671489718
2023-09-19T16:49:44Z,45.77360482,4.85562392,None,3.6070112306071964,9208.762983416269
2023-09-19T16:49:47Z,45.77362095,4.85578043,173.0,3.66,9221.067422819871
2023-09-19T16:49:50Z,45.77363693,4.8559282,173.0,3.66,9232.697192199175
2023-09-19T16:49:53Z,45.77365058,4.85607414,173.0,3.67,9244.149137561451
2023-09-19T16:49:56Z,45.77367125,4.85621141,173.0,3.67,9255.070179520779
2023-09-19T16:49:59Z,45.77372623,4.85632175,None,3.6500000000000004,9265.605578879104
2023-09-19T16:50:03Z,45.773835,4.85633977,169.0,3.6000000000000005,9277.77599979144
2023-09-19T16:50:07Z,45.77387079,4.85647363,169.0,3.54,9288.921461540856
2023-09-19T16:50:11Z,45.77389388,4.85662256,None,3.4500000000000006,9300.785865432661
2023-09-19T16:50:15Z,45.77391781,4.85676675,169.0,3.4100000000000006,9312.311786637121
2023-09-19T16:50:19Z,45.77393573,4.85691438,169.0,3.38,9323.965644286536
2023-09-19T16:50:23Z,45.77396111,4.85707887,None,3.34,9337.066673614456
2023-09-19T16:50:26Z,45.77399222,4.85721842,169.0,3.35,9348.458079847633
2023-09-19T16:50:30Z,45.7740467,4.85736348,169.0,3.38,9361.262800921519
2023-09-19T16:50:34Z,45.77410288,4.85749837,169.0,3.4000000000000004,9373.471870947576
2023-09-19T16:50:38Z,45.77416832,4.85762597,None,3.46,9385.776260011653
2023-09-19T16:50:41Z,45.7742338,4.85771579,169.0,3.39,9395.864472668907
2023-09-19T16:50:45Z,45.77431994,4.85783046,169.0,3.3000000000000003,9408.949181866526
2023-09-19T16:50:49Z,45.77439541,4.85790144,None,3.2400000000000007,9418.991117013366
2023-09-19T16:50:51Z,45.77449194,4.85795954,169.0,3.2400000000000007,9430.632932697015
2023-09-19T16:50:54Z,45.774572,4.85802602,169.0,3.23,9440.924550615886
2023-09-19T16:50:57Z,45.7746582,4.85806576,None,3.2100000000000004,9450.991646155258
2023-09-19T16:51:00Z,45.77474461,4.85812028,169.0,3.2000000000000006,9461.490303646611
2023-09-19T16:51:04Z,45.77485328,4.85816904,169.0,3.2100000000000004,9474.150024206065
2023-09-19T16:51:07Z,45.7749471,4.85820018,None,3.2500000000000004,9484.855398444734
2023-09-19T16:51:10Z,45.77503903,4.85823744,168.0,3.3000000000000003,9495.476147476482
2023-09-19T16:51:14Z,45.77514545,4.85824957,168.0,3.3000000000000003,9507.341967796589
2023-09-19T16:51:18Z,45.77523599,4.85825791,168.0,3.2800000000000007,9517.426094301065
2023-09-19T16:51:22Z,45.77533564,4.85826024,None,3.2600000000000002,9528.503368107618
2023-09-19T16:51:26Z,45.77544318,4.85827604,168.0,3.22,9540.519112713982
2023-09-19T16:51:29Z,45.77553337,4.85828654,168.0,3.22,9550.576664230935
2023-09-19T16:51:33Z,45.77564864,4.85829976,None,3.22,9563.429763157166
2023-09-19T16:51:36Z,45.77574111,4.85830661,168.0,3.23,9573.721319391194
2023-09-19T16:51:40Z,45.77583921,4.85831859,168.0,3.23,9584.664572640886
2023-09-19T16:51:44Z,45.77594409,4.85830704,168.0,3.2000000000000006,9596.356224630235
2023-09-19T16:51:48Z,45.77606016,4.85831048,168.0,3.19,9609.25982419276
2023-09-19T16:51:52Z,45.77616866,4.85832208,None,3.18,9621.352967951208
2023-09-19T16:51:56Z,45.77628581,4.8583154,168.0,3.1744823588347986,9634.384193452457
2023-09-19T16:52:00Z,45.77639401,4.85828619,168.0,3.1200000000000006,9646.622990938125
2023-09-19T16:52:03Z,45.77649172,4.85826999,None,3.1200000000000006,9657.556002157346
2023-09-19T16:52:06Z,45.77658391,4.85825154,168.0,3.14,9667.902626482692
2023-09-19T16:52:10Z,45.77669407,4.85825792,168.0,3.1200000000000006,9680.156625431313
2023-09-19T16:52:14Z,45.77680679,4.85827169,None,3.0900000000000003,9692.730800245621
2023-09-19T16:52:17Z,45.77689642,4.85828418,168.0,3.11,9702.740150355185
2023-09-19T16:52:21Z,45.77699412,4.85830096,168.0,3.1300000000000003,9713.677347897383
2023-09-19T16:52:24Z,45.77708496,4.85833751,172.0,3.1700000000000004,9724.166470803746
2023-09-19T16:52:27Z,45.77717529,4.85835267,None,3.1700000000000004,9734.275370633044
2023-09-19T16:52:31Z,45.77728786,4.85836042,172.0,3.19,9746.8016945431
2023-09-19T16:52:35Z,45.77740329,4.85836281,172.0,3.18,9759.632735543464
2023-09-19T16:52:38Z,45.77750065,4.85836022,None,3.18,9770.455879207884
2023-09-19T16:52:41Z,45.77759128,4.85835852,172.0,3.2000000000000006,9780.529996939496
2023-09-19T16:52:45Z,45.77767587,4.85829465,174.0,3.23,9791.163474287563
2023-09-19T16:52:49Z,45.77778721,4.85827672,None,3.22,9803.616897380929
2023-09-19T16:52:51Z,45.77792869,4.85828902,174.0,3.2500031702177536,9819.371041586435
2023-09-19T16:52:54Z,45.77805672,4.85831924,174.0,3.46,9833.793973107991
2023-09-19T16:52:57Z,45.77816649,4.85833803,172.0,3.46,9846.081782869367
2023-09-19T16:53:00Z,45.77827394,4.85838613,None,3.5,9858.596695215836
2023-09-19T16:53:03Z,45.77838811,4.85842423,172.0,3.5700000000000007,9871.627708543489
2023-09-19T16:53:06Z,45.77850275,4.85846773,172.0,3.63,9884.811069116306
2023-09-19T16:53:09Z,45.77861261,4.85850445,172.0,3.67,9897.351181943355
2023-09-19T16:53:12Z,45.77872498,4.85852357,None,3.7300000000000004,9909.928977810216
2023-09-19T16:53:15Z,45.77884199,4.85853296,172.0,3.8000000000000007,9922.954774872247
2023-09-19T16:53:18Z,45.77894951,4.85854198,172.0,3.8000000000000007,9934.925871418181
2023-09-19T16:53:21Z,45.77903824,4.8585751,None,3.83,9945.118767595173
2023-09-19T16:53:24Z,45.7791359,4.85860507,172.0,3.8800000000000003,9956.220808306103
2023-09-19T16:53:27Z,45.77922917,4.85862256,171.0,3.8900000000000006,9966.676345337015
2023-09-19T16:53:30Z,45.77932727,4.85864308,None,3.9,9977.696033686545
2023-09-19T16:53:33Z,45.77944244,4.85865086,171.0,3.9700000000000006,9990.511126202879
2023-09-19T16:53:36Z,45.77949604,4.85867877,171.0,3.969884243263235,9996.851706239395
