Time,LatitudeDegrees,LongitudeDegrees,Elevation,Speed,Distance
2023-10-15 15:28:54,45.77915110601305,4.87139051160202,None,0.0,1.23
2023-10-15 15:28:55,45.77914859144216,4.871369640663628,None,0.0,1.65
2023-10-15 15:29:01,45.7791292292463,4.871232931826211,None,3.453,12.48
2023-10-15 15:29:05,45.77910936413627,4.871095217160438,None,3.463,24.02
2023-10-15 15:29:09,45.77909880293853,4.870953982095417,None,3.455,34.63
2023-10-15 15:29:14,45.77908195531356,4.870817859991208,None,3.46,45.16
2023-10-15 15:29:19,45.77905815070913,4.870642175304986,None,3.15,61.23
2023-10-15 15:29:25,45.77902428782114,4.870416702115131,None,3.19,76.96
2023-10-15 15:29:32,45.77899964502641,4.87017169909136,None,3.22,96.18
2023-10-15 15:29:39,45.77899134694247,4.869917308336263,None,3.1,117.98
2023-10-15 15:29:47,45.77898246212532,4.869615476010365,None,3.07,139.4
2023-10-15 15:29:51,45.77898866473352,4.869444820465925,None,3.08,153.82
2023-10-15 15:29:55,45.77899302332306,4.869266202113664,None,3.1,166.55
2023-10-15 15:29:59,45.77899411297045,4.869111556003895,None,3.09,179.01
2023-10-15 15:30:02,45.77898782654322,4.868959005369866,None,2.97,190.43
2023-10-15 15:30:07,45.77898933528576,4.868819530504469,None,2.97,201.25
2023-10-15 15:30:09,45.779000734673794,4.868652982092484,None,2.97,215.79
2023-10-15 15:30:14,45.779016911746524,4.8685126690367895,174.0,3.01,226.53
2023-10-15 15:30:19,45.77902319817375,4.868358274384108,None,2.97,237.29
2023-10-15 15:30:24,45.77902110269801,4.8681637304162075,None,2.88,252.85
2023-10-15 15:30:30,45.77903694449462,4.867983184226264,174.0,2.87,266.52
2023-10-15 15:30:35,45.77905110991064,4.86777891725092,None,2.82,284.95
2023-10-15 15:30:39,45.77906192256547,4.867614464314677,None,3.06,295.28
2023-10-15 15:30:44,45.77907156175388,4.867481778790684,174.0,3.06,307.19
2023-10-15 15:30:47,45.779061419651285,4.86734951236184,None,2.99,316.93
2023-10-15 15:30:51,45.77906695170725,4.867182963949855,None,3.06,328.91
2023-10-15 15:30:53,45.77907768054305,4.867031586782242,174.0,3.06,340.79
2023-10-15 15:30:59,45.77910852594597,4.866887082775063,None,3.06,357.48
2023-10-15 15:31:01,45.779138281701506,4.8667225460197905,None,3.18,365.65
2023-10-15 15:31:07,45.77917247986562,4.866459186628518,None,3.06,387.35
2023-10-15 15:31:14,45.77917004911376,4.866272186373289,None,3.09,400.98
2023-10-15 15:31:22,45.77918102940665,4.866011593009996,None,3.11,421.24
2023-10-15 15:31:27,45.779201229792804,4.865861305489769,None,3.15,438.71
2023-10-15 15:31:29,45.77923157228155,4.86566114564688,None,3.39,450.53
2023-10-15 15:31:35,45.7792511859345,4.865473893934562,None,3.34,463.73
2023-10-15 15:31:41,45.7792534490483,4.865323438776276,None,3.17,476.59
2023-10-15 15:31:43,45.77926367496992,4.865192010537728,None,3.14,485.68
2023-10-15 15:31:50,45.77926401024604,4.865032335286177,None,3.09,501.54
2023-10-15 15:31:53,45.77928211515645,4.864879281737971,None,3.17,512.65
2023-10-15 15:31:56,45.77929502328702,4.864747769680394,None,3.18,523.53
2023-10-15 15:31:58,45.77930784759857,4.864616173803787,None,3.18,530.76
2023-10-15 15:32:03,45.77932477904256,4.864462114427225,None,3.21,544.25
2023-10-15 15:32:06,45.77932905381307,4.864305121384623,None,3.05,555.06
2023-10-15 15:32:11,45.779344727971626,4.864167741994969,174.0,3.17,565.94
2023-10-15 15:32:15,45.77936802966188,4.864024495273235,174.0,3.12,579.55
2023-10-15 15:32:20,45.77936484453875,4.863846798930301,None,3.1,591.09
2023-10-15 15:32:25,45.77938923587639,4.863691649906353,174.0,3.1,604.55
2023-10-15 15:32:29,45.77939527084653,4.863550247203273,174.0,2.87,615.74
2023-10-15 15:32:31,45.779413878671114,4.863413789822945,None,2.87,625.23
2023-10-15 15:32:39,45.77941345957597,4.863225029368093,174.0,2.91,639.89
2023-10-15 15:32:43,45.77942167384088,4.863069964163174,174.0,2.91,653.89
2023-10-15 15:32:47,45.779435001066595,4.862912468206394,None,2.93,666.11
2023-10-15 15:32:51,45.7794426285983,4.862700657518379,None,3.08,680.75
2023-10-15 15:32:54,45.77945017231097,4.8625627752145455,174.0,3.08,691.87
2023-10-15 15:32:59,45.77946777430721,4.862405530714855,None,3.03,703.86
2023-10-15 15:33:02,45.77948453811314,4.862275946494961,None,2.99,717.32
2023-10-15 15:33:05,45.7794985358911,4.862142171323582,171.0,3.01,726.64
2023-10-15 15:33:10,45.779516473163454,4.861981993157853,None,2.96,741.28
2023-10-15 15:33:12,45.77952066411493,4.861821060620856,None,3.02,749.68
2023-10-15 15:33:16,45.779537260282815,4.861666498330115,171.0,3.13,763.1
2023-10-15 15:33:21,45.77955326971748,4.861455609651426,171.0,3.17,778.98
2023-10-15 15:33:25,45.77956684840029,4.861290402343915,None,3.13,791.21
2023-10-15 15:33:31,45.77958906044316,4.86109460109057,171.0,3.26,809.47
2023-10-15 15:33:35,45.77960926082931,4.8609397035237105,None,3.24,818.84
2023-10-15 15:33:39,45.7796210793125,4.86078505741394,None,3.28,833.23
2023-10-15 15:33:43,45.7796326463386,4.860613479860173,None,3.29,844.3
2023-10-15 15:33:48,45.779641112060595,4.860471574242915,171.0,3.28,856.47
2023-10-15 15:33:53,45.779646308840434,4.860317850142471,None,3.16,869.0
2023-10-15 15:33:58,45.77967623223403,4.859998248182279,None,3.09,894.65
2023-10-15 15:34:02,45.77974571820964,4.859893390576143,171.0,3.35,906.46
2023-10-15 15:34:05,45.77983775150424,4.859857516031437,None,3.35,914.19
2023-10-15 15:34:14,45.779745634390615,4.8597953223114105,None,3.35,927.3
2023-10-15 15:34:19,45.77974697549509,4.859658110559815,171.0,3.14,938.6
2023-10-15 15:34:23,45.7797275294802,4.859508325953766,171.0,3.03,949.34
2023-10-15 15:34:30,45.77966198299899,4.85939793629167,None,3.07,960.83
2023-10-15 15:34:36,45.779615379618484,4.859265502224766,171.0,2.87,975.94
2023-10-15 15:34:39,45.77957062025663,4.859036089540517,171.0,2.82,989.28
2023-10-15 15:34:42,45.77952644762799,4.858890663524011,None,3.07,1004.38
2023-10-15 15:34:45,45.77946366717475,4.858797205305912,None,3.06,1013.51
2023-10-15 15:34:50,45.77937322644172,4.858732999929173,171.0,3.02,1022.9
2023-10-15 15:34:55,45.77927482290087,4.858705339649377,None,3.07,1036.08
2023-10-15 15:35:00,45.77916703162869,4.858670973847206,None,2.69,1046.35
2023-10-15 15:35:04,45.77907382486768,4.858666363800573,172.0,2.68,1059.03
2023-10-15 15:35:08,45.77897458313653,4.858649767632695,None,2.63,1070.18
2023-10-15 15:35:12,45.77887668250986,4.858615485649554,None,2.65,1079.08
2023-10-15 15:35:16,45.778783811024965,4.858580281657085,172.0,2.78,1091.35
2023-10-15 15:35:22,45.778682641456136,4.8585532081104965,None,2.73,1101.23
2023-10-15 15:35:26,45.77859236836117,4.858518339394148,None,2.72,1113.48
2023-10-15 15:35:31,45.778493378087106,4.858491768761738,None,2.78,1124.78
2023-10-15 15:35:36,45.778390532137685,4.858458324968892,None,2.75,1136.86
2023-10-15 15:35:40,45.77829305060616,4.85841381706413,None,2.79,1147.79
2023-10-15 15:35:45,45.77819741309329,4.858375763224652,None,2.46,1157.02
2023-10-15 15:35:49,45.77809272312521,4.858342235612778,172.0,2.5,1171.7
2023-10-15 15:35:53,45.77797763959745,4.858298062984134,None,2.57,1185.51
2023-10-15 15:35:56,45.77787211143907,4.858266630848001,None,2.7,1194.22
2023-10-15 15:35:59,45.77776624800458,4.858254141812578,174.0,2.78,1208.99
2023-10-15 15:36:02,45.77766960466336,4.8582361207211955,None,2.78,1219.69
2023-10-15 15:36:05,45.777579750663534,4.858220781838763,None,2.86,1229.92
2023-10-15 15:36:08,45.777486124807375,4.858200665271639,None,2.91,1237.51
2023-10-15 15:36:11,45.77739367241763,4.858183650008613,None,2.95,1250.39
2023-10-15 15:36:15,45.77728512677419,4.85815758229038,None,2.98,1262.66
2023-10-15 15:36:19,45.777174234197915,4.85814961948256,174.0,3.01,1272.5
2023-10-15 15:36:23,45.77706392835485,4.858133274771771,None,3.01,1287.24
2023-10-15 15:36:27,45.77695940602483,4.858122043021793,168.0,3.07,1299.25
2023-10-15 15:36:31,45.77684147265006,4.858119612269933,168.0,3.11,1312.03
2023-10-15 15:36:35,45.77673317846371,4.8581238032214165,None,3.17,1324.06
2023-10-15 15:36:39,45.77663033251428,4.8581294190964055,None,3.2,1333.16
2023-10-15 15:36:43,45.77652178687084,4.858143919788541,None,3.21,1347.75
2023-10-15 15:36:47,45.77641474996993,4.858152050234421,168.0,3.26,1359.8
2023-10-15 15:36:51,45.77630360593657,4.858163281984399,168.0,3.26,1369.63
2023-10-15 15:36:55,45.776186091656946,4.858186751312711,None,3.26,1385.14
2023-10-15 15:36:59,45.77608969977281,4.858217931991754,None,3.19,1396.05
2023-10-15 15:37:03,45.77599314025061,4.858223547866743,None,3.11,1404.6
2023-10-15 15:37:08,45.77589272505305,4.858219105458169,None,2.99,1418.15
2023-10-15 15:37:12,45.77578853799915,4.858217764353695,None,2.97,1427.38
2023-10-15 15:37:17,45.775672700100124,4.858220195105555,None,2.93,1442.83
2023-10-15 15:37:21,45.77556172370482,4.8582186863630215,168.0,2.92,1455.09
2023-10-15 15:37:25,45.77545359715652,4.858211897021617,None,2.92,1464.67
2023-10-15 15:37:30,45.77535376869217,4.858174597553407,None,2.91,1478.5
2023-10-15 15:37:34,45.775254024046845,4.85816571273626,None,2.86,1487.29
2023-10-15 15:37:38,45.775154111763456,4.858124138497535,168.0,2.82,1501.27
2023-10-15 15:37:42,45.77505168490918,4.85809086234275,168.0,2.82,1513.01
2023-10-15 15:37:46,45.77494808458849,4.85805096448462,169.0,2.82,1522.5
2023-10-15 15:37:49,45.77486007460732,4.858019951443636,None,2.84,1535.22
2023-10-15 15:37:53,45.774746918917245,4.857988854583622,None,2.86,1548.03
2023-10-15 15:37:57,45.77463535578873,4.857953315315036,169.0,2.84,1558.13
2023-10-15 15:38:01,45.774520356080004,4.857900844602453,None,2.87,1574.35
2023-10-15 15:38:04,45.774437039964496,4.857851894289116,None,2.91,1584.31
2023-10-15 15:38:08,45.774331763263206,4.857766734154955,169.0,2.94,1595.05
2023-10-15 15:38:12,45.77422707329513,4.857676209602895,None,3.02,1611.2
2023-10-15 15:38:16,45.774176195144115,4.85753598036623,None,3.05,1623.2
2023-10-15 15:38:20,45.77412397588862,4.857414778049304,None,3.08,1631.99
2023-10-15 15:38:24,45.77408332365922,4.8572788235831545,None,3.07,1645.64
2023-10-15 15:38:28,45.774035043898124,4.857163069503159,None,3.05,1657.19
2023-10-15 15:38:31,45.77401392150264,4.85701336871614,None,3.07,1665.8
2023-10-15 15:38:34,45.774006377789966,4.856883449220127,None,3.15,1678.53
2023-10-15 15:38:38,45.7739680724934,4.856730060395802,None,3.19,1691.16
2023-10-15 15:38:42,45.77395524818186,4.856568876401716,None,3.2,1701.17
2023-10-15 15:38:46,45.773937813823686,4.856418756519549,None,3.21,1715.41
2023-10-15 15:38:50,45.77391660760917,4.856266960256788,None,3.18,1727.31
2023-10-15 15:38:54,45.77390168782189,4.856124384087292,None,3.16,1738.56
2023-10-15 15:38:58,45.773919625094244,4.855967893958869,None,3.16,1751.01
2023-10-15 15:39:02,45.77391191374351,4.855813499306188,None,3.13,1760.54
2023-10-15 15:39:06,45.773892216271534,4.855645106875549,None,3.12,1776.24
2023-10-15 15:39:10,45.77389841887973,4.855491298956076,173.0,3.11,1788.15
2023-10-15 15:39:14,45.77389665868011,4.8553419334451755,None,3.09,1797.36
2023-10-15 15:39:18,45.77388886351035,4.8552091641021535,None,3.04,1810.05
2023-10-15 15:39:22,45.773887270948784,4.855062313162144,173.0,3.02,1821.5
2023-10-15 15:39:26,45.77387201588538,4.85491403729863,None,3.03,1830.75
2023-10-15 15:39:30,45.77387520100851,4.85476475560676,None,3.03,1845.06
2023-10-15 15:39:34,45.77392448659796,4.854611618239524,173.0,3.04,1857.49
2023-10-15 15:39:38,45.77394032839457,4.854484045676342,None,3.0,1867.1
2023-10-15 15:39:43,45.77396471973221,4.854351863066528,None,2.92,1878.21
2023-10-15 15:39:47,45.773980645347855,4.854222027389544,None,2.87,1886.35
2023-10-15 15:39:50,45.774011993664956,4.8540790321249006,None,2.91,1901.24
2023-10-15 15:39:53,45.77404837112384,4.853934444298693,None,2.97,1912.2
2023-10-15 15:39:57,45.77408332365922,4.8537997471179875,None,2.95,1924.15
2023-10-15 15:40:00,45.774122383327054,4.853668067422351,None,2.95,1934.9
2023-10-15 15:40:03,45.774161610632945,4.853542757972971,None,3.0,1945.48
2023-10-15 15:40:07,45.774202933414585,4.8533904587960315,None,3.02,1958.3
2023-10-15 15:40:10,45.7742461840339,4.853276800191778,None,3.02,1965.6
2023-10-15 15:40:14,45.77430510881177,4.853121232072681,None,3.04,1981.9
2023-10-15 15:40:18,45.77435900444786,4.852979829369601,None,3.09,1994.53
2023-10-15 15:40:22,45.77441574993095,4.852832810791533,None,3.09,2007.27
2023-10-15 15:40:26,45.77446788536742,4.8526868818608495,None,3.14,2020.16
2023-10-15 15:40:30,45.77452144572739,4.852547826090601,None,3.16,2029.96
2023-10-15 15:40:34,45.774577772115336,4.852413464186014,None,3.15,2044.88
2023-10-15 15:40:37,45.774623621124576,4.852302320152651,None,3.16,2054.78
2023-10-15 15:40:41,45.77468707213005,4.852164605486878,None,3.17,2064.98
2023-10-15 15:40:45,45.77473962666166,4.852031836143855,172.0,3.22,2079.24
2023-10-15 15:40:49,45.774796707420876,4.85190518559,None,3.26,2091.02
2023-10-15 15:40:53,45.774856051293895,4.851774260265631,None,3.23,2100.66
2023-10-15 15:40:57,45.77490759999715,4.8516548181483286,172.0,3.16,2114.0
2023-10-15 15:41:01,45.77497524195411,4.851536046583264,None,3.17,2125.99
2023-10-15 15:41:05,45.775039698787936,4.851407468191726,None,3.13,2135.77
2023-10-15 15:41:09,45.77510599964042,4.8512686638785665,None,3.12,2151.39
2023-10-15 15:41:13,45.77516308039963,4.851131116850852,None,3.1,2163.78
2023-10-15 15:41:17,45.7752287945189,4.851003879563789,None,3.1,2175.59
2023-10-15 15:41:21,45.77529107205796,4.850889969502446,169.0,3.06,2187.24
2023-10-15 15:41:25,45.77535536125373,4.850767677538134,169.0,3.05,2196.67
2023-10-15 15:41:29,45.77541495658384,4.850647061954417,169.0,3.04,2210.36
2023-10-15 15:41:33,45.77546952277216,4.850535247368816,169.0,3.0,2221.05
2023-10-15 15:41:37,45.77551243811536,4.85040633370116,None,2.98,2229.84
2023-10-15 15:41:41,45.77556859686525,4.850284628470056,None,2.96,2243.59
2023-10-15 15:41:45,45.77563137731849,4.850165018714693,169.0,2.94,2255.4
2023-10-15 15:41:49,45.77567806451802,4.8500174134034175,169.0,2.94,2265.37
2023-10-15 15:41:53,45.77571829765227,4.8498793634615245,None,2.94,2279.6
2023-10-15 15:41:57,45.775740258238045,4.8497205264002705,173.0,2.95,2289.56
2023-10-15 15:42:02,45.77575869842458,4.849561856977075,None,2.93,2304.59
2023-10-15 15:42:06,45.77577747388723,4.849407713781483,None,2.94,2316.4
2023-10-15 15:42:10,45.775795411159585,4.849274357705253,173.0,2.9,2324.75
2023-10-15 15:42:15,45.775796668445025,4.84912054978578,173.0,2.85,2339.05
2023-10-15 15:42:19,45.77580907366142,4.848974788493156,None,2.83,2350.91
2023-10-15 15:42:22,45.77583111806623,4.848847886482211,None,2.83,2358.24
2023-10-15 15:42:26,45.77584788187217,4.8486944976578865,None,2.85,2372.1
2023-10-15 15:42:31,45.77587042919115,4.848558459372707,173.0,2.85,2381.16
2023-10-15 15:42:35,45.77588417551202,4.848382104134248,None,2.88,2397.69
2023-10-15 15:42:38,45.7759075610213,4.848256878503897,173.0,2.88,2407.6
2023-10-15 15:42:42,45.77593756823393,4.848102064756068,None,2.93,2421.08
2023-10-15 15:42:45,45.77596757544656,4.847940461666834,None,2.95,2433.05
2023-10-15 15:42:48,45.77599347552673,4.8478064350383665,None,3.03,2444.09
2023-10-15 15:42:52,45.776040078907236,4.847644412853984,None,3.05,2457.88
2023-10-15 15:42:55,45.776077294556416,4.847514996272149,178.0,3.1,2465.73
2023-10-15 15:42:59,45.77612146718506,4.84737342593101,None,3.09,2480.04
2023-10-15 15:43:03,45.77617603337338,4.847256666022657,None,3.11,2491.2
2023-10-15 15:43:07,45.77622976137141,4.847122220299041,178.0,3.1,2503.09
2023-10-15 15:43:11,45.77628918906346,4.846971597502696,178.0,3.14,2517.1
2023-10-15 15:43:14,45.77634274942343,4.846857352165234,None,3.17,2527.52
2023-10-15 15:43:18,45.77640293148674,4.846713434891264,178.0,3.22,2540.0
2023-10-15 15:43:22,45.776471579272055,4.8465929869456055,None,3.23,2552.71
2023-10-15 15:43:26,45.77655615267301,4.846473377190244,None,3.24,2563.17
2023-10-15 15:43:30,45.77662899140981,4.846348570655041,None,3.26,2578.34
2023-10-15 15:43:34,45.77670694310741,4.846239186821301,None,3.31,2590.64
2023-10-15 15:43:38,45.776782212596075,4.846112284810357,178.0,3.27,2600.88
2023-10-15 15:43:42,45.77684918400079,4.84598077275278,None,3.26,2616.09
2023-10-15 15:43:46,45.776915401034245,4.84585278109445,None,3.25,2628.13
2023-10-15 15:43:50,45.776981366610606,4.8457511924304715,182.0,3.16,2636.67
2023-10-15 15:43:54,45.77706250343134,4.8456333428747325,None,3.16,2652.08
2023-10-15 15:43:58,45.77716702576136,4.845582632361773,None,3.12,2661.81
2023-10-15 15:44:03,45.777192339108325,4.84571129457234,174.0,3.08,2674.26
2023-10-15 15:44:07,45.77719510513631,4.8458406273351455,173.0,3.05,2684.29
2023-10-15 15:44:12,45.77720398995345,4.846000889319905,None,2.99,2694.72
2023-10-15 15:44:15,45.77721580843664,4.846141453832688,None,3.0,2708.74
2023-10-15 15:44:18,45.777219664112,4.846283527088006,173.0,3.0,2719.27
2023-10-15 15:44:22,45.777227291643705,4.8464403524925475,173.0,3.01,2728.96
2023-10-15 15:44:26,45.77723734992727,4.846594663326199,None,3.02,2743.58
2023-10-15 15:44:30,45.77724757584889,4.846756182596404,None,3.0,2756.12
2023-10-15 15:44:34,45.777266183673476,4.846914097648331,173.0,3.0,2768.04
2023-10-15 15:44:38,45.77729401159134,4.847062541149905,173.0,3.0,2780.34
2023-10-15 15:44:42,45.77729971128535,4.847211739022746,None,2.99,2789.55
2023-10-15 15:44:46,45.77731069157824,4.847340233595254,173.0,2.96,2801.82
2023-10-15 15:44:50,45.77732996995507,4.847477193889761,173.0,2.92,2812.53
2023-10-15 15:44:55,45.77734488974235,4.847638713159965,173.0,2.88,2823.1
2023-10-15 15:44:59,45.77736659887104,4.847798304592486,None,2.88,2837.78
2023-10-15 15:45:03,45.77738478760048,4.847924452232164,None,2.91,2847.93
2023-10-15 15:45:07,45.77739694135979,4.848062502174056,170.0,2.92,2858.16
2023-10-15 15:45:12,45.777415213908256,4.848216645369648,170.0,2.89,2870.81
2023-10-15 15:45:16,45.77742795440077,4.848347403055958,170.0,2.85,2878.92
2023-10-15 15:45:20,45.77745075317684,4.848487548473592,None,2.8,2893.68
2023-10-15 15:45:23,45.777472546124564,4.848652671962074,170.0,2.9,2906.32
2023-10-15 15:45:26,45.7774969374622,4.848797511245371,170.0,2.9,2917.97
2023-10-15 15:45:29,45.777525352113265,4.848943607814113,None,2.94,2928.36
2023-10-15 15:45:33,45.77756566906655,4.849075622785868,None,2.98,2940.03
2023-10-15 15:45:37,45.777571117303474,4.849223311916174,170.0,2.96,2949.15
2023-10-15 15:45:41,45.77759332934634,4.849382065158399,None,2.95,2963.98
2023-10-15 15:45:45,45.77761294299929,4.84952045037641,170.0,2.95,2975.34
2023-10-15 15:45:49,45.77762467766345,4.849686328236158,None,2.96,2985.64
2023-10-15 15:45:53,45.7776395136317,4.849860252722756,None,3.05,3001.69
2023-10-15 15:45:57,45.77764580005893,4.850013390089992,None,3.07,3013.56
2023-10-15 15:46:01,45.77766817973985,4.850160911582239,None,3.06,3022.87
2023-10-15 15:46:05,45.777688547764065,4.850324945423334,None,3.11,3038.25
2023-10-15 15:46:09,45.777697181124125,4.850478501885719,171.0,3.12,3050.03
2023-10-15 15:46:13,45.77770430574164,4.850621580969392,171.0,3.15,3060.67
2023-10-15 15:46:17,45.777714531663264,4.8507585412638985,None,3.15,3071.83
2023-10-15 15:46:21,45.777723165023325,4.850898602862504,None,3.15,3080.52
2023-10-15 15:46:25,45.777733726221065,4.851027265073071,None,3.03,3092.32
2023-10-15 15:46:30,45.777750573846035,4.851161291701539,171.0,2.89,3101.15
2023-10-15 15:46:36,45.777760799767655,4.851306801537073,None,2.82,3114.27
2023-10-15 15:46:41,45.777779239954185,4.851442504546134,None,2.77,3125.34
2023-10-15 15:46:45,45.77777915613515,4.85157443569886,171.0,2.74,3133.48
2023-10-15 15:46:48,45.77778334708664,4.851730339094075,None,2.74,3148.35
2023-10-15 15:46:52,45.777795333207884,4.851901916647842,None,2.82,3161.26
2023-10-15 15:46:56,45.77780874425263,4.852042732617714,None,2.77,3170.01
2023-10-15 15:47:00,45.77781201319479,4.852172400656638,None,2.74,3182.11
2023-10-15 15:47:05,45.777811594099646,4.852333584650724,183.0,2.67,3192.6
2023-10-15 15:47:10,45.77780304455862,4.852480770866852,None,2.62,3206.19
2023-10-15 15:47:14,45.77780882807166,4.852613707847934,183.0,2.61,3216.67
2023-10-15 15:47:18,45.777808157519424,4.852755529646162,None,2.61,3225.42
2023-10-15 15:47:23,45.77782156856418,4.852922832429415,None,2.6,3242.32
2023-10-15 15:47:26,45.7778354825231,4.8531019536958535,183.0,2.76,3255.66
2023-10-15 15:47:29,45.77785199487195,4.853250481016457,None,2.76,3264.16
2023-10-15 15:47:32,45.777877392037944,4.853415436866878,None,2.84,3280.58
2023-10-15 15:47:35,45.77789574840545,4.853567400767698,183.0,2.98,3292.35
2023-10-15 15:47:38,45.77791972064794,4.853707797642422,183.0,3.11,3300.47
2023-10-15 15:47:42,45.77793665209193,4.8538689816365075,None,3.17,3315.51
2023-10-15 15:47:46,45.77795609810682,4.8540157487574875,None,3.2,3326.46
2023-10-15 15:47:51,45.7779633903624,4.854152457594905,None,3.08,3335.37
2023-10-15 15:47:56,45.77798149527282,4.854298805620736,None,3.01,3349.22
2023-10-15 15:48:00,45.77799566068883,4.8544425552566475,None,3.02,3361.39
2023-10-15 15:48:03,45.77802726046303,4.854585634340321,175.0,3.02,3372.16
2023-10-15 15:48:06,45.77805860878013,4.854715470017305,None,3.11,3383.28
2023-10-15 15:48:10,45.778101272666234,4.854875145268855,None,3.18,3396.62
2023-10-15 15:48:13,45.77812029958598,4.855005819136136,None,3.25,3405.93
2023-10-15 15:48:17,45.77814276308593,4.855147473296305,175.0,3.28,3417.48
2023-10-15 15:48:21,45.77816246055791,4.855273453297922,None,3.28,3425.44
2023-10-15 15:48:28,45.778197580731344,4.85541820876219,175.0,3.23,3440.86
2023-10-15 15:48:31,45.77823672421821,4.8555752018047915,None,3.09,3454.18
2023-10-15 15:48:34,45.778268826906576,4.855753736338022,None,3.1,3464.6
2023-10-15 15:48:37,45.77829699010055,4.855884661662391,None,3.11,3478.17
2023-10-15 15:48:41,45.7783335351975,4.8560624418243545,175.0,3.06,3492.59
2023-10-15 15:48:44,45.77837083466571,4.856213232258759,None,3.11,3502.05
2023-10-15 15:48:47,45.778394723089164,4.856347510344316,None,3.14,3512.81
2023-10-15 15:48:48,45.778394723089164,4.856347510344316,174.0,3.14,3513.09
2023-10-15 15:48:51,45.778418527693596,4.856471981603399,None,3.14,3522.83
2023-10-15 15:48:53,45.778430765271935,4.856512466194737,None,3.14,3526.26
