Time,LatitudeDegrees,LongitudeDegrees,Elevation,Speed,Distance
2023-10-29 08:18:50,45.29586692555571,4.822231321243556,152.0,0.0,0.0
2023-10-29 08:18:54,45.29586692555571,4.822231321243556,152.0,0.0,14.26
2023-10-29 08:18:55,45.29581722087111,4.822031412857755,None,1.827,16.79
2023-10-29 08:18:59,45.2957929133525,4.821898643514733,158.0,1.685,27.36
2023-10-29 08:19:04,45.29576265468278,4.821744919414289,158.0,1.581,39.99
2023-10-29 08:19:09,45.29573491058395,4.821593961341826,None,1.543,52.08
2023-10-29 08:19:14,45.295702053524316,4.821445434021222,None,1.87,64.43
2023-10-29 08:19:19,45.29567028611207,4.8212978287099455,None,1.92,76.36
2023-10-29 08:19:23,45.29564304492742,4.821169585594526,None,1.98,87.0
2023-10-29 08:19:27,45.29561840213269,4.8210441923261165,None,2.02,97.24
2023-10-29 08:19:31,45.29558663472044,4.820920726895389,None,2.06,107.34
2023-10-29 08:19:32,45.29558663472044,4.820920726895389,158.0,2.06,107.56
2023-10-29 08:19:35,45.29555713042199,4.820796004179217,None,2.1,117.82
2023-10-29 08:19:39,45.29553072742764,4.820668766892154,159.0,2.13,128.03
2023-10-29 08:19:43,45.295505162623584,4.820542870709565,None,2.13,138.43
2023-10-29 08:19:47,45.29547465249678,4.820420746383314,None,2.18,148.56
2023-10-29 08:19:51,45.29544011905655,4.820299544066388,None,2.2,158.68
2023-10-29 08:19:55,45.295404663606995,4.820177755016255,159.0,2.21,169.13
2023-10-29 08:19:59,45.295376584232045,4.820047081148974,None,2.55,179.83
2023-10-29 08:20:03,45.29535168998023,4.819917832205199,None,2.55,190.19
2023-10-29 08:20:07,45.295324532614615,4.81978699069986,159.0,2.56,201.0
2023-10-29 08:20:11,45.29529921926765,4.819655059547134,159.0,2.58,211.72
2023-10-29 08:20:15,45.29526921205502,4.819526229698507,None,2.59,222.21
2023-10-29 08:20:19,45.29523409188158,4.819401758439424,159.0,2.59,232.85
2023-10-29 08:20:23,45.29519478075666,4.819272425676619,159.0,2.61,243.75
2023-10-29 08:20:27,45.29515756510748,4.819137309400765,None,2.63,255.25
2023-10-29 08:20:31,45.295119092172854,4.819008479552138,None,2.65,266.21
2023-10-29 08:20:35,45.29515161395637,4.818873782371433,None,2.66,277.22
2023-10-29 08:20:39,45.29524850875469,4.818802368558141,None,2.68,295.33
2023-10-29 08:20:43,45.295345319733975,4.818741767399678,None,2.71,307.12
2023-10-29 08:20:47,45.29544338799871,4.818687117392323,None,2.73,318.68
2023-10-29 08:20:51,45.29554112098732,4.81862131945402,None,2.77,330.85
2023-10-29 08:20:55,45.295635752671835,4.8185592095530225,None,2.78,342.33
2023-10-29 08:20:59,45.295730049080234,4.818475474342367,None,2.78,354.85
2023-10-29 08:21:03,45.29582216619386,4.818396516816402,None,2.83,366.84
2023-10-29 08:21:07,45.29591663024031,4.818309764120678,149.0,2.86,379.19
2023-10-29 08:21:11,45.296010675191624,4.818233404984634,149.0,2.9,391.41
2023-10-29 08:21:15,45.296098349896674,4.818152184344869,None,2.91,403.06
2023-10-29 08:21:19,45.296187700982316,4.818072556266667,None,2.92,414.64
2023-10-29 08:21:23,45.29627721970602,4.817992425274287,None,2.94,426.57
2023-10-29 08:21:27,45.29636548114428,4.817920257089728,149.0,2.94,437.75
2023-10-29 08:21:31,45.29645801735305,4.817854710608514,None,2.94,449.38
2023-10-29 08:21:35,45.296545105324896,4.817798887134743,149.0,2.95,460.02
2023-10-29 08:21:39,45.296633450582185,4.817734178843826,149.0,2.93,470.96
2023-10-29 08:21:43,45.29672724407641,4.817673326228274,None,2.92,482.58
2023-10-29 08:21:47,45.29682430651278,4.817619765868304,149.0,2.92,494.16
2023-10-29 08:21:51,45.2969172618167,4.817571737564294,149.0,2.91,505.04
2023-10-29 08:21:55,45.29701306696763,4.817533599905787,None,2.9,516.25
2023-10-29 08:21:59,45.29710945885177,4.817489930191321,149.0,2.89,527.52
2023-10-29 08:22:03,45.297209790230305,4.81745019997125,149.0,2.87,538.96
2023-10-29 08:22:07,45.297310708342046,4.8174180134638505,None,2.85,550.62
2023-10-29 08:22:11,45.29741464393886,4.817390856098233,None,2.85,562.24
2023-10-29 08:22:15,45.297517406069254,4.817366464760594,149.0,2.85,573.99
2023-10-29 08:22:19,45.2976197491045,4.817354981553527,149.0,2.85,585.42
2023-10-29 08:22:23,45.2977230979681,4.817356574115091,None,2.84,596.77
2023-10-29 08:22:27,45.297827033564914,4.817366716217683,None,2.84,608.54
2023-10-29 08:22:31,45.29793725558895,4.817371158626257,None,2.86,620.79
2023-10-29 08:22:35,45.29804404103277,4.817366800036713,None,2.86,632.54
2023-10-29 08:22:39,45.2981466355251,4.817366716217683,None,2.88,644.18
2023-10-29 08:22:43,45.29825484589243,4.817366380941564,145.0,2.89,656.0
2023-10-29 08:22:47,45.29832936100982,4.81747962045067,None,2.89,668.33
2023-10-29 08:22:50,45.298362469526545,4.817599984577298,145.0,2.93,679.58
2023-10-29 08:22:54,45.29840395994624,4.817750020640436,145.0,2.96,692.06
2023-10-29 08:22:58,45.298445869461084,4.817891339524486,None,2.96,704.21
2023-10-29 08:23:02,45.29848803043301,4.81802905419026,None,2.98,715.97
2023-10-29 08:23:06,45.29853144869039,4.81816241026649,None,2.98,727.33
2023-10-29 08:23:10,45.2985741125765,4.818295347247572,None,2.98,738.93
2023-10-29 08:23:14,45.29861359133948,4.818434989751029,None,2.98,750.71
2023-10-29 08:23:18,45.298655919949475,4.818573458788069,None,2.98,762.39
2023-10-29 08:23:22,45.298692884141566,4.81871989063293,None,2.99,774.7
2023-10-29 08:23:26,45.298724819191875,4.8188648137352565,None,3.0,786.63
2023-10-29 08:23:30,45.29876019082241,4.819010910303999,None,3.01,798.56
2023-10-29 08:23:34,45.29879262878689,4.81914929552201,None,2.99,810.09
2023-10-29 08:23:38,45.298827078408095,4.8192830706933885,None,2.98,821.14
2023-10-29 08:23:42,45.2988621147625,4.819420366264014,None,2.98,832.74
2023-10-29 08:23:46,45.29890905341912,4.8195596734913515,None,2.98,844.81
2023-10-29 08:23:50,45.29894459268771,4.819702920213085,None,2.98,856.56
2023-10-29 08:23:54,45.29897954522309,4.819845161106461,None,2.95,868.51
2023-10-29 08:23:59,45.29902740588904,4.8199718954793465,146.0,2.92,882.47
2023-10-29 08:24:02,45.29908079861095,4.820092511063065,146.0,2.92,890.78
2023-10-29 08:24:04,45.29908079861095,4.820092511063065,None,2.92,892.06
2023-10-29 08:24:06,45.29913352078062,4.820204493286725,146.0,2.9,901.51
2023-10-29 08:24:10,45.29918389601747,4.820327623441333,None,2.89,912.48
2023-10-29 08:24:14,45.29918389601747,4.820327623441333,146.0,2.89,923.58
2023-10-29 08:24:18,45.299252292345685,4.820586708062091,None,2.88,934.76
2023-10-29 08:24:22,45.299280036444515,4.8207183877577275,None,2.86,945.36
2023-10-29 08:24:27,45.29935136643878,4.820851911472017,151.0,2.82,958.64
2023-10-29 08:24:31,45.299403082780096,4.820981495691911,None,2.82,970.38
2023-10-29 08:24:35,45.2994581518826,4.821105212579727,None,2.82,981.63
2023-10-29 08:24:39,45.29953308609514,4.821218955003011,151.0,2.83,994.04
2023-10-29 08:24:43,45.29960726593641,4.821339570586729,None,2.85,1006.37
2023-10-29 08:24:47,45.299636434958735,4.821494300515529,None,2.85,1019.06
2023-10-29 08:24:51,45.299604164632306,4.821641738188746,151.0,2.86,1031.14
2023-10-29 08:24:55,45.29951338862316,4.821747685442269,None,2.88,1044.69
2023-10-29 08:24:59,45.29941649382484,4.821822787292867,151.0,2.9,1057.12
2023-10-29 08:25:03,45.29932923821494,4.821890177792735,151.0,2.9,1068.15
2023-10-29 08:25:07,45.2992466764707,4.821958574120958,None,2.9,1078.66
2023-10-29 08:25:11,45.29916210306975,4.822034597980883,None,2.9,1089.98
2023-10-29 08:25:15,45.299081552982216,4.8221252063519735,151.0,2.91,1101.4
2023-10-29 08:25:19,45.29901441393944,4.82223299762415,151.0,2.91,1112.51
2023-10-29 08:25:23,45.298944089773535,4.822348751704146,None,2.93,1124.62
2023-10-29 08:25:27,45.29890293462996,4.8224678585453296,151.0,2.91,1134.88
2023-10-29 08:25:31,45.29885557687818,4.8225863786533045,151.0,2.91,1145.7
2023-10-29 08:25:35,45.298789108387645,4.8226872129460165,None,2.9,1156.54
2023-10-29 08:25:39,45.29871802985047,4.8227941660278955,151.0,2.89,1167.89
2023-10-29 08:25:43,45.29865466266403,4.822912518497812,151.0,2.88,1179.69
2023-10-29 08:25:47,45.29859607316228,4.823032966443471,None,2.87,1191.15
2023-10-29 08:25:51,45.29854444063999,4.823151067456298,150.0,2.85,1201.9
2023-10-29 08:25:55,45.29848618641436,4.823279562028806,150.0,2.85,1214.02
2023-10-29 08:25:59,45.29843782283423,4.8234079727822845,150.0,2.8,1225.27
2023-10-29 08:26:03,45.29838451393135,4.823541328858515,150.0,2.8,1237.41
2023-10-29 08:26:07,45.298330534476236,4.8236645428321525,None,2.83,1248.78
2023-10-29 08:26:11,45.29828258999125,4.823794378509136,None,2.84,1260.13
2023-10-29 08:26:15,45.298238836457756,4.8239237112719415,150.0,2.84,1271.51
2023-10-29 08:26:19,45.29819877096157,4.824048014892965,150.0,2.83,1282.22
2023-10-29 08:26:23,45.29816289641686,4.824183131168819,None,2.83,1293.38
2023-10-29 08:26:27,45.29812786006245,4.824324030957721,None,2.82,1305.28
2023-10-29 08:26:31,45.29809056059425,4.824464176375355,None,2.85,1316.82
2023-10-29 08:26:35,45.29804940545067,4.824599460289268,None,2.85,1328.51
2023-10-29 08:26:39,45.298009591411564,4.824734325108032,150.0,2.87,1339.93
2023-10-29 08:26:43,45.29798209876983,4.824867681184262,None,2.85,1350.69
2023-10-29 08:26:47,45.297948319700865,4.825000618165344,152.0,2.85,1361.87
2023-10-29 08:26:51,45.297914037717725,4.82512969947106,None,2.84,1372.71
2023-10-29 08:26:55,45.297882018848384,4.825269341974517,None,2.85,1384.07
2023-10-29 08:26:59,45.29784639576077,4.825406469907082,154.0,2.84,1395.65
2023-10-29 08:27:03,45.29780817428323,4.825542172916144,None,2.84,1407.08
2023-10-29 08:27:07,45.29778227420306,4.825678630296472,None,2.82,1418.03
2023-10-29 08:27:11,45.29774572910612,4.825810309992108,None,2.82,1429.28
2023-10-29 08:27:15,45.29770516069575,4.825936960545963,154.0,2.81,1440.01
2023-10-29 08:27:19,45.29766517901859,4.826075010487856,None,2.81,1451.84
2023-10-29 08:27:23,45.2976236885989,4.826213228067808,None,2.83,1463.61
2023-10-29 08:27:27,45.297581443807935,4.82634582977277,154.0,2.83,1474.87
2023-10-29 08:27:31,45.29754179740689,4.826482622429218,None,2.83,1486.59
2023-10-29 08:27:35,45.297505168490915,4.82661564322933,154.0,2.82,1497.77
2023-10-29 08:27:39,45.29747558037344,4.826747490563025,154.0,2.81,1508.47
2023-10-29 08:27:43,45.29744331004701,4.826878918801572,154.0,2.81,1519.52
2023-10-29 08:27:47,45.297396119933296,4.827011688144594,None,2.82,1531.02
2023-10-29 08:27:51,45.29735328840913,4.827146804420448,156.0,2.82,1542.75
2023-10-29 08:27:55,45.29730785849504,4.8272763886403425,156.0,2.83,1554.09
2023-10-29 08:27:59,45.297265446066014,4.827412259287462,None,2.84,1565.6
2023-10-29 08:28:03,45.29722085434222,4.827552404705098,None,2.85,1577.8
2023-10-29 08:28:07,45.297192942605335,4.827690957561168,None,2.84,1589.08
2023-10-29 08:28:11,45.297193948433694,4.827833366092604,None,2.85,1600.09
2023-10-29 08:28:15,45.297231247901905,4.827974852614713,None,2.86,1612.06
2023-10-29 08:28:19,45.297280365853304,4.828098820959619,156.0,2.86,1623.23
2023-10-29 08:28:23,45.297339709726316,4.828218179257892,None,2.85,1634.5
2023-10-29 08:28:27,45.29738530727847,4.828345248906895,156.0,2.85,1645.82
2023-10-29 08:28:31,45.297427719707485,4.828478018249918,None,2.84,1657.1
2023-10-29 08:28:35,45.29745370360669,4.828616235829869,None,2.84,1668.45
2023-10-29 08:28:39,45.29746208550966,4.828759482551602,156.0,2.84,1679.72
2023-10-29 08:28:43,45.2974229420228,4.82889878977894,None,2.86,1691.3
2023-10-29 08:28:47,45.29739234807696,4.829041282129405,None,2.87,1703.1
2023-10-29 08:28:51,45.29739846686613,4.829187881612326,160.0,2.86,1714.6
2023-10-29 08:28:55,45.29741388956759,4.829328446125109,None,2.86,1725.6
2023-10-29 08:28:59,45.29743291648733,4.829473620684525,None,2.86,1737.34
2023-10-29 08:29:03,45.2974565534537,4.829618208510733,None,2.85,1748.8
2023-10-29 08:29:07,45.297473233440606,4.829767490202603,None,2.85,1760.83
2023-10-29 08:29:11,45.29749251181744,4.829911658933662,None,2.86,1772.25
2023-10-29 08:29:15,45.297512125470384,4.830053061636742,None,2.87,1783.41
2023-10-29 08:29:19,45.29753232585654,4.830199158205485,160.0,2.87,1795.23
2023-10-29 08:29:23,45.297555962822905,4.8303466796977315,None,2.87,1807.07
2023-10-29 08:29:27,45.29757884541801,4.830490094057524,None,2.87,1818.43
2023-10-29 08:29:31,45.297593932843355,4.83063526861694,None,2.88,1830.09
2023-10-29 08:29:35,45.29761153483959,4.830782287195008,None,2.89,1841.73
2023-10-29 08:29:39,45.29762461060822,4.830933245267473,160.0,2.89,1853.51
2023-10-29 08:29:43,45.2976372672817,4.831077497817562,None,2.9,1865.04
2023-10-29 08:29:47,45.297647996117504,4.831221331272503,None,2.89,1876.22
2023-10-29 08:29:51,45.29765939550554,4.831361979604315,None,2.89,1887.46
2023-10-29 08:29:55,45.29766794504657,4.831503801402544,None,2.87,1898.6
2023-10-29 08:29:59,45.297678590063335,4.831647215762336,None,2.88,1909.74
2023-10-29 08:30:03,45.297692420203234,4.831797754739652,None,2.88,1921.77
2023-10-29 08:30:07,45.2977078429047,4.831942929299068,None,2.87,1933.32
2023-10-29 08:30:11,45.297715554255426,4.83208894204878,None,2.87,1944.59
2023-10-29 08:30:15,45.29772561253899,4.832232188770513,None,2.87,1956.01
2023-10-29 08:30:19,45.29773432971808,4.832379039710522,None,2.87,1967.5
2023-10-29 08:30:23,45.297743549811344,4.832524381907998,158.0,2.87,1978.84
2023-10-29 08:30:27,45.297751931714316,4.832668466820028,None,2.86,1990.3
2023-10-29 08:30:31,45.29776232527399,4.832818921978314,158.0,2.87,2001.99
2023-10-29 08:30:35,45.29777204828144,4.832965772918323,None,2.87,2013.7
2023-10-29 08:30:39,45.297782860936266,4.833114384057956,158.0,2.87,2025.45
2023-10-29 08:30:43,45.29779166193438,4.833258468969985,None,2.86,2036.56
2023-10-29 08:30:47,45.297796691076165,4.83340657719544,None,2.87,2048.3
2023-10-29 08:30:51,45.29781102413024,4.8335490695459065,None,2.87,2059.58
2023-10-29 08:30:55,45.297815885633966,4.833690807525105,None,2.86,2070.56
2023-10-29 08:30:59,45.297823010251484,4.833835479170342,None,2.87,2082.05
2023-10-29 08:31:03,45.29783047014513,4.833979647901402,None,2.87,2093.39
2023-10-29 08:31:07,45.29783642129624,4.834121385880601,None,2.85,2104.35
2023-10-29 08:31:11,45.29784589284659,4.834267482449343,None,2.86,2116.06
2023-10-29 08:31:15,45.29785477766374,4.834418105245688,157.0,2.86,2127.68
2023-10-29 08:31:19,45.297863578661854,4.834560681415184,None,2.86,2139.08
2023-10-29 08:31:23,45.297869194536844,4.834706526526837,None,2.86,2150.45
2023-10-29 08:31:27,45.29787623533534,4.834853461285876,157.0,2.86,2161.86
2023-10-29 08:31:31,45.297884365781215,4.835000060768796,None,2.86,2173.5
2023-10-29 08:31:35,45.29789945320656,4.835147666080073,None,2.86,2185.23
2023-10-29 08:31:39,45.29790749983341,4.835296193400676,157.0,2.86,2196.71
2023-10-29 08:31:43,45.29792049178301,4.83544715147314,None,2.86,2208.79
2023-10-29 08:31:47,45.29793046624754,4.835601629944851,None,2.88,2220.9
2023-10-29 08:31:51,45.29794085980723,4.8357516660079884,155.0,2.88,2232.58
2023-10-29 08:31:55,45.29794748151057,4.83590354608978,None,2.89,2244.64
2023-10-29 08:31:59,45.297956198689654,4.836047211906661,155.0,2.89,2255.79
2023-10-29 08:32:03,45.297962233659796,4.836194733398908,None,2.89,2267.51
2023-10-29 08:32:07,45.29796960973441,4.836337812482581,155.0,2.9,2278.71
2023-10-29 08:32:11,45.29797681817096,4.8364834899561755,None,2.9,2290.03
2023-10-29 08:32:15,45.29798536771199,4.8366304247152145,None,2.9,2301.72
2023-10-29 08:32:19,45.29799492308137,4.836779622588055,None,2.91,2313.46
2023-10-29 08:32:23,45.29800816648806,4.836928485184777,None,2.91,2325.05
2023-10-29 08:32:27,45.298015207286554,4.837072402458747,None,2.91,2336.51
2023-10-29 08:32:31,45.29802560084624,4.837220343046143,155.0,2.91,2348.15
2023-10-29 08:32:35,45.298031468178316,4.8373687027286865,155.0,2.91,2359.63
2023-10-29 08:32:39,45.29804345429956,4.837516643316082,None,2.91,2371.44
2023-10-29 08:32:43,45.298053512583124,4.837666344103101,154.0,2.91,2383.06
2023-10-29 08:32:47,45.29806499579019,4.837816380166238,154.0,2.91,2395.05
2023-10-29 08:32:51,45.298071030760326,4.837965578039079,None,2.9,2406.74
2023-10-29 08:32:55,45.2980794126633,4.838115530283186,154.0,2.9,2418.36
2023-10-29 08:32:59,45.29808838129947,4.838263051775434,154.0,2.9,2430.13
2023-10-29 08:33:03,45.298097349935645,4.838409902715443,None,2.9,2441.61
2023-10-29 08:33:07,45.29810807877145,4.838554322903592,154.0,2.9,2452.87
2023-10-29 08:33:11,45.29811537102703,4.838696815254058,154.0,2.9,2464.2
2023-10-29 08:33:15,45.29812618368186,4.838839978156761,None,2.9,2475.49
2023-10-29 08:33:19,45.298134649403856,4.838985068897147,None,2.89,2486.73
2023-10-29 08:33:23,45.29814705462025,4.839129656723355,None,2.88,2498.29
2023-10-29 08:33:27,45.29815627471352,4.839278184043958,None,2.89,2509.81
2023-10-29 08:33:31,45.298168260834764,4.839427298097769,None,2.89,2521.71
2023-10-29 08:33:35,45.298178570575416,4.839578172351203,154.0,2.9,2533.58
2023-10-29 08:33:39,45.29819248453434,4.839724352738975,159.0,2.89,2544.98
2023-10-29 08:33:43,45.29820380010335,4.839872880059579,None,2.9,2556.83
2023-10-29 08:33:47,45.298210170349606,4.840024089589131,None,2.9,2568.75
2023-10-29 08:33:51,45.29821763024324,4.8401791547940505,None,2.9,2580.71
2023-10-29 08:33:55,45.29822986782158,4.840336483112771,None,2.91,2593.27
2023-10-29 08:33:59,45.29824193776186,4.840491967412838,None,2.92,2605.51
2023-10-29 08:34:03,45.29825417534019,4.840642171114035,None,2.93,2617.2
2023-10-29 08:34:07,45.29826247342413,4.840795979033508,None,2.94,2629.44
2023-10-29 08:34:11,45.29827630356403,4.840946350372764,None,2.95,2641.15
2023-10-29 08:34:15,45.298289966065866,4.841093117493744,159.0,2.95,2652.89
2023-10-29 08:34:19,45.298306478414716,4.841233179092349,None,2.95,2664.04
2023-10-29 08:34:23,45.29831477649865,4.841384472440931,159.0,2.95,2675.75
2023-10-29 08:34:27,45.29831838071693,4.841535430513396,None,2.96,2687.77
2023-10-29 08:34:31,45.298322571668415,4.8416839578339985,None,2.96,2699.41
2023-10-29 08:34:35,45.29833849728406,4.841831898421394,None,2.96,2710.93
2023-10-29 08:34:39,45.29835241124298,4.841985538702808,None,2.96,2723.26
2023-10-29 08:34:43,45.29835609928029,4.842140939183846,160.0,2.97,2735.24
2023-10-29 08:34:47,45.29836062550789,4.8422918134372805,160.0,2.97,2747.24
2023-10-29 08:34:51,45.29835769184185,4.842440508395943,None,2.97,2758.91
2023-10-29 08:34:55,45.29836070932692,4.842589622449753,None,2.96,2770.39
2023-10-29 08:34:59,45.29836959414407,4.842739658512891,None,2.95,2782.39
2023-10-29 08:35:03,45.298372024895926,4.842893801708484,None,2.95,2794.42
2023-10-29 08:35:07,45.298380993532106,4.84304408922871,None,2.95,2806.07
2023-10-29 08:35:11,45.29838635795,4.843188425597829,160.0,2.94,2817.56
2023-10-29 08:35:15,45.298391806186935,4.843336869099402,None,2.94,2829.21
2023-10-29 08:35:19,45.2984018644705,4.843486066972243,None,2.95,2840.76
2023-10-29 08:35:23,45.29840940818317,4.843629984246213,160.0,2.94,2852.22
2023-10-29 08:35:27,45.29841670043875,4.843773482425036,None,2.93,2863.33
2023-10-29 08:35:31,45.298428099826786,4.843919243717659,None,2.93,2875.02
2023-10-29 08:35:35,45.29843312896857,4.844070369428183,163.0,2.93,2886.84
2023-10-29 08:35:39,45.298440002129006,4.844217471825281,None,2.93,2898.2
2023-10-29 08:35:43,45.298447462022644,4.8443620596514885,None,2.91,2909.74
2023-10-29 08:35:47,45.29845458664017,4.844510251695973,163.0,2.91,2921.37
2023-10-29 08:35:51,45.29846280090508,4.844660036302022,163.0,2.9,2932.94
2023-10-29 08:35:55,45.298468668237156,4.844805462318527,None,2.9,2944.54
2023-10-29 08:35:59,45.29847545757856,4.8449528161727144,163.0,2.9,2956.09
2023-10-29 08:36:03,45.29848308511026,4.845096398170566,163.0,2.89,2967.19
2023-10-29 08:36:07,45.298491047918084,4.845245009310199,None,2.89,2979.06
2023-10-29 08:36:11,45.29849582560277,4.845392614621475,163.0,2.88,2990.43
2023-10-29 08:36:15,45.29850043564941,4.845539297923425,163.0,2.88,3002.12
2023-10-29 08:36:19,45.29850756026693,4.845683969568663,None,2.88,3013.48
2023-10-29 08:36:23,45.29851325996095,4.845827719204574,163.0,2.87,3024.56
2023-10-29 08:36:27,45.29852365352063,4.845972307030782,162.0,2.88,3036.11
2023-10-29 08:36:31,45.29853471763255,4.846116559580872,None,2.87,3047.47
2023-10-29 08:36:35,45.29854293189746,4.846256788817535,162.0,2.86,3058.32
2023-10-29 08:36:39,45.29855684585638,4.846396431320992,None,2.85,3069.54
2023-10-29 08:36:43,45.298569502529865,4.846543198441972,None,2.86,3081.15
2023-10-29 08:36:47,45.29857997990858,4.846701281131959,None,2.87,3093.38
2023-10-29 08:36:51,45.29858819417349,4.846848551167117,None,2.87,3105.13
2023-10-29 08:36:55,45.29859582170519,4.846992636079147,None,2.86,3116.26
2023-10-29 08:36:59,45.298605544712636,4.847144348522878,None,2.86,3128.4
2023-10-29 08:37:03,45.29861686028164,4.847298240261381,None,2.88,3140.49
2023-10-29 08:37:07,45.29862968459318,4.8474493659719045,None,2.89,3152.22
2023-10-29 08:37:11,45.29868802263784,4.847571993212335,None,2.89,3164.02
2023-10-29 08:37:15,45.29878919220668,4.847638796978995,None,2.9,3176.38
2023-10-29 08:37:19,45.29888885303297,4.847682299055402,None,2.91,3187.84
2023-10-29 08:37:23,45.2989840714507,4.847727477512402,None,2.91,3199.15
2023-10-29 08:37:27,45.299078870773265,4.847777266016036,None,2.9,3210.26
2023-10-29 08:37:31,45.29917031733466,4.847828982357352,None,2.9,3221.33
2023-10-29 08:37:36,45.29919143973014,4.84798681359025,None,2.88,3233.97
2023-10-29 08:37:40,45.29922194985694,4.848122181323192,None,2.88,3244.93
2023-10-29 08:37:44,45.29921935146702,4.848275486328488,None,2.89,3257.21
2023-10-29 08:37:48,45.299189763349546,4.848419571240518,None,2.88,3275.52
2023-10-29 08:37:52,45.29916017523206,4.848562734143221,None,2.88,3287.01
2023-10-29 08:37:56,45.299132012038086,4.8487032986560035,None,2.88,3298.66
2023-10-29 08:38:00,45.29908951579004,4.848842605883341,None,2.88,3310.35
2023-10-29 08:38:04,45.2990267353368,4.8489710166368205,None,2.88,3322.75
2023-10-29 08:38:08,45.29896345196939,4.849097667190676,None,2.89,3334.96
2023-10-29 08:38:12,45.29890938869524,4.849231107085935,None,2.9,3346.82
2023-10-29 08:38:16,45.29885783999199,4.8493689055707385,166.0,2.89,3359.24
2023-10-29 08:38:20,45.29881266153499,4.849508380436135,166.0,2.9,3371.26
2023-10-29 08:38:24,45.298787180549965,4.84965917087054,None,2.92,3383.2
2023-10-29 08:38:28,45.29878994657794,4.849803926334808,None,2.92,3394.73
2023-10-29 08:38:32,45.29883277810211,4.849946251047214,None,2.94,3406.86
2023-10-29 08:38:36,45.29889094850871,4.850070303211149,None,2.94,3418.34
2023-10-29 08:38:40,45.29893503731833,4.85020860461013,None,2.97,3430.43
2023-10-29 08:38:44,45.29895515388545,4.850357215749764,168.0,2.97,3442.08
2023-10-29 08:38:48,45.29896076976044,4.8505018873950005,None,2.97,3453.61
2023-10-29 08:38:52,45.29893067872879,4.850641278441368,168.0,2.96,3465.07
2023-10-29 08:38:55,45.29885716943975,4.850717972853531,None,2.99,3475.17
2023-10-29 08:38:58,45.29877276367686,4.850767258442986,None,2.99,3485.14
2023-10-29 08:39:01,45.29868332877218,4.850809838510067,168.0,3.02,3495.82
2023-10-29 08:39:05,45.298578471166046,4.850877145190904,None,3.05,3508.62
2023-10-29 08:39:09,45.29850454278186,4.850998347507829,None,3.06,3521.01
2023-10-29 08:39:13,45.2984685005991,4.851148551209026,168.0,3.06,3533.65
2023-10-29 08:39:17,45.298417790086134,4.851280649999811,None,3.06,3545.22
2023-10-29 08:39:21,45.298337407636666,4.8513924645854125,None,3.06,3557.92
2023-10-29 08:39:25,45.2982638145286,4.851500674952737,168.0,3.06,3569.53
2023-10-29 08:39:29,45.2982638145286,4.851500674952737,None,3.06,3581.46
2023-10-29 08:39:33,45.2981381698031,4.851746432347775,None,3.07,3593.56
2023-10-29 08:39:37,45.29808108904389,4.851874843101254,168.0,3.06,3605.4
2023-10-29 08:39:41,45.29803498857756,4.85199839235101,168.0,3.06,3616.16
2023-10-29 08:39:45,45.29798704409258,4.852117834468313,None,3.04,3627.14
2023-10-29 08:39:49,45.29794513457774,4.85224389828896,168.0,3.02,3638.03
2023-10-29 08:39:53,45.297898615016265,4.8523693753764,164.0,3.02,3648.96
2023-10-29 08:39:57,45.29785402329247,4.852500719795917,None,3.02,3660.58
2023-10-29 08:40:01,45.297810185939944,4.8526265321594755,164.0,2.98,3671.37
2023-10-29 08:40:05,45.29775897251281,4.852752344523034,164.0,2.98,3682.89
2023-10-29 08:40:09,45.29771815264535,4.852884610951878,None,2.91,3694.23
2023-10-29 08:40:13,45.29767490202603,4.853017045018782,None,2.89,3705.49
2023-10-29 08:40:17,45.29763039412127,4.853143276477488,None,2.86,3716.72
2023-10-29 08:40:22,45.29758094089375,4.853267328641423,None,2.81,3727.71
2023-10-29 08:40:26,45.297524363048716,4.853394063014308,None,2.8,3739.67
2023-10-29 08:40:30,45.29746619264211,4.853517444626005,164.0,2.8,3751.1
2023-10-29 08:40:34,45.29746619264211,4.853517444626005,164.0,2.78,3762.19
2023-10-29 08:40:38,45.29735395896137,4.853752305547185,None,2.77,3773.54
2023-10-29 08:40:42,45.29729277106969,4.853863784856667,164.0,2.76,3784.44
2023-10-29 08:40:46,45.29724633532725,4.853992949981413,164.0,2.76,3796.01
2023-10-29 08:40:50,45.297196630642645,4.854121696011011,None,2.78,3807.49
2023-10-29 08:40:54,45.29714424374909,4.854251699326053,168.0,2.79,3819.02
2023-10-29 08:40:58,45.297092108312626,4.85438069681274,168.0,2.8,3830.88
2023-10-29 08:41:02,45.297039050866836,4.854508269375922,None,2.8,3842.5
2023-10-29 08:41:06,45.29698305975501,4.854635925758132,168.0,2.81,3854.06
2023-10-29 08:41:10,45.296929499395034,4.854764168873552,None,2.82,3865.98
2023-10-29 08:41:14,45.29687501702574,4.854891154703526,None,2.83,3877.59
2023-10-29 08:41:18,45.296817768628465,4.8550127761156,168.0,2.83,3888.85
2023-10-29 08:41:22,45.29676613610618,4.85514328234482,None,2.88,3900.81
2023-10-29 08:41:26,45.29671274338427,4.85527144164121,None,2.88,3912.24
2023-10-29 08:41:30,45.29666220050937,4.855403708070054,None,2.88,3924.2
2023-10-29 08:41:34,45.296615345671775,4.855540165450383,None,2.89,3936.06
2023-10-29 08:41:38,45.29658206951699,4.855680227048988,168.0,2.9,3947.49
2023-10-29 08:41:42,45.2965442671346,4.855816097696108,None,2.9,3959.08
2023-10-29 08:41:46,45.29650923078019,4.855956326932772,168.0,2.91,3970.8
2023-10-29 08:41:50,45.29646346558998,4.856096807626526,None,2.92,3982.71
2023-10-29 08:41:54,45.29641568874306,4.8562345222923,168.0,2.93,3994.87
2023-10-29 08:41:58,45.29635927853609,4.856360921389066,170.0,2.93,4006.6
2023-10-29 08:42:02,45.29628769708473,4.856477010745181,None,2.93,4018.54
2023-10-29 08:42:06,45.296213098148314,4.856587651864365,None,2.94,4030.67
2023-10-29 08:42:10,45.296134643536526,4.85669854444064,None,2.95,4042.86
2023-10-29 08:42:14,45.296041352956486,4.856788398440463,None,2.95,4055.52
2023-10-29 08:42:18,45.29594261413951,4.856862410643676,170.0,2.97,4067.98
2023-10-29 08:42:22,45.29584203130389,4.856924101449525,None,2.99,4080.02
2023-10-29 08:42:26,45.29574530414364,4.856988558283353,None,2.99,4092.07
2023-10-29 08:42:30,45.295655198686724,4.857054440040685,None,2.99,4103.4
2023-10-29 08:42:34,45.29556400358243,4.857119818883841,None,2.98,4114.56
2023-10-29 08:42:38,45.29547733470573,4.857199195504953,None,2.97,4126.18
2023-10-29 08:42:42,45.29539284512381,4.85728804367642,None,2.97,4137.88
2023-10-29 08:42:46,45.29530667916129,4.857381920989668,None,2.98,4149.83
2023-10-29 08:42:50,45.295222692493546,4.857475965940975,167.0,2.99,4161.88
2023-10-29 08:42:54,45.2951333414079,4.857562048084462,None,2.98,4173.74
2023-10-29 08:42:58,45.29504901946404,4.857652488817494,None,2.98,4185.68
2023-10-29 08:43:02,45.294966457719795,4.85774938361581,None,2.98,4197.63
2023-10-29 08:43:06,45.29487853155766,4.857841249272346,167.0,2.98,4209.57
2023-10-29 08:43:10,45.29479219795708,4.857924733025913,None,2.98,4221.34
2023-10-29 08:43:14,45.29470888184157,4.8580200352626655,None,2.98,4233.26
2023-10-29 08:43:18,45.29462732592569,4.8581123200143495,167.0,2.97,4244.7
2023-10-29 08:43:22,45.294541830515406,4.858200497633579,None,2.94,4256.68
2023-10-29 08:43:26,45.29445893349505,4.8582965542415995,None,2.95,4268.51
2023-10-29 08:43:30,45.294375282103424,4.858390347735818,171.0,2.94,4280.22
2023-10-29 08:43:34,45.29429347473045,4.858485482334511,None,2.95,4292.12
2023-10-29 08:43:38,45.29420898514852,4.858580281657085,None,2.96,4303.97
2023-10-29 08:43:42,45.29412491466175,4.858675835350927,171.0,2.96,4316.09
2023-10-29 08:43:46,45.29404511894549,4.858763426236949,None,2.96,4327.34
2023-10-29 08:43:50,45.29395777951656,4.858849005466258,None,2.95,4338.99
2023-10-29 08:43:54,45.29385619085258,4.858904409844881,None,2.95,4351.23
2023-10-29 08:43:58,45.293754434550536,4.8589479119212875,None,2.96,4363.06
2023-10-29 08:44:02,45.29365175623917,4.858981523352191,None,2.96,4374.66
2023-10-29 08:44:06,45.29354656335692,4.859006585242067,167.0,2.96,4386.68
2023-10-29 08:44:10,45.29344178956981,4.859037933559169,None,2.95,4398.63
2023-10-29 08:44:14,45.29334028472486,4.859064085096431,None,2.95,4409.93
2023-10-29 08:44:18,45.293234756566484,4.8590831958352,167.0,2.95,4421.98
2023-10-29 08:44:22,45.29312738438946,4.859110939934026,None,2.95,4433.92
2023-10-29 08:44:26,45.29301699472737,4.8591266140925775,167.0,2.95,4446.44
2023-10-29 08:44:30,45.292909790188396,4.859124853892954,None,2.96,4458.35
2023-10-29 08:44:34,45.292802585649426,4.859131894691448,None,2.97,4470.15
2023-10-29 08:44:38,45.2926929503586,4.859111275210145,167.0,2.97,4482.65
2023-10-29 08:44:42,45.29258666782896,4.859087973519892,None,2.98,4494.57
2023-10-29 08:44:46,45.29248491152692,4.859060145602037,None,2.98,4505.97
2023-10-29 08:44:50,45.292384831605474,4.859026617990162,None,2.97,4517.54
2023-10-29 08:44:54,45.292283242941494,4.858993174197318,None,2.97,4529.17
2023-10-29 08:44:58,45.29217721186894,4.858958305480968,None,2.97,4541.14
2023-10-29 08:45:02,45.29207394682437,4.858928214449311,None,2.97,4553.05
2023-10-29 08:45:06,45.29197571092158,4.858889238600507,None,2.97,4564.22
2023-10-29 08:45:10,45.29187713974267,4.858858057921464,None,2.97,4575.61
2023-10-29 08:45:14,45.29177496434548,4.8588213451864615,167.0,2.95,4587.34
2023-10-29 08:45:18,45.29167128020576,4.8587748256249865,167.0,2.95,4599.3
2023-10-29 08:45:22,45.291565919685446,4.858734424852678,None,2.96,4611.61
2023-10-29 08:45:26,45.29145796077521,4.858696873927379,169.0,2.97,4624.05
2023-10-29 08:45:30,45.29135134296945,4.858654796774476,169.0,2.97,4636.14
2023-10-29 08:45:34,45.29124413843048,4.858620095696186,None,2.97,4648.59
2023-10-29 08:45:38,45.29113500605383,4.858589082655202,None,2.97,4660.77
2023-10-29 08:45:42,45.291027130962625,4.858547508416478,None,2.97,4673.34
2023-10-29 08:45:46,45.290917998585975,4.8585040063400715,None,2.99,4685.98
2023-10-29 08:45:50,45.29081003967574,4.858462683558436,None,3.01,4698.27
2023-10-29 08:45:54,45.29070769664049,4.8584233724335135,None,3.0,4710.26
2023-10-29 08:45:58,45.29060459923398,4.8583799541761366,None,3.02,4722.19
2023-10-29 08:46:02,45.29050368112224,4.85833628446167,None,3.01,4733.78
2023-10-29 08:46:06,45.29039941024931,4.858295464594213,None,3.01,4746.01
2023-10-29 08:46:10,45.290295139376376,4.8582419880532735,170.0,3.03,4758.32
2023-10-29 08:46:14,45.290192628703075,4.858185996941444,170.0,3.05,4770.39
2023-10-29 08:46:18,45.2900916267723,4.8581350349713945,None,3.05,4782.46
2023-10-29 08:46:22,45.289988194089666,4.858088180133801,170.0,3.05,4794.41
2023-10-29 08:46:26,45.289884007035766,4.8580486175517885,170.0,3.05,4806.56
2023-10-29 08:46:30,45.28978158018149,4.858010731350371,None,3.04,4818.34
2023-10-29 08:46:34,45.28967806367983,4.857975443538873,170.0,3.03,4830.04
2023-10-29 08:46:38,45.28957454717817,4.857945017231097,173.0,3.03,4841.96
2023-10-29 08:46:42,45.289468851381734,4.8579130821807865,None,3.02,4853.98
2023-10-29 08:46:46,45.2893608924715,4.857884416072634,173.0,3.02,4866.07
2023-10-29 08:46:50,45.2892530173803,4.857860611468204,173.0,3.01,4878.38
2023-10-29 08:46:54,45.28914204098499,4.857837142139892,None,3.01,4890.87
2023-10-29 08:46:58,45.28903299242737,4.857817779944034,None,3.01,4902.94
2023-10-29 08:47:02,45.28892562025034,4.857806548194056,None,3.02,4915.07
2023-10-29 08:47:06,45.28882193611062,4.857776792438518,None,3.02,4926.7
2023-10-29 08:47:10,45.28871841960896,4.857748964520662,None,3.02,4938.58
2023-10-29 08:47:14,45.28860484482374,4.857734044733378,None,3.02,4951.27
2023-10-29 08:47:18,45.28849512571388,4.857713173794986,173.0,3.02,4963.45
2023-10-29 08:47:22,45.28839119011707,4.857687776628992,None,3.02,4975.34
2023-10-29 08:47:26,45.288287170701224,4.85767478467939,None,3.01,4987.02
2023-10-29 08:47:30,45.288184995304036,4.857658188511512,173.0,3.0,4998.26
2023-10-29 08:47:34,45.288080137697904,4.857641424705575,173.0,3.0,5010.11
2023-10-29 08:47:38,45.287976956472356,4.857629857679479,None,3.0,5021.75
2023-10-29 08:47:42,45.2878703386666,4.857619464119797,None,2.99,5033.42
2023-10-29 08:47:46,45.287764307594045,4.857648968418247,173.0,2.99,5045.6
2023-10-29 08:47:50,45.28765626486478,4.857669252623431,None,2.99,5057.59
2023-10-29 08:47:54,45.287550988163495,4.857654500474206,None,2.99,5069.48
2023-10-29 08:47:58,45.28745484773645,4.857585098317626,None,2.99,5081.51
2023-10-29 08:48:02,45.287377147495924,4.857479318702163,None,2.98,5093.35
2023-10-29 08:48:06,45.28729986635056,4.85737613747662,174.0,2.98,5105.3
2023-10-29 08:48:10,45.28722174701489,4.857278236849947,174.0,2.98,5116.88
2023-10-29 08:48:14,45.28714563933593,4.857187712297886,None,2.96,5127.87
2023-10-29 08:48:18,45.28707011839019,4.8570884705667385,None,2.95,5139.42
2023-10-29 08:48:22,45.28699593854892,4.856985708436343,174.0,2.93,5150.77
2023-10-29 08:48:26,45.286919663231906,4.856886382886166,174.0,2.93,5162.44
2023-10-29 08:48:30,45.286840873344,4.856795523057986,174.0,2.93,5173.69
2023-10-29 08:48:34,45.28676090998968,4.856699885545115,None,2.92,5185.21
2023-10-29 08:48:38,45.2866791026167,4.8566042480322436,None,2.92,5197.07
2023-10-29 08:48:42,45.286602156747456,4.856504168110798,174.0,2.92,5208.8
2023-10-29 08:48:46,45.28652286394537,4.8564111289878475,None,2.92,5220.08
2023-10-29 08:48:50,45.28644658862836,4.856334350756655,None,2.9,5230.64
2023-10-29 08:48:54,45.28637215732999,4.8562237096374705,171.0,2.88,5242.45
2023-10-29 08:48:58,45.28628800302419,4.856113487613434,None,2.89,5255.34
2023-10-29 08:49:02,45.28620384871839,4.856010222568861,None,2.91,5267.72
2023-10-29 08:49:06,45.286124388278246,4.855908633904881,None,2.91,5279.47
2023-10-29 08:49:10,45.2860426647243,4.855806709964783,None,2.91,5291.73
2023-10-29 08:49:14,45.28595725313305,4.855704199291478,None,2.92,5304.01
2023-10-29 08:49:18,45.28588055872089,4.855600934246905,None,2.92,5315.9
2023-10-29 08:49:22,45.285806797974764,4.855500351411282,None,2.94,5327.26
2023-10-29 08:49:26,45.28572825954395,4.855395409986115,None,2.94,5339.15
2023-10-29 08:49:30,45.28565030784634,4.855294827150493,171.0,2.95,5350.97
2023-10-29 08:49:34,45.285572020872614,4.855195501600315,None,2.95,5362.72
2023-10-29 08:49:38,45.2854943206321,4.855092404193801,None,2.95,5374.39
2023-10-29 08:49:42,45.28541620129643,4.854992575729446,None,2.95,5386.27
2023-10-29 08:49:46,45.28534176999807,4.854890819427407,172.0,2.96,5397.58
2023-10-29 08:49:50,45.28526624905232,4.854789985134695,None,2.96,5409.26
2023-10-29 08:49:54,45.2851908119256,4.854690743403547,172.0,2.98,5420.71
2023-10-29 08:49:58,45.28511587771307,4.854587394539944,None,2.97,5432.18
2023-10-29 08:50:02,45.2850377583774,4.854483207486045,None,2.95,5444.26
2023-10-29 08:50:06,45.28495838175628,4.8543792718892345,None,2.94,5456.24
2023-10-29 08:50:10,45.28488143588704,4.85426854695102,172.0,2.95,5468.31
2023-10-29 08:50:14,45.28479770067638,4.854171065419496,None,2.95,5480.49
2023-10-29 08:50:18,45.2847189946075,4.854071236955139,None,2.94,5492.1
2023-10-29 08:50:22,45.284640288538625,4.8539667984441515,172.0,2.94,5504.25
2023-10-29 08:50:26,45.28456233684102,4.853858085162649,None,2.95,5516.4
2023-10-29 08:50:30,45.28447902072551,4.853756580317699,172.0,2.95,5528.46
2023-10-29 08:50:34,45.284399308828284,4.853649878692909,None,2.96,5540.77
2023-10-29 08:50:38,45.28432286587321,4.853541249230436,None,2.97,5552.84
2023-10-29 08:50:42,45.28424357307112,4.85343630780527,172.0,2.97,5564.74
2023-10-29 08:50:46,45.28416897413471,4.853324325581609,None,2.98,5577.0
2023-10-29 08:50:50,45.284089681332624,4.853222736917631,None,2.99,5588.71
2023-10-29 08:50:54,45.284011142901804,4.853112850169713,172.0,2.99,5601.11
2023-10-29 08:50:58,45.283934364670614,4.8530012870412005,None,3.0,5613.36
2023-10-29 08:51:02,45.28385549096368,4.852891400293283,None,3.01,5625.49
2023-10-29 08:51:06,45.283779802379875,4.8527799209838,172.0,3.02,5637.76
2023-10-29 08:51:10,45.28370210213936,4.852676739758258,None,3.02,5649.62
2023-10-29 08:51:14,45.2836259944604,4.85256945140026,None,3.02,5661.4
2023-10-29 08:51:18,45.2835494676863,4.852463504146737,None,3.02,5673.43
2023-10-29 08:51:22,45.28346698976109,4.852362837492084,None,3.02,5685.48
2023-10-29 08:51:26,45.283390714444074,4.852257979885947,None,3.02,5697.2
2023-10-29 08:51:30,45.28331150546102,4.85215328991787,170.0,3.02,5709.4
2023-10-29 08:51:34,45.28322902753581,4.852049102863971,None,3.02,5721.53
2023-10-29 08:51:38,45.28314990237178,4.851941227772765,None,3.02,5733.89
2023-10-29 08:51:42,45.28307278886447,4.851838298004311,169.0,3.01,5745.65
2023-10-29 08:51:46,45.28299517244299,4.851736122607124,None,3.01,5757.29
2023-10-29 08:51:50,45.2829181427547,4.851631013543898,None,3.01,5769.38
2023-10-29 08:51:54,45.28283667065785,4.8515290896038,169.0,3.01,5781.39
2023-10-29 08:51:58,45.28275545001809,4.851432110986454,None,3.0,5793.06
2023-10-29 08:52:02,45.282672888273844,4.851329935589266,None,3.0,5805.39
2023-10-29 08:52:06,45.28258839869192,4.851233878981247,169.0,3.0,5817.3
2023-10-29 08:52:10,45.28250734569021,4.851129440470258,169.0,3.0,5829.6
2023-10-29 08:52:14,45.28242319138441,4.851031623662615,None,3.0,5841.73
2023-10-29 08:52:18,45.28233610341257,4.850933890674002,169.0,3.01,5853.93
2023-10-29 08:52:22,45.282255888601156,4.85083557095218,169.0,3.01,5865.86
2023-10-29 08:52:26,45.28216754334387,4.8507495726277226,169.0,3.01,5877.81
2023-10-29 08:52:30,45.28208456250448,4.850646810497327,169.0,3.01,5889.9
2023-10-29 08:52:34,45.28200451533113,4.8505420367102206,None,3.01,5902.12
2023-10-29 08:52:38,45.28192522252905,4.850438771665647,169.0,3.01,5913.98
2023-10-29 08:52:42,45.28184618118405,4.850330980393472,169.0,3.01,5926.33
2023-10-29 08:52:46,45.28176236215437,4.850229140272403,None,3.01,5938.59
2023-10-29 08:52:50,45.28167871076274,4.8501242826662665,None,3.02,5950.87
2023-10-29 08:52:54,45.281600759065135,4.850021017621693,169.0,3.02,5962.89
2023-10-29 08:52:58,45.28151626948321,4.849915992377498,None,3.03,5975.37
2023-10-29 08:53:02,45.28143136080614,4.849820941597834,169.0,3.04,5987.26
2023-10-29 08:53:06,45.281351900366,4.849712815049539,169.0,3.03,5999.66
2023-10-29 08:53:10,45.28127176937362,4.849605610510571,None,3.04,6011.75
2023-10-29 08:53:14,45.28119138692415,4.849495137029445,None,3.04,6024.36
2023-10-29 08:53:18,45.2811113397508,4.849384915005408,169.0,3.04,6036.75
2023-10-29 08:53:22,45.28102995147297,4.849283996893667,None,3.05,6048.63
2023-10-29 08:53:26,45.28095359233693,4.849175115974105,None,3.04,6060.88
2023-10-29 08:53:30,45.28087044385948,4.849074868414601,None,3.05,6072.95
2023-10-29 08:53:34,45.28079333035217,4.848972944474503,169.0,3.05,6084.53
2023-10-29 08:53:38,45.28071755794933,4.848859202051219,169.0,3.04,6096.95
2023-10-29 08:53:42,45.280642539917764,4.848748477113005,None,3.04,6108.84
2023-10-29 08:53:46,45.2805666836959,4.848635572880018,169.0,3.04,6121.21
2023-10-29 08:53:50,45.28049309058783,4.848522752466061,169.0,3.04,6133.27
2023-10-29 08:53:54,45.28042025185104,4.84840548964353,None,3.04,6145.37
2023-10-29 08:53:58,45.280343473619844,4.848291244306068,None,3.05,6157.9
2023-10-29 08:54:02,45.28026920995954,4.848172472741004,169.0,3.05,6170.35
2023-10-29 08:54:06,45.28019729323207,4.848049258767365,None,3.05,6182.73
2023-10-29 08:54:10,45.28012445449528,4.847933672325429,None,3.06,6195.01
2023-10-29 08:54:14,45.28005387887228,4.84781070980888,168.0,3.05,6207.31
2023-10-29 08:54:18,45.27998036958325,4.847694704271795,None,3.05,6219.69
2023-10-29 08:54:22,45.27991038069346,4.847577525268294,None,3.05,6231.72
2023-10-29 08:54:26,45.279840140346586,4.847449701248023,168.0,3.06,6244.28
2023-10-29 08:54:30,45.279767133971724,4.847326487274385,168.0,3.06,6257.05
2023-10-29 08:54:34,45.27969773181515,4.847200507272768,None,3.07,6269.63
2023-10-29 08:54:38,45.27963419699064,4.847072347976378,168.0,3.08,6281.71
2023-10-29 08:54:42,45.27956496247212,4.84694653561282,None,3.09,6294.39
2023-10-29 08:54:46,45.27949136936406,4.846824495105597,None,3.09,6306.96
2023-10-29 08:54:50,45.27942012318883,4.846696084352119,None,3.1,6319.62
2023-10-29 08:54:54,45.27934669771882,4.846576223139668,None,3.11,6332.19
2023-10-29 08:54:58,45.279273272248815,4.846458960317138,None,3.11,6344.37
2023-10-29 08:55:02,45.279201690797464,4.8463365845337965,None,3.11,6356.95
2023-10-29 08:55:06,45.27913723396364,4.846218483520969,167.0,3.1,6368.7
2023-10-29 08:55:10,45.27906598778841,4.846105746926042,None,3.09,6380.41
2023-10-29 08:55:14,45.27900119567846,4.845987562094185,None,3.09,6392.35
2023-10-29 08:55:18,45.27893330226441,4.8458695449003875,None,3.08,6404.24
2023-10-29 08:55:22,45.27886163699403,4.845757311219638,168.0,3.07,6415.96
2023-10-29 08:55:26,45.27878326620127,4.845642562967998,None,3.07,6428.63
2023-10-29 08:55:30,45.2787116009309,4.845523875221963,168.0,3.07,6440.9
2023-10-29 08:55:34,45.27864094148887,4.8454024214479485,None,3.07,6453.08
2023-10-29 08:55:38,45.27857380244609,4.845273256323202,None,3.06,6465.81
2023-10-29 08:55:42,45.27850498702272,4.845151131996951,168.0,3.07,6477.91
2023-10-29 08:55:46,45.27842804115347,4.845040239420676,168.0,3.07,6490.26
2023-10-29 08:55:50,45.27835008945586,4.844922138407849,None,3.05,6503.01
2023-10-29 08:55:54,45.27827649634779,4.8448057975946455,168.0,3.06,6515.05
2023-10-29 08:55:58,45.2782019812304,4.844681493973622,None,3.05,6527.95
2023-10-29 08:56:02,45.27812134732385,4.8445670809981,168.0,3.06,6540.68
2023-10-29 08:56:06,45.27806828987806,4.844436155673731,None,3.06,6552.36
2023-10-29 08:56:10,45.278113635973114,4.8442955073419185,None,3.05,6564.64
2023-10-29 08:56:14,45.27819410224161,4.84420422841859,168.0,3.06,6576.19
2023-10-29 08:56:18,45.2782985407526,4.8441483211257905,None,3.05,6588.47
2023-10-29 08:56:22,45.278402224892325,4.8440935872994055,None,3.06,6600.95
2023-10-29 08:56:26,45.278505070841746,4.844038015282724,None,3.08,6613.04
2023-10-29 08:56:30,45.278602049459096,4.843983952008577,168.0,3.08,6624.78
2023-10-29 08:56:34,45.27870573359882,4.843933660590765,None,3.06,6636.98
2023-10-29 08:56:38,45.27880916628145,4.843885213191607,None,3.06,6648.95
2023-10-29 08:56:42,45.278912598964084,4.843831904288726,168.0,3.05,6661.34
2023-10-29 08:56:46,45.27900924230531,4.843773482425036,None,3.05,6673.1
2023-10-29 08:56:50,45.27910923840772,4.843719167693799,None,3.04,6684.8
2023-10-29 08:56:54,45.27920982124335,4.843661500201375,165.0,3.02,6697.05
2023-10-29 08:56:58,45.279313170106946,4.843613974811543,None,3.02,6709.13
2023-10-29 08:57:02,45.279418782084356,4.843559576261278,None,3.02,6721.48
2023-10-29 08:57:06,45.279522214766985,4.843504004244596,None,3.02,6733.94
2023-10-29 08:57:10,45.27962556363059,4.843453629007755,None,3.03,6745.95
2023-10-29 08:57:14,45.27973000214158,4.8433989790003995,None,3.03,6758.48
2023-10-29 08:57:18,45.2798320099007,4.843345083364311,165.0,3.03,6770.62
2023-10-29 08:57:22,45.27994005262997,4.843288002605095,None,3.04,6783.29
2023-10-29 08:57:26,45.28004231184619,4.843233771692889,None,3.04,6795.59
2023-10-29 08:57:30,45.28015027075642,4.843181133342246,165.0,3.05,6808.29
2023-10-29 08:57:34,45.28025630182897,4.843126902430039,None,3.07,6820.69
2023-10-29 08:57:38,45.28035755521683,4.843067139461874,None,3.06,6833.05
2023-10-29 08:57:42,45.28045981443305,4.843014584930261,165.0,3.06,6845.17
2023-10-29 08:57:46,45.28056450440113,4.84295322940053,None,3.07,6857.6
2023-10-29 08:57:50,45.28066517105578,4.842887347643197,None,3.07,6870.08
2023-10-29 08:57:54,45.280764580424986,4.842810653231035,165.0,3.08,6882.53
2023-10-29 08:57:58,45.28086021793786,4.842729097315151,None,3.1,6895.09
2023-10-29 08:58:02,45.280952251232456,4.842637483115705,None,3.1,6907.61
2023-10-29 08:58:06,45.28103749518564,4.842531116767033,165.0,3.1,6920.08
2023-10-29 08:58:10,45.28111293231236,4.842416452334422,None,3.1,6932.53
2023-10-29 08:58:14,45.28118342411633,4.842293825093993,None,3.11,6944.94
2023-10-29 08:58:18,45.2812451987412,4.842160804293881,165.0,3.11,6957.27
2023-10-29 08:58:22,45.281303620604895,4.84203029806466,167.0,3.11,6969.51
2023-10-29 08:58:26,45.28136480849657,4.841901719673123,167.0,3.11,6981.54
2023-10-29 08:58:30,45.28141786594236,4.841769537063308,None,3.11,6993.62
2023-10-29 08:58:34,45.28147167775942,4.8416319062165645,None,3.09,7005.97
2023-10-29 08:58:38,45.28152775269027,4.8414937724556415,165.0,3.09,7018.29
2023-10-29 08:58:42,45.28158407907823,4.841351363924206,None,3.1,7031.23
2023-10-29 08:58:46,45.281640573104234,4.841214571267758,None,3.1,7043.65
2023-10-29 08:58:50,45.281693379092935,4.841076772782955,165.0,3.1,7055.79
2023-10-29 08:58:54,45.28176973822898,4.841007370626375,None,3.09,7065.89
2023-10-29 08:59:06,45.281782059626345,4.841003850227128,None,3.09,7067.28
2023-10-29 09:00:03,45.281925809262255,4.840645356237163,165.0,1.928,7085.49
2023-10-29 09:00:07,45.28194575819132,4.840493727612461,165.0,2.295,7097.57
2023-10-29 09:00:09,45.28194575819132,4.840493727612461,None,2.622,7098.48
2023-10-29 09:00:10,45.28194668020065,4.8403434400922345,165.0,2.685,7109.55
2023-10-29 09:00:13,45.28197107153829,4.840212514767865,165.0,2.831,7120.14
2023-10-29 09:00:16,45.28200694608299,4.8400897198893755,None,2.929,7130.37
2023-10-29 09:00:19,45.2820411442471,4.839967427925064,None,3.006,7140.87
2023-10-29 09:00:22,45.28207659969666,4.839841280285387,165.0,3.067,7151.5
2023-10-29 09:00:25,45.2821139829839,4.839713875360265,165.0,3.123,7162.33
2023-10-29 09:00:28,45.28215312647076,4.839579010541501,None,3.05,7173.55
2023-10-29 09:00:31,45.28219101267218,4.839452359987645,164.0,3.13,7184.48
2023-10-29 09:00:35,45.28225044036423,4.839304922314428,164.0,3.15,7197.78
2023-10-29 09:00:39,45.28231179589396,4.839158490469567,None,3.17,7210.99
2023-10-29 09:00:42,45.282362674044975,4.839043239303749,None,3.19,7221.83
2023-10-29 09:00:45,45.28242017389934,4.838930754165911,164.0,3.22,7232.77
2023-10-29 09:00:48,45.28247390189737,4.838826734750071,164.0,3.24,7242.64
2023-10-29 09:00:51,45.28252729461928,4.838710142479778,None,3.24,7253.71
2023-10-29 09:00:54,45.28258051970313,4.838598244075147,164.0,3.26,7264.32
2023-10-29 09:00:57,45.28263282277766,4.838485004566041,164.0,3.28,7274.88
2023-10-29 09:01:00,45.28268529349024,4.838378302941251,None,3.29,7284.93
2023-10-29 09:01:03,45.282735836365134,4.838267075088859,None,3.47,7295.46
2023-10-29 09:01:07,45.282804484150454,4.838129276604056,164.0,3.49,7308.69
2023-10-29 09:01:10,45.282856619586916,4.838024921912097,None,3.51,7318.55
2023-10-29 09:01:14,45.28292560264835,4.837894918597054,None,3.47,7331.48
2023-10-29 09:01:17,45.282976564618394,4.837787881696145,164.0,3.46,7341.58
2023-10-29 09:01:21,45.283037920148125,4.837649412659104,None,3.44,7354.24
2023-10-29 09:01:25,45.283099610953975,4.83751186563139,None,3.42,7367.15
2023-10-29 09:01:28,45.283144118858736,4.837399631950641,165.0,3.42,7377.27
2023-10-29 09:01:32,45.28320404946496,4.837255630857641,None,3.39,7390.21
2023-10-29 09:01:36,45.283262806604775,4.837110121022106,None,3.39,7403.5
2023-10-29 09:01:40,45.28331402003191,4.836965449376868,165.0,3.38,7416.21
2023-10-29 09:01:44,45.28337076551501,4.836816586780146,163.0,3.37,7429.3
2023-10-29 09:01:48,45.28342373914177,4.836672920963265,None,3.34,7442.17
2023-10-29 09:01:52,45.28347864060621,4.836529925698621,163.0,3.32,7454.93
2023-10-29 09:01:56,45.283534128803865,4.836384080586968,None,3.3,7467.75
2023-10-29 09:02:00,45.28359037137278,4.8362471202924615,None,3.28,7480.32
2023-10-29 09:02:04,45.28363932168612,4.836104627941996,None,3.26,7492.59
2023-10-29 09:02:08,45.283693384960266,4.835966242723984,163.0,3.26,7505.13
2023-10-29 09:02:12,45.283747783510535,4.835823079821281,None,3.23,7517.87
2023-10-29 09:02:16,45.283800505680205,4.835689639926021,None,3.21,7529.71
2023-10-29 09:02:20,45.283860268648375,4.835545806471081,163.0,3.2,7542.97
2023-10-29 09:02:23,45.28390385454381,4.835432399323916,163.0,3.2,7553.13
2023-10-29 09:02:27,45.283958504551165,4.8352900746115095,None,3.21,7565.62
2023-10-29 09:02:31,45.28401533385329,4.835150013012904,162.0,3.21,7578.44
2023-10-29 09:02:35,45.284065373814016,4.835002491520657,162.0,3.19,7591.28
2023-10-29 09:02:39,45.28411432412735,4.834859663894073,None,3.19,7603.56
2023-10-29 09:02:43,45.284168471220525,4.834723877065982,162.0,3.18,7615.94
2023-10-29 09:02:47,45.28421867881931,4.834588676971099,162.0,3.17,7627.76
2023-10-29 09:02:51,45.28426821586585,4.834444759697129,None,3.17,7640.46
2023-10-29 09:02:55,45.28432328496836,4.834300590966069,162.0,3.15,7653.31
2023-10-29 09:02:59,45.28437340874811,4.8341544943973265,None,3.15,7665.88
2023-10-29 09:03:03,45.28442244288048,4.834005045067396,None,3.15,7679.0
2023-10-29 09:03:07,45.284475081231115,4.8338605410602185,None,3.16,7691.7
2023-10-29 09:03:11,45.28452612702019,4.833721569109,None,3.16,7703.82
2023-10-29 09:03:15,45.284576669895095,4.83358025022495,None,3.15,7716.39
2023-10-29 09:03:19,45.284627128950966,4.833441865006938,162.0,3.15,7728.59
2023-10-29 09:03:23,45.284675995445276,4.833299624113561,None,3.15,7740.84
2023-10-29 09:03:27,45.28472628686308,4.833155455382502,None,3.14,7753.6
2023-10-29 09:03:31,45.28478060159432,4.833013549765244,None,3.13,7766.1
2023-10-29 09:03:35,45.28483273703078,4.832862843149869,None,3.13,7779.38
2023-10-29 09:03:39,45.28488721940008,4.832719847885225,162.0,3.14,7792.19
2023-10-29 09:03:43,45.28494513834959,4.8325744218687205,162.0,3.14,7805.07
2023-10-29 09:03:47,45.28499945308083,4.832431091327957,None,3.15,7817.99
2023-10-29 09:03:51,45.285053767812066,4.832286252044661,None,3.17,7830.84
2023-10-29 09:03:55,45.285107160533975,4.8321422509516605,162.0,3.17,7843.43
2023-10-29 09:03:59,45.285163570740956,4.831999926239254,162.0,3.17,7856.39
2023-10-29 09:04:03,45.28521914275764,4.831852572385066,None,3.17,7869.48
2023-10-29 09:04:07,45.285277899897444,4.8317128460625804,None,3.18,7882.07
2023-10-29 09:04:11,45.285333639552185,4.831567755322194,None,3.18,7895.17
2023-10-29 09:04:15,45.28538988212111,4.831426687895233,None,3.18,7907.71
2023-10-29 09:04:19,45.2854429395669,4.831284195544767,165.0,3.18,7920.5
2023-10-29 09:04:23,45.28550060705932,4.831139775356618,163.0,3.2,7933.51
2023-10-29 09:04:27,45.28555902892301,4.8309981211964494,None,3.2,7946.21
2023-10-29 09:04:31,45.28561904334827,4.83086199909224,None,3.21,7958.94
2023-10-29 09:04:35,45.285675537374274,4.830730067939514,163.0,3.21,7971.0
2023-10-29 09:04:39,45.285732618133494,4.830592940006949,None,3.2,7983.37
2023-10-29 09:04:43,45.2857907885401,4.830458326645274,None,3.19,7995.9
2023-10-29 09:04:47,45.285848372213486,4.830320109065322,163.0,3.18,8008.47
2023-10-29 09:04:51,45.28591090120963,4.830192201226021,163.0,3.17,8020.52
2023-10-29 09:04:55,45.285971586187124,4.830058761330761,None,3.17,8033.19
2023-10-29 09:04:59,45.28603838995379,4.829922555407522,163.0,3.16,8046.09
2023-10-29 09:05:02,45.28609077684734,4.829811579012218,163.0,3.17,8056.43
2023-10-29 09:05:05,45.28614467248343,4.829701440807211,163.0,3.19,8067.14
2023-10-29 09:05:08,45.28620242379488,4.8295855190891555,None,3.2,8078.25
2023-10-29 09:05:11,45.28626059420149,4.829466663705061,None,3.24,8089.4
2023-10-29 09:05:14,45.28631608239913,4.829346970130669,None,3.24,8100.81
2023-10-29 09:05:17,45.28637634828148,4.8292249296234475,None,3.32,8112.51
2023-10-29 09:05:20,45.28643644652576,4.829101883287868,None,3.32,8124.25
2023-10-29 09:05:23,45.28649570657975,4.828975819467221,None,3.37,8135.92
2023-10-29 09:05:26,45.28655446371956,4.828850007103663,None,3.41,8147.91
2023-10-29 09:05:29,45.28660944900304,4.828728553329648,None,3.45,8159.24
2023-10-29 09:05:32,45.28666929579023,4.82861070377391,161.0,3.47,8170.63
2023-10-29 09:05:35,45.28673148951026,4.82849042346631,161.0,3.51,8182.13
2023-10-29 09:05:38,45.28678815117433,4.828370897529979,None,3.56,8193.6
2023-10-29 09:05:41,45.28684523193354,4.828251203955587,None,3.56,8204.91
2023-10-29 09:05:44,45.28689527189427,4.828124804858821,None,3.6,8216.1
2023-10-29 09:05:47,45.28693726522814,4.82799714847661,None,3.6,8227.37
2023-10-29 09:05:50,45.2869778336385,4.827866726066419,None,3.67,8238.53
2023-10-29 09:05:53,45.287018821144024,4.827739153503237,None,3.67,8249.5
2023-10-29 09:05:56,45.28706274231558,4.827611748578115,None,3.71,8260.4
2023-10-29 09:05:59,45.28710071233603,4.827482834910458,None,3.73,8271.55
2023-10-29 09:06:02,45.2871396043658,4.827350736119674,None,3.76,8282.81
2023-10-29 09:06:05,45.287178412576544,4.827219643157245,None,3.77,8293.92
2023-10-29 09:06:08,45.28721872952982,4.827089723661232,None,3.77,8304.82
2023-10-29 09:06:11,45.28726172869205,4.826961145269694,None,3.78,8316.22
2023-10-29 09:06:14,45.28731118191956,4.826833991801661,None,3.77,8327.57
2023-10-29 09:06:17,45.28736683775528,4.826715890788834,None,3.78,8338.48
2023-10-29 09:06:20,45.28741872173465,4.826597873595036,None,3.78,8349.6
2023-10-29 09:06:23,45.287478819978936,4.826488154485177,None,3.74,8360.4
2023-10-29 09:06:26,45.28755576584819,4.826400563599155,None,3.74,8371.41
2023-10-29 09:06:29,45.28764637421928,4.8263454106776225,None,3.73,8382.22
2023-10-29 09:06:32,45.287738910428054,4.82629545453593,None,3.72,8393.42
2023-10-29 09:06:35,45.28783228482712,4.826264022399798,None,3.71,8404.06
2023-10-29 09:06:38,45.28792859289223,4.8262184248476485,None,3.7,8415.42
2023-10-29 09:06:41,45.28802448186219,4.826182047388765,None,3.69,8426.27
2023-10-29 09:06:44,45.28811961646088,4.826144245006376,None,3.69,8437.45
2023-10-29 09:06:47,45.2882264019047,4.826110717394502,None,3.7,8449.62
2023-10-29 09:06:50,45.288336372471655,4.826072412097936,160.0,3.7,8462.05
2023-10-29 09:06:53,45.28844424756286,4.826043578351724,160.0,3.7,8474.44
2023-10-29 09:06:56,45.28854717733131,4.826010218377909,None,3.75,8486.23
2023-10-29 09:06:59,45.28864549705313,4.825976942223123,160.0,3.76,8497.43
2023-10-29 09:07:02,45.288747169536144,4.825942324963863,160.0,3.77,8508.9
2023-10-29 09:07:05,45.28884909347624,4.825908378256841,None,3.78,8520.77
2023-10-29 09:07:08,45.28895135269246,4.82587133024572,160.0,3.79,8532.49
2023-10-29 09:07:11,45.289052773718375,4.8258292530928175,160.0,3.79,8544.26
2023-10-29 09:07:14,45.289153356553996,4.825799916432428,None,3.8,8555.49
2023-10-29 09:07:17,45.28925243064709,4.825751971947447,160.0,3.8,8567.35
2023-10-29 09:07:20,45.28935259438756,4.825718863430721,160.0,3.81,8578.86
2023-10-29 09:07:23,45.28945175229968,4.825690700236747,None,3.81,8589.85
2023-10-29 09:07:26,45.2895517484021,4.82565247875921,None,3.81,8601.57
2023-10-29 09:07:29,45.2896511577713,4.825618196776069,161.0,3.83,8612.97
2023-10-29 09:07:32,45.289751405330804,4.825582908964571,161.0,3.84,8624.46
2023-10-29 09:07:35,45.28984955741457,4.825551728285528,None,3.84,8635.46
2023-10-29 09:07:38,45.289946787489,4.825512752436724,161.0,3.86,8646.9
2023-10-29 09:07:41,45.290044520477615,4.825483834871482,161.0,3.85,8658.0
2023-10-29 09:07:44,45.29013982271437,4.825453324744677,161.0,3.85,8668.88
2023-10-29 09:07:47,45.29023797479813,4.825418958942506,None,3.86,8679.95
2023-10-29 09:07:50,45.29033520487257,4.825387778263463,None,3.84,8691.22
2023-10-29 09:07:53,45.29043251876603,4.82536196200232,161.0,3.81,8702.23
2023-10-29 09:07:56,45.290528323916966,4.825386940073166,None,3.81,8712.9
2023-10-29 09:07:59,45.29062547017237,4.825393645595541,None,3.81,8723.91
2023-10-29 09:08:02,45.29072454426546,4.825377468522811,161.0,3.77,8734.98
2023-10-29 09:08:05,45.290813811532075,4.825349892062045,None,3.74,8745.18
2023-10-29 09:08:08,45.290909365225914,4.8253249978102275,None,3.74,8755.82
2023-10-29 09:08:11,45.29100818786191,4.825302618129302,161.0,3.73,8767.15
2023-10-29 09:08:14,45.29110784868821,4.825287698342017,161.0,3.73,8778.31
2023-10-29 09:08:17,45.29120675514324,4.825273449106971,None,3.72,8789.43
2023-10-29 09:08:20,45.29130683506469,4.825267665593922,161.0,3.71,8800.33
2023-10-29 09:08:23,45.291407920814486,4.82527378438309,161.0,3.7,8811.81
2023-10-29 09:08:26,45.29150833601205,4.825283088295385,None,3.7,8823.02
2023-10-29 09:08:29,45.29160632045775,4.825280573724495,161.0,3.69,8833.7
2023-10-29 09:08:32,45.29170606510308,4.825278059153604,160.0,3.69,8845.07
2023-10-29 09:08:35,45.29180715085288,4.825272359459585,None,3.69,8856.29
2023-10-29 09:08:38,45.29190756605044,4.825254841282381,None,3.68,8867.57
2023-10-29 09:08:41,45.292011250190164,4.825240424409275,None,3.69,8878.92
2023-10-29 09:08:44,45.29211275503511,4.825226426631318,160.0,3.69,8890.53
2023-10-29 09:08:47,45.292214008422974,4.82522583989811,None,3.7,8901.8
2023-10-29 09:08:50,45.29231501035375,4.825220307842151,None,3.7,8913.04
2023-10-29 09:08:53,45.29241525791325,4.825216535985814,None,3.7,8923.96
2023-10-29 09:08:56,45.29252170808095,4.825208070263816,160.0,3.7,8936.12
2023-10-29 09:08:59,45.29262832588671,4.825205555692926,None,3.73,8947.93
2023-10-29 09:09:02,45.29272790289398,4.825205890969045,None,3.73,8958.79
2023-10-29 09:09:05,45.29283460451877,4.825193401933621,160.0,3.73,8970.94
2023-10-29 09:09:08,45.292938791572666,4.825181415812376,None,3.75,8982.59
2023-10-29 09:09:11,45.29303753038964,4.825171106071725,None,3.77,8993.6
2023-10-29 09:09:14,45.293136855939814,4.825160377235925,160.0,3.76,9004.45
2023-10-29 09:09:17,45.29324196500304,4.825152414428105,None,3.78,9016.38
2023-10-29 09:09:21,45.29336316731997,4.82514311051581,None,3.76,9029.96
2023-10-29 09:09:24,45.29346844402125,4.825124754148309,160.0,3.76,9041.48
2023-10-29 09:09:27,45.29356667992404,4.825112013655796,None,3.76,9052.7
2023-10-29 09:09:30,45.293667681854814,4.8251086608946085,None,3.77,9063.94
2023-10-29 09:09:33,45.293761391530005,4.825105894866629,160.0,3.76,9074.15
2023-10-29 09:09:39,45.29386113617533,4.825090472165167,None,3.72,9085.32
