Time,LatitudeDegrees,LongitudeDegrees,Elevation,Speed,Distance
2023-11-12 09:39:54,45.2960058136879,4.822304411437442,None,0.0,2.4
2023-11-12 09:39:55,45.29599952726067,4.822274823319963,None,0.0,2.42
2023-11-12 09:39:58,45.29596851421969,4.8221423892530595,None,0.0,13.36
2023-11-12 09:40:01,45.2959414406731,4.82201951055554,152.0,1.828,23.43
2023-11-12 09:40:04,45.29590791306123,4.821886405936399,None,1.828,34.52
2023-11-12 09:40:07,45.295877151477335,4.8217504514702485,None,2.799,45.69
2023-11-12 09:40:09,45.295877151477335,4.8217504514702485,152.0,2.858,50.85
2023-11-12 09:40:11,45.29584789863597,4.82161952614588,None,2.935,59.89
2023-11-12 09:40:14,45.29581948398491,4.821492205039787,None,3.012,66.9
2023-11-12 09:40:17,45.29579911596069,4.8213640457433975,158.0,3.084,80.7
2023-11-12 09:40:20,45.2957759819085,4.821231946952612,158.0,2.44,91.11
2023-11-12 09:40:23,45.29575192584698,4.821067661654428,None,2.53,100.99
2023-11-12 09:40:24,45.29575192584698,4.821067661654428,158.0,2.53,100.99
2023-11-12 09:40:27,45.295731641641794,4.820928438246121,158.0,2.6,115.82
2023-11-12 09:40:30,45.295708339951545,4.82078988539005,None,2.68,126.64
2023-11-12 09:40:32,45.29568973212695,4.820663486293284,159.0,2.73,133.43
2023-11-12 09:40:35,45.29566894500759,4.820530381674143,159.0,2.73,144.07
2023-11-12 09:40:38,45.29564111708974,4.820400043082981,None,2.78,154.74
2023-11-12 09:40:41,45.29562410182671,4.820264842988098,159.0,2.83,165.62
2023-11-12 09:40:45,45.29559568717565,4.820122015361513,None,2.88,180.52
2023-11-12 09:40:47,45.29557800136038,4.819993520789005,159.0,2.92,187.37
2023-11-12 09:40:50,45.295558303888406,4.819860919084042,None,2.92,198.02
2023-11-12 09:40:54,45.29552947014219,4.819701914384728,159.0,2.94,210.86
2023-11-12 09:40:57,45.295500217300834,4.819564786452163,None,2.96,222.06
2023-11-12 09:41:00,45.295475574506106,4.819425982139003,None,3.0,233.28
2023-11-12 09:41:03,45.295442214532294,4.81930402545081,None,3.56,243.61
2023-11-12 09:41:06,45.29539996974133,4.819174357411886,None,3.56,254.71
2023-11-12 09:41:10,45.295350600332846,4.819021639139799,None,3.56,267.88
2023-11-12 09:41:13,45.29530684679935,4.818903538126971,None,3.53,278.39
2023-11-12 09:41:19,45.29535512656045,4.818774456821256,None,3.46,289.77
2023-11-12 09:41:23,45.295458056328904,4.818729026907166,None,3.39,301.83
2023-11-12 09:41:27,45.29554749123358,4.818678567851295,152.0,3.35,312.51
2023-11-12 09:41:31,45.29563483066251,4.8186055614764385,None,3.29,323.76
2023-11-12 09:41:35,45.29572292446271,4.818531633092256,None,3.25,335.17
2023-11-12 09:41:40,45.29581068298679,4.818421494887248,152.0,3.24,351.24
2023-11-12 09:41:42,45.29588050423852,4.818338094952711,None,3.22,358.33
2023-11-12 09:41:46,45.29595996467866,4.8182598079789845,None,3.21,372.64
2023-11-12 09:41:48,45.29604068240425,4.8181847061283865,149.0,3.21,379.87
2023-11-12 09:41:51,45.29613095549922,4.818104407497947,None,3.22,391.68
2023-11-12 09:41:55,45.29622885612589,4.818027377809666,None,3.26,407.99
2023-11-12 09:41:57,45.2963197997731,4.817955963996374,149.0,3.3,415.75
2023-11-12 09:42:00,45.296404289355024,4.81787692265138,None,3.28,427.0
2023-11-12 09:42:04,45.29650386636229,4.817802072257871,149.0,3.32,439.5
2023-11-12 09:42:06,45.296595229104646,4.81774633260313,149.0,3.32,450.67
2023-11-12 09:42:10,45.296693213550355,4.817681289036094,149.0,3.33,466.15
2023-11-12 09:42:12,45.29678038534122,4.8176251302862045,None,3.37,473.27
2023-11-12 09:42:15,45.29686479110412,4.81757307866877,None,3.36,483.5
2023-11-12 09:42:19,45.296958836055424,4.817525469459908,149.0,3.44,498.36
2023-11-12 09:42:21,45.29705656904404,4.8174870803443115,None,3.44,505.91
2023-11-12 09:42:24,45.2971640250401,4.817454893836913,None,3.46,518.13
2023-11-12 09:42:27,45.29727734836823,4.817430334861214,149.0,3.46,530.92
2023-11-12 09:42:31,45.29739586847621,4.817410721208268,149.0,3.67,548.25
2023-11-12 09:42:33,45.29750474939577,4.817401752572092,None,3.75,556.41
2023-11-12 09:42:36,45.29760759534519,4.81740485387619,149.0,3.81,567.77
2023-11-12 09:42:41,45.29772871384309,4.817407703723199,149.0,3.81,584.75
2023-11-12 09:42:43,45.297822758794396,4.817413487236248,None,3.82,591.76
2023-11-12 09:42:47,45.2979390996076,4.817401165838884,None,3.81,604.72
2023-11-12 09:42:51,45.29805108183126,4.817396723430311,None,3.83,621.15
2023-11-12 09:42:54,45.29815828637023,4.817401501115002,145.0,3.83,632.77
2023-11-12 09:42:57,45.29825384006407,4.817438213850005,None,3.83,644.5
2023-11-12 09:43:00,45.29831444122254,4.817583388409421,None,3.82,657.16
2023-11-12 09:43:03,45.29835484199484,4.817734095024796,145.0,3.86,670.29
2023-11-12 09:43:05,45.29840513341266,4.8178821194312205,None,3.86,678.95
2023-11-12 09:43:09,45.29845265880249,4.818026707257429,None,3.86,691.36
2023-11-12 09:43:12,45.29849775344046,4.818167942322449,145.0,3.89,706.55
2023-11-12 09:43:15,45.29853237069972,4.818306243721431,None,3.9,718.7
2023-11-12 09:43:17,45.29857587277613,4.818433983922672,None,3.92,726.12
2023-11-12 09:43:18,45.29857587277613,4.818433983922672,145.0,3.92,729.73
2023-11-12 09:43:20,45.29861727937679,4.818558706638845,None,3.92,736.91
2023-11-12 09:43:23,45.29865633904462,4.818697008037826,145.0,3.92,748.63
2023-11-12 09:43:27,45.298698500016556,4.818834135970392,146.0,3.91,764.08
2023-11-12 09:43:30,45.29874342701647,4.818964474561553,None,3.87,771.67
2023-11-12 09:43:32,45.298781564674975,4.8190867665258645,None,3.87,782.18
2023-11-12 09:43:35,45.29880738093612,4.819214171450987,None,3.83,792.55
2023-11-12 09:43:38,45.298839567443515,4.819335038491794,None,3.8,802.65
2023-11-12 09:43:39,45.298839567443515,4.819335038491794,None,3.8,806.32
2023-11-12 09:43:41,45.298865551342715,4.819470657681825,None,3.82,813.65
2023-11-12 09:43:44,45.29889480418408,4.819603175567758,None,3.82,824.58
2023-11-12 09:43:48,45.29892246446388,4.819731753959297,None,3.82,838.32
2023-11-12 09:43:50,45.2989685649302,4.819854213561667,146.0,3.83,846.02
2023-11-12 09:43:54,45.29901701232936,4.819980780296493,146.0,3.81,860.46
2023-11-12 09:43:57,45.29907241670798,4.820096702014548,None,3.8,871.8
2023-11-12 09:44:00,45.29912321103997,4.820214719208346,146.0,3.79,882.69
2023-11-12 09:44:03,45.29917442446711,4.820335250973034,146.0,3.77,890.05
2023-11-12 09:44:05,45.299228655379316,4.8204616500698005,None,3.77,901.7
2023-11-12 09:44:08,45.29928322156764,4.820582517110608,None,3.72,912.91
2023-11-12 09:44:11,45.29933443499478,4.820703803246563,146.0,3.72,924.0
2023-11-12 09:44:15,45.299381206013344,4.820823329182894,146.0,3.7,934.67
2023-11-12 09:44:18,45.29943987933412,4.820934808492376,None,3.67,949.16
2023-11-12 09:44:20,45.299497630645575,4.821046539258948,151.0,3.67,956.45
2023-11-12 09:44:24,45.29957155902976,4.821152151236352,151.0,3.67,971.19
2023-11-12 09:44:26,45.2996326631024,4.821262876174567,None,3.67,979.12
2023-11-12 09:44:30,45.29965110328893,4.821407883095923,151.0,3.65,995.03
2023-11-12 09:44:32,45.29960785266962,4.821562864481812,151.0,3.65,1003.83
2023-11-12 09:44:35,45.299527637858205,4.8216841506177675,None,3.69,1016.76
2023-11-12 09:44:39,45.29943744858227,4.821774926626917,None,3.73,1032.79
2023-11-12 09:44:41,45.299356227942496,4.821861511684582,151.0,3.77,1040.37
2023-11-12 09:44:45,45.29927944971131,4.821943151419497,151.0,3.77,1054.53
2023-11-12 09:44:47,45.29920300675623,4.822022695678668,None,3.76,1061.57
2023-11-12 09:44:50,45.29912522269669,4.822119003743777,151.0,3.78,1073.1
2023-11-12 09:44:54,45.29905724546361,4.822227884663339,None,3.78,1088.32
2023-11-12 09:44:57,45.29899555465776,4.822348584066086,None,3.78,1100.08
2023-11-12 09:44:59,45.29894685580151,4.8224828621516425,None,3.79,1107.96
2023-11-12 09:45:02,45.298892289613185,4.822611189086092,151.0,3.81,1119.73
2023-11-12 09:45:05,45.29884191437635,4.822734570697789,None,3.82,1130.93
2023-11-12 09:45:09,45.2987740209623,4.822846552921449,None,3.82,1142.45
2023-11-12 09:45:11,45.298706043729226,4.822976556236492,None,3.82,1155.14
2023-11-12 09:45:15,45.298635132830114,4.8231140194451765,None,3.86,1172.66
2023-11-12 09:45:18,45.29857000544405,4.8232466211501395,None,3.9,1185.38
2023-11-12 09:45:20,45.29850278258224,4.82337729501742,None,3.94,1193.83
2023-11-12 09:45:24,45.29844050504318,4.823507298332462,150.0,3.95,1210.17
2023-11-12 09:45:27,45.29838384337911,4.823640822046752,None,3.97,1222.06
2023-11-12 09:45:30,45.29833648562734,4.823767640238667,150.0,3.97,1233.55
2023-11-12 09:45:33,45.29828217089611,4.82389999048654,150.0,3.97,1245.0
2023-11-12 09:45:35,45.298231879478294,4.824032592191503,None,3.95,1253.47
2023-11-12 09:45:39,45.29818183951757,4.824170223038247,None,3.94,1269.56
2023-11-12 09:45:41,45.29813775070796,4.824312296293565,150.0,3.94,1277.69
2023-11-12 09:45:44,45.298095505917,4.8244512682447835,None,3.94,1289.57
2023-11-12 09:45:47,45.29804605268948,4.824585797787429,None,3.99,1301.45
2023-11-12 09:45:51,45.298010010506715,4.824718483311422,150.0,3.99,1316.27
2023-11-12 09:45:53,45.29796667606837,4.824849743911909,150.0,3.98,1323.92
2023-11-12 09:45:56,45.29793113679978,4.8249932420907315,None,3.99,1335.86
2023-11-12 09:45:59,45.297896603359554,4.8251348124318705,154.0,3.99,1347.63
2023-11-12 09:46:02,45.29786206991932,4.825283675028593,None,3.99,1359.86
2023-11-12 09:46:05,45.29782016040448,4.82541761783803,None,3.99,1371.32
2023-11-12 09:46:08,45.297780933098586,4.8255539075803,None,3.99,1382.88
2023-11-12 09:46:11,45.29774941714342,4.825697321940092,154.0,4.0,1394.67
2023-11-12 09:46:14,45.29771580571252,4.825837215900638,154.0,3.97,1406.19
2023-11-12 09:46:17,45.2976824457387,4.825979456794014,None,3.97,1418.03
2023-11-12 09:46:20,45.29765092978354,4.826114992165016,None,3.95,1429.16
2023-11-12 09:46:23,45.297610780468325,4.8262472585938605,154.0,3.92,1440.44
2023-11-12 09:46:26,45.29757264280982,4.826384889440605,None,3.9,1451.97
2023-11-12 09:46:30,45.29753877992182,4.826524364306001,None,3.89,1467.39
2023-11-12 09:46:32,45.29750676105248,4.826666269923259,154.0,3.9,1475.21
2023-11-12 09:46:36,45.29746711465144,4.826802727303588,None,3.89,1486.76
2023-11-12 09:46:38,45.297426127145926,4.826935161370492,None,3.89,1498.09
2023-11-12 09:46:42,45.29738723511615,4.827063991219118,154.0,3.87,1512.94
2023-11-12 09:46:44,45.2973348482226,4.827192904886775,None,3.86,1520.77
2023-11-12 09:46:47,45.29727910856786,4.82732508749659,None,3.86,1532.79
2023-11-12 09:46:50,45.29723049353064,4.827461628695947,156.0,3.86,1544.79
2023-11-12 09:46:54,45.29718514743558,4.827597583162098,None,3.87,1560.28
2023-11-12 09:46:56,45.2971493567099,4.827731190695417,None,3.87,1567.8
2023-11-12 09:47:00,45.29713980134052,4.827878544549605,None,3.87,1582.46
2023-11-12 09:47:03,45.29716327066883,4.828019528157536,None,3.86,1594.51
2023-11-12 09:47:05,45.297207191840386,4.828152548957648,None,3.84,1602.19
2023-11-12 09:47:06,45.297207191840386,4.828152548957648,None,3.84,1606.05
2023-11-12 09:47:09,45.29726502697087,4.828275930569345,156.0,3.85,1613.8
2023-11-12 09:47:11,45.29731808441666,4.828404760417972,None,3.85,1625.49
2023-11-12 09:47:12,45.29731808441666,4.828404760417972,156.0,3.85,1629.38
2023-11-12 09:47:15,45.29735739554158,4.828543480912102,156.0,3.85,1640.96
2023-11-12 09:47:17,45.29738698365906,4.828681698492054,None,3.84,1648.58
2023-11-12 09:47:21,45.297403663645966,4.828826453956321,156.0,3.84,1660.0
2023-11-12 09:47:24,45.29737189623372,4.82895737928069,156.0,3.84,1674.46
2023-11-12 09:47:27,45.2973325851088,4.829085203300961,None,3.84,1685.5
2023-11-12 09:47:30,45.29733887153602,4.829228785298813,160.0,3.83,1696.94
2023-11-12 09:47:32,45.29735077383824,4.829378486085831,160.0,3.82,1704.83
2023-11-12 09:47:35,45.29736795673932,4.829521565169505,None,3.82,1716.3
2023-11-12 09:47:39,45.29738564255459,4.8296777200218095,160.0,3.83,1732.79
2023-11-12 09:47:41,45.29740257399858,4.829836976178212,None,3.86,1741.19
2023-11-12 09:47:45,45.297420427451904,4.829985252041727,None,3.86,1756.89
2023-11-12 09:47:47,45.29744004110485,4.830132522076885,160.0,3.87,1764.76
2023-11-12 09:47:50,45.29746426480443,4.830275433522499,160.0,3.86,1776.29
2023-11-12 09:47:53,45.29748614157118,4.830413986378569,None,3.85,1787.34
2023-11-12 09:47:56,45.29750969471852,4.830552706872699,None,3.84,1798.53
2023-11-12 09:47:59,45.29753400223713,4.830715483428349,160.0,3.87,1811.56
2023-11-12 09:48:02,45.297551352776274,4.830881109831008,160.0,3.87,1824.69
2023-11-12 09:48:05,45.297566524020645,4.8310412879967375,None,3.9,1837.32
2023-11-12 09:48:08,45.29757733667548,4.831188474212866,160.0,3.92,1848.99
2023-11-12 09:48:11,45.29758881988254,4.831330128373035,158.0,3.91,1860.08
2023-11-12 09:48:14,45.29759904580417,4.831480164436172,None,3.91,1871.87
2023-11-12 09:48:17,45.29760793062131,4.831629697585132,None,3.91,1883.68
2023-11-12 09:48:21,45.29762000056159,4.831779901286329,158.0,3.92,1899.41
2023-11-12 09:48:23,45.297633830701486,4.831930272625585,None,3.93,1907.35
2023-11-12 09:48:26,45.297644308080194,4.832075950099179,None,3.94,1918.81
2023-11-12 09:48:30,45.297654953096966,4.832220621744416,158.0,3.95,1933.99
2023-11-12 09:48:32,45.29766333499993,4.832366131579951,None,3.95,1941.64
2023-11-12 09:48:36,45.29767540494021,4.832501499312894,158.0,3.94,1956.02
2023-11-12 09:48:39,45.297684876490564,4.8326439078443295,None,3.94,1966.51
2023-11-12 09:48:41,45.29769459949801,4.832786903108974,None,3.92,1974.76
2023-11-12 09:48:42,45.29769459949801,4.832786903108974,158.0,3.92,1978.56
2023-11-12 09:48:45,45.29770423868642,4.8329320776683895,None,3.9,1990.05
2023-11-12 09:48:47,45.2977137940558,4.833079934436755,None,3.89,1997.81
2023-11-12 09:48:50,45.29772049957818,4.833229048490566,None,3.89,2009.51
2023-11-12 09:48:54,45.29773131223301,4.83337480978319,None,3.89,2024.8
2023-11-12 09:48:56,45.297742627802016,4.8335202357996945,None,3.89,2032.53
2023-11-12 09:48:59,45.29775813432251,4.833666583825526,None,3.9,2044.03
2023-11-12 09:49:02,45.297769617529575,4.833802454472647,None,3.86,2054.82
2023-11-12 09:49:05,45.29777774797546,4.833938911852974,157.0,3.81,2065.48
2023-11-12 09:49:08,45.297783782945594,4.834081068927322,157.0,3.79,2076.64
2023-11-12 09:49:11,45.297786800430664,4.834233032828142,157.0,3.79,2088.53
2023-11-12 09:49:15,45.297798954189965,4.834383907081577,None,3.8,2104.36
2023-11-12 09:49:17,45.297810185939944,4.834534026963744,None,3.81,2112.27
2023-11-12 09:49:21,45.29782577627947,4.834677273685477,157.0,3.81,2123.59
2023-11-12 09:49:23,45.29783684039138,4.834822867340041,None,3.81,2135.06
2023-11-12 09:49:26,45.29784765304621,4.834966365518863,None,3.79,2146.36
2023-11-12 09:49:27,45.29784765304621,4.834966365518863,157.0,3.79,2150.16
2023-11-12 09:49:30,45.29786081263387,4.835111120983131,None,3.79,2161.56
2023-11-12 09:49:32,45.297866596146925,4.835255708809338,None,3.79,2169.12
2023-11-12 09:49:36,45.29787925282041,4.835402895025466,None,3.8,2184.68
2023-11-12 09:49:39,45.29788721562822,4.835553769278901,None,3.81,2196.35
2023-11-12 09:49:42,45.29789383733157,4.835698357105109,None,3.82,2207.4
2023-11-12 09:49:45,45.297900878130065,4.835831797000369,None,3.8,2217.12
2023-11-12 09:49:47,45.29790456616737,4.83596473398145,None,3.8,2224.84
2023-11-12 09:49:50,45.29791034968042,4.836096162219997,None,3.78,2235.14
2023-11-12 09:49:54,45.29791655228862,4.8362263331731,None,3.75,2245.35
2023-11-12 09:49:57,45.29792845459083,4.836395228517916,155.0,3.73,2258.65
2023-11-12 09:50:02,45.29793155589493,4.836554819950438,None,3.7,2273.95
2023-11-12 09:50:05,45.29794454784453,4.836697899034111,155.0,3.66,2282.44
2023-11-12 09:50:09,45.29795552813742,4.83685296423903,155.0,3.62,2294.64
2023-11-12 09:50:10,45.29795552813742,4.83685296423903,None,3.62,2298.09
2023-11-12 09:50:13,45.297967430439634,4.836984224839518,None,3.59,2308.65
2023-11-12 09:50:15,45.29797371686686,4.837123280609767,None,3.56,2315.92
2023-11-12 09:50:18,45.29797950037991,4.8372649347699355,None,3.55,2327.05
2023-11-12 09:50:22,45.29798779846385,4.837405750739808,None,3.54,2341.58
2023-11-12 09:50:25,45.29799634800488,4.837552266403699,None,3.54,2353.38
2023-11-12 09:50:28,45.29800229915598,4.837698279153411,154.0,3.54,2363.77
2023-11-12 09:50:30,45.29800866940224,4.837833143972175,None,3.54,2371.67
2023-11-12 09:50:35,45.29802308627534,4.837986113701352,None,3.5,2386.53
2023-11-12 09:50:38,45.298031803454435,4.8381295280611445,154.0,3.44,2395.0
2023-11-12 09:50:43,45.298041610280904,4.838280737590697,None,3.38,2409.92
2023-11-12 09:50:46,45.2980455497753,4.838435802795616,None,3.33,2419.04
2023-11-12 09:50:50,45.298054853687596,4.838591370914713,154.0,3.33,2431.29
2023-11-12 09:50:54,45.29806692362787,4.838750124156937,154.0,3.28,2443.8
2023-11-12 09:50:59,45.29807371296928,4.83890435117156,None,3.26,2455.87
2023-11-12 09:51:02,45.298089722403944,4.839045921512699,None,3.23,2467.1
2023-11-12 09:51:06,45.29810573183862,4.839189922605699,154.0,3.22,2478.56
2023-11-12 09:51:10,45.29811411374158,4.839345155448677,None,3.23,2490.7
2023-11-12 09:51:14,45.29812157363523,4.839497706082705,154.0,3.21,2502.69
2023-11-12 09:51:19,45.298130374633345,4.839649250888377,159.0,3.18,2514.59
2023-11-12 09:51:22,45.29813708015572,4.839798951675395,None,3.18,2526.34
2023-11-12 09:51:26,45.298145797334804,4.839951586128453,None,3.09,2538.34
2023-11-12 09:51:30,45.298158705465376,4.840097682697196,159.0,2.99,2549.85
2023-11-12 09:51:34,45.298168931386996,4.840231374049544,None,2.98,2560.41
2023-11-12 09:51:39,45.298181168965336,4.84037663242799,None,2.95,2574.82
2023-11-12 09:51:43,45.29819474764814,4.8405278419575435,159.0,2.95,2583.78
2023-11-12 09:51:46,45.298206482312295,4.840685086457234,None,2.95,2596.18
2023-11-12 09:51:50,45.29821427748206,4.840847527736765,None,2.96,2608.93
2023-11-12 09:51:54,45.298224335765624,4.841007035350256,159.0,2.97,2621.45
2023-11-12 09:51:59,45.29823900409582,4.841162435831294,159.0,2.96,2635.4
2023-11-12 09:52:03,45.29825375624504,4.841303000344077,None,2.96,2644.85
2023-11-12 09:52:06,45.29826574236629,4.841442726666563,None,2.96,2655.91
2023-11-12 09:52:10,45.29827119060322,4.841586224845385,159.0,2.94,2667.14
2023-11-12 09:52:14,45.29828099742969,4.841737769651057,None,2.94,2679.04
2023-11-12 09:52:19,45.298291893903546,4.841890404104115,None,2.94,2693.99
2023-11-12 09:52:23,45.298303125653526,4.842039853434045,None,2.94,2705.67
2023-11-12 09:52:27,45.2983137706703,4.842185950002787,None,2.94,2714.33
2023-11-12 09:52:30,45.29831838071693,4.842336908075251,None,2.93,2726.2
2023-11-12 09:52:35,45.298317291069544,4.842492643832407,None,2.95,2741.5
2023-11-12 09:52:39,45.298319889459464,4.84265466601679,160.0,2.98,2753.26
2023-11-12 09:52:42,45.29832625970572,4.842817526391469,160.0,2.99,2763.88
2023-11-12 09:52:46,45.298335144522866,4.842970831396764,None,3.0,2775.86
2023-11-12 09:52:50,45.29834126331203,4.843126231877802,None,3.0,2788.09
2023-11-12 09:52:54,45.298353836166484,4.843280207435335,None,2.98,2800.21
2023-11-12 09:52:59,45.29836062550789,4.8434441574574,None,2.99,2813.05
2023-11-12 09:53:02,45.29836951032504,4.843606431098872,None,3.0,2825.84
2023-11-12 09:53:06,45.29837177343884,4.843756970076187,None,3.03,2837.65
2023-11-12 09:53:10,45.298381244989194,4.843910023624393,163.0,3.04,2849.61
2023-11-12 09:53:14,45.298388872520896,4.84406299335357,None,3.04,2861.66
2023-11-12 09:53:18,45.298394069300734,4.844217220368192,163.0,3.04,2873.73
2023-11-12 09:53:22,45.2983987631664,4.844370190097369,163.0,3.05,2885.7
2023-11-12 09:53:26,45.29840756416451,4.844525674397436,None,3.05,2897.95
2023-11-12 09:53:31,45.29841988556188,4.844681661611681,None,3.05,2910.2
2023-11-12 09:53:34,45.298431704045065,4.844832619684145,163.0,3.05,2922.19
2023-11-12 09:53:39,45.29844016976706,4.84498843926033,163.0,3.07,2937.27
2023-11-12 09:53:42,45.298445618003996,4.845138726780557,163.0,3.05,2946.12
2023-11-12 09:53:46,45.29844830021294,4.845290523043318,None,3.04,2958.01
2023-11-12 09:53:51,45.29846020251516,4.84544206784899,163.0,3.03,2972.81
2023-11-12 09:53:55,45.29846715949462,4.84558883496997,163.0,3.03,2981.47
2023-11-12 09:53:59,45.298479816168104,4.8457484264024915,163.0,3.02,2997.25
2023-11-12 09:54:02,45.2984905450039,4.845911957329409,None,3.03,3006.9
2023-11-12 09:54:07,45.298497921078514,4.846073141323494,162.0,3.03,3021.26
2023-11-12 09:54:10,45.29850596770537,4.846224267034017,None,3.03,3031.43
2023-11-12 09:54:15,45.298510829209086,4.846369441593433,162.0,3.02,3042.8
2023-11-12 09:54:19,45.29851837292176,4.846520064389779,162.0,3.02,3057.6
2023-11-12 09:54:22,45.298529269395615,4.84667177683351,162.0,3.01,3066.61
2023-11-12 09:54:26,45.29854066878366,4.8468263391242505,None,3.02,3078.73
2023-11-12 09:54:31,45.298550391791096,4.846987690756396,162.0,3.02,3094.46
2023-11-12 09:54:34,45.2985625455504,4.847142085409077,None,3.03,3103.63
2023-11-12 09:54:38,45.29857536986194,4.847299916641975,None,3.03,3116.02
2023-11-12 09:54:42,45.298587020707075,4.847458166970021,162.0,3.03,3128.53
2023-11-12 09:54:47,45.29862842730774,4.84760007258728,None,3.04,3143.66
2023-11-12 09:54:50,45.29872934541948,4.847673665695344,162.0,3.04,3153.14
2023-11-12 09:54:55,45.29883437066368,4.847725717312779,162.0,3.06,3168.51
2023-11-12 09:54:59,45.29893906063175,4.847767543008592,None,3.06,3177.62
2023-11-12 09:55:02,45.29904249331438,4.8478180858834925,162.0,3.06,3189.84
2023-11-12 09:55:06,45.29913410751383,4.847886985125894,162.0,3.04,3201.41
2023-11-12 09:55:10,45.29914492016866,4.848039368121863,None,3.02,3213.33
2023-11-12 09:55:13,45.299178531599566,4.848158810239165,None,3.02,3223.45
2023-11-12 09:55:16,45.299172915724576,4.848305828817234,None,3.08,3238.0
2023-11-12 09:55:20,45.299148524386936,4.848431305904674,None,3.1,3248.18
2023-11-12 09:55:23,45.29911860099334,4.848597099945392,None,3.1,3261.58
2023-11-12 09:55:24,45.29911860099334,4.848597099945392,None,3.13,3265.06
2023-11-12 09:55:27,45.29909664040756,4.848727019441405,None,3.16,3275.59
2023-11-12 09:55:30,45.299065375909485,4.848856603661299,None,3.19,3286.37
2023-11-12 09:55:32,45.29901466539653,4.8489738664838296,166.0,3.19,3293.55
2023-11-12 09:55:35,45.29895255549553,4.8490778858996695,None,3.22,3304.27
2023-11-12 09:55:38,45.298906790305324,4.849187772647587,None,3.23,3314.24
2023-11-12 09:55:41,45.298861695667355,4.849299671052218,166.0,3.25,3324.39
2023-11-12 09:55:44,45.29881995379057,4.849417269150867,166.0,3.27,3334.65
2023-11-12 09:55:47,45.29877963683729,4.849533945240189,None,3.28,3344.85
2023-11-12 09:55:50,45.29875080309108,4.84965665629965,166.0,3.3,3354.96
2023-11-12 09:55:53,45.29874317555937,4.8497839774057425,None,3.3,3364.97
2023-11-12 09:55:57,45.298778295732816,4.849943317381175,None,3.31,3378.06
2023-11-12 09:56:01,45.298840573271875,4.850083295160751,168.0,3.33,3391.03
2023-11-12 09:56:05,45.298892289613185,4.850227631529869,None,3.34,3403.69
2023-11-12 09:56:10,45.29891416637994,4.850388312609777,None,3.34,3419.65
2023-11-12 09:56:14,45.29892665541536,4.850549412784833,None,3.37,3429.2
2023-11-12 09:56:18,45.29889715111691,4.8507007061334155,None,3.38,3444.86
2023-11-12 09:56:20,45.29881593047715,4.850759211816136,None,3.34,3451.66
2023-11-12 09:56:23,45.298722556078076,4.850811850166779,None,3.35,3462.83
2023-11-12 09:56:27,45.29862700238423,4.850827775782419,None,3.37,3473.52
2023-11-12 09:56:30,45.29855357691423,4.85071545828264,None,3.36,3485.56
2023-11-12 09:56:35,45.29853396326128,4.850557375592653,None,3.33,3501.52
2023-11-12 09:56:38,45.29851761855049,4.85042737227761,168.0,3.3,3508.44
2023-11-12 09:56:41,45.298508147000135,4.850263254617485,None,3.3,3521.37
2023-11-12 09:56:45,45.29849951364008,4.850103160270786,None,3.29,3533.96
2023-11-12 09:56:50,45.29850177675388,4.849945831952065,None,3.27,3548.09
2023-11-12 09:56:54,45.29849775344046,4.849786827252752,None,3.25,3561.98
2023-11-12 09:56:57,45.298500938563585,4.849618602460172,166.0,3.25,3571.86
2023-11-12 09:57:01,45.29849549032666,4.849454400981018,166.0,3.25,3584.78
2023-11-12 09:57:05,45.29849012590876,4.849296402110061,None,3.25,3597.17
2023-11-12 09:57:09,45.29847964853005,4.8491354695730635,None,3.24,3609.78
2023-11-12 09:57:13,45.29847009316066,4.84897897944464,166.0,3.23,3622.12
2023-11-12 09:57:18,45.298455760106584,4.848825087706137,166.0,3.23,3637.43
2023-11-12 09:57:21,45.298445869461084,4.848662478788547,166.0,3.23,3647.01
2023-11-12 09:57:24,45.298441259414446,4.84853356512089,None,3.22,3657.14
2023-11-12 09:57:29,45.29844335489019,4.848366597613756,166.0,3.19,3673.64
2023-11-12 09:57:31,45.29843882866259,4.848235337013268,166.0,3.2,3680.49
2023-11-12 09:57:35,45.298435978815576,4.8480718899053805,None,3.2,3693.34
2023-11-12 09:57:40,45.29842457942754,4.847907772245256,None,3.2,3709.23
2023-11-12 09:57:44,45.29842005319994,4.847752120307129,162.0,3.18,3720.18
2023-11-12 09:57:48,45.29840940818317,4.84759479198841,None,3.18,3733.87
2023-11-12 09:57:51,45.29840605542198,4.847435032917828,None,3.18,3743.3
2023-11-12 09:57:55,45.29839465603394,4.847269993248378,162.0,3.18,3756.32
2023-11-12 09:58:00,45.29838736377836,4.847107887244965,None,3.18,3772.27
2023-11-12 09:58:04,45.29837973624666,4.846940500642682,None,3.18,3782.14
2023-11-12 09:58:06,45.29837680258062,4.84680773129966,162.0,3.18,3792.57
2023-11-12 09:58:10,45.2983680015825,4.846646966400723,None,3.2,3805.21
2023-11-12 09:58:15,45.29835961967954,4.846480920902915,None,3.2,3818.2
2023-11-12 09:58:18,45.29835031576724,4.846320156003978,None,3.21,3830.85
2023-11-12 09:58:21,45.298341095673976,4.84619157761244,None,3.22,3841.0
2023-11-12 09:58:25,45.298327852267285,4.84602871723776,None,3.24,3853.78
2023-11-12 09:58:29,45.29831569850798,4.845864599577636,162.0,3.23,3866.77
2023-11-12 09:58:34,45.29829876706398,4.845700398098481,None,3.23,3882.95
2023-11-12 09:58:37,45.29829139098937,4.845534771695823,None,3.22,3892.7
2023-11-12 09:58:41,45.29828032687745,4.845372581873381,163.0,3.22,3905.49
2023-11-12 09:58:45,45.29826892748942,4.84520997295579,163.0,3.22,3918.25
2023-11-12 09:58:49,45.298261216138684,4.845040574696795,163.0,3.22,3931.6
2023-11-12 09:58:53,45.29824956529356,4.844875618846373,None,3.24,3944.59
2023-11-12 09:58:58,45.29824302740924,4.844709573348566,None,3.25,3957.55
2023-11-12 09:59:01,45.29823607042978,4.84454579096456,163.0,3.25,3970.43
2023-11-12 09:59:06,45.29822500631786,4.8443820923995835,None,3.25,3986.66
2023-11-12 09:59:08,45.298215786224596,4.844253681646105,None,3.25,3993.38
2023-11-12 09:59:12,45.29820245899887,4.844084702482259,163.0,3.24,4006.7
2023-11-12 09:59:13,45.29820245899887,4.844084702482259,None,3.24,4010.13
2023-11-12 09:59:15,45.29819608875262,4.843954280072068,None,3.26,4016.98
2023-11-12 09:59:19,45.29818619810712,4.843825366404411,None,3.27,4027.09
2023-11-12 09:59:21,45.29817907348959,4.843696201279665,None,3.27,4037.27
2023-11-12 09:59:25,45.298171865053035,4.84356686851686,None,3.28,4050.84
2023-11-12 09:59:27,45.29816222586462,4.843435524097343,None,3.3,4057.79
2023-11-12 09:59:31,45.298154095418745,4.843302084202083,None,3.31,4068.22
2023-11-12 09:59:35,45.29814470768742,4.843133188857266,None,3.31,4084.76
2023-11-12 09:59:39,45.29812786006245,4.8429663889881915,None,3.32,4097.97
2023-11-12 09:59:42,45.29811235354196,4.842800092033294,None,3.32,4107.82
2023-11-12 09:59:46,45.298097349935645,4.842633375983249,None,3.32,4121.02
2023-11-12 09:59:49,45.29808636964276,4.8424995169928415,None,3.32,4131.61
2023-11-12 09:59:52,45.29809290752708,4.842363311069602,160.0,3.34,4142.23
2023-11-12 09:59:55,45.29816348315007,4.84227580400261,160.0,3.35,4152.66
2023-11-12 09:59:59,45.29826926276554,4.8422057312937925,160.0,3.36,4165.65
2023-11-12 10:00:02,45.29829700686436,4.842065250600039,None,3.38,4177.07
2023-11-12 10:00:05,45.298293570284144,4.841924350811138,160.0,3.38,4188.11
2023-11-12 10:00:06,45.298293570284144,4.841924350811138,160.0,3.41,4191.57
2023-11-12 10:00:08,45.298296168674064,4.841792671115502,None,3.43,4198.51
2023-11-12 10:00:11,45.298290971894225,4.841660237048598,159.0,3.43,4208.85
2023-11-12 10:00:14,45.29827336989799,4.841532999761535,None,3.43,4218.96
2023-11-12 10:00:17,45.29826482035696,4.841403331722611,None,3.43,4229.26
2023-11-12 10:00:20,45.29825174458833,4.841275759159429,159.0,3.43,4239.28
2023-11-12 10:00:23,45.29824394941857,4.841146510215654,159.0,3.43,4249.41
2023-11-12 10:00:27,45.298233891135006,4.840978033965985,None,3.43,4262.71
2023-11-12 10:00:31,45.298214780396236,4.84081659851481,159.0,3.41,4275.56
2023-11-12 10:00:34,45.298196256390675,4.840690618513193,159.0,3.41,4285.55
2023-11-12 10:00:37,45.29817756474706,4.840555921332488,None,3.42,4296.32
2023-11-12 10:00:40,45.298168260834764,4.84041912867604,None,3.42,4307.08
2023-11-12 10:00:43,45.298156358532545,4.840287029885256,None,3.44,4317.54
2023-11-12 10:00:46,45.29814873100084,4.840158367674689,None,3.45,4327.6
2023-11-12 10:00:50,45.298142528392646,4.840028867273824,None,3.45,4341.28
2023-11-12 10:00:52,45.29812568076768,4.839895427378564,None,3.45,4348.41
2023-11-12 10:00:56,45.2981183885121,4.8397525997519795,None,3.46,4359.6
2023-11-12 10:00:59,45.298105312743466,4.839617148200007,159.0,3.47,4373.88
2023-11-12 10:01:02,45.29809584119312,4.839480020267441,None,3.47,4384.69
2023-11-12 10:01:04,45.29809097968939,4.8393429761539055,None,3.47,4391.92
2023-11-12 10:01:07,45.29808326833866,4.83920836279223,154.0,3.46,4402.41
2023-11-12 10:01:10,45.298071030760326,4.839073581792495,None,3.46,4413.1
2023-11-12 10:01:14,45.29806155920997,4.838938381697612,None,3.47,4427.23
2023-11-12 10:01:16,45.29805116565029,4.838803684516907,None,3.47,4434.3
2023-11-12 10:01:20,45.298041610280904,4.838668903517172,None,3.48,4447.87
2023-11-12 10:01:23,45.2980348209395,4.8385362179931795,154.0,3.49,4457.42
2023-11-12 10:01:25,45.29802836687421,4.838403783926276,154.0,3.49,4465.75
2023-11-12 10:01:29,45.298023170094375,4.838271685135491,None,3.5,4476.08
2023-11-12 10:01:31,45.29801931441901,4.838136568859638,154.0,3.5,4486.69
2023-11-12 10:01:35,45.29800866940224,4.838000949669606,None,3.52,4500.85
2023-11-12 10:01:38,45.29800087423248,4.837866923041139,154.0,3.53,4511.28
2023-11-12 10:01:41,45.29799265996757,4.837736332992888,None,3.52,4519.94
2023-11-12 10:01:43,45.29798804992094,4.837606078220757,None,3.51,4528.39
2023-11-12 10:01:46,45.29797656671387,4.837473141239675,155.0,3.51,4538.95
2023-11-12 10:01:50,45.29797229194336,4.8373428026485135,155.0,3.52,4549.07
2023-11-12 10:01:52,45.29796634079225,4.837210787676758,None,3.52,4559.48
2023-11-12 10:01:55,45.29795485758518,4.837078185971796,155.0,3.52,4569.92
2023-11-12 10:01:59,45.29794454784453,4.836944075524299,155.0,3.51,4584.05
2023-11-12 10:02:01,45.29793465719903,4.836807953420089,None,3.51,4591.17
2023-11-12 10:02:05,45.29792702966733,4.836673340058414,155.0,3.51,4605.31
2023-11-12 10:02:07,45.29791956977368,4.836536044487788,155.0,3.5,4612.57
2023-11-12 10:02:11,45.297913702441605,4.836397491631717,None,3.51,4626.89
2023-11-12 10:02:14,45.29790993058527,4.836262962089072,154.0,3.51,4635.7
2023-11-12 10:02:17,45.29790163250133,4.836132288221791,None,3.5,4647.58
2023-11-12 10:02:20,45.29789719009276,4.836002704001897,154.0,3.49,4657.84
2023-11-12 10:02:22,45.29789123894165,4.835870605211113,154.0,3.49,4664.74
2023-11-12 10:02:25,45.29788344377189,4.835735153659141,None,3.49,4675.41
2023-11-12 10:02:28,45.29787204438385,4.835601127030674,154.0,3.5,4685.98
2023-11-12 10:02:31,45.29786047735776,4.835465256383553,154.0,3.5,4696.76
2023-11-12 10:02:34,45.29784731777009,4.835328631365165,None,3.5,4707.47
2023-11-12 10:02:37,45.29784010933354,4.8351921739848365,157.0,3.5,4718.24
2023-11-12 10:02:41,45.29783147597348,4.83506057810823,157.0,3.5,4731.94
2023-11-12 10:02:44,45.29782016040448,4.834930490974157,None,3.5,4742.27
2023-11-12 10:02:47,45.29781387397725,4.8347973025359865,None,3.5,4750.99
2023-11-12 10:02:49,45.29780482152204,4.83466579047841,None,3.5,4759.62
2023-11-12 10:02:52,45.297799289466084,4.834535284249189,None,3.5,4769.91
2023-11-12 10:02:56,45.29779308685789,4.834403772191612,None,3.5,4780.16
2023-11-12 10:02:58,45.29778395058365,4.834274942342985,None,3.5,4790.37
2023-11-12 10:03:01,45.297775568680684,4.834137730591389,None,3.49,4801.16
2023-11-12 10:03:05,45.297766683863536,4.833997668992785,None,3.5,4815.63
2023-11-12 10:03:07,45.29776232527399,4.833861965983723,None,3.5,4822.73
2023-11-12 10:03:10,45.297759475426986,4.833731040659354,157.0,3.5,4833.01
2023-11-12 10:03:13,45.29775268608558,4.833599109506628,None,3.49,4843.35
2023-11-12 10:03:17,45.29775008769566,4.833467932725171,None,3.48,4853.62
2023-11-12 10:03:20,45.297748159857974,4.833335163382148,157.0,3.49,4867.53
2023-11-12 10:03:22,45.29773642519382,4.83320130439174,158.0,3.49,4874.62
2023-11-12 10:03:26,45.29772871384309,4.833072390724083,None,3.49,4888.11
2023-11-12 10:03:28,45.29771974520691,4.832942303590011,158.0,3.48,4894.95
2023-11-12 10:03:29,45.29771974520691,4.832942303590011,158.0,3.48,4894.95
2023-11-12 10:03:31,45.297706334162164,4.8328112106275825,158.0,3.48,4905.38
2023-11-12 10:03:34,45.29769946100173,4.832676597265907,None,3.48,4915.92
2023-11-12 10:03:37,45.29769099527973,4.8325430735516175,None,3.47,4926.44
2023-11-12 10:03:41,45.29768068553908,4.83240653235226,None,3.47,4938.82
2023-11-12 10:03:43,45.297673309464464,4.832269991152901,None,3.47,4947.87
2023-11-12 10:03:47,45.29766660394209,4.832134623419959,None,3.48,4962.13
2023-11-12 10:03:49,45.29765662947756,4.831995986744858,None,3.49,4969.41
2023-11-12 10:03:53,45.29765042686936,4.831854500222749,158.0,3.5,4984.12
2023-11-12 10:03:55,45.297636764367525,4.831717120833094,None,3.51,4991.39
2023-11-12 10:03:59,45.29761916237129,4.83157697541546,None,3.53,5006.18
2023-11-12 10:04:02,45.29760667333587,4.83143548889335,158.0,3.55,5013.68
2023-11-12 10:04:04,45.29759669887134,4.831298444779813,None,3.55,5024.57
2023-11-12 10:04:07,45.29758420983591,4.831161316847248,None,3.54,5035.31
2023-11-12 10:04:10,45.29757490592362,4.8310267034855725,None,3.54,5045.95
2023-11-12 10:04:13,45.297565602011325,4.830885719877641,None,3.55,5056.98
2023-11-12 10:04:16,45.297549089662475,4.83073912039472,None,3.58,5068.7
2023-11-12 10:04:19,45.297530817114,4.830591850359562,None,3.6,5080.31
