Time,LatitudeDegrees,LongitudeDegrees,Elevation,Speed,Distance
2023-10-05 14:22:54,45.755108790814106,4.838422727026985,165.0,3.612,15602.69
2023-10-05 14:22:58,45.75520954128779,4.838452063687376,165.0,3.616,15615.12
2023-10-05 14:23:02,45.75530249659171,4.838502019829068,165.0,3.624,15626.23
2023-10-05 14:23:06,45.75540341470345,4.838540492763694,165.0,3.608,15637.74
2023-10-05 14:23:10,45.755494525988716,4.838608805272887,165.0,3.606,15649.43
2023-10-05 14:23:14,45.755568370553874,4.838741993711058,165.0,3.609,15661.46
2023-10-05 14:23:18,45.755655458525716,4.8388500364403235,165.0,3.605,15675.4
2023-10-05 14:23:22,45.755753945885594,4.838922539901001,None,5.45,15687.68
2023-10-05 14:23:26,45.755856288920846,4.838965036149052,165.0,2.96,15698.48
2023-10-05 14:23:30,45.75596894169674,4.838954558770341,165.0,2.95,15712.22
2023-10-05 14:23:34,45.756081762110696,4.8390030899885295,None,2.97,15725.33
2023-10-05 14:23:37,45.756162144560165,4.839062601499606,165.0,2.96,15734.23
2023-10-05 14:23:41,45.75625560277827,4.839108115232726,164.0,3.03,15746.14
2023-10-05 14:23:45,45.75634554059712,4.839127980342761,None,3.01,15756.35
2023-10-05 14:23:49,45.756442100119315,4.83916812965798,164.0,2.98,15767.64
2023-10-05 14:23:54,45.756442100119315,4.83916812965798,164.0,3.612,15786.54
2023-10-05 14:24:07,45.75692791521538,4.839436182914915,None,3.61,15832.8
2023-10-05 14:24:10,45.75701718248199,4.83948295393348,164.0,3.604,15842.12
2023-10-05 14:24:13,45.75709999568332,4.839537184845687,164.0,3.596,15853.37
2023-10-05 14:24:17,45.757202003442444,4.839596193442586,None,3.587,15865.65
2023-10-05 14:24:21,45.757310549085894,4.839638019138399,174.0,3.586,15877.01
2023-10-05 14:24:25,45.75742672226104,4.839693507336051,174.0,3.584,15891.87
2023-10-05 14:24:28,45.75751381023288,4.839727956957252,174.0,3.582,15901.8
2023-10-05 14:24:32,45.75762067949573,4.839763663863898,None,3.22,15912.92
2023-10-05 14:24:35,45.75770282214482,4.8398156316623036,174.0,3.22,15924.28
2023-10-05 14:24:38,45.75779669945807,4.839867431822649,None,3.22,15935.18
2023-10-05 14:24:42,45.75789921013138,4.83988838658007,174.0,3.25,15945.64
2023-10-05 14:24:47,45.758006582308404,4.839920740725529,174.0,3.22,15959.1
2023-10-05 14:24:50,45.75809442465151,4.8399541006993445,None,3.26,15968.94
2023-10-05 14:24:54,45.758187631412525,4.839987879768308,174.0,3.27,15978.67
2023-10-05 14:24:58,45.758284861486956,4.840020401551826,174.0,3.1,15990.91
2023-10-05 14:25:02,45.75839474823488,4.8400436194230485,None,3.1,16003.52
2023-10-05 14:25:05,45.75849373850893,4.8400780690442495,169.0,3.22,16013.49
2023-10-05 14:25:09,45.75860463108521,4.840089384613257,169.0,3.17,16027.06
2023-10-05 14:25:13,45.75872222918386,4.840105058771808,None,3.16,16040.25
2023-10-05 14:25:16,45.758813759564276,4.840114865598282,169.0,3.16,16049.23
2023-10-05 14:25:20,45.75891518059019,4.840127773728853,169.0,3.16,16061.56
2023-10-05 14:25:25,45.75903143758437,4.840123750415428,169.0,3.09,16073.51
2023-10-05 14:25:29,45.759131936600966,4.840137748193386,None,3.06,16085.77
2023-10-05 14:25:33,45.75923260325561,4.840146297734414,169.0,3.04,16097.09
2023-10-05 14:25:37,45.75934332819383,4.840159373503044,169.0,3.03,16108.35
2023-10-05 14:25:42,45.7594496945425,4.840161888073935,None,2.95,16121.43
2023-10-05 14:25:46,45.75957148359264,4.84019013508694,169.0,3.0,16135.27
2023-10-05 14:25:49,45.75967122823796,4.840208826730559,169.0,3.0,16145.12
2023-10-05 14:25:53,45.759784635385124,4.8402368222864744,None,3.07,16158.82
2023-10-05 14:25:58,45.75989519268528,4.840228440383505,169.0,3.07,16170.25
2023-10-05 14:26:02,45.75998563341831,4.840218214461884,169.0,3.05,16181.71
2023-10-05 14:26:05,45.75998563341831,4.840218214461884,None,3.59,16192.93
2023-10-05 14:26:16,45.76046105495469,4.840364227211596,166.0,3.597,16235.53
2023-10-05 14:26:20,45.76056323035188,4.840370848914942,166.0,3.604,16245.86
2023-10-05 14:26:27,45.76066750122481,4.840376464789931,None,3.604,16258.87
2023-10-05 14:26:30,45.760769173707814,4.840407980745092,166.0,3.604,16270.13
2023-10-05 14:26:34,45.760878641360584,4.840422146161109,166.0,3.602,16282.07
2023-10-05 14:26:37,45.76097503324472,4.8404407539857,None,3.601,16293.33
2023-10-05 14:26:41,45.761093888628814,4.8404616249240915,166.0,3.6,16306.61
2023-10-05 14:26:45,45.76120469738606,4.840480232748682,166.0,3.26,16318.47
2023-10-05 14:26:49,45.76130896825899,4.840482998776661,166.0,3.22,16330.42
2023-10-05 14:26:53,45.761401253010675,4.840482412043453,None,3.16,16339.75
2023-10-05 14:26:57,45.76149144228662,4.84048081948189,166.0,3.12,16350.92
2023-10-05 14:27:01,45.761598479187526,4.840498337659094,166.0,3.16,16363.03
2023-10-05 14:27:05,45.76171984914251,4.84053119471873,None,3.2,16375.54
2023-10-05 14:27:08,45.76182445529156,4.840561369569418,166.0,3.2,16388.66
2023-10-05 14:27:12,45.76194046082864,4.840596992657034,166.0,3.03,16401.69
2023-10-05 14:27:16,45.76204741391052,4.840624066203622,None,3.02,16412.71
2023-10-05 14:27:21,45.76216132397187,4.840643847494628,166.0,3.02,16428.08
2023-10-05 14:27:25,45.76228470558356,4.84066220386213,166.0,3.07,16440.66
2023-10-05 14:27:29,45.762382773848294,4.840675111992701,None,3.11,16450.75
2023-10-05 14:27:33,45.762481428846236,4.840670166669949,166.0,3.06,16461.95
2023-10-05 14:27:37,45.76259802111653,4.840672429783751,165.0,3.04,16474.22
2023-10-05 14:27:41,45.76272626423195,4.840681566057987,None,3.06,16488.58
2023-10-05 14:27:46,45.7628636436216,4.840695396197885,165.0,3.09,16506.35
2023-10-05 14:27:50,45.76297084816057,4.840689528865807,165.0,3.08,16515.79
2023-10-05 14:27:54,45.763095319419655,4.840695899112063,None,3.12,16532.64
2023-10-05 14:27:56,45.76321870103135,4.840747112539201,165.0,3.12,16545.16
2023-10-05 14:27:59,45.76331039904983,4.840759014841416,165.0,3.34,16554.2
2023-10-05 14:28:03,45.763416094846264,4.84076882166789,None,3.34,16566.47
2023-10-05 14:28:07,45.76353696188707,4.840777035932799,165.0,3.31,16579.7
2023-10-05 14:28:11,45.763650285215206,4.8408134133916825,165.0,3.33,16592.39
2023-10-05 14:28:14,45.76375857940156,4.840833194682689,None,3.37,16607.48
2023-10-05 14:28:18,45.76387793769983,4.840824980417779,165.0,3.41,16619.83
2023-10-05 14:28:24,45.76401632291784,4.8408134133916825,165.0,3.5,16633.92
2023-10-05 14:28:27,45.76410709892699,4.840809976811466,None,3.42,16645.26
2023-10-05 14:28:33,45.764276664824045,4.840844845527815,165.0,3.51,16662.45
2023-10-05 14:28:36,45.76437498454587,4.840849371755418,165.0,3.5,16674.69
2023-10-05 14:28:40,45.764500796909424,4.840858340391594,165.0,3.51,16688.51
2023-10-05 14:28:43,45.76461990375061,4.840879043691927,None,3.56,16700.78
2023-10-05 14:28:46,45.76471202086423,4.840888012328103,167.0,3.54,16711.34
2023-10-05 14:28:49,45.76480807747225,4.840886419766539,167.0,3.53,16721.76
2023-10-05 14:28:53,45.76489868584334,4.840903435029565,167.0,3.57,16731.93
2023-10-05 14:28:56,45.76499356898495,4.840910643466118,None,3.57,16745.0
2023-10-05 14:29:02,45.76516355397715,4.840920198835502,167.0,3.48,16761.45
2023-10-05 14:29:08,45.765341669415236,4.840934867165697,167.0,3.52,16782.99
2023-10-05 14:29:11,45.76543403798595,4.840938136107855,None,3.48,16792.92
2023-10-05 14:29:15,45.765550965532356,4.840935370079875,167.0,3.38,16804.6
2023-10-05 14:29:19,45.76566847981198,4.8409460150966455,167.0,3.33,16818.56
2023-10-05 14:29:23,45.76578792192928,4.8409430814306065,167.0,3.33,16831.49
2023-10-05 14:29:27,45.76590560384696,4.840929083652649,None,3.4,16844.16
2023-10-05 14:29:32,45.7660172507945,4.840906955428812,167.0,3.35,16859.65
2023-10-05 14:29:36,45.76613183140808,4.840877870225511,167.0,3.33,16869.65
2023-10-05 14:29:40,45.766252279353736,4.840857753658386,None,3.32,16885.5
2023-10-05 14:29:44,45.766367949614704,4.840845264622963,167.0,3.3,16898.08
2023-10-05 14:29:48,45.76648118912381,4.840834619606193,167.0,3.28,16908.71
2023-10-05 14:29:52,45.766594512451945,4.840815676505484,None,3.26,16923.21
2023-10-05 14:29:56,45.766725773052435,4.840804360936477,165.0,3.27,16936.04
2023-10-05 14:30:01,45.76688586739913,4.840785585473827,165.0,3.23,16955.18
2023-10-05 14:30:06,45.76706155208535,4.8407468610821125,None,3.21,16973.71
2023-10-05 14:30:11,45.76723648240031,4.840712243822852,165.0,3.21,16993.77
2023-10-05 14:30:17,45.7674013544317,4.84070201790123,165.0,3.35,17011.74
