Time,LatitudeDegrees,LongitudeDegrees,Elevation,Speed,Distance
2023-10-10 16:23:33,45.78104214714179,4.8719229300785845,None,3.525,229.43
2023-10-10 16:23:37,45.78114968695688,4.871999540671717,None,3.526,242.28
2023-10-10 16:23:42,45.78121607162839,4.872140021365471,169.0,3.523,255.17
2023-10-10 16:23:46,45.78123828367126,4.872302127368883,None,3.53,270.54
2023-10-10 16:23:50,45.781265860132024,4.872467753771542,None,3.536,281.22
2023-10-10 16:23:56,45.78130793728493,4.872699681026683,171.0,3.541,301.02
2023-10-10 16:24:02,45.781348002781115,4.872939403451584,None,3.22,318.96
2023-10-10 16:24:09,45.78133886650688,4.873181053714168,None,3.28,341.22
2023-10-10 16:24:12,45.781334088822184,4.8733211153127725,170.0,3.28,348.63
2023-10-10 16:24:18,45.781363174025486,4.873547761969043,170.0,3.15,368.44
2023-10-10 16:24:22,45.7814018984172,4.873685644272876,None,3.16,379.43
2023-10-10 16:24:26,45.78144447848428,4.873816234321127,170.0,3.14,389.26
2023-10-10 16:24:30,45.78151463501213,4.873901310636258,None,3.12,400.11
2023-10-10 16:24:36,45.78166592836072,4.873844900429279,170.0,3.15,416.88
2023-10-10 16:24:40,45.781801631369774,4.873757141905198,170.0,3.13,436.12
2023-10-10 16:24:44,45.781801631369774,4.873757141905198,None,3.511,449.58
2023-10-10 16:25:34,45.78228794938001,4.874340103256663,170.0,3.56,627.88
2023-10-10 16:25:38,45.78228794938001,4.874340103256663,170.0,3.558,642.26
2023-10-10 16:25:58,45.781989302177244,4.874953071820754,170.0,3.539,712.71
2023-10-10 16:26:03,45.7820230812462,4.875134707658083,None,3.537,731.03
2023-10-10 16:26:06,45.78205082534503,4.875307291040206,173.0,3.53,740.55
2023-10-10 16:26:09,45.78209826691583,4.87548255663128,None,3.522,759.05
2023-10-10 16:26:11,45.782135063469866,4.875636532188812,173.0,3.521,769.36
2023-10-10 16:26:15,45.78217253057613,4.875785730061653,None,3.516,780.09
2023-10-10 16:26:19,45.78219197659102,4.87592528874608,None,3.514,792.08
2023-10-10 16:26:23,45.78223732268608,4.8761343334061165,173.0,3.74,808.33
2023-10-10 16:26:28,45.78229901349193,4.8763158854244155,173.0,3.74,823.82
2023-10-10 16:26:32,45.78229901349193,4.8763158854244155,None,3.505,841.3
2023-10-10 16:26:46,45.78247411144494,4.877120045195221,None,3.499,890.07
2023-10-10 16:26:55,45.78256572564439,4.87714150286682,None,3.497,906.63
2023-10-10 16:26:57,45.78269740534002,4.877108981083302,None,3.497,915.28
2023-10-10 16:27:02,45.7828817233863,4.877187100418969,None,3.502,937.73
2023-10-10 16:27:07,45.782972080300304,4.877204283320055,173.0,3.511,948.35
2023-10-10 16:27:11,45.78311046551832,4.877193973579404,None,3.51,962.24
2023-10-10 16:27:14,45.783232003111365,4.877202606939461,None,3.34,975.97
2023-10-10 16:27:20,45.78331490013172,4.87725633493749,None,3.37,985.91
2023-10-10 16:27:24,45.78339863534238,4.877433360728186,None,3.37,1005.24
2023-10-10 16:27:27,45.78346678021351,4.877539978533947,None,3.35,1016.95
2023-10-10 16:27:31,45.78365151735494,4.877525477841811,None,3.31,1036.72
2023-10-10 16:27:34,45.78374950180064,4.8774776171758605,None,3.58,1045.87
2023-10-10 16:27:37,45.78384438494225,4.877425397920366,None,3.58,1058.98
2023-10-10 16:27:41,45.783943123759215,4.877386338252532,None,3.59,1070.19
2023-10-10 16:27:45,45.78403649815829,4.877389439556631,None,3.61,1078.98
2023-10-10 16:27:48,45.78414579817299,4.877340824519413,None,3.55,1093.96
2023-10-10 16:27:51,45.78423858583886,4.877293299129581,None,3.59,1104.78
2023-10-10 16:27:54,45.78432517089652,4.877247785396462,172.0,3.57,1112.96
2023-10-10 16:27:57,45.784412258868365,4.877210569747281,172.0,3.57,1125.16
2023-10-10 16:28:00,45.784500604125654,4.877176455402199,None,3.66,1134.92
2023-10-10 16:28:04,45.78459515199114,4.877208809547658,172.0,3.61,1144.08
2023-10-10 16:28:08,45.78461945950975,4.877376196149941,172.0,3.61,1159.54
2023-10-10 16:28:11,45.78460303097993,4.8775120667970615,None,3.47,1170.14
2023-10-10 16:28:14,45.78456782698746,4.877633939666224,172.0,3.48,1180.67
2023-10-10 16:28:17,45.7845233190827,4.877769558856256,None,3.54,1189.93
2023-10-10 16:28:20,45.7845233190827,4.877769558856256,172.0,3.545,1202.12
2023-10-10 16:28:55,45.78391755895516,4.87904075826047,None,3.538,1327.08
2023-10-10 16:28:58,45.78390515373877,4.879175874536323,None,3.526,1337.58
2023-10-10 16:29:01,45.78392317483015,4.879303530918535,173.0,3.527,1345.62
2023-10-10 16:29:05,45.78402803243629,4.879335298330786,None,3.508,1359.67
2023-10-10 16:29:08,45.78412090392118,4.879327335522966,None,3.501,1370.03
2023-10-10 16:29:11,45.78421167993033,4.87930755423196,173.0,3.508,1378.13
2023-10-10 16:29:15,45.784318968288325,4.879252317491397,None,3.515,1392.94
2023-10-10 16:29:18,45.784409995754565,4.879226165954135,173.0,3.515,1403.49
2023-10-10 16:29:21,45.78451015949504,4.879194230903825,None,3.34,1414.79
2023-10-10 16:29:24,45.784605880826945,4.879165732433732,None,3.34,1423.46
2023-10-10 16:29:29,45.78469833321669,4.879123068547622,172.0,3.31,1435.68
2023-10-10 16:29:34,45.784799418966486,4.879100102133488,172.0,3.21,1445.66
2023-10-10 16:29:40,45.78492782971996,4.8790806561186,None,3.07,1461.75
2023-10-10 16:29:44,45.78502681999402,4.879096665553271,172.0,3.05,1471.12
2023-10-10 16:29:47,45.78512094876436,4.879118709958078,172.0,3.05,1484.35
2023-10-10 16:29:50,45.78523184134063,4.879151147922566,None,3.15,1496.25
2023-10-10 16:29:54,45.785338123870275,4.879202696625823,None,3.16,1508.92
2023-10-10 16:29:57,45.78542755877495,4.879231698010094,None,3.16,1517.04
2023-10-10 16:30:00,45.785536272056454,4.879274110439115,None,3.17,1531.64
2023-10-10 16:30:03,45.78562453349471,4.879302692728238,None,3.19,1541.39
2023-10-10 16:30:07,45.785725954520636,4.87931032025994,None,3.2,1550.95
2023-10-10 16:30:10,45.785837936744294,4.879315265582691,None,3.2,1566.5
2023-10-10 16:30:12,45.785928042201206,4.8793181154297,None,3.3,1576.18
2023-10-10 16:30:15,45.7860468975853,4.879312667192771,174.0,3.3,1589.05
2023-10-10 16:30:18,45.7861457202213,4.8792879405790135,174.0,3.37,1597.87
2023-10-10 16:30:21,45.78624102245805,4.879260950851455,None,3.38,1610.79
2023-10-10 16:30:24,45.786330541181755,4.879227255601521,174.0,3.36,1621.02
2023-10-10 16:30:28,45.78644487033825,4.87917939493557,None,3.38,1632.24
2023-10-10 16:30:31,45.78652986283435,4.879132288640887,173.0,3.46,1644.35
2023-10-10 16:30:35,45.78664326998151,4.879098677209983,None,3.51,1656.85
2023-10-10 16:30:39,45.78666212926319,4.879228093791818,174.0,3.45,1665.54
2023-10-10 16:30:43,45.78666246453931,4.879364299715057,None,3.47,1677.79
2023-10-10 16:30:47,45.78668216201129,4.879499835086059,174.0,3.46,1686.87
2023-10-10 16:30:52,45.78670470933027,4.879638052666011,174.0,3.46,1699.13
2023-10-10 16:30:57,45.78673362689552,4.879761099001589,None,3.27,1707.96
2023-10-10 16:31:04,45.78673362689552,4.879761099001589,None,3.492,1733.25
2023-10-10 16:31:28,45.786192407420835,4.8796079616343535,174.0,3.394,1817.74
2023-10-10 16:31:30,45.786056955868865,4.87957150035644,None,3.41,1831.11
2023-10-10 16:31:33,45.785938184303795,4.879609135100769,None,3.418,1841.89
2023-10-10 16:31:37,45.78592259396427,4.879790854757128,174.0,3.544,1859.84
2023-10-10 16:31:41,45.78575302806722,4.879586336324695,174.0,3.543,1883.49
2023-10-10 16:31:44,45.785727547082196,4.879418279170175,None,3.55,1894.13
2023-10-10 16:31:48,45.7857303969292,4.879259274470861,174.0,3.554,1909.5
2023-10-10 16:31:51,45.78566870612336,4.879089792392836,None,3.556,1923.96
2023-10-10 16:31:54,45.78562302475218,4.878937157939778,None,4.83,1936.47
2023-10-10 16:31:57,45.785594693920146,4.878800030007213,173.0,4.83,1945.31
2023-10-10 16:32:01,45.78559318517761,4.878639348927305,None,4.82,1960.04
2023-10-10 16:32:04,45.78556099867021,4.878504819384659,None,4.82,1971.12
2023-10-10 16:32:05,45.78556099867021,4.878504819384659,173.0,3.533,1974.71
2023-10-10 16:32:31,45.786213445997284,4.8781146418014725,None,3.511,2068.05
2023-10-10 16:32:34,45.786340767103376,4.878074660124312,None,3.528,2082.36
2023-10-10 16:32:37,45.78645836520203,4.8780366901038645,None,3.532,2095.18
2023-10-10 16:32:40,45.78655224251528,4.878057812499345,None,3.519,2103.6
2023-10-10 16:32:43,45.786642096515095,4.878027972924777,None,3.512,2116.05
2023-10-10 16:32:46,45.78671359414742,4.877939711486518,None,3.51,2126.19
2023-10-10 16:32:50,45.7867493848731,4.877796213307696,None,3.51,2136.2
2023-10-10 16:32:54,45.78671619253734,4.877672161143761,173.0,3.508,2148.12
2023-10-10 16:32:58,45.7866765461363,4.877550288274598,173.0,3.65,2159.5
2023-10-10 16:33:01,45.786608568903226,4.877422548073357,None,3.71,2169.42
2023-10-10 16:33:06,45.78656020532309,4.877288605263919,None,3.61,2183.31
2023-10-10 16:33:10,45.78649985562172,4.877127588907893,173.0,3.7,2198.67
2023-10-10 16:33:12,45.78645098912742,4.877005213124551,None,3.7,2206.27
2023-10-10 16:33:15,45.78639659057715,4.876871354134143,None,3.7,2220.27
2023-10-10 16:33:19,45.786349735739556,4.87671746239564,None,3.76,2233.2
2023-10-10 16:33:23,45.78630539547285,4.876577736073154,None,3.89,2243.26
2023-10-10 16:33:26,45.78630539547285,4.876577736073154,None,3.89,2256.71
2023-10-10 16:33:59,45.78601420816372,4.875261525849998,None,3.566,2374.11
2023-10-10 16:34:03,45.78601420816372,4.875261525849998,None,3.57,2387.97
2023-10-10 16:34:12,45.78578471166044,4.874656100998578,None,3.559,2427.53
2023-10-10 16:34:15,45.78578471166044,4.874656100998578,None,3.554,2437.7
2023-10-10 16:34:48,45.78564297368124,4.873277110322188,172.0,3.564,2555.11
2023-10-10 16:34:52,45.78564297368124,4.873277110322188,None,3.561,2569.13
2023-10-10 16:35:06,45.78557457735302,4.872565151484037,None,3.555,2619.27
2023-10-10 16:35:09,45.78553996009376,4.872415366877989,175.0,3.545,2631.29
2023-10-10 16:35:12,45.78551967588857,4.872276478745799,175.0,3.548,2640.02
2023-10-10 16:35:16,45.785497380026676,4.872122084093118,None,3.543,2654.11
2023-10-10 16:35:20,45.785466031709575,4.871972802401247,None,3.54,2666.44
2023-10-10 16:35:23,45.78543820379172,4.871848331142164,None,3.545,2674.51
2023-10-10 16:35:27,45.78539461789629,4.871701647840214,173.0,3.542,2688.6
2023-10-10 16:35:31,45.78537626152878,4.871562089155788,None,3.533,2699.77
2023-10-10 16:35:35,45.785353295114646,4.8714093708837,None,3.3,2710.04
2023-10-10 16:35:38,45.785317588208,4.871288084747745,173.0,3.3,2722.19
2023-10-10 16:35:42,45.78529235868007,4.871130924067084,None,3.19,2734.62
2023-10-10 16:35:46,45.785264363124156,4.870981726194243,None,3.18,2744.77
2023-10-10 16:35:50,45.78522547109438,4.8708186981815045,None,3.2,2760.07
2023-10-10 16:35:54,45.78517006671576,4.870676876383276,None,3.22,2772.66
2023-10-10 16:35:58,45.7851445019117,4.8705219788164165,None,3.28,2783.12
2023-10-10 16:36:01,45.78512195459272,4.8703893771114535,None,3.29,2795.15
2023-10-10 16:36:06,45.785114913794224,4.870239843962494,None,3.21,2807.01
2023-10-10 16:36:10,45.78512866011509,4.870100536735157,172.0,3.12,2816.27
2023-10-10 16:36:14,45.7851377125703,4.869949411024633,172.0,3.07,2828.98
2023-10-10 16:36:21,45.78504458962832,4.869917308336263,None,2.96,2838.7
2023-10-10 16:36:32,45.78512991740054,4.869873806259856,172.0,2.78,2858.12
2023-10-10 16:36:36,45.78520116357577,4.869753274495168,172.0,2.78,2872.99
2023-10-10 16:36:39,45.78531255906622,4.8697174837694925,None,2.85,2885.89
2023-10-10 16:36:42,45.78543568922083,4.869717902864641,None,2.96,2896.8
2023-10-10 16:36:46,45.78553543386616,4.869669287827423,None,2.95,2909.87
2023-10-10 16:36:51,45.78562411439957,4.869607429383516,None,2.86,2919.51
2023-10-10 16:36:57,45.78571279493297,4.8695618318313665,None,2.75,2931.75
2023-10-10 16:37:01,45.78574389179298,4.869420010033138,177.0,2.67,2941.53
2023-10-10 16:37:06,45.78578630422201,4.869294197669579,177.0,2.67,2953.81
2023-10-10 16:37:11,45.78583299142154,4.869158662298577,None,2.63,2966.17
2023-10-10 16:37:14,45.78587305691773,4.869042656761493,None,2.63,2974.17
2023-10-10 16:37:18,45.785943129626546,4.868950204371749,None,2.66,2986.0
2023-10-10 16:37:23,45.78601026866933,4.868863786952143,177.0,2.64,2994.81
2023-10-10 16:37:30,45.786065170133774,4.868739064235971,172.0,2.64,3008.33
2023-10-10 16:37:37,45.786043125728966,4.8686047861504145,None,2.64,3031.6
2023-10-10 16:37:40,45.785965509307474,4.868469166960383,172.0,2.69,3043.46
2023-10-10 16:37:44,45.78588521067704,4.868335391789004,172.0,2.66,3059.46
2023-10-10 16:37:47,45.785810192645464,4.868198096218379,None,2.64,3070.07
2023-10-10 16:37:51,45.78571556096095,4.86802182479895,172.0,2.88,3087.34
2023-10-10 16:37:54,45.78571556096095,4.86802182479895,None,2.88,3097.19
2023-10-10 16:37:55,45.78559720849103,4.867865418489556,172.0,2.99,3108.79
2023-10-10 16:37:57,45.78550207389234,4.8677429588871854,None,2.99,3119.49
2023-10-10 16:37:59,45.78550207389234,4.8677429588871854,172.0,3.069,3130.23
2023-10-10 16:38:05,45.785115249070344,4.868156102884506,175.0,3.11,3175.13
2023-10-10 16:38:07,45.78498767650716,4.868227935792947,None,3.136,3188.44
2023-10-10 16:38:09,45.784904192753594,4.8683051331192875,175.0,3.14,3199.99
2023-10-10 16:38:13,45.784786929931066,4.868279316858144,175.0,3.473,3212.91
2023-10-10 16:38:18,45.78470453582488,4.868162305492703,None,3.606,3225.61
2023-10-10 16:38:22,45.78464083336232,4.868035654938848,175.0,3.614,3239.59
2023-10-10 16:38:28,45.784544525297214,4.867923253620039,175.0,3.616,3251.55
2023-10-10 16:38:36,45.78449222222269,4.867758046312528,None,4.43,3265.64
2023-10-10 16:38:45,45.784572520853125,4.86752553232418,175.0,4.4,3286.96
2023-10-10 16:38:48,45.78461384363476,4.867401480160245,175.0,4.38,3296.44
2023-10-10 16:38:54,45.78461384363476,4.867401480160245,None,3.567,3318.17
2023-10-10 16:39:23,45.78551900533634,4.8668264816166005,None,3.441,3415.04
2023-10-10 16:39:31,45.785549180187026,4.866988084705835,172.0,3.448,3428.03
2023-10-10 16:39:42,45.78559477773918,4.867137198759646,None,3.473,3440.67
2023-10-10 16:39:48,45.785617073601074,4.867300059134325,172.0,3.481,3453.68
2023-10-10 16:39:55,45.78567792621662,4.867511702184282,None,4.56,3471.32
2023-10-10 16:40:04,45.78571053181917,4.867751759885302,None,2.61,3490.31
2023-10-10 16:40:11,45.78575998504669,4.868054933315675,None,2.39,3516.11
2023-10-10 16:40:15,45.78578865115484,4.868206226664258,None,2.3,3528.31
2023-10-10 16:40:19,45.78581052792158,4.868390293253448,None,2.44,3541.14
2023-10-10 16:40:23,45.78584799502786,4.8685874356112695,None,2.63,3558.31
2023-10-10 16:40:27,45.78587582294571,4.868786086711625,None,2.72,3573.6
2023-10-10 16:40:31,45.785917816279586,4.868948695629215,None,2.87,3586.2
2023-10-10 16:40:35,45.785932568428805,4.869101078625183,None,2.88,3598.14
2023-10-10 16:40:44,45.78596182127017,4.8693659467589905,177.0,3.01,3622.31
2023-10-10 16:40:48,45.78601060394544,4.869547163501172,None,3.05,3638.28
2023-10-10 16:40:51,45.7860522620032,4.869740869278775,None,3.18,3649.77
2023-10-10 16:40:55,45.78606793616175,4.86988101469641,177.0,3.22,3661.92
2023-10-10 16:41:01,45.78607480932219,4.87002241739949,177.0,3.21,3671.79
2023-10-10 16:41:06,45.78610716346764,4.870219308300221,None,3.15,3688.43
2023-10-10 16:41:11,45.78614446293585,4.870408823126341,177.0,3.13,3702.78
2023-10-10 16:41:16,45.78618025366153,4.870590207506581,None,3.16,3717.59
2023-10-10 16:41:22,45.78620145987604,4.870751307681637,None,3.14,3730.14
2023-10-10 16:41:27,45.786226354127855,4.870943337078647,None,3.03,3747.84
2023-10-10 16:41:32,45.78625351149348,4.871139473608111,None,3.04,3762.58
2023-10-10 16:41:36,45.786279746849765,4.871265034514581,None,3.09,3771.0
2023-10-10 16:41:40,45.78631897415566,4.871482125801467,175.0,3.09,3790.81
2023-10-10 16:41:43,45.78635174739627,4.871640124672425,175.0,3.16,3801.21
2023-10-10 16:41:49,45.78639172907343,4.871863921481686,175.0,3.15,3820.21
2023-10-10 16:41:55,45.786434057683415,4.872079168749919,175.0,3.07,3836.5
2023-10-10 16:42:01,45.786480912521014,4.872327273077788,175.0,3.04,3856.6
2023-10-10 16:42:07,45.78650647732507,4.872455600012238,None,3.13,3866.81
2023-10-10 16:42:11,45.786548470658936,4.872661711006235,None,3.23,3885.61
2023-10-10 16:42:15,45.78648753422436,4.872766149517223,175.0,3.14,3895.79
2023-10-10 16:42:20,45.78640396665176,4.872697250274822,None,3.12,3907.29
2023-10-10 16:42:22,45.78634520951195,4.8725283549300045,None,3.39,3923.47
2023-10-10 16:42:27,45.78634194056979,4.872339091560974,175.0,3.43,3937.68
2023-10-10 16:42:29,45.78634194056979,4.872339091560974,175.0,3.652,3943.2
2023-10-10 16:42:43,45.78619869384806,4.871416746958312,None,3.673,4010.12
2023-10-10 16:42:49,45.78610154759266,4.871285402538795,None,3.679,4035.92
2023-10-10 16:42:51,45.786095428803485,4.870942079793202,None,3.682,4051.52
2023-10-10 16:42:55,45.786095428803485,4.870942079793202,175.0,3.673,4068.88
2023-10-10 16:43:07,45.78609500970834,4.870257529777758,177.0,3.716,4110.0
2023-10-10 16:43:12,45.78608285594903,4.87011017592357,None,3.737,4124.51
2023-10-10 16:43:15,45.786068774352046,4.869958966394018,None,3.732,4132.87
2023-10-10 16:43:18,45.786052597279316,4.8698098523402065,177.0,3.716,4146.43
2023-10-10 16:43:22,45.786026948656236,4.8696311501689165,177.0,3.704,4159.1
2023-10-10 16:43:27,45.78600356314695,4.86946208718604,None,3.683,4174.47
2023-10-10 16:43:31,45.785946482387736,4.869258909858082,177.0,3.641,4192.02
2023-10-10 16:43:35,45.78592192341204,4.869074591811803,177.0,4.1,4203.7
2023-10-10 16:43:40,45.78589744825537,4.868877114177863,None,3.86,4222.13
2023-10-10 16:43:43,45.78588127118264,4.868685084780853,None,4.01,4236.57
2023-10-10 16:43:46,45.785841876238685,4.8685268344528065,172.0,4.01,4247.33
2023-10-10 16:43:49,45.78581497033016,4.8683482999195755,None,4.01,4262.05
2023-10-10 16:43:54,45.78576995951122,4.868125508938671,None,3.61,4281.09
2023-10-10 16:43:58,45.78574649018291,4.867977735989335,None,3.57,4291.28
2023-10-10 16:44:02,45.78574615490679,4.8678378420287896,172.0,3.54,4303.04
2023-10-10 16:44:06,45.785710364181114,4.867662744075775,None,3.57,4316.83
2023-10-10 16:44:10,45.78567566310282,4.867467026641459,None,3.58,4331.97
2023-10-10 16:44:15,45.785645823528256,4.867282121861972,172.0,3.63,4349.9
2023-10-10 16:44:19,45.78562277329509,4.867101743310089,None,3.61,4360.95
2023-10-10 16:44:23,45.785604836022735,4.866894039754528,None,3.66,4379.27
2023-10-10 16:44:26,45.7855889104071,4.8667571632790505,None,3.63,4388.89
2023-10-10 16:44:29,45.78555831646126,4.86660260098831,None,3.68,4400.93
2023-10-10 16:44:32,45.7855268005061,4.866460024818815,None,3.66,4412.05
2023-10-10 16:44:39,45.78546301422451,4.866226253545021,168.0,3.69,4434.45
2023-10-10 16:44:42,45.7854364435921,4.866095328220652,None,3.67,4442.12
2023-10-10 16:44:49,45.785369807463496,4.8658288675252805,None,3.63,4466.43
2023-10-10 16:44:53,45.78534784687772,4.86562652838762,172.0,3.45,4479.99
2023-10-10 16:44:57,45.785329574329246,4.865449251139834,None,3.42,4495.49
2023-10-10 16:45:01,45.785295208527074,4.865248504563737,None,3.49,4511.15
2023-10-10 16:45:05,45.78527727125473,4.865054547329044,None,3.55,4525.13
2023-10-10 16:45:09,45.78528758099537,4.864856399142867,172.0,3.57,4540.96
2023-10-10 16:45:14,45.7853528760195,4.864685995055515,None,3.56,4555.65
2023-10-10 16:45:18,45.78544113745776,4.864543921800198,166.0,3.56,4573.8
2023-10-10 16:45:22,45.78553954099861,4.8643961488508625,166.0,3.58,4589.15
2023-10-10 16:45:26,45.78563081992194,4.864248208263467,None,3.57,4601.62
2023-10-10 16:45:31,45.78570818488634,4.8640619623795045,166.0,3.55,4620.07
2023-10-10 16:45:36,45.78575135168663,4.863872531372415,None,3.48,4633.92
2023-10-10 16:45:41,45.78576333780787,4.86365795465642,166.0,3.46,4651.57
2023-10-10 16:45:46,45.78577213880599,4.863452933309808,166.0,3.42,4666.57
2023-10-10 16:45:51,45.78581664671075,4.863278170632913,None,3.44,4681.27
2023-10-10 16:45:57,45.78587842133563,4.863067030497135,None,3.47,4698.79
2023-10-10 16:46:02,45.78593466390455,4.862859326941574,None,3.44,4718.77
2023-10-10 16:46:07,45.7859779983429,4.8626577421751795,None,3.4,4738.48
2023-10-10 16:46:09,45.78601186123089,4.8624391421457585,None,3.4,4749.85
2023-10-10 16:46:13,45.7860308043316,4.862307127174003,None,3.42,4762.84
2023-10-10 16:46:15,45.78604094643419,4.862175782754486,166.0,3.56,4771.66
2023-10-10 16:46:19,45.78605117235581,4.862044270696909,166.0,3.48,4782.53
2023-10-10 16:46:21,45.78606550540989,4.861910327887471,166.0,3.48,4791.36
2023-10-10 16:46:29,45.78608880710014,4.861639676240616,166.0,3.37,4812.53
2023-10-10 16:46:35,45.78610775020085,4.8614211600302255,166.0,3.37,4832.73
2023-10-10 16:46:40,45.78612417873067,4.861206080400051,166.0,3.39,4850.99
2023-10-10 16:46:43,45.786136667766094,4.860987228913542,166.0,3.56,4863.46
2023-10-10 16:46:46,45.78614471439294,4.860855130122757,166.0,3.55,4875.83
2023-10-10 16:46:50,45.78615569468583,4.86068095417907,166.0,3.56,4888.92
2023-10-10 16:46:54,45.78616675879775,4.860508370796947,166.0,3.59,4900.79
2023-10-10 16:46:58,45.78618293587048,4.860343498765555,168.0,3.56,4914.59
2023-10-10 16:47:02,45.78619031194509,4.860116768290255,168.0,3.63,4931.33
2023-10-10 16:47:07,45.78619039576412,4.85992599617869,168.0,3.63,4949.3
2023-10-10 16:47:11,45.786193077973074,4.859757687567082,168.0,3.62,4962.22
2023-10-10 16:47:15,45.78619584400105,4.859575045901396,168.0,3.58,4973.39
2023-10-10 16:47:20,45.78621101524542,4.859413107536043,168.0,3.45,4988.93
2023-10-10 16:47:24,45.786231970002845,4.859168858883539,168.0,3.52,5005.18
2023-10-10 16:47:28,45.78624345320991,4.85900306484282,168.0,3.52,5018.76
2023-10-10 16:47:34,45.78625401440765,4.858837019345013,168.0,3.46,5031.78
2023-10-10 16:47:39,45.7862651623386,4.858591261949974,168.0,3.54,5051.7
2023-10-10 16:47:43,45.78627907629753,4.858430161774918,168.0,3.53,5064.59
2023-10-10 16:47:49,45.78629307407549,4.858266211752853,166.0,3.3,5075.6
2023-10-10 16:47:52,45.78630229416875,4.858019364710429,166.0,3.5,5096.25
2023-10-10 16:47:57,45.7863049763777,4.857858096897313,166.0,3.44,5109.39
2023-10-10 16:48:00,45.7863103407956,4.8576883633621994,166.0,3.52,5120.5
2023-10-10 16:48:05,45.78631252009038,4.857531370319598,166.0,3.38,5134.41
2023-10-10 16:48:08,45.786316375765736,4.857240853562707,166.0,3.38,5157.51
2023-10-10 16:48:11,45.78631830360342,4.8570985288503,166.0,3.65,5166.29
2023-10-10 16:48:15,45.786317297775064,4.856933656818908,166.0,3.67,5181.06
2023-10-10 16:48:19,45.78630656893927,4.856769790615873,166.0,3.65,5193.69
2023-10-10 16:48:23,45.78629491809414,4.856617156162815,166.0,3.69,5205.35
2023-10-10 16:48:26,45.78628494362961,4.856483800086585,166.0,3.6,5216.17
2023-10-10 16:48:30,45.78628460835349,4.8563189280551935,166.0,3.61,5229.07
2023-10-10 16:48:33,45.78627865720238,4.85618909237821,167.0,3.59,5237.1
2023-10-10 16:48:37,45.78626650344307,4.85602095140466,167.0,3.67,5252.33
2023-10-10 16:48:40,45.786255690788245,4.855889355528054,167.0,3.59,5262.47
2023-10-10 16:48:44,45.78624010044872,4.855726998067552,167.0,3.6,5273.23
2023-10-10 16:48:48,45.78622325282376,4.855564137692872,167.0,3.57,5288.11
2023-10-10 16:48:51,45.786207830122294,4.8554369842248395,167.0,3.65,5297.91
2023-10-10 16:48:55,45.786183187327566,4.855283008667307,167.0,3.46,5308.29
2023-10-10 16:48:59,45.7861572872474,4.85512735672918,167.0,3.5,5322.64
2023-10-10 16:49:03,45.78612786676798,4.8549699445914305,167.0,3.44,5335.44
2023-10-10 16:49:07,45.78609802719341,4.854800630151465,None,3.5,5348.49
2023-10-10 16:49:10,45.78607413876995,4.8546673578942645,None,3.5,5359.7
2023-10-10 16:49:13,45.78605284873641,4.854539533873994,167.0,3.26,5369.79
2023-10-10 16:49:17,45.786027200113324,4.854376757318344,167.0,3.26,5380.76
2023-10-10 16:49:21,45.785999539833526,4.854211717648893,167.0,3.26,5396.02
2023-10-10 16:49:24,45.78597749542872,4.854084731818919,None,3.27,5406.37
2023-10-10 16:49:27,45.7859526011769,4.85394584368673,165.0,3.3,5415.23
2023-10-10 16:49:30,45.78592561144934,4.853813158162737,165.0,3.32,5428.02
2023-10-10 16:49:34,45.78588688705763,4.853649375778732,165.0,3.32,5441.58
2023-10-10 16:49:37,45.78585713130209,4.853519204825629,165.0,3.32,5452.36
2023-10-10 16:49:40,45.78582586680402,4.85338291508336,None,3.34,5462.54
2023-10-10 16:49:44,45.785782280908585,4.853226089678818,165.0,3.35,5476.35
2023-10-10 16:49:47,45.785746574001934,4.853104552085774,None,3.35,5486.48
2023-10-10 16:49:51,45.78570357483971,4.852947978138321,None,3.37,5498.9
2023-10-10 16:49:55,45.78565521125958,4.852798696446451,165.0,3.36,5512.61
2023-10-10 16:49:58,45.785618666162634,4.85266542418925,None,3.38,5523.09
2023-10-10 16:50:02,45.7855750802672,4.8525427969488195,165.0,3.38,5533.6
2023-10-10 16:50:05,45.7855335898475,4.852424276840844,165.0,3.38,5544.63
2023-10-10 16:50:08,45.78549478163676,4.852301314324295,None,3.39,5555.01
2023-10-10 16:50:11,45.78545630870213,4.852182375121171,165.0,3.38,5563.09
2023-10-10 16:50:14,45.78541607556789,4.85206251390872,170.0,3.38,5575.49
2023-10-10 16:50:17,45.7853729087676,4.85194793329514,170.0,3.38,5585.41
2023-10-10 16:50:21,45.78531658237965,4.851811056819663,170.0,3.37,5595.86
2023-10-10 16:50:25,45.785257992877895,4.851677114010225,170.0,3.37,5610.13
2023-10-10 16:50:29,45.78519890046197,4.851537639144828,170.0,3.35,5622.75
2023-10-10 16:50:33,45.785144250454614,4.851394979156303,170.0,3.31,5633.44
2023-10-10 16:50:37,45.78508499040063,4.851264640565142,170.0,3.3,5647.42
2023-10-10 16:50:41,45.7850205335668,4.851133882878831,170.0,3.25,5660.23
2023-10-10 16:50:44,45.7849660511975,4.851014189304441,170.0,3.25,5669.05
2023-10-10 16:50:47,45.78491659796999,4.850904470194582,170.0,3.26,5681.01
2023-10-10 16:50:51,45.78485264405034,4.850783351696686,170.0,3.23,5692.91
2023-10-10 16:50:55,45.7847876004833,4.8506518396391085,None,3.22,5703.5
2023-10-10 16:50:58,45.78473219610468,4.850528458027411,170.0,3.25,5716.85
2023-10-10 16:51:02,45.78466447032869,4.850394766675063,170.0,3.26,5729.57
2023-10-10 16:51:06,45.784596996009796,4.85027264234881,None,3.25,5739.81
2023-10-10 16:51:10,45.78452751003419,4.850154792793072,None,3.22,5753.68
2023-10-10 16:51:14,45.78445794023955,4.850035853589948,170.0,3.2,5765.67
2023-10-10 16:51:18,45.784384347131486,4.849927307946505,165.0,3.16,5776.86
2023-10-10 16:51:22,45.78431276568013,4.84979814282176,None,3.16,5790.32
2023-10-10 16:51:26,45.784239591667216,4.8496745097529725,None,3.17,5800.99
2023-10-10 16:51:30,45.78416943513937,4.8495536427121655,165.0,3.17,5815.18
2023-10-10 16:51:34,45.784094752383915,4.849430093462409,165.0,3.16,5827.76
2023-10-10 16:51:38,45.78402141073294,4.849314758477561,None,3.16,5838.01
2023-10-10 16:51:42,45.78394471632078,4.849199758768832,165.0,3.17,5852.29
2023-10-10 16:51:46,45.783867938089585,4.849081490117946,165.0,3.15,5864.86
2023-10-10 16:51:50,45.78378856146848,4.848964562571535,165.0,3.13,5875.57
2023-10-10 16:51:54,45.78370960394251,4.848852161252726,165.0,3.14,5889.95
2023-10-10 16:51:58,45.78362679074118,4.848743028876075,165.0,3.14,5902.37
2023-10-10 16:52:02,45.7835474979391,4.848633309766216,165.0,3.08,5913.95
2023-10-10 16:52:06,45.783466444937396,4.848520070257111,165.0,3.09,5927.17
2023-10-10 16:52:10,45.78339000198232,4.848413200994261,165.0,3.09,5937.23
2023-10-10 16:52:14,45.78330802697129,4.848316138557885,172.0,3.09,5950.98
2023-10-10 16:52:18,45.78322915326435,4.848201893220423,172.0,3.1,5963.48
2023-10-10 16:52:22,45.78314432840631,4.848092257929594,172.0,3.1,5974.25
2023-10-10 16:52:26,45.7830610122908,4.8479942734838914,172.0,3.09,5988.09
2023-10-10 16:52:30,45.78297752853724,4.847898049237813,165.0,3.08,6000.06
2023-10-10 16:52:34,45.78288658489003,4.847812050913355,165.0,3.08,6010.3
2023-10-10 16:52:38,45.78280083802266,4.84773074645456,165.0,3.06,6023.51
2023-10-10 16:52:42,45.78271609698365,4.847643239387568,165.0,3.05,6035.18
2023-10-10 16:52:46,45.78262582388867,4.847559085081763,165.0,3.04,6046.43
2023-10-10 16:52:50,45.78253521551758,4.847482474488631,165.0,3.02,6058.87
2023-10-10 16:52:54,45.78244410423232,4.847406450628705,165.0,3.01,6068.8
2023-10-10 16:52:58,45.78234980782392,4.8473367970150365,165.0,3.01,6083.91
2023-10-10 16:53:01,45.782266575527444,4.84716773403216,165.0,3.15,6098.95
2023-10-10 16:53:04,45.78218661217312,4.847084501735683,165.0,3.15,6109.89
2023-10-10 16:53:07,45.78211050449417,4.8470052927526295,165.0,3.18,6118.14
2023-10-10 16:53:10,45.782033139529766,4.846928263064348,165.0,3.2,6130.8
2023-10-10 16:53:13,45.78195711566984,4.846847042424582,165.0,3.24,6141.33
2023-10-10 16:53:16,45.78188058889574,4.846770683288539,165.0,3.24,6149.56
2023-10-10 16:53:20,45.78177891641273,4.846689127372655,165.0,3.27,6164.48
2023-10-10 16:53:24,45.78167623810136,4.846615618083621,165.0,3.27,6177.26
2023-10-10 16:53:28,45.78157314069485,4.846544371908387,165.0,3.27,6188.04
2023-10-10 16:53:32,45.78147574298236,4.846460636697731,165.0,3.29,6202.63
2023-10-10 16:53:36,45.7813781776318,4.846382098266916,165.0,3.3,6215.11
2023-10-10 16:53:40,45.78128220484281,4.846298865970438,165.0,3.3,6225.62
2023-10-10 16:53:44,45.781190003910154,4.846236169336233,173.0,3.32,6238.68
2023-10-10 16:53:48,45.781116578440155,4.846142375842015,173.0,3.3,6250.0
2023-10-10 16:53:51,45.78104918794028,4.846056461336587,None,3.29,6257.97
2023-10-10 16:53:54,45.78097056569044,4.845984376971057,173.0,3.33,6270.13
2023-10-10 16:53:58,45.78087752656749,4.845919668680139,173.0,3.33,6281.54
2023-10-10 16:54:02,45.78079756321317,4.845838867135522,173.0,3.32,6290.75
2023-10-10 16:54:06,45.78070980468909,4.845776505777436,164.0,3.16,6303.62
2023-10-10 16:54:10,45.78061148496727,4.845695788051849,164.0,3.12,6316.28
2023-10-10 16:54:14,45.78051450634992,4.845602329833749,164.0,3.11,6328.45
2023-10-10 16:54:18,45.78041149276244,4.845510715634303,164.0,3.09,6342.99
2023-10-10 16:54:21,45.78033161322715,4.845440475287426,164.0,3.09,6353.19
2023-10-10 16:54:25,45.78023647862845,4.8453479390786525,164.0,3.1,6365.08
2023-10-10 16:54:29,45.78014268513424,4.845256408698236,164.0,3.1,6378.8
2023-10-10 16:54:32,45.78006272177991,4.845178708457717,164.0,3.11,6389.5
2023-10-10 16:54:35,45.77998585972969,4.845106624092187,164.0,3.13,6397.61
2023-10-10 16:54:39,45.779886701817574,4.845026912194957,164.0,3.14,6412.24
2023-10-10 16:54:43,45.77978000019279,4.84495918641897,164.0,3.14,6425.44
2023-10-10 16:54:46,45.77969266076385,4.844902692392962,164.0,3.17,6433.92
2023-10-10 16:54:50,45.7795919941092,4.844839576663609,164.0,3.2,6447.95
2023-10-10 16:54:54,45.779494093482526,4.844786938312966,None,3.21,6459.45
2023-10-10 16:54:58,45.77940231164502,4.844743520055589,164.0,3.18,6469.46
2023-10-10 16:55:02,45.77930960779819,4.8447020296358945,164.0,3.15,6480.98
2023-10-10 16:55:06,45.779220089074485,4.844661125949408,164.0,3.14,6489.82
2023-10-10 16:55:10,45.77912202080975,4.844614606387932,174.0,3.14,6503.63
2023-10-10 16:55:13,45.77904180599834,4.844527937511237,174.0,3.16,6514.58
2023-10-10 16:55:16,45.7789623455582,4.844463564496438,174.0,3.16,6524.65
2023-10-10 16:55:20,45.7788612598084,4.844383265865999,174.0,3.15,6536.63
2023-10-10 16:55:24,45.778761096067925,4.844289472371781,174.0,3.15,6550.84
2023-10-10 16:55:28,45.77866394981252,4.844197271439127,174.0,3.16,6561.81
2023-10-10 16:55:32,45.77857200033695,4.844122504864647,174.0,3.13,6575.58
2023-10-10 16:55:36,45.77847678191923,4.844025107152152,174.0,3.11,6588.55
2023-10-10 16:55:40,45.77838139586345,4.843936761894863,174.0,3.11,6599.24
2023-10-10 16:55:45,45.77829732537667,4.843860905672997,174.0,3.02,6612.37
2023-10-10 16:55:49,45.77819355741792,4.843782031966064,174.0,3.02,6625.64
2023-10-10 16:55:52,45.77809825518117,4.843739870994131,166.0,3.02,6634.47
2023-10-10 16:55:55,45.77799138591832,4.843693770527804,166.0,3.07,6649.15
2023-10-10 16:55:58,45.77789373674874,4.8436668646192755,166.0,3.15,6660.37
2023-10-10 16:56:01,45.777788795323566,4.843668540999869,166.0,3.17,6669.65
2023-10-10 16:56:05,45.77767781892827,4.843696871831902,166.0,3.24,6683.86
2023-10-10 16:56:09,45.77758117558704,4.843719167693799,166.0,3.26,6694.7
2023-10-10 16:56:13,45.77749081867304,4.8437391166228645,166.0,3.27,6703.27
2023-10-10 16:56:17,45.77737799825908,4.84375093510605,174.0,3.21,6718.15
2023-10-10 16:56:20,45.77727833743278,4.8437480014400105,166.0,3.22,6729.02
2023-10-10 16:56:24,45.77716241571473,4.843703744992337,166.0,3.23,6740.32
2023-10-10 16:56:28,45.7770527804239,4.843647250966328,169.0,3.23,6755.31
2023-10-10 16:56:32,45.77693987619091,4.8435935229683,169.0,3.23,6768.49
2023-10-10 16:56:36,45.776835605317984,4.8435231988023935,169.0,3.26,6779.35
2023-10-10 16:56:40,45.77673510630139,4.843445498561875,169.0,3.25,6794.09
2023-10-10 16:56:44,45.77662563864862,4.843381125547077,169.0,3.25,6807.16
2023-10-10 16:56:48,45.776526061641356,4.843304598772973,169.0,3.32,6818.73
2023-10-10 16:56:52,45.776426400815055,4.843234190788037,169.0,3.31,6832.22
2023-10-10 16:56:56,45.776325566522345,4.843144336788214,169.0,3.27,6845.74
2023-10-10 16:56:59,45.77623512578931,4.843083735629751,169.0,3.23,6855.58
2023-10-10 16:57:02,45.776151139121566,4.843022883014199,169.0,3.23,6867.02
2023-10-10 16:57:06,45.776050556285945,4.842938309613246,169.0,3.21,6880.01
2023-10-10 16:57:10,45.77594301647086,4.842864967962272,169.0,3.23,6892.12
2023-10-10 16:57:14,45.77583874559793,4.842816017648935,169.0,3.26,6905.3
2023-10-10 16:57:18,45.77574118024737,4.842748208053919,169.0,3.29,6915.5
2023-10-10 16:57:22,45.775648308762484,4.8426812366492005,169.0,3.24,6929.02
2023-10-10 16:57:26,45.77554403788955,4.842631364326537,169.0,3.22,6941.26
2023-10-10 16:57:30,45.77544613726288,4.842555424285642,169.0,3.2,6951.7
2023-10-10 16:57:34,45.77534178257092,4.842483507558171,169.0,3.21,6966.28
2023-10-10 16:57:38,45.7752527667614,4.842425840065748,169.0,3.17,6975.46
2023-10-10 16:57:43,45.77515017226906,4.84235300132895,169.0,3.12,6990.15
2023-10-10 16:57:47,45.77505310983268,4.8422747981742535,169.0,3.11,7002.41
2023-10-10 16:57:51,45.774959232519436,4.842211933901989,186.0,3.1,7012.14
2023-10-10 16:57:55,45.77485554837971,4.842152590028972,186.0,3.1,7026.55
2023-10-10 16:57:59,45.77475094223067,4.842093581432073,186.0,3.07,7038.99
2023-10-10 16:58:03,45.774654885622645,4.842016719381851,186.0,3.04,7049.32
2023-10-10 16:58:07,45.77455757172918,4.8419435453689355,186.0,3.02,7063.33
2023-10-10 16:58:11,45.774461096026016,4.8418885600854615,186.0,3.0,7075.05
2023-10-10 16:58:15,45.774357495705324,4.841834077716166,186.0,2.99,7086.24
2023-10-10 16:58:19,45.77425733196485,4.841766603397269,186.0,2.99,7099.82
2023-10-10 16:58:22,45.77417594368702,4.841706588972014,186.0,3.02,7109.98
2023-10-10 16:58:25,45.77409262757151,4.841656716649351,165.0,3.04,7117.95
2023-10-10 16:58:28,45.77401115547466,4.84159284654873,165.0,3.04,7130.43
2023-10-10 16:58:31,45.77392876136848,4.841532915942505,165.0,3.07,7140.67
2023-10-10 16:58:34,45.773846702538414,4.8414734882504575,165.0,3.09,7150.86
2023-10-10 16:58:37,45.7737659009938,4.8414159045770635,165.0,3.1,7159.72
2023-10-10 16:58:41,45.773657858264535,4.841352537390621,165.0,3.13,7173.7
2023-10-10 16:58:45,45.77356020909495,4.841290595127684,165.0,3.17,7183.74
2023-10-10 16:58:49,45.77345979389739,4.841229574874072,None,3.17,7197.77
2023-10-10 16:58:53,45.77336122271848,4.841163860754799,165.0,3.17,7209.84
2023-10-10 16:58:57,45.77326524992949,4.841095380607546,165.0,3.16,7219.91
2023-10-10 16:59:01,45.77316441563678,4.841033941258786,165.0,3.16,7233.91
2023-10-10 16:59:05,45.77306970013323,4.840977028137629,165.0,3.14,7245.66
2023-10-10 16:59:08,45.77298671929384,4.840926652900788,165.0,3.16,7253.57
2023-10-10 16:59:12,45.77287934711681,4.840876445302007,165.0,3.17,7268.06
2023-10-10 16:59:16,45.77277239403494,4.840841828042746,165.0,3.18,7280.23
2023-10-10 16:59:20,45.77266518949597,4.840811820830119,165.0,3.18,7290.51
2023-10-10 16:59:24,45.77256066716595,4.840786339845094,165.0,3.15,7304.08
2023-10-10 16:59:28,45.77245874322585,4.840801427270438,165.0,3.12,7315.42
2023-10-10 16:59:32,45.77236335717007,4.840768318753712,165.0,3.07,7325.34
2023-10-10 16:59:36,45.77226663000981,4.840721966830295,165.0,3.02,7338.32
2023-10-10 16:59:39,45.77216596335516,4.840705622119507,165.0,3.05,7349.49
2023-10-10 16:59:42,45.77207158312773,4.840700509158696,165.0,3.06,7357.79
2023-10-10 16:59:46,45.771954236486174,4.840699838606458,165.0,3.07,7372.72
2023-10-10 16:59:50,45.771844517376316,4.8407072985001,165.0,3.07,7384.83
2023-10-10 16:59:54,45.77174167142689,4.840716518593366,165.0,3.06,7395.21
2023-10-10 16:59:58,45.77164050185806,4.840714255479564,165.0,3.05,7407.62
2023-10-10 17:00:02,45.771536482442215,4.840708136690397,165.0,3.04,7417.4
2023-10-10 17:00:06,45.771437911263305,4.840708136690397,165.0,3.04,7430.15
2023-10-10 17:00:10,45.77133447858068,4.840709310156813,None,3.01,7441.62
2023-10-10 17:00:14,45.771236158858855,4.840704281015031,165.0,2.99,7450.84
2023-10-10 17:00:18,45.77113331290943,4.840703023729587,None,2.97,7464.03
2023-10-10 17:00:22,45.771032059521566,4.840694558007588,165.0,2.96,7475.45
2023-10-10 17:00:26,45.770924603525515,4.840690702332223,165.0,2.96,7485.54
2023-10-10 17:00:30,45.77081882391005,4.84068869067551,None,2.96,7497.32
2023-10-10 17:00:39,45.770721510016585,4.840679973496423,None,2.83,7508.18
2023-10-10 17:00:42,45.770721510016585,4.840679973496423,169.0,2.83,7510.58
2023-10-10 17:00:45,45.77061908316231,4.84065424105431,None,2.72,7519.75
2023-10-10 17:00:50,45.770517745955416,4.84066203622407,169.0,2.64,7532.84
2023-10-10 17:00:54,45.77041431327279,4.84065935401512,None,2.63,7544.18
2023-10-10 17:00:58,45.77031943013118,4.840658348186764,None,2.6,7553.13
2023-10-10 17:01:02,45.770212141773186,4.840653235225953,169.0,1.444,7567.4
2023-10-10 17:01:05,45.770110553109205,4.84064057855247,None,2.69,7577.88
2023-10-10 17:01:10,45.770004354398594,4.840629262983463,169.0,2.65,7588.87
2023-10-10 17:01:14,45.76990494502938,4.84063538177263,None,2.65,7601.46
2023-10-10 17:01:17,45.76981358228703,4.8406286762502555,None,1.225,7612.6
2023-10-10 17:01:20,45.769682573143626,4.840622641280118,169.0,1.202,7624.13
2023-10-10 17:01:23,45.769573440766976,4.840620964899524,169.0,1.167,7638.27
2023-10-10 17:01:27,45.76946103944817,4.8406286762502555,169.0,1.16,7648.81
2023-10-10 17:01:33,45.76936649158268,4.840567572177614,169.0,1.15,7662.55
2023-10-10 17:01:36,45.76927286572653,4.840595819190618,169.0,1.152,7672.88
2023-10-10 17:01:40,45.76916499063532,4.8406257425842165,169.0,1.154,7685.6
2023-10-10 17:01:43,45.76906264760007,4.840650972112152,169.0,1.173,7695.75
2023-10-10 17:01:46,45.76894144528315,4.84066480225205,169.0,1.211,7710.81
2023-10-10 17:01:49,45.768835581848656,4.840680141134482,169.0,1.239,7721.48
2023-10-10 17:01:54,45.76874078252608,4.84067796183971,165.0,1.276,7731.6
2023-10-10 17:01:57,45.76863139869234,4.840646948798726,165.0,1.272,7746.04
2023-10-10 17:02:00,45.76850851999482,4.840655246882665,165.0,1.265,7759.64
2023-10-10 17:02:03,45.76838639566857,4.840668741746445,165.0,1.254,7770.47
2023-10-10 17:02:06,45.76828614810906,4.840681482238957,165.0,1.217,7784.13
2023-10-10 17:02:09,45.76817961412233,4.840694641826618,None,1.216,7795.64
2023-10-10 17:02:12,45.76808967630348,4.8407065441288335,165.0,1.229,7805.76
2023-10-10 17:02:15,45.767997056275675,4.840717608240752,165.0,1.239,7813.98
2023-10-10 17:02:18,45.767997056275675,4.840717608240752,165.0,1.608,7821.43
2023-10-10 17:02:19,45.76788934882253,4.840724481401186,165.0,1.786,7827.19
2023-10-10 17:02:25,45.767995044618964,4.840732863304154,165.0,3.57,7837.76
2023-10-10 17:02:29,45.768102332976966,4.840724984315364,165.0,3.34,7851.56
2023-10-10 17:02:33,45.76820903460175,4.840719284621345,165.0,3.37,7863.42
2023-10-10 17:02:37,45.768315233312364,4.840708471966516,165.0,3.43,7873.46
2023-10-10 17:02:41,45.76843090357333,4.8406979945878055,165.0,3.43,7886.73
2023-10-10 17:02:47,45.768525619076875,4.840681314600897,165.0,3.37,7896.99
2023-10-10 17:02:51,45.76864640229865,4.840685924647531,165.0,3.17,7910.44
2023-10-10 17:02:55,45.76864640229865,4.840685924647531,165.0,3.21,7926.71
2023-10-10 17:02:59,45.768901798882105,4.8406490442744685,169.0,3.26,7939.02
2023-10-10 17:03:03,45.76902425848448,4.840646278246489,169.0,3.17,7954.16
2023-10-10 17:03:07,45.769162559883455,4.8406489604554395,169.0,3.09,7968.05
2023-10-10 17:03:08,45.769162559883455,4.8406489604554395,169.0,3.09,7968.87
2023-10-10 17:03:11,45.769307650623844,4.840638231619639,169.0,3.12,7984.94
2023-10-10 17:03:14,45.7694396655956,4.840621383994672,169.0,3.14,7999.09
2023-10-10 17:03:21,45.769571429110265,4.840563800321278,169.0,3.19,8014.92
2023-10-10 17:03:25,45.7697070483003,4.840566901625377,None,3.14,8031.42
2023-10-10 17:03:31,45.769875776007055,4.8405597770078534,169.0,3.32,8048.2
2023-10-10 17:03:37,45.77003167940227,4.840590790048837,169.0,3.31,8067.06
2023-10-10 17:03:40,45.7701475173013,4.840611074254021,169.0,3.38,8078.71
2023-10-10 17:03:46,45.77035974708446,4.840577379004087,169.0,3.48,8102.61
2023-10-10 17:03:49,45.77047977593497,4.840586599097353,169.0,3.48,8119.79
2023-10-10 17:03:52,45.77059645202429,4.8405741100619295,169.0,3.62,8128.88
2023-10-10 17:03:55,45.77069468792708,4.840567739815674,169.0,3.72,8144.05
2023-10-10 17:03:57,45.77080784361716,4.8406085596831305,169.0,3.69,8155.28
2023-10-10 17:04:01,45.77096072952731,4.840652648492745,165.0,3.77,8171.31
2023-10-10 17:04:05,45.77105603176406,4.840665640442347,165.0,3.78,8181.07
2023-10-10 17:04:11,45.771158039523186,4.840664550794961,165.0,3.73,8192.91
2023-10-10 17:04:13,45.77126432205283,4.840648038446113,165.0,3.64,8204.1
2023-10-10 17:04:20,45.77137446025784,4.840647116436786,165.0,3.62,8219.13
2023-10-10 17:04:23,45.7714664097334,4.840652899949834,165.0,3.56,8228.89
2023-10-10 17:04:27,45.77158803114548,4.840665640442347,165.0,3.53,8240.55
2023-10-10 17:04:32,45.771719543203055,4.840690199418044,165.0,3.44,8256.39
2023-10-10 17:04:37,45.77187636860759,4.840703442824735,165.0,3.4,8272.42
2023-10-10 17:04:42,45.77200285152339,4.840690869970282,165.0,3.48,8286.97
2023-10-10 17:04:48,45.77214702025445,4.840666059537495,165.0,3.33,8302.85
2023-10-10 17:04:56,45.77223737716845,4.840653319044983,165.0,3.12,8312.82
2023-10-10 17:05:01,45.77257039017339,4.84076605563991,165.0,3.24,8354.66
2023-10-10 17:05:04,45.772758731533095,4.8408048638506544,165.0,3.49,8372.99
2023-10-10 17:05:09,45.772853027941494,4.8408420794998355,165.0,3.46,8382.97
2023-10-10 17:05:13,45.772998789234116,4.840909386180673,165.0,3.59,8400.73
2023-10-10 17:05:16,45.773129966015574,4.840982811650678,165.0,3.69,8415.7
2023-10-10 17:05:22,45.773217053987416,4.841052129988228,165.0,3.68,8430.66
2023-10-10 17:05:26,45.77336910170727,4.841131171333221,165.0,3.73,8448.92
2023-10-10 17:05:29,45.773505810544684,4.841234939291972,165.0,3.95,8464.13
2023-10-10 17:05:32,45.77359231178332,4.841289421661268,165.0,4.01,8472.97
2023-10-10 17:05:36,45.773753495777406,4.841389333944654,165.0,4.05,8493.89
2023-10-10 17:05:39,45.7738754524656,4.841450773293413,None,4.15,8506.46
2023-10-10 17:05:43,45.77401584934032,4.8415261266011,165.0,4.19,8523.71
2023-10-10 17:05:46,45.77413680020016,4.841633834054247,165.0,4.34,8539.07
2023-10-10 17:05:50,45.774228917313785,4.841697704154868,186.0,4.29,8558.94
2023-10-10 17:05:52,45.774391442412345,4.841803399951301,186.0,4.29,8570.26
2023-10-10 17:05:57,45.774493701628565,4.841891996665679,186.0,4.47,8588.59
2023-10-10 17:05:59,45.77461616123093,4.841994172062866,186.0,4.63,8599.33
2023-10-10 17:06:05,45.77470090226994,4.842047816241865,186.0,4.29,8612.65
2023-10-10 17:06:07,45.774815482883525,4.842133898385352,186.0,4.1,8624.89
2023-10-10 17:06:11,45.77489343458113,4.842200702152011,186.0,4.15,8635.06
2023-10-10 17:06:14,45.77498882063691,4.84227320561269,186.0,4.13,8646.17
2023-10-10 17:06:20,45.77508965492963,4.842344284149863,169.0,3.97,8662.23
2023-10-10 17:06:23,45.775179173653335,4.842415614144126,169.0,3.96,8670.08
2023-10-10 17:06:30,45.77526114866436,4.842477556407064,169.0,3.91,8684.35
2023-10-10 17:06:32,45.775355193615674,4.84255056278192,169.0,3.78,8693.82
2023-10-10 17:06:36,45.7754411081211,4.842608397912403,169.0,3.66,8702.87
2023-10-10 17:06:41,45.77552978865451,4.842665813947738,169.0,3.49,8714.3
2023-10-10 17:06:47,45.775635149174825,4.842700431206998,169.0,3.25,8725.73
2023-10-10 17:06:50,45.7757358996485,4.842751393177047,169.0,3.25,8740.47
2023-10-10 17:06:54,45.775832962084884,4.8428139221731925,169.0,3.34,8752.54
2023-10-10 17:06:58,45.77594662068913,4.842908386219649,169.0,3.07,8764.1
2023-10-10 17:07:02,45.77607251687172,4.842987511383672,169.0,3.11,8783.57
2023-10-10 17:07:04,45.77618818713269,4.843082729801395,169.0,3.11,8796.51
2023-10-10 17:07:07,45.77629874443284,4.843176188019495,169.0,3.19,8808.53
2023-10-10 17:07:12,45.77638968808005,4.8432721608084845,169.0,3.25,8822.78
2023-10-10 17:07:14,45.77648851071606,4.843327816644196,169.0,3.26,8833.85
2023-10-10 17:07:17,45.77661884930721,4.8433729112821675,169.0,3.29,8848.1
2023-10-10 17:07:21,45.77671968359993,4.843402750856735,169.0,3.45,8859.52
2023-10-10 17:07:24,45.77682529557733,4.843460585987218,None,3.51,8876.43
2023-10-10 17:07:27,45.77694985065544,4.843559492442248,169.0,3.6,8892.15
2023-10-10 17:07:30,45.77709125335852,4.843659320906603,166.0,3.84,8905.29
2023-10-10 17:07:33,45.777199966640026,4.8437449001359125,166.0,3.9,8923.46
2023-10-10 17:07:35,45.77734061497184,4.84379368281119,None,3.9,8937.06
2023-10-10 17:07:38,45.77744941207237,4.8438314851935775,None,4.05,8947.67
2023-10-10 17:07:44,45.77755644897328,4.8438868895722,174.0,3.99,8961.74
2023-10-10 17:07:46,45.77743482756121,4.843930056372488,174.0,3.99,8974.71
2023-10-10 17:07:49,45.777311948863684,4.843901138807247,174.0,4.08,8988.15
2023-10-10 17:07:56,45.77715721893489,4.843857133816662,174.0,4.08,9011.55
2023-10-10 17:07:58,45.77703123893327,4.843807848227207,None,4.08,9021.46
2023-10-10 17:08:04,45.77694121729539,4.8437794335761435,182.0,4.11,9030.5
2023-10-10 17:08:07,45.776850692743324,4.843771806044442,182.0,4.0,9041.88
2023-10-10 17:08:11,45.776773663055046,4.843869958128204,182.0,3.91,9052.07
2023-10-10 17:08:15,45.776773663055046,4.843869958128204,182.0,3.83,9052.07
2023-10-10 17:08:17,45.7767187615906,4.843980180152241,182.0,3.83,9062.59
2023-10-10 17:08:30,45.77683208491874,4.8442582916927375,None,3.44,9072.95
2023-10-10 17:08:40,45.77682361919674,4.844394078520829,None,3.1,9085.01
2023-10-10 17:08:45,45.776867205092174,4.8445349783097305,182.0,3.01,9097.83
2023-10-10 17:08:48,45.776899223961514,4.844672525337445,None,3.09,9106.77
2023-10-10 17:08:51,45.77695110794089,4.84484720419531,182.0,3.09,9124.95
2023-10-10 17:08:53,45.776988575047156,4.844979051529005,182.0,3.3,9134.12
2023-10-10 17:08:58,45.77704959530077,4.8451170176518685,182.0,3.31,9145.25
2023-10-10 17:09:01,45.777043979425784,4.845294127261594,182.0,3.31,9161.52
2023-10-10 17:09:04,45.777003075739295,4.845440894382574,182.0,3.38,9173.91
2023-10-10 17:09:07,45.776933925039806,4.845575256287161,182.0,3.44,9184.25
2023-10-10 17:09:10,45.77686016429368,4.845711546029429,182.0,3.44,9200.02
2023-10-10 17:09:13,45.77680584956244,4.845839118592611,178.0,3.5,9211.83
2023-10-10 17:09:16,45.776749858450614,4.8459816109430776,178.0,3.53,9224.35
2023-10-10 17:09:19,45.77669244241528,4.846107758582754,178.0,3.56,9233.64
2023-10-10 17:09:22,45.77661390398446,4.846255866808209,178.0,3.62,9250.11
2023-10-10 17:09:26,45.776539221229015,4.846387714141905,178.0,3.62,9263.3
2023-10-10 17:09:30,45.77646453847356,4.846521489313283,178.0,3.6,9274.57
2023-10-10 17:09:33,45.77641416323672,4.846648307505198,178.0,3.67,9288.45
2023-10-10 17:09:36,45.776365129104356,4.846789291113129,178.0,3.68,9300.73
2023-10-10 17:09:39,45.776318274266764,4.846932705472922,178.0,3.71,9310.43
2023-10-10 17:09:42,45.776255242356434,4.847063463159231,178.0,3.89,9325.37
2023-10-10 17:09:45,45.776177793573005,4.847184665476157,178.0,3.89,9338.04
2023-10-10 17:09:48,45.77609992569443,4.8472963124236985,178.0,4.0,9350.19
2023-10-10 17:09:51,45.7760371452412,4.847416844188387,178.0,4.01,9359.47
2023-10-10 17:09:54,45.77599263733643,4.847539806704936,178.0,3.92,9372.4
2023-10-10 17:09:57,45.775932874368266,4.8476420659211525,178.0,3.93,9382.65
2023-10-10 17:10:00,45.77589649690938,4.847761340400395,178.0,3.93,9390.7
2023-10-10 17:10:04,45.77582089214461,4.847883800002766,178.0,3.93,9405.19
2023-10-10 17:10:08,45.775753836920856,4.8479995540827625,173.0,3.87,9416.96
2023-10-10 17:10:12,45.77568728461129,4.848119415295213,173.0,3.78,9426.97
2023-10-10 17:10:17,45.77563632264124,4.8482648413117175,173.0,3.7,9439.61
2023-10-10 17:10:21,45.77563632264124,4.8482648413117175,173.0,3.63,9451.14
2023-10-10 17:10:26,45.77551797017132,4.848515460210478,173.0,3.48,9463.46
2023-10-10 17:10:30,45.77551797017132,4.848515460210478,None,3.41,9473.52
2023-10-10 17:10:38,45.77541629768832,4.84869374328662,173.0,3.27,9484.1
2023-10-10 17:10:45,45.775369694307805,4.848875546762008,173.0,2.96,9498.68
2023-10-10 17:10:49,45.77535904929104,4.849036395479975,173.0,2.87,9513.32
2023-10-10 17:10:53,45.77532862298326,4.849159106539435,173.0,2.76,9521.34
2023-10-10 17:10:58,45.77525754444609,4.849328085703282,173.0,2.76,9538.44
2023-10-10 17:11:04,45.77513122916835,4.849491365173109,173.0,2.71,9557.39
2023-10-10 17:11:07,45.77507507041846,4.849641233598187,173.0,2.76,9568.8
2023-10-10 17:11:10,45.77500550062382,4.849780373187466,173.0,2.84,9583.27
2023-10-10 17:11:13,45.774946408207896,4.8499339296498505,177.0,2.96,9596.37
2023-10-10 17:11:16,45.77490357668373,4.850056473071251,172.0,3.05,9606.75
2023-10-10 17:11:19,45.774834593622295,4.850189996785541,172.0,3.09,9619.26
2023-10-10 17:11:23,45.77476594583698,4.850339027020322,172.0,3.18,9638.36
2023-10-10 17:11:26,45.774692436547944,4.850529799131886,172.0,3.35,9653.45
2023-10-10 17:11:29,45.77464440824394,4.850668687264076,172.0,3.45,9662.08
2023-10-10 17:11:32,45.77458883622725,4.8507957569130795,172.0,3.47,9677.47
2023-10-10 17:11:34,45.774529995268416,4.850906230394205,172.0,3.47,9687.85
2023-10-10 17:11:36,45.77447836274613,4.851022571207409,172.0,3.65,9697.24
2023-10-10 17:11:40,45.774409547322755,4.851183419925376,172.0,3.64,9709.88
2023-10-10 17:11:44,45.774319274227786,4.851324152076218,172.0,3.7,9726.1
2023-10-10 17:11:48,45.77422128978208,4.851460357999458,172.0,3.8,9740.72
2023-10-10 17:11:52,45.77412883739234,4.851581308859294,172.0,3.83,9753.85
2023-10-10 17:11:59,45.77398441720419,4.851627660782711,172.0,3.89,9770.32
2023-10-10 17:12:05,45.77387964341708,4.851659009099813,172.0,3.79,9784.73
2023-10-10 17:12:09,45.773754836881885,4.851708210870238,172.0,3.77,9796.64
2023-10-10 17:12:15,45.773667748910036,4.851800411802893,172.0,3.77,9809.53
2023-10-10 17:12:20,45.77361351799783,4.851929744565698,172.0,3.5,9820.95
2023-10-10 17:12:25,45.773568171902774,4.8520929402164965,168.0,3.28,9834.05
2023-10-10 17:12:30,45.77353682358567,4.852215567456926,168.0,3.22,9846.3
2023-10-10 17:12:34,45.7735100853152,4.852343140020108,168.0,3.08,9854.54
2023-10-10 17:12:40,45.77347303730408,4.852538941273454,168.0,2.93,9872.0
2023-10-10 17:12:43,45.773436911302284,4.852661736151944,168.0,2.94,9882.25
2023-10-10 17:12:46,45.77342391935268,4.8528050666927065,168.0,2.94,9891.86
2023-10-10 17:12:52,45.77339164902625,4.853057278153031,168.0,3.0,9912.5
2023-10-10 17:12:55,45.7733943312352,4.853199351408349,168.0,3.01,9922.81
2023-10-10 17:13:05,45.77333901067561,4.853387022215815,168.0,2.89,9938.63
2023-10-10 17:13:11,45.773298106989124,4.853625403536241,168.0,2.96,9962.22
2023-10-10 17:13:14,45.77320104455275,4.853814583086242,168.0,3.03,9979.65
2023-10-10 17:13:18,45.77307238234218,4.854069225298427,168.0,3.22,10000.34
2023-10-10 17:13:22,45.77308512283469,4.854313473950931,173.0,3.39,10019.94
2023-10-10 17:13:26,45.77314798710696,4.854440375961876,173.0,3.44,10031.78
2023-10-10 17:13:30,45.773234572164625,4.854585047607113,173.0,3.48,10046.24
2023-10-10 17:13:35,45.77332040285102,4.8547278752336975,173.0,3.55,10063.68
2023-10-10 17:13:39,45.77340153967176,4.85484723353197,173.0,3.59,10073.81
2023-10-10 17:13:43,45.77344847832838,4.855033311777873,None,3.6,10091.85
2023-10-10 17:13:46,45.77346993599998,4.855178402518259,173.0,3.61,10102.75
2023-10-10 17:13:50,45.773487370358154,4.855352829919035,173.0,3.56,10114.38
2023-10-10 17:13:54,45.77350170341223,4.855527089681751,173.0,3.53,10129.75
2023-10-10 17:13:56,45.77351201315288,4.85566371470014,173.0,3.53,10139.4
2023-10-10 17:14:00,45.77353808087111,4.855819869552444,173.0,3.54,10151.14
2023-10-10 17:14:07,45.77357420687291,4.855973845109977,173.0,3.63,10168.04
2023-10-10 17:14:09,45.77359993931502,4.856100160387713,173.0,3.63,10175.89
2023-10-10 17:14:13,45.773632125822424,4.856224547827767,173.0,3.56,10184.27
2023-10-10 17:14:18,45.77372994263006,4.856302583344404,169.0,3.4,10198.05
2023-10-10 17:14:23,45.773847456909685,4.856386905288268,169.0,3.28,10211.36
2023-10-10 17:14:27,45.773906130230465,4.856490673247019,169.0,3.26,10222.46
2023-10-10 17:14:30,45.77392314549349,4.856625370427724,169.0,3.21,10232.53
2023-10-10 17:14:36,45.773946698640835,4.856796277429254,169.0,3.15,10245.89
2023-10-10 17:14:40,45.77395700838149,4.856940613798373,169.0,3.08,10259.4
2023-10-10 17:14:44,45.77398374665195,4.857109006229011,169.0,3.03,10270.57
2023-10-10 17:14:49,45.77402205194852,4.857262814148484,169.0,2.95,10284.05
2023-10-10 17:14:54,45.77407108608089,4.857396170224715,169.0,2.85,10295.46
2023-10-10 17:14:57,45.77411374996699,4.857515947618135,169.0,2.88,10305.39
2023-10-10 17:15:02,45.774193545683254,4.857629187127241,169.0,2.84,10321.23
2023-10-10 17:15:05,45.774279041093536,4.857713928166254,169.0,2.92,10334.48
2023-10-10 17:15:07,45.774374930063495,4.857813086078371,169.0,2.92,10342.63
2023-10-10 17:15:10,45.77446687953906,4.857903694449462,169.0,2.92,10356.66
2023-10-10 17:15:14,45.77456067303328,4.857961781037035,169.0,3.17,10368.85
2023-10-10 17:15:17,45.77469268800503,4.8580284171656345,169.0,3.2,10382.0
2023-10-10 17:15:22,45.77482185312978,4.858082731896871,169.0,3.26,10398.34
2023-10-10 17:15:25,45.77496325583286,4.8581440874266,169.0,3.26,10415.58
2023-10-10 17:15:28,45.77505495385134,4.858172334439605,168.0,3.33,10426.23
2023-10-10 17:15:31,45.77515503377278,4.8582072031559544,168.0,3.43,10435.33
2023-10-10 17:15:35,45.77526500433973,4.858260428239805,168.0,3.48,10450.68
2023-10-10 17:15:38,45.775368101746245,4.858288842890868,168.0,3.52,10462.92
2023-10-10 17:15:41,45.77549424938592,4.858297308612866,168.0,3.59,10474.0
2023-10-10 17:15:44,45.775617966273735,4.858308372724784,168.0,3.7,10490.18
2023-10-10 17:15:47,45.77572198568958,4.858320275027,168.0,3.73,10501.79
2023-10-10 17:15:50,45.77582659183862,4.858323711607217,168.0,3.81,10511.06
2023-10-10 17:15:54,45.77593446692983,4.858311222571794,168.0,3.81,10524.94
2023-10-10 17:15:58,45.776042928754244,4.8583022539356175,168.0,3.84,10537.17
2023-10-10 17:16:02,45.77615910192939,4.858297560069955,168.0,3.85,10548.14
2023-10-10 17:16:06,45.77626362425941,4.85827492893194,168.0,3.8,10561.48
2023-10-10 17:16:10,45.77635465172565,4.858264116277111,168.0,3.71,10570.08
2023-10-10 17:16:16,45.77645003778143,4.858243245338719,168.0,3.71,10582.34
2023-10-10 17:16:21,45.77656076271964,4.85823243268389,168.0,3.48,10595.06
2023-10-10 17:16:25,45.77666997891532,4.8582156688779525,168.0,3.45,10605.4
2023-10-10 17:16:29,45.77678321842443,4.8582015034619355,168.0,3.31,10619.96
2023-10-10 17:16:33,45.776893608086525,4.858202593109321,168.0,3.24,10632.19
2023-10-10 17:16:37,45.77700232136803,4.858204856223123,168.0,3.22,10642.44
2023-10-10 17:16:41,45.777120087104734,4.858214243954448,174.0,3.13,10657.55
2023-10-10 17:16:45,45.777234835356374,4.8581983183388076,174.0,3.04,10670.72
2023-10-10 17:16:48,45.77733365799237,4.858188092417186,174.0,3.03,10679.44
2023-10-10 17:16:52,45.77745125609103,4.85820292838544,174.0,2.99,10694.32
2023-10-10 17:16:56,45.777551755107616,4.858211226469379,174.0,2.97,10705.91
2023-10-10 17:16:59,45.777643369307064,4.8582415689581255,174.0,3.0,10714.26
2023-10-10 17:17:02,45.77774177284792,4.858268558685684,174.0,3.0,10727.99
2023-10-10 17:17:05,45.777853755071575,4.8582937882136195,174.0,3.04,10740.79
2023-10-10 17:17:08,45.77797160462731,4.858324549797514,174.0,3.14,10751.36
2023-10-10 17:17:11,45.778083503031944,4.8583513718870135,172.0,3.14,10766.75
2023-10-10 17:17:14,45.778202526054095,4.8583856538701555,172.0,3.33,10779.91
2023-10-10 17:17:17,45.77830595873673,4.858416163996961,172.0,3.33,10791.68
2023-10-10 17:17:20,45.77841031342869,4.858438040763708,172.0,3.46,10801.0
2023-10-10 17:17:24,45.77849748521956,4.858485985248689,172.0,3.5,10813.67
2023-10-10 17:17:27,45.778595888760414,4.858510628043416,172.0,3.5,10825.76
2023-10-10 17:17:30,45.77873678854932,4.858539294151569,172.0,3.6,10838.35
2023-10-10 17:17:33,45.778844244545375,4.8585733246776215,172.0,3.6,10853.2
2023-10-10 17:17:36,45.77895186817949,4.858620179515216,172.0,3.72,10865.51
2023-10-10 17:17:39,45.77905504940503,4.858643229748379,172.0,3.72,10877.27
2023-10-10 17:17:42,45.779163008315265,4.858671644399443,172.0,3.78,10886.96
2023-10-10 17:17:45,45.779277086014666,4.858695281365814,171.0,3.82,10902.35
2023-10-10 17:17:48,45.7793836200014,4.858705423468407,171.0,3.88,10913.82
2023-10-10 17:17:51,45.77947271962996,4.858724953302323,171.0,3.86,10924.1
2023-10-10 17:17:54,45.779576403769674,4.8587405436418445,171.0,3.89,10933.32
2023-10-10 17:17:57,45.77965879787586,4.858822015738699,171.0,3.94,10946.77
2023-10-10 17:18:00,45.77973415118355,4.85891245647173,None,3.95,10957.57
2023-10-10 17:18:03,45.77977513868906,4.859033826426715,171.0,3.95,10965.88
2023-10-10 17:18:06,45.779773629946526,4.85916852360742,None,3.95,10978.39
2023-10-10 17:18:09,45.77975988362566,4.859296850541869,171.0,3.88,10992.69
2023-10-10 17:18:12,45.779688218355275,4.859677640393731,171.0,3.85,11017.04
2023-10-10 17:18:23,45.77972928967982,4.8597984236155085,171.0,3.96,11029.47
2023-10-10 17:18:27,45.77970330578062,4.859957763590941,171.0,3.91,11040.17
2023-10-10 17:18:31,45.77968084228066,4.860099669208199,None,3.92,11053.43
2023-10-10 17:18:35,45.779654690743406,4.860258841545573,171.0,3.8,11064.16
2023-10-10 17:18:39,45.77963231106248,4.860411978912809,171.0,3.8,11077.58
2023-10-10 17:18:45,45.779613703237885,4.8605680499460835,171.0,3.62,11090.78
2023-10-10 17:18:48,45.779604483144624,4.860704842602531,171.0,3.52,11099.28
2023-10-10 17:18:52,45.779593251394644,4.860865607501468,171.0,3.46,11113.4
2023-10-10 17:18:56,45.7795874678816,4.860997203378075,171.0,3.41,11122.06
2023-10-10 17:19:01,45.77958285783496,4.861153861144557,171.0,3.41,11135.43
2023-10-10 17:19:07,45.779558717954416,4.861299622437181,171.0,3.22,11145.86
2023-10-10 17:19:12,45.77954421726228,4.861456950755901,171.0,3.22,11160.53
2023-10-10 17:19:15,45.779538852844375,4.861604304610089,171.0,3.09,11171.71
2023-10-10 17:19:18,45.77952468742836,4.86173212863036,171.0,2.72,11181.93
2023-10-10 17:19:21,45.77951588643025,4.861870932943519,171.0,2.82,11190.51
2023-10-10 17:19:24,45.77950255920452,4.862018370616736,171.0,2.94,11203.94
2023-10-10 17:19:28,45.779488058512385,4.862175698935457,171.0,2.95,11215.82
2023-10-10 17:19:33,45.77946316426057,4.862321795504199,171.0,2.89,11226.04
2023-10-10 17:19:38,45.779452519243804,4.8624647907688425,171.0,2.82,11238.46
2023-10-10 17:19:43,45.77943215121959,4.862592447151054,174.0,2.77,11247.37
2023-10-10 17:19:49,45.77941337575694,4.862733011663837,174.0,2.74,11260.61
2023-10-10 17:19:52,45.77940080290249,4.862863098797909,174.0,2.74,11270.89
2023-10-10 17:19:55,45.77939066079989,4.862997963616674,174.0,2.77,11279.21
2023-10-10 17:20:00,45.77937708211709,4.863162835648065,174.0,2.74,11293.35
2023-10-10 17:20:06,45.77936635328128,4.863318236129103,174.0,2.75,11304.22
2023-10-10 17:20:10,45.77934875128505,4.863446060149374,174.0,2.78,11315.7
2023-10-10 17:20:15,45.779347326361545,4.863587379033424,174.0,2.72,11325.31
2023-10-10 17:20:19,45.77933735189701,4.863762812262556,174.0,2.71,11340.91
2023-10-10 17:20:23,45.77930332137096,4.863915614353673,174.0,2.68,11353.22
2023-10-10 17:20:27,45.77928907213592,4.864063052026891,174.0,2.61,11362.99
2023-10-10 17:20:31,45.77926862029267,4.864196324284091,174.0,2.58,11376.44
2023-10-10 17:20:34,45.77925085065838,4.864374188265084,174.0,2.58,11389.75
2023-10-10 17:20:37,45.77923769107072,4.864511148559591,174.0,2.75,11398.26
2023-10-10 17:20:41,45.77923634996624,4.864665878488391,172.0,2.8,11412.07
2023-10-10 17:20:45,45.77922184927411,4.8648127294284,172.0,2.87,11423.39
2023-10-10 17:20:49,45.779208857324505,4.8649466722378385,172.0,2.86,11432.29
2023-10-10 17:20:53,45.779195613917814,4.865107185679687,172.0,2.93,11446.18
2023-10-10 17:20:58,45.779177844283524,4.865244229793222,172.0,2.87,11455.66
2023-10-10 17:21:03,45.77916217012497,4.865400636102616,171.0,2.83,11469.78
2023-10-10 17:21:07,45.77914088009143,4.86554907960419,171.0,2.85,11481.15
2023-10-10 17:21:12,45.779131995274284,4.8656990318482976,171.0,2.88,11491.38
2023-10-10 17:21:15,45.77912185317169,4.865919643534431,171.0,2.91,11512.43
2023-10-10 17:21:17,45.77910559227993,4.866076049843824,171.0,3.18,11523.19
2023-10-10 17:21:20,45.77909327088257,4.8662235713360715,171.0,3.24,11536.15
2023-10-10 17:21:23,45.779073070496416,4.866459773361726,171.0,3.4,11550.83
2023-10-10 17:21:26,45.779048930615865,4.8666041935498745,171.0,3.4,11564.63
2023-10-10 17:21:30,45.779022527621514,4.866785577930115,174.0,3.46,11579.7
2023-10-10 17:21:33,45.779019593955475,4.866968890148037,174.0,3.51,11590.99
2023-10-10 17:21:36,45.779016995565556,4.867136276750319,174.0,3.61,11606.89
2023-10-10 17:21:39,45.77901246933795,4.86731481128355,174.0,3.61,11620.24
2023-10-10 17:21:42,45.779020599783834,4.867459902023937,174.0,3.67,11629.15
2023-10-10 17:21:45,45.77902462309726,4.867599963622541,174.0,3.67,11640.04
2023-10-10 17:21:47,45.77902462309726,4.867599963622541,174.0,3.67,11642.77
2023-10-10 17:21:49,45.779016911746524,4.867729715480495,174.0,3.7,11653.0
2023-10-10 17:21:52,45.77899805246484,4.867863239194784,174.0,3.73,11660.72
2023-10-10 17:21:56,45.77897399640332,4.868038756242946,174.0,3.73,11674.61
2023-10-10 17:22:00,45.77897399640332,4.868038756242946,174.0,3.77,11688.5
2023-10-10 17:22:04,45.77895765169254,4.868407224697445,174.0,3.9,11704.2
2023-10-10 17:22:08,45.77897584042198,4.868618783928372,174.0,4.0,11720.75
2023-10-10 17:22:11,45.77897994755443,4.868716852193104,174.0,4.0,11728.37
