Time,LatitudeDegrees,LongitudeDegrees,Elevation,Speed,Distance
2023-10-11 15:38:51,45.78607128892294,4.878186893805061,173.0,3.604,2681.26
2023-10-11 15:38:54,45.78616022091344,4.878153282374157,None,3.601,2691.47
2023-10-11 15:38:57,45.78624797943752,4.878116653458185,None,3.605,2698.4
2023-10-11 15:39:01,45.78636180567983,4.878076504142965,173.0,3.612,2714.6
2023-10-11 15:39:05,45.7864757995602,4.878035935732597,173.0,3.614,2727.86
2023-10-11 15:39:09,45.7864757995602,4.878035935732597,None,3.616,2741.69
2023-10-11 15:39:25,45.786637151192345,4.878748984218134,None,3.599,2798.58
2023-10-11 15:39:29,45.78667294191802,4.878891728025689,None,3.589,2807.55
2023-10-11 15:39:34,45.78667294191802,4.878891728025689,None,3.589,2829.79
2023-10-11 15:42:25,45.785075015936094,4.8784115288046195,None,3.525,3437.6
2023-10-11 15:42:29,45.785181214646705,4.8784541088717,None,3.516,3453.08
2023-10-11 15:42:32,45.78526905698982,4.878423682563923,None,3.593,3463.52
2023-10-11 15:42:35,45.78526905698982,4.878423682563923,None,3.591,3474.66
2023-10-11 15:43:44,45.7854731563271,4.877145358542186,None,3.354,3704.47
2023-10-11 15:43:48,45.785381961222804,4.877230686314406,None,3.101,3716.4
2023-10-11 15:43:52,45.78528959265209,4.877315762629537,None,2.846,3727.44
2023-10-11 15:43:56,45.78519093765415,4.877382734034256,None,2.597,3739.59
2023-10-11 15:43:59,45.78519093765415,4.877382734034256,None,2.402,3744.69
2023-10-11 15:44:00,45.7850894328092,4.877439144241235,172.0,2.402,3754.19
2023-10-11 15:44:04,45.78498843087843,4.877510977149675,None,2.397,3764.26
2023-10-11 15:44:08,45.784903606020386,4.877612565813655,None,2.087,3776.56
2023-10-11 15:44:09,45.784903606020386,4.877612565813655,None,3.17,3777.19
2023-10-11 15:44:12,45.78484417832834,4.877751370126814,172.0,3.17,3789.2
2023-10-11 15:44:16,45.7848228882948,4.877893359563101,172.0,3.17,3801.11
2023-10-11 15:44:21,45.78483914918656,4.878055130290395,None,3.19,3816.04
2023-10-11 15:44:25,45.78488080724431,4.878200221030781,172.0,3.23,3825.35
2023-10-11 15:44:30,45.784948365382235,4.87834723960885,172.0,3.12,3841.5
2023-10-11 15:44:33,45.78502019829068,4.87842737060123,None,3.12,3852.18
2023-10-11 15:44:37,45.78512656463935,4.878496186024602,None,3.08,3862.13
2023-10-11 15:44:41,45.785238882139126,4.878503562099214,None,3.07,3877.31
2023-10-11 15:44:45,45.7853421471837,4.878463831879143,None,3.07,3886.55
2023-10-11 15:44:48,45.7853421471837,4.878463831879143,None,1.941,3893.08
2023-10-11 15:44:49,45.78543501866859,4.8784056614725415,173.0,3.07,3898.88
2023-10-11 15:44:54,45.78554431868331,4.87836324904352,None,3.01,3911.38
2023-10-11 15:44:57,45.785628892084254,4.878319076414876,173.0,3.03,3920.45
2023-10-11 15:45:02,45.785736767175464,4.878264258769462,173.0,2.98,3936.97
2023-10-11 15:45:05,45.78584237915287,4.87820851911472,None,2.98,3945.73
2023-10-11 15:45:06,45.78584237915287,4.87820851911472,173.0,2.98,3949.87
2023-10-11 15:45:09,45.78595151152952,4.878156216040196,173.0,3.05,3958.53
2023-10-11 15:45:13,45.78604949597522,4.878090418101893,173.0,3.06,3973.69
2023-10-11 15:45:17,45.78613323118588,4.877978016783084,173.0,3.08,3983.34
2023-10-11 15:45:20,45.78613323118588,4.877978016783084,173.0,3.08,3995.27
2023-10-11 15:45:21,45.786183857879806,4.8778322554904605,None,3.1,3999.2
2023-10-11 15:45:25,45.78619098249733,4.877662521955347,173.0,3.06,4012.3
2023-10-11 15:45:29,45.78616809990223,4.877501086504172,173.0,3.08,4021.97
2023-10-11 15:45:33,45.786126190387385,4.877352894459688,None,3.15,4034.39
2023-10-11 15:45:34,45.786126190387385,4.877352894459688,None,3.15,4036.37
2023-10-11 15:45:37,45.78605846461139,4.877233871437534,173.0,3.12,4049.16
2023-10-11 15:45:41,45.78597590286716,4.877139407391078,None,3.1,4058.07
2023-10-11 15:45:44,45.78597590286716,4.877139407391078,173.0,3.1,4069.71
2023-10-11 15:45:45,45.78587205108938,4.8771030299321945,None,3.08,4072.85
2023-10-11 15:45:49,45.78576358926496,4.877115518967618,None,3.08,4082.09
2023-10-11 15:45:53,45.785657893468525,4.877170671889151,None,3.15,4096.55
2023-10-11 15:45:57,45.78555622098552,4.877230015762168,None,3.13,4108.17
2023-10-11 15:46:01,45.78545303975998,4.87728039099901,None,3.12,4118.95
2023-10-11 15:46:05,45.78535220546726,4.877336549748899,None,3.11,4131.0
2023-10-11 15:46:07,45.78535220546726,4.877336549748899,None,3.11,4131.22
2023-10-11 15:46:11,45.78521675391529,4.877397905278629,172.0,3.02,4146.81
2023-10-11 15:46:15,45.7851176798222,4.877452052371806,None,3.03,4161.22
2023-10-11 15:46:19,45.78499664514334,4.877514832825041,None,3.03,4175.12
2023-10-11 15:46:23,45.7848895244234,4.877611811442387,172.0,3.05,4187.04
2023-10-11 15:46:27,45.78482691160822,4.877739719281688,None,3.05,4200.13
2023-10-11 15:46:31,45.78481014780228,4.8778842232888655,None,3.02,4210.55
2023-10-11 15:46:35,45.784832359845154,4.878062338726949,None,3.02,4224.71
2023-10-11 15:46:39,45.78487971759692,4.87821396735165,None,3.09,4240.17
2023-10-11 15:46:43,45.78495113141022,4.878343300114455,None,3.11,4250.3
2023-10-11 15:46:47,45.78504903203689,4.878433489390397,172.0,3.11,4265.09
2023-10-11 15:46:50,45.78513947276992,4.878468190468687,172.0,3.13,4275.0
2023-10-11 15:46:54,45.7852548915738,4.8784519295769275,None,3.14,4286.59
2023-10-11 15:46:57,45.78534692486839,4.878440949284038,172.0,3.14,4297.27
2023-10-11 15:47:02,45.785450944284236,4.878461233489222,173.0,3.17,4311.32
2023-10-11 15:47:06,45.78555890319447,4.878459054194451,None,3.22,4320.57
2023-10-11 15:47:09,45.78564951156556,4.878418150507964,173.0,3.23,4334.31
2023-10-11 15:47:11,45.78573333059524,4.8783711280323105,173.0,3.21,4343.0
2023-10-11 15:47:15,45.785850174322626,4.878310526873848,None,3.21,4357.2
2023-10-11 15:47:18,45.78597028699217,4.87825922962768,173.0,3.37,4368.94
2023-10-11 15:47:22,45.786084616148656,4.878207261829274,173.0,3.38,4385.59
2023-10-11 15:47:25,45.786173296682065,4.878169375627857,None,3.38,4395.56
2023-10-11 15:47:29,45.78627932775462,4.8781235266186185,None,3.37,4406.25
2023-10-11 15:47:33,45.78639038796895,4.8780713911821545,173.0,3.4,4420.42
2023-10-11 15:47:37,45.786478314131095,4.87802730237254,173.0,3.38,4428.3
2023-10-11 15:47:42,45.78642567578045,4.877918169995889,None,3.25,4446.43
2023-10-11 15:47:47,45.78638552646523,4.877780622968174,None,3.21,4458.22
2023-10-11 15:47:51,45.78635107684403,4.877660091203486,173.0,3.16,4466.76
2023-10-11 15:47:56,45.78630522783479,4.877532937735453,None,3.09,4479.73
2023-10-11 15:48:00,45.7862597979207,4.877403521153618,173.0,3.06,4488.26
2023-10-11 15:48:04,45.78624429140021,4.877222974963675,None,3.05,4507.44
2023-10-11 15:48:06,45.78625200275094,4.877087439592673,None,3.05,4517.05
2023-10-11 15:48:09,45.786234987487916,4.87692298665643,173.0,3.2,4529.13
2023-10-11 15:48:12,45.78621554147303,4.876793905350714,None,3.28,4536.09
2023-10-11 15:48:16,45.78622467774726,4.876631883166331,None,3.28,4551.4
2023-10-11 15:48:20,45.786205650827526,4.876492240662874,173.0,3.07,4562.17
2023-10-11 15:48:24,45.786163741312684,4.876377492411234,173.0,3.02,4570.87
2023-10-11 15:48:28,45.78613281209073,4.8762438848779155,173.0,2.97,4583.65
2023-10-11 15:48:31,45.78610758256279,4.876119748894951,173.0,2.97,4592.88
2023-10-11 15:48:34,45.786083275044184,4.8759930983410955,None,2.96,4600.98
2023-10-11 15:48:37,45.786058883706545,4.875861334826429,None,3.01,4612.35
2023-10-11 15:48:40,45.78603072051257,4.875714986800598,173.0,3.05,4623.37
2023-10-11 15:48:45,45.7860017191283,4.875564112547164,None,3.11,4635.5
2023-10-11 15:48:49,45.78596777242127,4.875395803935555,None,3.17,4651.35
2023-10-11 15:48:53,45.78593860339895,4.875231099542223,173.0,3.21,4664.08
2023-10-11 15:48:57,45.78590549488222,4.875060779273901,None,3.28,4677.27
2023-10-11 15:49:00,45.78587515239347,4.874904289145477,None,3.35,4689.22
2023-10-11 15:49:06,45.78583424870698,4.874712343567497,172.0,3.31,4704.2
2023-10-11 15:49:10,45.78580013436191,4.874568510112557,None,3.17,4718.4
2023-10-11 15:49:14,45.78577079770152,4.87442878379007,172.0,3.11,4729.51
2023-10-11 15:49:18,45.78573483933778,4.874275143508656,172.0,3.1,4739.9
2023-10-11 15:49:22,45.78570499976321,4.874119156294411,None,3.11,4753.81
2023-10-11 15:49:25,45.785674824912526,4.873991919007348,172.0,3.15,4763.73
2023-10-11 15:49:29,45.78565219377451,4.873837691992726,172.0,3.17,4775.13
2023-10-11 15:49:34,45.78568907414757,4.873719842436988,None,3.13,4788.15
2023-10-11 15:49:38,45.785653618698014,4.873562262661179,None,3.11,4800.81
2023-10-11 15:49:41,45.785634256502156,4.873430163870394,172.0,3.09,4809.42
2023-10-11 15:49:45,45.78562159982867,4.873278786702781,172.0,3.09,4822.02
2023-10-11 15:49:49,45.78560299200409,4.873125733154575,172.0,3.06,4832.38
2023-10-11 15:49:53,45.78557969031383,4.872984162813436,None,3.03,4844.63
2023-10-11 15:49:57,45.78555856791835,4.8728277565040425,None,3.01,4856.55
2023-10-11 15:50:01,45.785549180187026,4.872685850886785,175.0,2.93,4867.11
2023-10-11 15:50:06,45.78553870280832,4.872547465668773,None,2.9,4882.82
2023-10-11 15:50:09,45.7855084441386,4.872348730749388,None,3.05,4896.8
2023-10-11 15:50:12,45.7854861482767,4.8722054002086255,175.0,3.08,4906.03
2023-10-11 15:50:17,45.78544742388499,4.872008174031775,175.0,3.11,4922.76
2023-10-11 15:50:22,45.78540719075074,4.8718101934836575,None,3.08,4937.02
2023-10-11 15:50:27,45.78535840807546,4.871621097752686,173.0,3.14,4953.31
2023-10-11 15:50:32,45.785326892120295,4.871433929859398,173.0,3.15,4967.62
2023-10-11 15:50:38,45.78527928291144,4.87128129540634,None,3.16,4982.48
2023-10-11 15:50:43,45.7852387983201,4.871159590175236,173.0,3.08,4991.07
2023-10-11 15:50:46,45.7852020855851,4.870987090612143,173.0,3.18,5007.13
2023-10-11 15:50:52,45.78514710030162,4.870735046789878,None,3.19,5026.87
2023-10-11 15:50:56,45.78513394071396,4.870581071232345,None,3.16,5038.91
2023-10-11 15:50:58,45.785106699529315,4.870456180878113,172.0,3.35,5048.35
2023-10-11 15:51:03,45.78509295320845,4.870316286917568,None,3.31,5058.74
2023-10-11 15:51:08,45.78505934177754,4.870187792345059,None,3.31,5072.16
2023-10-11 15:51:12,45.78507124407976,4.870024009961053,None,3.14,5082.17
2023-10-11 15:51:19,45.78499890825714,4.869889731875497,172.0,3.06,5098.64
2023-10-11 15:51:22,45.784975941843,4.86965956481998,None,3.12,5113.39
2023-10-11 15:51:30,45.78499505258177,4.869813791834601,None,2.97,5127.85
2023-10-11 15:51:35,45.785087924066666,4.869888055494903,None,2.99,5140.42
2023-10-11 15:51:39,45.785164367021736,4.869770038301105,None,3.04,5150.78
2023-10-11 15:51:43,45.78526520131445,4.869708598952346,None,3.02,5165.06
2023-10-11 15:51:47,45.78537349550081,4.869675658073679,None,3.09,5174.41
2023-10-11 15:51:51,45.785471312308445,4.869623522637215,177.0,3.0,5187.45
2023-10-11 15:51:58,45.78556401615528,4.869610614506644,None,2.94,5196.4
2023-10-11 15:52:03,45.78566485044799,4.869624360827512,177.0,2.69,5211.14
2023-10-11 15:52:07,45.78571229201879,4.86977414543356,177.0,2.7,5224.81
2023-10-11 15:52:11,45.7857397008415,4.869924600591846,None,2.76,5234.51
2023-10-11 15:52:16,45.78576534946458,4.870051167326672,None,2.7,5246.48
2023-10-11 15:52:21,45.78579384793468,4.870197012438325,None,2.72,5255.97
2023-10-11 15:52:25,45.785817820177165,4.870343779559304,None,2.63,5270.32
2023-10-11 15:52:29,45.78583651182079,4.870484092614999,177.0,2.61,5281.76
2023-10-11 15:52:33,45.78585922677783,4.870642342943046,177.0,2.67,5291.95
2023-10-11 15:52:37,45.78588361811547,4.870767736211455,None,2.67,5305.0
2023-10-11 15:52:40,45.78590633307252,4.8709081330861785,175.0,2.69,5316.28
2023-10-11 15:52:43,45.7859365079232,4.871048278503814,None,2.76,5324.68
2023-10-11 15:52:47,45.78596701805001,4.871186076988617,None,2.74,5338.18
2023-10-11 15:52:51,45.78599342104436,4.87134281857413,175.0,2.74,5347.72
2023-10-11 15:52:55,45.7860215004193,4.871471816060816,None,2.78,5360.97
2023-10-11 15:52:59,45.78604807105172,4.871617158258291,None,2.79,5373.19
2023-10-11 15:53:02,45.786072713846444,4.871743808812146,None,2.79,5383.68
2023-10-11 15:53:05,45.78610029030721,4.871881858754039,None,2.9,5392.23
2023-10-11 15:53:08,45.786131135710136,4.872021585076524,175.0,3.0,5406.35
2023-10-11 15:53:11,45.7861556108668,4.87216701109303,175.0,3.02,5417.13
2023-10-11 15:53:15,45.786191401592475,4.8723149516804245,None,3.09,5426.37
2023-10-11 15:53:18,45.78620908740774,4.872447218109269,None,3.13,5439.91
2023-10-11 15:53:22,45.786229706889046,4.872608318284325,175.0,3.16,5452.76
2023-10-11 15:53:25,45.786252086569974,4.872733543914675,None,3.2,5459.57
2023-10-11 15:53:28,45.78627228695613,4.872859104821145,None,3.25,5472.8
2023-10-11 15:53:32,45.786301958892636,4.873025317957012,None,3.28,5485.91
2023-10-11 15:53:36,45.78634655061643,4.873173426182467,None,3.3,5495.42
2023-10-11 15:53:40,45.786403799013705,4.873307201353845,None,3.31,5509.85
2023-10-11 15:53:45,45.7864789008643,4.873412897150279,None,3.26,5522.19
2023-10-11 15:53:49,45.7865678328548,4.8734994822079445,172.0,3.19,5531.91
2023-10-11 15:53:53,45.78665718394044,4.873571063659296,None,3.2,5546.38
2023-10-11 15:53:56,45.786747037940266,4.873646081690865,None,3.2,5557.26
2023-10-11 15:54:00,45.78684049615836,4.873737779709341,172.0,3.27,5567.45
2023-10-11 15:54:04,45.786863378753466,4.873877925126975,None,3.27,5581.11
2023-10-11 15:54:08,45.78688818918626,4.874037600378527,None,3.22,5590.73
2023-10-11 15:54:12,45.78690998213398,4.874201215124473,172.0,3.2,5607.01
2023-10-11 15:54:15,45.78692942814886,4.874332391905932,None,3.11,5617.34
2023-10-11 15:54:18,45.78694526994547,4.874461808487767,172.0,3.14,5627.12
2023-10-11 15:54:22,45.78696547033162,4.874610587265459,None,3.14,5636.61
2023-10-11 15:54:26,45.78698785001255,4.874758192576735,None,3.12,5651.16
2023-10-11 15:54:29,45.78699933321962,4.874893644128708,172.0,3.11,5662.03
2023-10-11 15:54:32,45.78701919832965,4.875037812859767,173.0,3.14,5669.76
2023-10-11 15:54:35,45.78702825078486,4.875166894165483,None,3.14,5683.42
2023-10-11 15:54:38,45.787043422029235,4.875308883601771,None,3.14,5693.88
2023-10-11 15:54:42,45.78706923829038,4.875458165293641,None,3.17,5702.92
2023-10-11 15:54:46,45.787104442282846,4.875617505269074,173.0,3.2,5718.98
2023-10-11 15:54:50,45.787144926874184,4.875769469169894,173.0,3.23,5731.48
2023-10-11 15:54:54,45.787207874965475,4.875899472484937,173.0,3.25,5740.81
2023-10-11 15:54:58,45.7872793725978,4.876020758620892,None,3.25,5756.09
2023-10-11 15:55:02,45.7873544744484,4.8761371832531255,None,3.2,5768.46
2023-10-11 15:55:06,45.7874448313624,4.876233658956294,173.0,3.21,5778.51
2023-10-11 15:55:10,45.78751674808987,4.876360896243357,165.0,3.23,5793.87
2023-10-11 15:55:14,45.78754843168309,4.87652275078968,None,3.23,5803.75
2023-10-11 15:55:18,45.78757399648715,4.876682509860261,None,3.23,5819.44
2023-10-11 15:55:22,45.787602830233354,4.876834641399141,165.0,3.2,5831.59
2023-10-11 15:55:26,45.787620096953475,4.87698702439511,None,3.19,5840.7
2023-10-11 15:55:30,45.78764356628179,4.877137144277277,None,3.21,5855.43
2023-10-11 15:55:34,45.78766016244966,4.87728575541691,169.0,3.19,5867.11
2023-10-11 15:55:38,45.78768916383393,4.877429253595731,None,3.12,5875.92
2023-10-11 15:55:42,45.787709699496205,4.877578032373424,None,3.11,5890.79
2023-10-11 15:55:46,45.78772956460624,4.877740976567133,169.0,3.07,5900.53
2023-10-11 15:55:51,45.787752531020374,4.8778964608672,None,3.08,5915.39
2023-10-11 15:55:55,45.78776795372184,4.878028894934103,None,3.02,5926.21
2023-10-11 15:55:59,45.78778840556508,4.878182619034547,169.0,2.99,5935.44
2023-10-11 15:56:03,45.78780684575161,4.878326033394339,None,2.99,5949.47
2023-10-11 15:56:07,45.7878299798038,4.878465508259737,None,2.97,5960.76
2023-10-11 15:56:11,45.787835679497825,4.878618226531824,169.0,2.95,5969.76
2023-10-11 15:56:15,45.7877972065632,4.8787778179643455,None,2.95,5986.61
2023-10-11 15:56:18,45.78774054489913,4.8789045523372305,None,2.95,5997.46
2023-10-11 15:56:22,45.787683715597005,4.8790354776616,169.0,2.99,6006.52
2023-10-11 15:56:26,45.78763510055978,4.879175790717294,None,2.98,6021.73
2023-10-11 15:56:30,45.78757634341998,4.87931283483083,None,2.98,6034.23
2023-10-11 15:56:34,45.7875176700992,4.87945155532496,176.0,2.99,6044.08
2023-10-11 15:56:38,45.78747358128958,4.879594718227663,None,3.01,6058.46
2023-10-11 15:56:42,45.787504259054444,4.879724218628528,None,3.01,6066.54
2023-10-11 15:56:46,45.78752948858238,4.879866291883845,None,2.99,6080.72
2023-10-11 15:56:50,45.78755589157673,4.880011298805202,None,2.98,6092.2
2023-10-11 15:56:54,45.78757609196288,4.880150941308658,None,2.96,6100.62
2023-10-11 15:56:58,45.78760500952813,4.880315478063931,None,3.0,6116.72
2023-10-11 15:57:02,45.787629652322856,4.880468280155048,None,3.03,6128.78
2023-10-11 15:57:06,45.787651445270576,4.880616136923414,None,3.03,6137.7
2023-10-11 15:57:10,45.78770198814547,4.880750079732852,None,3.03,6152.6
2023-10-11 15:57:14,45.78779259651657,4.880852506587128,None,3.05,6165.06
2023-10-11 15:57:18,45.78787842720296,4.880927189342578,176.0,3.06,6173.72
2023-10-11 15:57:22,45.78796316824197,4.880988796329397,None,3.01,6187.11
2023-10-11 15:57:26,45.7880521840515,4.881086110222863,None,2.96,6196.58
2023-10-11 15:57:30,45.788144971717365,4.881168169052924,176.0,2.97,6211.7
2023-10-11 15:57:34,45.7882122783982,4.881295825435136,None,2.95,6223.89
2023-10-11 15:57:38,45.78824195033471,4.881437479595305,None,2.96,6232.62
2023-10-11 15:57:42,45.78826550348205,4.881580810136068,173.0,2.94,6247.12
2023-10-11 15:57:46,45.78830992756779,4.881735707702927,None,2.98,6260.15
2023-10-11 15:57:49,45.78835192090166,4.881852719068368,None,2.98,6267.27
2023-10-11 15:57:53,45.788400871214996,4.881999486189348,173.0,3.02,6282.94
2023-10-11 15:57:57,45.788459879811896,4.882136530302884,None,3.03,6295.19
2023-10-11 15:58:01,45.788524169007665,4.882253038754148,None,3.04,6304.06
2023-10-11 15:58:05,45.788599941410496,4.882358650731551,173.0,3.02,6318.79
2023-10-11 15:58:09,45.78867789310811,4.88248178088616,None,3.02,6328.6
2023-10-11 15:58:13,45.78876355615645,4.882594768938176,None,3.04,6344.54
2023-10-11 15:58:17,45.78885919366932,4.8826749837495855,None,3.05,6356.87
2023-10-11 15:58:21,45.788952735706445,4.882762071721429,None,3.05,6366.3
2023-10-11 15:58:25,45.78904711593387,4.882818984842586,None,3.08,6380.39
2023-10-11 15:58:29,45.78914216671354,4.882872964297704,None,3.07,6391.81
2023-10-11 15:58:33,45.78923956442603,4.8829142870793385,None,3.06,6400.39
2023-10-11 15:58:37,45.78934526022246,4.882958375888953,None,3.05,6415.54
2023-10-11 15:58:41,45.78945271621852,4.882978911551226,None,3.05,6427.66
2023-10-11 15:58:45,45.78956218387129,4.882999531032529,None,3.06,6437.05
2023-10-11 15:58:49,45.789675507199426,4.883006068916845,None,3.05,6452.92
2023-10-11 15:58:52,45.78976703757984,4.8830236709130785,171.0,3.04,6463.02
2023-10-11 15:58:56,45.78988337839305,4.883022665084722,171.0,3.06,6472.89
2023-10-11 15:59:00,45.79000139558684,4.883012942077278,None,3.07,6489.08
2023-10-11 15:59:04,45.790113377810506,4.882979246827345,None,3.08,6498.76
2023-10-11 15:59:08,45.79021639139799,4.8829199029543275,171.0,3.08,6514.05
2023-10-11 15:59:12,45.79032015935674,4.882864414756676,None,3.1,6526.46
2023-10-11 15:59:16,45.790425184600934,4.882805406159776,171.0,3.09,6536.0
2023-10-11 15:59:20,45.790521827942165,4.882733154156187,None,3.09,6551.02
2023-10-11 15:59:24,45.790605898428936,4.88263651081496,None,3.08,6562.98
2023-10-11 15:59:28,45.79069357313399,4.882548752290879,None,3.07,6572.03
2023-10-11 15:59:32,45.79077412322152,4.882448923826523,171.0,3.1,6586.76
2023-10-11 15:59:36,45.79084469884451,4.88233233155623,None,3.09,6598.75
2023-10-11 15:59:40,45.790910580601846,4.882209117582592,None,3.1,6607.91
2023-10-11 15:59:44,45.790974199245376,4.882078024620164,171.0,3.1,6623.18
2023-10-11 15:59:48,45.79102708905311,4.881944417086845,None,3.1,6632.24
2023-10-11 15:59:52,45.791078637756364,4.881811731562852,171.0,3.1,6646.87
2023-10-11 15:59:56,45.7911315275641,4.881679884229156,None,3.08,6658.71
2023-10-11 16:00:00,45.7911834953625,4.881544432677184,171.0,3.05,6667.83
2023-10-11 16:00:04,45.79127267881009,4.881434210653147,None,3.05,6683.84
2023-10-11 16:00:08,45.79137929661585,4.881407472382677,None,3.04,6695.92
2023-10-11 16:00:12,45.79148767462123,4.881384505968543,None,3.04,6705.18
2023-10-11 16:00:16,45.7915988186546,4.881370089095437,None,3.03,6720.6
2023-10-11 16:00:20,45.79170820248834,4.881340668616018,None,3.03,6732.94
2023-10-11 16:00:24,45.7918131439135,4.881294232873572,169.0,3.03,6742.22
2023-10-11 16:00:28,45.79192152191889,4.881235811009881,167.0,3.04,6758.19
2023-10-11 16:00:32,45.792023613497044,4.881157691674214,None,3.06,6767.99
2023-10-11 16:00:36,45.792119502467,4.8810867807750995,167.0,3.06,6782.97
2023-10-11 16:00:40,45.79221648108435,4.881008326163314,167.0,3.07,6795.52
2023-10-11 16:00:44,45.79232636783227,4.880950239575742,None,3.08,6805.43
2023-10-11 16:00:48,45.79243541638989,4.880900115795989,167.0,3.08,6821.2
2023-10-11 16:00:52,45.79253423902589,4.880821325908085,167.0,3.1,6830.76
2023-10-11 16:01:01,45.792439774979435,4.880903300919117,None,3.05,6847.56
2023-10-11 16:01:05,45.792348076960955,4.8809655784581745,None,3.02,6856.12
2023-10-11 16:01:09,45.79225679803763,4.881025173788281,None,2.99,6869.93
2023-10-11 16:01:13,45.792167782228105,4.881085942584803,None,2.98,6880.96
2023-10-11 16:01:17,45.792084298474535,4.881165989758153,167.0,2.95,6889.44
2023-10-11 16:01:21,45.79200173673029,4.8812364815621185,167.0,2.94,6902.81
2023-10-11 16:01:25,45.791918755890904,4.881315774364201,169.0,2.91,6914.03
2023-10-11 16:01:29,45.79181767014111,4.881354582574946,None,2.87,6922.89
2023-10-11 16:01:33,45.79171314781109,4.881386014711078,169.0,2.88,6937.37
2023-10-11 16:01:37,45.7916185999456,4.881411244239013,None,2.87,6948.77
2023-10-11 16:01:40,45.79152623137489,4.881419961418101,None,2.85,6955.78
2023-10-11 16:01:43,45.79142791165307,4.881408813487153,171.0,2.89,6970.22
2023-10-11 16:01:46,45.79133663272974,4.881362713020826,171.0,2.92,6981.49
2023-10-11 16:01:50,45.79130922390703,4.881203959778601,171.0,2.91,6993.96
2023-10-11 16:01:53,45.79131073264956,4.88106792149342,None,2.94,7007.63
2023-10-11 16:01:57,45.79129748924287,4.88090263036688,171.0,2.97,7020.74
2023-10-11 16:02:00,45.791288688244755,4.880770531576095,None,3.04,7027.74
2023-10-11 16:02:04,45.791273852276504,4.880603480249931,None,3.06,7043.82
2023-10-11 16:02:08,45.791248790386625,4.880446403388301,None,3.11,7056.27
2023-10-11 16:02:12,45.79121970518333,4.880292846925916,171.0,3.12,7065.67
2023-10-11 16:02:16,45.79118424973377,4.880137362625849,None,3.15,7081.42
2023-10-11 16:02:20,45.79114502242788,4.8799825488780195,None,3.17,7094.14
2023-10-11 16:02:24,45.7911016041705,4.879834524471594,171.0,3.17,7103.62
2023-10-11 16:02:28,45.79103211819489,4.879710137031541,None,3.2,7118.77
2023-10-11 16:02:32,45.79097067884613,4.879589772904912,None,3.21,7130.46
2023-10-11 16:02:36,45.79089264332949,4.879484328565567,171.0,3.21,7142.41
2023-10-11 16:02:40,45.79081871494531,4.879363210067671,None,3.23,7155.01
2023-10-11 16:02:44,45.79073875159099,4.879250138196626,None,3.2,7164.5
2023-10-11 16:02:48,45.79065417819004,4.879156931435615,None,3.16,7179.31
2023-10-11 16:02:52,45.790564743285366,4.879067077435791,167.0,3.16,7191.67
2023-10-11 16:02:56,45.79046944104861,4.878973200122544,None,3.13,7201.4
2023-10-11 16:03:00,45.79036978022231,4.8788956675200845,None,3.13,7216.96
2023-10-11 16:03:04,45.7902836142598,4.878800532921391,167.0,3.09,7229.05
2023-10-11 16:03:08,45.79019476608833,4.8787084996267955,None,3.09,7238.33
2023-10-11 16:03:12,45.790105079726565,4.878621746931071,None,3.08,7253.26
2023-10-11 16:03:16,45.79001556100286,4.878536251520791,167.0,3.07,7265.32
2023-10-11 16:03:20,45.78991799565231,4.878458216004154,167.0,3.06,7277.55
2023-10-11 16:03:24,45.789828812204725,4.8783684458233605,None,3.06,7289.82
2023-10-11 16:03:28,45.78973686272916,4.878284626793675,167.0,3.05,7299.03
2023-10-11 16:03:32,45.78964801455769,4.878198963745336,167.0,3.05,7313.86
2023-10-11 16:03:36,45.78955422106347,4.878120844409668,None,3.05,7325.93
2023-10-11 16:03:40,45.78946319359723,4.878035432818419,169.0,3.05,7335.14
2023-10-11 16:03:44,45.789372082311964,4.877948931579783,169.0,3.05,7350.31
2023-10-11 16:03:48,45.78927862409386,4.877860251046376,None,3.05,7362.75
2023-10-11 16:03:52,45.78918332185711,4.877777270206987,None,3.06,7372.19
2023-10-11 16:03:56,45.78909061801028,4.877685823645599,None,3.06,7387.7
2023-10-11 16:04:00,45.78899389085002,4.8776045191868045,None,3.05,7400.16
2023-10-11 16:04:04,45.7889017737364,4.877517095938842,None,3.05,7412.26
2023-10-11 16:04:08,45.788808650794415,4.877430762338266,169.0,3.06,7424.84
2023-10-11 16:04:12,45.78871561167146,4.87733906431979,169.0,3.07,7434.4
2023-10-11 16:04:16,45.788621734358216,4.877259603879647,None,3.07,7449.38
2023-10-11 16:04:20,45.78852685121661,4.877192883932017,None,3.06,7461.25
2023-10-11 16:04:24,45.78843909269253,4.877102527018017,169.0,3.06,7470.32
2023-10-11 16:04:28,45.78834496392219,4.877018456531242,None,3.06,7485.66
2023-10-11 16:04:32,45.788257708312294,4.876923573389638,None,3.06,7497.86
2023-10-11 16:04:36,45.78815938859047,4.876854003594998,165.0,3.06,7509.75
2023-10-11 16:04:40,45.788063499620506,4.876779153201489,None,3.07,7522.27
2023-10-11 16:04:44,45.78797783657217,4.876674211776322,None,3.07,7531.76
2023-10-11 16:04:48,45.78792553349765,4.876533563444509,165.0,3.07,7546.63
2023-10-11 16:04:52,45.78791036225327,4.8763795878869765,None,3.04,7557.09
2023-10-11 16:04:56,45.78791078134842,4.8762238521298205,None,3.02,7568.29
2023-10-11 16:05:02,45.78787867866005,4.87603190655184,165.0,3.0,7586.0
2023-10-11 16:05:06,45.78785956792128,4.875888156915929,None,2.99,7594.97
2023-10-11 16:05:12,45.78782637558553,4.87570392268868,None,2.98,7611.2
2023-10-11 16:05:16,45.78779343470686,4.875573751735578,None,2.96,7620.49
2023-10-11 16:05:22,45.78776753462669,4.875403515286286,None,2.88,7634.72
2023-10-11 16:05:26,45.78773241445325,4.8752810556839155,None,2.87,7644.82
2023-10-11 16:05:30,45.787702155783535,4.875113166167455,None,2.85,7657.76
2023-10-11 16:05:37,45.78767717771269,4.874844526177312,None,2.84,7678.8
2023-10-11 16:05:43,45.787641470806044,4.874653586427687,None,2.86,7696.05
2023-10-11 16:05:49,45.78758330039944,4.874429621980367,None,2.82,7712.69
2023-10-11 16:05:55,45.78753493681931,4.874201634219622,165.0,2.89,7732.25
2023-10-11 16:05:58,45.78752714164955,4.874045647005377,None,2.94,7744.07
2023-10-11 16:06:01,45.78752177723165,4.8738829542687565,None,3.02,7755.98
2023-10-11 16:06:04,45.78751406588092,4.873748424726111,165.0,3.02,7766.57
2023-10-11 16:06:09,45.787513227690624,4.873573829687276,None,3.12,7782.97
2023-10-11 16:06:13,45.78750543252086,4.873412142779012,None,3.14,7792.59
2023-10-11 16:06:17,45.78748908781007,4.8732661300292985,None,3.15,7806.07
2023-10-11 16:06:21,45.787462768634754,4.873138557466117,172.0,3.13,7816.13
2023-10-11 16:06:25,45.78744055659188,4.8730094761604015,172.0,3.16,7824.72
2023-10-11 16:06:29,45.787405352599414,4.8728799757595365,None,3.18,7837.01
2023-10-11 16:06:33,45.787368807502475,4.8727213063363415,None,3.19,7850.09
2023-10-11 16:06:36,45.787354977362575,4.872546040745268,None,3.15,7862.17
2023-10-11 16:06:42,45.78733477697642,4.872336409352024,None,3.19,7878.6
2023-10-11 16:06:50,45.78732446723577,4.872045557319015,175.0,3.25,7904.72
2023-10-11 16:06:54,45.787328658187256,4.871835423011593,None,3.32,7917.52
2023-10-11 16:06:58,45.787325556883154,4.871691086642474,None,3.32,7930.23
2023-10-11 16:07:06,45.78728582666309,4.871456477178383,None,3.1,7947.47
2023-10-11 16:07:10,45.78727099069483,4.871301411973465,None,3.06,7960.45
2023-10-11 16:07:14,45.7872426598628,4.8711719115726,None,3.02,7970.84
2023-10-11 16:07:18,45.78723863654937,4.8710010883901,None,3.04,7983.42
2023-10-11 16:07:27,45.787220783096046,4.870709481985823,None,3.0,8006.15
2023-10-11 16:07:32,45.78721960962963,4.870477890006802,None,3.03,8025.94
2023-10-11 16:07:37,45.787205947127795,4.870277981621001,177.0,3.05,8039.72
2023-10-11 16:07:42,45.78716655218384,4.870081174539299,None,3.05,8056.66
2023-10-11 16:07:47,45.78709564128473,4.869931809028399,None,2.88,8070.39
2023-10-11 16:07:52,45.787046690971394,4.869756040523148,177.0,2.83,8084.33
2023-10-11 16:07:57,45.786987011822255,4.869552108823923,None,2.86,8101.5
2023-10-11 16:08:04,45.78690562354443,4.869316996445654,None,2.94,8123.62
2023-10-11 16:08:10,45.78679556915845,4.86927810441588,177.0,2.87,8134.5
2023-10-11 16:08:16,45.78670102129297,4.869268129951347,None,2.75,8147.27
2023-10-11 16:08:22,45.786609490912554,4.869292940384134,177.0,2.67,8168.11
2023-10-11 16:08:28,45.78646087977292,4.869342309792619,177.0,2.73,8186.1
2023-10-11 16:08:34,45.78630723949151,4.869389499906332,None,2.68,8202.58
2023-10-11 16:08:38,45.78618360642272,4.869438701676758,177.0,2.72,8217.0
2023-10-11 16:08:45,45.78604966361328,4.869507517100129,177.0,2.8,8232.7
2023-10-11 16:08:52,45.78590272885424,4.869572057752988,None,2.67,8249.81
2023-10-11 16:08:59,45.785773312272404,4.869634167653985,177.0,2.65,8265.92
2023-10-11 16:09:06,45.78563308303574,4.86967020983675,177.0,2.53,8280.86
2023-10-11 16:09:13,45.78548992013304,4.869700803782585,177.0,2.49,8297.0
2023-10-11 16:09:18,45.785392270963456,4.869748161534358,None,2.58,8308.45
2023-10-11 16:09:30,45.785392270963456,4.869748161534358,None,3.02,8325.49
2023-10-11 16:09:34,45.78517543113366,4.869850588388633,172.0,3.44,8336.57
2023-10-11 16:09:41,45.7850902709995,4.869898784330703,None,3.34,8346.07
2023-10-11 16:09:46,45.78490519858195,4.869857042453919,None,3.29,8366.92
2023-10-11 16:09:55,45.784864378714495,4.869993835110367,172.0,3.1,8380.85
2023-10-11 16:10:00,45.78475667126135,4.870071702988945,172.0,3.13,8391.89
2023-10-11 16:10:07,45.7846373967821,4.870141440421643,None,3.02,8409.96
2023-10-11 16:10:09,45.784530359881195,4.870193659677137,None,3.09,8418.81
2023-10-11 16:10:16,45.78439474069116,4.870254931387838,172.0,3.05,8436.93
2023-10-11 16:10:18,45.78428099826788,4.870306228634005,None,3.12,8448.54
2023-10-11 16:10:22,45.78419416175313,4.87033967242685,None,3.1,8457.93
2023-10-11 16:10:28,45.78402048872362,4.870458108715796,None,3.15,8480.82
2023-10-11 16:10:35,45.783903896453324,4.8705536624096375,None,3.09,8494.29
2023-10-11 16:10:38,45.783775318061785,4.870616191405784,172.0,3.05,8511.05
2023-10-11 16:10:45,45.783644057461295,4.8706862641146005,None,2.94,8525.0
2023-10-11 16:10:48,45.78351044992798,4.870782236903591,None,2.94,8541.63
2023-10-11 16:10:55,45.78351044992798,4.870782236903591,172.0,3.05,8560.53
2023-10-11 16:10:58,45.78322228010392,4.870880891901531,None,3.22,8574.64
2023-10-11 16:11:05,45.783076015897116,4.870898661535825,None,3.12,8590.99
2023-10-11 16:11:08,45.783076015897116,4.870898661535825,None,3.12,8608.56
2023-10-11 16:11:15,45.78281693127636,4.8710002501998035,None,3.22,8620.96
2023-10-11 16:11:19,45.78264719774125,4.8710666348713145,None,3.4,8640.47
2023-10-11 16:11:27,45.78251224910345,4.871136707580132,None,3.35,8660.83
2023-10-11 16:11:30,45.78234477868214,4.871195464719942,None,3.38,8675.64
2023-10-11 16:11:38,45.78220932713017,4.871264112505254,None,3.37,8694.24
2023-10-11 16:11:41,45.78204520947004,4.871340806917416,None,3.35,8710.85
2023-10-11 16:11:49,45.78191185339381,4.871410125254967,None,3.32,8727.66
2023-10-11 16:11:52,45.78174941211428,4.871492100266,171.0,3.51,8745.81
2023-10-11 16:12:01,45.781606416849634,4.87153451269502,171.0,3.39,8768.51
2023-10-11 16:12:04,45.78141681820449,4.871611793840391,171.0,3.78,8785.21
2023-10-11 16:12:13,45.78127231419731,4.87165739139254,None,3.65,8800.48
2023-10-11 16:12:16,45.78108673886558,4.871748586496838,169.0,4.01,8823.24
2023-10-11 16:12:25,45.78095413716062,4.8718189944817745,169.0,3.78,8838.06
2023-10-11 16:12:28,45.780763365049054,4.8718564615880435,169.0,4.3,8859.49
2023-10-11 16:12:37,45.78062850023029,4.871905160444292,None,4.3,8874.97
2023-10-11 16:12:41,45.78062850023029,4.871905160444292,None,4.54,8898.05
2023-10-11 16:12:48,45.780332116141324,4.872009012222072,None,4.28,8908.96
2023-10-11 16:12:51,45.780332116141324,4.872009012222072,169.0,4.46,8926.93
2023-10-11 16:12:54,45.780105301846994,4.872128621977433,None,4.29,8935.9
2023-10-11 16:13:01,45.779990302138266,4.872169022749742,None,4.31,8951.9
2023-10-11 16:13:04,45.77983607512364,4.872224594766424,169.0,4.1,8968.44
2023-10-11 16:13:07,45.779721913605215,4.872183942537026,169.0,4.11,8979.87
2023-10-11 16:13:13,45.779656870038174,4.872081683320809,None,4.14,8991.5
2023-10-11 16:13:17,45.77951043819331,4.871968946725882,169.0,3.79,9009.12
2023-10-11 16:13:21,45.77951027055526,4.8718246103567635,None,3.8,9020.32
